{
    "status": {
        "key": "ok",
        "msg": "",
        "kex": ""
    },
    "distrito_f": [
        {
            "entidad": "21",
            "distrito_f": "1",
            "location": {
                "type": "MultiPolygon",
                "coordinates": [
                    [
                        [
                            "u_}yBzt`uQpOeFfGhBvDdWf_@`h@by@fv@jHtQfo@lc@rDhThUpHvJpO{Bkd@jLi{@fb@e_@fTs[rRhc@pTzGxKzKfDvRnPnG~J~PuA`O~QfQd_@~kAn\\te@z\\nPbM~UkZn@mJ_Ge]|EcBdXfDlKcJ`MoDvEt_@`KfVlV}y@lXbGpWoJlKlEnAeB`HjKrc@mEjCo`@rE_\\}A_LtUxMfBs_@zWsS`q@{s@|[iFrQhE~Mp~@`z@ch@mDbCf\\}TzDiSdg@tDh]aQhBpAzJsn@Oab@wRmR_AzCoW`OwPqEoVpAwVqN_L_`@mSmDiIuQ~Gy\\d@wm@ad@{I^qDWx@dE`O|FnE|QoDrYwIfMuDps@bH|N}@zfA_QfEqMfT{RvBcJiEhHoLsA{HeYXcOkVkW|TsA_Q}JdIyp@sHq@{@q@c@qGiE_QvJvAoLwLuOoMw@k]jIgL|_@sx@tb@cJz_@on@ls@if@pOiFkHcOaOyB{VcCwGme@\\gSvU}i@n]yPnCrHvO{DjCbAxGiqArwAuTnk@eSrV~EhJ\\b[nn@fl@tA`OpQzBtNr^rZOvLlEtQtWuNtPrKpi@zMfEyC`LoMbHjB|G|JjR~{@lP`Qph@fQjE`ClOkL|Lm@|QlVld@pEpUyCdLmQz_@cQZqUkIyC|Lp_@`p@i@vVbMtOwPtE_fAhIc_@cZ_j@}IoNuMgVgBmWjI_K|QgFlKyKpA_^iLei@woAqf@c\\_MUma@mSoEuZwFnDq^y@}RvKg[iV}DaOjCwc@_Uwr@p@yHnMiJrk@}WbBye@dTut@gZwv@`[}x@pBqX{LiQwHa@}@kmA}Rr@aGhJ_U~Dof@sMyr@~GsM|CkJ}Ecn@}AeRK}S|I{n@uJcC_^h^sq@h@iNkJyPvMuF|RzD|KoLp@cX`IyLsB{HfF}UsCqEgFgF{QnAjMk[aXwnAoRmTse@vN}h@}bAsBzFsQ_CkJuNwMmDmRzMaBel@uDeIwNqE}n@rZOep@ui@wf@_[oLeXyUck@x@ca@abAeD}OmSY_MpN}f@i[ePtKFnCqNmAgCuJaSkHi_@}N{^qa@{Dk\\gKgJwGa]sMgSpYiUlCePyRmJPuRgl@qf@{Bc[aHcp@}a@yT}@}[kHLwMxM{S{PyVrJ}AeHzJaXgC_Jo[aLqPiT}QiA{u@km@mj@aBy\\uXqKfEmLfSy\\eBak@qKaQeOgA{LwI_Ciu@_`@~@eMwc@ot@}Lz@cEra@sRjVuX}Jqp@oF{XsRsRqIma@ad@kIc\\zHl@bAeEtDck@_^{`@aOcw@tKs_@oM}S_iAkp@`@iQsIiGcMqOcFiDsCm\\cb@d@_a@ySeh@qD{PdU}K}[mmAew@gSi@oZ|MWfFas@`NoMbH{Yxb@yd@zGyN`Kof@uO}R_CcQzD{g@pWsn@lRcVmPeSnDaLwOqEia@qh@qRwKsYq^z_@dC~MuEvGgCps@iz@|SkT|k@e[`VaNm@{Sag@whAgy@qh@aL}F~UeXmHqe@zKdM_VoRyHq@cLcqF}wA}iC}r@evAao@~@gU~JkX}W_v@dIej@wG_\\oWe]wBoTdTiRne@d\\dl@Bbb@je@bJcK\\w\\fP_c@Tea@jPsMdEmC|CcDiDqS}aA{eARuTwI}SfNco@cKsAdWee@|Jos@r`@wVsLiAeXsSib@sGoSgOgQx@v_@yp@fT}M|Zua@zPc`@nEu[fYkd@}C_CfSuW|O{e@bJcE}DmCj@kOzHaLt@kn@fP`Jv@nPrShIAzPtb@}KvIjZbW{NxPk@qBsU~EiGfh@pb@rRqFzZpCnH~IeDhOrQaQdS_H`XjBrKuHdNyEpe@|U|Ifg@jF~]raB~~AbSiG~NnCt`@aQpa@t@hXdDcAhFhXrPha@jIzZ{BdOyt@aC_OeOcOGwKpOsGh`@dGbIoQlLa@jCfIhHsBY~FlF~AtQoMpXQlMlGhCl[_KzYwMlEjC|MlGzHdSaIbKdHbJm@rBuGPc@QcAhAyAzSrXjZmHqD{Rlq@gRqKeaA~w@okAu@gGn[pMrKkBbDaNjGTdOhFlRwRrJqi@eH_MnrA~I}Ha}@xGeLv]uGhHmh@`b@xB`f@nXpc@zCjc@vCl`AmFnOe^gMaH}DgOsEnIGkNgKwHwDsOjJbFbDiBjMuXfF~EfHuBtKtJ~GuF~M`KvGaCzQlKhCuQ}EwCbA_OwYs_A~Zq_Axd@{IIwUqPJyKiGqXgv@rXob@`@yi@_Pil@zDgYmDsIfAs[bFgPgMgWqA`JsJ}A_AzOiPyG|Fu\\zL}HkQgT`[wQmEqHzUoZfB_XhgAebAxX|W~OiIzLdHhDoe@zcBeaAlmAys@lZy~@dVjCnWkFvRoUf@fIdVf@nJ|QqNzj@jGvT~DzG_BxH{\\~EeNbf@yEdl@hBfg@jf@dG|TnK`MtRrQcAbQrIle@hr@`RvLhB|OpKzBaEr_AnD|GlY`InMfYdDxJcFv_@vTpWjNvm@td@|VfQrBfv@g]nYbBl^vO|OuFjRfCtRrZ`\\tG|AnS_UbYvExKm@td@hFzb@gExl@eFzDgp@vAoYnc@BrMuQnSRlVmj@xo@iy@lLuQjV_KlUog@lLdC|dAiPjNcHjTrHtK|Wb[fEfFdl@OjSxV`Mxe@lv@r@ny@va@|e@hFlShZdUmB`^dPdUQdLb\\`eAzGdEt@xMwL`C}b@cEel@eGsHrJiGz@_Jje@pA\\|S|]wBrOsNfa@TbJ{EjLxBxKfOfGaDnHc^|s@cPvHwZ~MaLbUiBhFmh@vHeLnOmCnt@iaBvFTjKfBlZkz@iTeg@^cKrNkYtUwBpByKmDwNjEaG~g@uA~GbWjN~HeI~t@bKtc@qB~cAfStVxTjLxFhUhf@r~@lE`e@pV~ZoA|XtNrj@mAxKzM|KwEpBrCzDgEjG~D|ItLkKn[oC|L{Lp]oCxU{YlR{Bpm@ov@jn@cMp|@cJlHtInWrGvMeFmAiUhGcEzNnN`NmElNrDtI_K~bAgLvS`XlCxZ~_@nEzUlKtSaOe@{QlTkN|PnA~O_R{AcIfIgM}G}RcSdHy[LiCeZzEuV~^ga@fDk_@sCgj@`v@ec@`WaClVm[lCeq@sSyaAbDoUuFmTlFqYzHnAxe@}L|IxDpKlUdSkCnQtPv]ePd_@oDhThHn`@pJ`@fFkQ`GyArF|XtRsQ|_@eb@pTdq@dSGdIgOzPl\\bVlXvm@lTmOrPiBpLdNbj@vQnT{DxXfWt@|NhHeAzAfJhZbMsC|VfQFlBxL|HzEiDrZvO`YvXlIzRf[lf@zF`RxQoCl\\b_@PdAhOpY~Op^`F{Rri@bBvCbKjChIjNrY~EzKvZf^jJtKlKdXe@bKhBte@nwAtMzPxNtBfNrMaIhe@hBzLgKr\\fIzQzA~x@uKt[g\\nFqFpg@}Wpt@_d@dgAaOGs_@bEcJiGuYEmGyToSoMkI~AmP}R}QuDq|@bZmXyQlHo^m@ia@eWgEkMd_AgPb\\ni@vdAwBn[nNxg@qBdPcLzZKv^mWb`@pJxc@gGlG`E|MkK`NeFn@_Kfk@{O|MPpTkYlaAwT|FuUl[cQnEkGxOfDjRaDlVcMaJ{`@dCuq@uOye@pK{DfOyYUiE~p@zFx`@hVzd@rNbGeGlWhCpf@aH|IgAdPmZlBjAnPfKz`@uv@|ZdS|S"
                        ]
                    ]
                ]
            }
        },
        {
            "entidad": "21",
            "distrito_f": "2",
            "location": {
                "type": "MultiPolygon",
                "coordinates": [
                    [
                        [
                            "kk{wBt`uvQyy@nG}DmCwq@rJyAP{sBzf@crBb`@f]dm@mu@~\\gb@xn@sKTuKhOay@kGuV_VcOqd@aHsEEyTiSeg@yRnAoNqPiQ`QoNuBwe@`Fc\\sH|Om}@w@aSoO}DjIw[yQ|BmFaKmT}DmKvP|F`_@yPtCcKkRiYuEyK{[iZoOo@yHaHnAgQr_AoBpBkQuNgDg}@xGsNqHuBhFmXsDkSrEsv@ea@ha@_OgAePcSn[ke@dLuCnEsN``@gTkWyf@{Lko@jA_K~r@wt@sl@ml@mUmByPpUkQ~CyZaFuMgP__AgBun@eJcRpBuLyHujA}Zao@tBwy@if@c|@tk@g^`Cv@tPcOlYqHtCkC~FpCbP}d@rL{f@cy@_Q{GqSm^c_@_Ee`CigAs^yGeHlKu]sEcSar@EoWmSy[eYuNDu]cOyYqA{J`QiBuDi]hSeg@|T{DcCg\\bh@lDq~@az@iE_NhFsQzs@}[rSaq@r_@{WyMgB~KuU~[|An`@sElEkCkKsc@dBaHmEoAnJmKcGqW|y@mXgVmVu_@aKnDwEbJaMgDmKbBeXd]}ElJ~FjZo@cM_V{\\oPo\\ue@e_@_lA_RgQtAaO_K_QoPoGgDwRyK{KqT{GsRic@gTr[gb@d_@kLh{@zBjd@wJqOiUqHsDiTgo@mc@kHuQcy@gv@g_@ah@wDeWgGiBqOdFeS}Stv@}ZgK{`@kAoPlZmBfAeP`H}IiCqf@dGmWsNcGiV{d@{Fy`@hE_q@xYTzDgOxe@qKtq@tOz`@eCbM`J`DmVgDkRjGyObQoEtUm[vT}FjYmaAQqTzO}M~Jgk@dFo@jKaNaE}MfGmGqJyc@lWc`@Jw^bL{ZpBePoNyg@vBo[oi@wdAfPc\\jMe_AdWfEl@ha@mHn^lXxQp|@cZ|QtDlP|RjI_BnSnMlGxTtYDbJhGr_@cE`OF~c@egA|Wqt@pFqg@f\\oFtKu[{A_y@gI{QfKs\\iB{L`Iie@gNsMyNuBuM{Pue@owAcKiBeXd@uKmKg^kJ{KwZsY_FiIkNcKkCcBwCzRsi@q^aFqY_PeAiOc_@QnCm\\aRyQmf@{F{Rg[wXmIwOaYhDsZ}H{EmByLgQGrC}ViZcM{AgJiHdAu@}NyXgWoTzDcj@wQqLeNsPhBmTlOmXwm@m\\cVfO{PFeIeq@eSdb@qTrQ}_@}XuRxAsFjQaGa@gFo`@qJiTiHe_@nDw]dPoQuPeSjCqKmU}IyDye@|L{HoAT{M~\\mS_S}\\_MiUqv@eC{AoI~HeYkHaDo[xCtB{Sy@e_@dg@uRhLgRgE_P{QuMkQzDiFgJoWsKvAyThLgNzl@mE`WxPjZ`Ax_Ag`@dF~h@tCtFvHAjPgf@jUyJtTYzU{NIuJ`w@`Unu@wMnE_ApW{FhP}Mv@wKjO_DUcSgFuGpJsNQsJjRcPzEcTbQuBhIwMfQzKtRThM}b@nh@uHlSkr@wKmUmX`Lea@gHgPiQ{]dFaImCqC{PvYqJnK{LkCkXk^yf@ql@qLuOiF_Eu]hPe`@qXqLk^gg@sIgo@{a@aNaLi{@eM_KsGgUuEqAe`@da@gEyZgUi@mGnLuCvh@sk@s@aGqEu^ix@{]e`@nd@bDtJkD`KgMwDaf@jD_^dj@sIcA}u@dQcIjg@fHlPoIxGmDp[{F|UwSdVxRnUd@xd@_jAnSsJ|XhAdIvR~u@eG\\~MwI~VhDxSaO{@KdP~BxW`J~MqD~N~EItErI_JdUtR|c@`ItBoDzP{GrFAtJtL~IJxOgb@|CkVrN|Jlb@jeAv~@`EnWmPhGaN|FaJnc@t@lOmRfCpCdLhPxGuAlO~JtH`ZnAvPjZn[{B`JtF~KgFlUfTfU~EvCiJdMd@rC|IhOcAtTfTn^xNvkAtF~S~Rxd@bGlJha@~N|Pd@dBrw@fe@p@dGoJxIhXtJvHxOdb@jFh]gC|L~Mfr@~@vBwNdFs@dByh@`IoHvb@uHb`@tA~MyLjf@cJlk@~IrV_Bvc@u@|EwTeDaNbFyDbT~\\hNLmCb[`HlVtp@fa@v[fH|Vlj@hLjn@lRdZkC`S~MpSB~JtBdd@pLbQlBzPjIY|UkUjDxN`h@bIbUoFzb@tNrVeDvLiKrGfc@jUfSvOlMp^iQrCwKbb@g`@tY|Jfw@s[jHmAhRhHzDjVpQQnx@_A|^Mr^`SjmBl[`RlMhClObVeG~LdKyBl_@zGbb@p{AqJrSmBvYka@`QmIqBwV|HwJzS`GdLeJtf@_KvLuWfOfc@nJyQaCgIrT~Ej@pb@tMxXoBfKlVuNlZ}c@pI{KlJzCdWkMsEeL}IkB{FkROm^~D_@`Jp@tIod@nXam@|v@jEtC}T`ZpFb@qZn]u]_Ds{@b@aSjq@lL`l@gmCd\\i`Al^|aB~E|aBzLhnCduAs@iU`iAxx@xNPzGzCby@zFpFlh@oBvQ|E~Lb_@dWtTtT~EjKwNrDvU~Wbj@vIroAHby@oNpXfKpd@_OjMlf@iDpKtMrOjBqCzLzG`F}EjFxTLfr@`Uvc@po@tLcIjL`RtQm@jVpM~n@rq@x\\lm@pMu]jSiGpErEdAfa@hh@zAhy@jUtc@t_@`Znj@l@aXdV}s@bZqSzEwPbRhMle@xDKfJvVhXj[oCzKfTuPxm@jGx[xC|UwIhWo@b`@}M~S|SfLzo@IuYl^wo@lXcMfSm@bTvH~UxN|LfBtR{G|Fd@|Mr_@|V~t@fI`N{B`]`MzMkDpEuKpNfDzp@`o@dQti@zNtAph@dm@jNwH|DtBri@ld@tThxA`Try@fPlItQcGX|Nmt@`\\mDoCqq@tIc[xO}FtOuPvIqGb\\|Ztx@yThItGzG~Hxe@ke@nI{JqGwF`A{XdWeG~RoEq@yGoVin@`Q}LkAsLqNk\\wKrEmPsZyKoj@ex@_QnNsc@iM_YlKaGbHq]mIwk@bF{TrMuL~Wyj@p`@{LrnAwTjY}Jxp@aQzRoKlLee@xCqQlQjWfv@}AnLdJnVyHlXtSf_AHhU}M`QyVxCsM`Mmk@vMyPvK}e@xPo\\fg@mm@v]o[_v@__Atb@me@bdAw@zXuIj`@sH`IfChi@yEpJ`@tRjMfPcElPjEpLmLzVGtZiIxUst@|Duh@f^qcAra@il@zLma@qCuRpPu|@rIk`Adp@eTvY}Yz@yu@nSgEpa@fGja@zg@@rUjP~\\tCtz@pi@hIb_@|MnF|IcE`RfKpY~f@|l@zK~XuMb^hVzX|b@qi@nI{Xf\\mMyBcb@pt@{DtSfNt`@jHtu@lJvaA`Mta@pWN|FfY`n@diA{AhKyFy@_ShW_Rlm@lJ`Z{_@p`@rOpWnUChCxHkQ|k@~Ed_@iBdXeKXaArV~T`v@yBv}@iApGwd@_DvUhY|Bfd@pA~QkRq@y_@zPyg@`q@_V{Ow]aB}d@PeTfKyj@sD}K|JHyg@wQ}`@aCse@se@aa@kU}c@_a@on@iR}LjAwSjJeM@_n@iHsY}IaOoFv@}[fGk\\wQq_@fWoXwFiIsIoNeH{Qxd@Lhj@}b@fO}Cj[rDnLuUkFpAnXmJ~VvNlGnPtUcHlc@w]pO{`@db@ma@pNuXf`@q^iFof@pS"
                        ]
                    ]
                ]
            }
        },
        {
            "entidad": "21",
            "distrito_f": "3",
            "location": {
                "type": "MultiPolygon",
                "coordinates": [
                    [
                        [
                            "yrvwBpcgqQnTBfG`KnAvOiHjCfGnMIdQwL|@mKbLxVdNdp@dDmBnP|X_I|YrC`CrJkM~z@Z\\jPpC|n@t[lnAzL|gBj\\`SoIzXbGra@wAzq@pj@dO{ZtPg|@nn@pVbt@bMzNt`@l`@|{B|Ynb@bl@tqAdUdKf`@th@|U`NaBh`AtUzOvAdPa]dFel@cY{KTgIePoKsEe@mS}IeHkN}_@cQeHsUrVfFxaAqVnl@jMfPGrYu]jLurBbU}r@yI}c@bBeMmZwJbH{KxXoo@fKoPhK~fAzw@lJxOrSzBbd@nJbAvNtMr@bPbMpfAfW~@bDoVj]fKvIsDvWt{@lkBPlSvNrS|Ptg@h[tTdfDztDfr@bk@etFlCeuAr@{LinC_F}aBm^}aBe\\h`Aal@fmCkq@mLc@`S~Cr{@o]t]c@pZaZqFuC|T}v@kEoX`m@uInd@aJq@_E^Nl^zFjR|IjBrEdLeWjMmJ{CqIzKmZ|c@mVtNnBgKuMyXk@qb@sT_F`CfIoJxQgOgc@wLtWuf@~JeLdJ{SaG}HvJpBvVaQlIwYja@sSlBq{ApJ{Gcb@xBm_@_MeKcVdGiCmOaRmMkmBm[s^aS}^Lox@~@qQP{DkViRiHkHlAgw@r[uY}Jcb@f`@sCvKq^hQwOmMkUgSsGgc@wLhKsVdD{b@uNcUnFah@cIkDyN}UjUkIXmB{PqLcQuBed@C_K_NqSjCaSmReZiLkn@}Vmj@w[gHup@ga@aHmVlCc[iNMcT_]cFxDdD`N}EvTwc@t@sV~Amk@_Jkf@bJ_NxLc`@uAwb@tHaInHeBxh@eFr@wBvNgr@_A}L_Ni]fCeb@kFwHyOiXuJnJyIq@eGsw@ge@e@eB_O}PmJia@yd@cG_T_SwkAuFo^yNuTgTiObAsC}IeMe@wChJgU_FmUgT_LfFaJuFo[zBwPkZaZoA_KuHtAmOiPyGqCeLlRgCu@mO`Joc@`N}FlPiGaEoWkeAw~@}Jmb@jVsNfb@}CKyOuL_J@uJzGsFnD{PaIuBuR}c@~IeUuEsI_FHpD_OaJ_N_CyWJeP`Oz@iDySvI_W]_N_v@dGeIwR}XiAoSrJyd@~iAoUe@eVyR}UvSq[zFyGlDmPnIkg@gHeQbIbA|u@ej@rIkD~]vD`f@aKfMuJjDod@cDoRkDkLaPyHsp@_MaAeHeIQo_@iOwWeaAyQcp@|H_^dJy[sHcP|@oHaGu^bJ_n@kWe]uDid@}d@aRmDsAwK`Wmo@iGsQuCgByAdEqGqM]gSwN_n@nWweAf\\{XzBq_@eb@cq@sg@kYsp@mKr@}pAlKgY`KtP~U{FjNkMdOhK`Oq@dO{Nrb@fS`kAa[`f@si@hLcp@bg@y_@vAyXrEoYtOeH|h@mGbOxIvEc@fC_NpMlElm@oPfWsOpMcVsEwOdIaRRc^wt@Cw|AaWsEsqFl`@rbAlIjDhIOzLoKbd@{BhHyYiM_SmY{Mx@_OmF_LnAwWn`@og@?_ZjI}OiF{^{Soe@~MgG|RiDbHdDxwAwxGxh@kvBh[cjCvFn@tLqUnl@gVvM_WsSsz@?eg@bJiVkBsQxGqEpYfWvp@~m@nJli@fVqDlj@l}Ab|@bl@r[b^rPpEnRta@vXtLpRjZpNtLfh@}[~KdQlXxAhUtPpLrA|GbFi@jNzItAjJr[|X~WoOjZrP`DiD|SrCpAlm@`HtNfM|ZtCbWgS|W{Bx\\oQnVbBjz@pRrHd^`KnKxL``ApLkDd`@tJfApUpMbSnNjMhX|E`YnUnFzJaCzU~\\dz@`c@re@pNuBjXtTtNcAno@z[`S_@~`@jC~ZdBhGuEhCiSvcA{]bGyUb^zWjKuT_B{HtD@vZxc@~H~AgTnKlJtMDl[`LzGnM[qFzFfKrHwEpFxCvF~Xx\\nXnA~Px]lLg@hBdEaGpFvSdJeChCpApE`IaE~SvPt\\dIdKeDfFaMkE_IvFSrRtVnRvb@|Y`Br[hB~NzIx\\v@jOlPlFbQxP~Olo@rHnOjLpA~JnEWfOjP~SwOfFdFjOwDbYX|KvLhXtHrXF`d@nT|H|XhY`a@z_@tP}A~RfNhWjs@vLtb@jVwHvC~E|FlC~BnXdWpPh_@"
                        ]
                    ]
                ]
            }
        },
        {
            "entidad": "21",
            "distrito_f": "4",
            "location": {
                "type": "MultiPolygon",
                "coordinates": [
                    [
                        [
                            "mpgnBlnrnQvSp@lg@bQmAhXd[uAbAxImTtJZpOoH|N}@fOpLpXqBbImE|JiZhRqYjv@l[ncAlQvi@vXrVt_@pMvl@pl@lR|k@{EvS~b@bIhElPvStSl[pLbLne@rD~AlUfj@tUjVUhk@}MjH{HwJ}EvJaGQaLl^uN|FxEzSxMeTjPJjAeTxNfBfAjMjYfBcN|TpQjQzGiLrRjHrIqPfVfG`IdJnJuZlKpAxApF`HoApAzx@qFtV~IvQbQnAvR|f@lW|UvFxHu[jPdi@pnCdV|sCwk@`BgfAdjAov@~D}F|DsCmDyNhM{PKuJzJqHm@s@~LoMtL{IeAmQzXeRrC}O`d@mRxEuBhQod@y@hVp_B`gFbkDcD`e@ci@zY_KzX{SlTuBbN`O`M`A`LoJ|HfHhf@xWtSiSdMdSlQn@`TvUtXbFrj@dStXeAfSnOvb@p@hF}VnVxI`RaL|]uA~`@`NzNtBzJsJfJ~NnFj@fTzRvIjm@hv@sDbIbJhUoB~r@bo@jTxHnJpe@xK|SzP|BrOrPjRa@xYzPjUda@`Svb@xc@nj@j]bNwF|LhQcOvFsAjH|XbUlYpIs@hPuDhCyG_J{FpTw^vb@`Cpb@wQ|Ma@hSiIuAeF~FtD~G|JfGbI{@T`c@~\\|@dArOhXnCnR~Q~Ev@rLoMfIbS`k@d[rPt@vDbNx^yBgBlV`EbRqJ`LjIxAiBdRuLrAgB`QjQpCfEdKbX`B{LrNtCxEjKoDnD|BbDsFbAnRds@wLx^do@tJh@`K{M|AjUbK}IlOz\\zPuA{EhXxd@jKhE|TdFaQtDiB`GzFjFiK`LfP~G}IfL`NpcAh@|bD_{@`d@xLzZ_E`Qda@{EtPdIzhAtQ|x@m_@||@gCeFakBnH}UlGwXvWmId_@uX|^gFhe@cb@nKiw@gb@egBub@aEf`@xAz`@p^no@tFx[i[n_Ami@bZ}SVqT_Hah@{q@oTqF_\\V_ToJyc@wDcm@pEsNeGk_@da@en@l]}EfFwb@bEej@`aCswAaNuDrk@qMxm@kKtPaPlHgc@hKyTcEk[`]gHbVcIKiInIrB|JaXv]r@zJ{JtTxE`Q_FrBt@tI[tN}LxQsJUcNhr@qGx@OtPcS|NkE~\\uJtGgArX{S~d@qIfFya@_Qa^~F_\\mIeC_LpKkj@aEe[qq@_^i\\{FgTkHw\\|NqVLsGgS{d@e\\qhCw|AedCbx@uXt`FmSv@}N_Ocf@\\}r@sPr@sx@gIw{@uZqh@mQ{D}UnEaTv~@_ByMoJwJkeAud@n@qo@aZqc@cMsf@uaAqb@~UeV|EuOhPw`@bPibAMqaAyfAouAet@{Imh@hEgQnD{iAiEmVqI~HsCbIqVqBkJyQkMDi\\yQkLgDyTqSi_@iNyDex@qcAaZ{E}PeP_FmZoKmKwk@eNq^}fAqZ_w@kRsyAaFma@aRsH}TyVfn@iy@Z_s@jSyi@lOyn@pT}VbFeK|Z?xPdX|a@hBrQc`AnO{M~cAg_@dv@ciAtS{l@na@_]pGoc@u_@h\\wJoJ~FetBcu@tb@yK_MpdA_j@rJc}AjC}q@gr@tBQmhA}EyMgMoA_}@yWym@yDuI`VqOnNjE}Wk\\gs@wEo]oFcBqNxPur@~hB}Q|FeLnBoLxPea@lNqJuObB{]}IuKgZlAk]_G}EaE|@yJi[sf@AhFczA|Ios@jv@}r@jPy\\g\\sJXco@pMoS~Qe]tL{Lq@yJh@mVoVaf@}m@oNc@gp@ti@sf@LyCsX|Xs`@hH}q@yNuj@kl@mE}a@k^amA}~AmPkLsJn@iU{N_TXkc@}SuKyw@tPqj@kA{_AuYp@{x@}TonAks@gQuXwCv`@yTt`@sKfb@vJ`L|AfSn`@tTdHjPjJAt\\`b@eBdf@cLtWkTnQ`FbMu^ff@dF`Jth@zz@tRfC~DdWsRj\\vM~]`O~Pj`@tDxTx_@ig@be@{}@_Sj\\t~AuEhi@tCfOwE~Ie^bo@`@hXb]dcAxNpSj]x`@yHfJdDrKbn@jWaQ~h@b_@|]dClUdQx_@dK~Cx\\vh@jp@sDzNfa@tBjYwJxJmObJsQw@cQwEyMi]gMaEkh@PmQwg@sHsm@o^fo@ElXwN~S}Tb}A}ZmD}XaMeAhFoSySwYdNuJ`\\qQxAjQlTtI|f@bT`K|Ah_AdI|OpEmC|F`MgA|UjTpIgDxKmElGqQpAcwAzh@cVeEeNsXo_@mVwk@wD{HnN~HnRuJvQk_@|Jug@`g@^dRsMxl@wk@sKaWfBef@|d@kHbc@o`@qgAw]`@gt@wb@oQqi@yi@xZk~BbsCi}@tqAaOhXwL|F}LuCgh@zKrp@`i@oCzs@}[`\\}g@boA}m@|g@uQ~f@uDzb@wO~[mG|f@a_@|NgBrg@uf@uT_N`@eT`PoPrg@_AnUhOdgAaKpR_UpI{AfKgBxTaIdEc^wnAiN}J}YoAhBr|@mF|ZnW`e@nRnMeSm@jAhK{Q~N`@|NwO`Tu^sWkt@epAcS|VCj`@my@}Wg[iCuLdIoq@}lAwY{Ewk@~Jy@`HtOvIrHzP}KxHeYd~@ob@jCwGxLhEzUuMpRbAfNyQxPc^xDoWdU{u@trAuLzBai@sSwRsRgR|i@qx@_ZgV`|@lC~eAs\\~I_u@laCs]zHaPdXeShDuUnRqPkCvAqIkIqBaKxGa]}L}Jbb@ih@jxBer@uCcVrHoo@w@fRgaA_~Aug@iUuOkdA_Bcs@kVge@yViq@oOmRyQwj@gHme@gPir@qh@c~Aad@r@{M~j@pCfIgEbKkWbMc@saBio@cd@ok@}r@DqC`i@uVyMlUmk@hEagA~mAoGlRuOrCoQnSkO~J`d@vFtBp@}EfKoe@`c@wt@r@uK}\\_oAsDiF_WwC|]s{@vn@`GnVcQnd@aH~LbGx`@sOln@lQhX|@xe@bZ|SjA_Qg]fCqZuLBnBqg@qa@{QaC_]rm@cf@fv@uJtZnHbCaPiEiYhNqLhCoQtO}DaDyZjQq]~Cyn@ldAqNhc@qTf_@ahA`Iw@hXsPv~@fAhRcJrEiNfa@}UrOuBdCkHv`@jBbIuLfVSxPoRt[r@tLyQpXdD|JuLxXwI~LoJj`Bua@zQaMhTgAbTyVnE}UIar@mg@o\\dl@oKoRcUli@qa@bXe`@od@smBeHmTsPaL}BuOtiBoQiPkqAqTsRsBuKjp@aI|XyChLwlDh]zMtLs_@bXmH`IuOvUuCpHsRvUqBlReMjTob@x@qEpP_Tbk@xm@z\\nMqEwd@xK}g@kHai@`PiSoa@eQy\\x@r}@{fDrJnClGrOxu@xYdIfD|]cEzExLxWxRlI{LvJjGjg@p@bImJcF{HlEgGbEbH~PdCXaIcGaG~EeJaFyP~CsPtd@rRbJqDpC|B|@Vjf@hr@~s@d_@b~@gKlc@hXte@n@vBRnYfBrd@p^pV_WrJ]`LdHfLqPvPgE`E_Qte@vXhTeb@n\\rSf\\rGfc@kl@df@ab@bs@iWlAiLqA}g@aj@iV`NaOye@{LoAaHlKmFeDi`@fSuW`[qA|IoSp`@sG~V}NfRaz@xc@iH`N_Nd_@kDhTyXpRTz[iFcGwTnFIl@uYpS{YiNaSsAeZqgAye@c\\}[_Aaf@\\Rh@JX{Ah@oAn@c@Xa@`@eAVw@h@eA`@a@x@qALeAhZ{r@ln@cZ~V}e@SwYyKmOfA}WoIgMMmM}H_Ftn@ml@zTeb@rOc@yC}VpDm]rLoFji@IpGwDxDiTwDcYbDe_@jb@cf@rAiL|Wgo@nFo@jE|G~l@rN`^{UrRNre@n^tQjh@dFuY`o@qOxc@lOjKhLzEWpHqCvOs[rrAsfA\\oZkN_Td\\{UrKoQhBcUtc@gV~@mOlGj@vLpQbSbDjlAcWvOa]bj@k[|K`@zKyY`Dg_@xHsJ_DuGtDuKpUlQpy@zBvKbIjGbRxUc@hPmH~GiSe@ob@gQqSiKii@x@mPuOa[qJiHeIwBkHwXqVoTW}FeFcDmF|BsIgQcIoBaMgTqn@wLsUsOsVoAcQ}_@{QuKBcMeGNa]au@cXkNbBkHpWqLz@_H}PcTgRcCkNwKaMgt@qVgUcWsHoFoLfWaH{R_Xd@e\\ii@yl@eA{t@mOzZoYmg@hIwPkHcRyGsKmC{_@wTn@zKki@uCyMwEJGyMpf@wj@dUkt@v`@_h@aKs^__@_}@ia@_YmDsQwKaJ`YaLzUcUzEsHjl@w|@sH_Yt[yDzx@ic@hAgOrNeg@`JaDd\\~F~WqBdNac@ng@ce@n{@cMcAsEgRaiAsUyVoGyo@{R_AqIrNiSkM_[[uDwc@u[kSmEmYtEyV|[kVVsi@zs@}Pn`@~WdLwDhRgXfh@~Wld@oF`Za_@l]`ChRyEfFyMx@mc@~PuHhXzc@zc@yJpQqi@tLaMzKtGxIpq@`a@k@`Y_g@rSU|DbRnF~BrSug@?kHwNgJsB}OhIwb@nOUnGrFzBjHeEtYpInEb[i^b\\tBxHo`@dUeMbEuCsBqHgUeSz\\}tA}LotAtIsJtEvAd[ld@pH`AnO}RrSrF~Nvg@fe@l^~P`C`J}e@hMcJbHdpAcVdNnNr]aGfLqDfi@vp@nIxIz\\|q@no@zEdYpc@vFtDnD{AzNxq@oJ`y@`IjJcE~MrPhGfm@rTpDbJ`SlCdeAdYzMxYry@bbAlAfSmUhb@oGxHdDAlUvNjVvZfJfiBz_AdG`_@rQsQ`TdOxf@Cn[b@xIxKfMh@nMlJ`]yArCb^tRpS{LhAeNpNxKhZbAbK{OrdAjBhy@vNv\\rChp@fLbc@dLjV}Qvb@rA~Kd\\gDnYfQGbEiKrKaWlGcJ_@kHkMmG|Jh@~KfX~b@dc@xF"
                        ]
                    ]
                ]
            }
        },
        {
            "entidad": "21",
            "distrito_f": "5",
            "location": {
                "type": "MultiPolygon",
                "coordinates": [
                    [
                        [
                            "icgsBz{uwQp~@`DvShEo^fx@oLxJmEeIoQhMsFfOxChSiGrb@fJpTYjKubAjsA{m@dmAuKvc@nAhLvs@uA~_@x\\vR|@vGfMzFaEpT|AzJ~N~KRleAni@jDbW_DfiBjYns@UbTeQ~XCrViMnX]z]qR`UeOz_@mX`eCtYRpl@{e@vb@qAqJd^cSvTqPrbD|Gbh@lZrh@lGpk@uJd@slGeOqx@~~@cmBv_AqWxTyp@cBgmA{C}UxXk`AqMg`Ha~@wSw@a|Mip@wFia@yKvAib@zCmImEop@}B{d@~SqX_UcD`GuVmJeFhF{@~VoXoO}T|HaNwE}FdM}SlB_AzDeXs@dM|WoK{F}Ss`@{RwQqPNqQfLmDl`@wIlK_Uf@{KrIwBsKaJzHmBcIiSwMmEfEeLk@oJfUcQp@gBhJyUaBihA~`@_J}sAcSuUoNfJ~X`|@gd@`g@hRrI}MfIyF`Pei@o@qu@wr@iBubAhRub@}@qZzI{d@ls@seAo[mFwY|[oTiDNt_@sNtY}[~DqLpTqHw@eSrSmPfUgLbBas@jf@_NRyBv]oP}AcVhIx@hPaCeEcFyBiIrEO{]_SwEhWqGYmDk\\iMccDlaDsAs^_LjBqRgGcHoKaIkgAmQoM}PdDaDkSdY[ta@ek@cWcMsA_JzI{VtJwFeBsn@nEe^xs@gaAXiI{Te\\xj@k_Azl@on@wLSgL}PqZog@oEwV`Nif@oYcTsRkErSEfEmYuCoDpHuVnYcRjc@ul@dc@}RvRmWtR\\nGaGfQwr@wDoRlK}Tra@yMnAbYjPzf@`tAeu@|u@ka@tOydAfGeDsHqFrSkg@be@{A~V}KfNz@|z@wWsN}NxBq`@jAuHjFP`BaPzy@gQ~|@}_@~C`BjStH|]~QrQkBz[rFpJwGdYoCjHyXuAyPcUme@p@ydAhPyo@rUyWjBw@FjFnwB`EtMlEbJeCfy@gx@uFcWBsXeBuQdDwHfAsZl_@pW`g@i^vTgc@jLmJjEaIvWhv@xfAez@zI}Gvp@cn@lw@_u@|m@dQjfB}xBf{AqsBdUjIdEtMd`@rM`s@dP~D}Sxf@_qArLkJgtAwr@hHsIzVwZfIoTpLurD~mAf^~n@z]oWha@}b@hXfJpEyUbf@zNjGlKzGxPuChR`R{o@ti@q@rIpiABj|@xRf`@hMNtj@s@niAdLhGcRjy@wt@xeCpr@~JpFiFl_@|e@fKlY~y@iSfFsHpJvDhe@inA`_AfiAfyAngBfGk\\fP}Dl^`Kik@luAt@rK}Q~l@hr@ClbAnPtKgDtOaDgF_H|{@__@x@nSjUda@fK`A"
                        ]
                    ]
                ]
            }
        },
        {
            "entidad": "21",
            "distrito_f": "6",
            "location": {
                "type": "MultiPolygon",
                "coordinates": [
                    [
                        [
                            "uhfsBbb}uQbQ{e@|Qwm@jIvf@`NqIjFgRpGX|Lpc@@jVmM~FpGbl@wC]}Cv@dI`a@qFjBaDx[@ZmCxZoYdb@cA|Cc[wCUCwDrc@`NlQ`BvTo\\c@SaHyIt@cI`C{CiJqKjHkGqGkK[_EMyK[uGa@c@\\_GjIkLtPcADoKKgCda@eAbQg@fEUjIYnGKvRQ|Cw@pJkUqKmCiAgHwCcH}CxAiD_I]cFiJsCwHm@rA{Se@mAAeSsFiIkDkJ{D_M_GaNkFoEdK}KsG`EuJ_EkBsEpKiL}GwYee@qSwPsMu\\_N_FiHyBrQo`@qm@mhAeVsj@o|@adAaK}Tmk@oi@mZkOgp@ag@cTeGeCAkXgIeVg`@gTeKiUwWgf@}`Aqf@gm@kSee@}cAou@uo@y|@{^m\\kE~AwEoQmp@ue@wo@lDoRiHsCgMl~@sLvfAsx@rW`VlEpN`V`B|_@lWtQDoFhVzfBh@|NqDjU~DtT}Cra@fMlb@cAl\\`JjYu@tPgLil@eVh_AzGnwAtp@j{Bjs@dg@bm@CfR`Xb\\dk@~Ndz@rX~HkJdIFrCdN~RrS`v@pl@nc@~IvQ~LK~ZnCl`A|OhHvGvMfYrGMnQjPjDoA|XfDvCo@pRuFuAsFgQrCbg@rJxu@|@M"
                        ]
                    ]
                ]
            }
        },
        {
            "entidad": "21",
            "distrito_f": "7",
            "location": {
                "type": "MultiPolygon",
                "coordinates": [
                    [
                        [
                            "qqkrBlcltQ~^b@fOoEnm@trArZm@jShKd\\bEtUbYnR^zUpMrJzZuStU`Y]fMpFtCeR|}@sPbZppAfElP~L|AxUiGb`@nThq@jDva@|m@p]mDf[qSzCjIf\\bMaQtKrGzCgBzQdElWeK~TyFQ}BeOiLvDaFbT~TvATxEsIbJsNwDtGzHuGb\\kPqBoQy[uLl@gCx]vRzi@}RhVkb@hNTxEzQzJ~CdPbNlDia@pQrK~F{InW`Plp@oErUgC~_@pP`VTzRkF|DoQ}C{HpGuTeG}HtDnm@vUdG|Qa[}NuFnXxDrQgj@vHl@fG|Qv@~AbFu@~F}JiBwDlG~GpUyjAjKqKoDfEmX}ZoUaVwd@oLiB_M~F{IqHeTQuRnSy\\|X}i@~aB_Vhh@fC|c@kGxSbDpThUrY`DxS_]@a^iXus@~lA{KT}Rnn@r@zNaRtBxFxO{f@rGmG|PjDlS}\\tO_Ple@ey@vhAs[aHe_@nHuQh_@yCx\\uVnViX~g@sEuE{O|Ikd@iEcN`Da`AmB}UmSsqAh]{MpEa@yL{]gc@wU}Wic@eDu]jAe~@xXsVNsFwLAkV}Lqc@qGYkFfRaNpIkIwf@}Qvm@cQze@}@LsJyu@sCcg@rFfQtFtAn@qRgDwCnA}XkPkDLoQgYsGwGwM}OiHoCm`AJ_[wQ_Moc@_Jav@ql@_SsSsCeNeIG_IjJez@sXek@_OaXc\\BgReg@cm@k{Bks@owAup@i_A{Ghl@dVuPfLkYt@m\\aJmb@bAsa@gMuT|CkU_E}NpD{fBi@nFiVuQE}_@mWaVaBmEqNsWaVwfArx@m~@rLO}AI}@fXgw@sAg\\fJeMpPcz@k@w{@`Owd@bN_ObNuFcAm^`gAyDhYoGdGckA~IyYLeZnIcQoFmo@zw@_r@zCoNhNkRjRkBdR}PhfAkMaYmd@oa@axA{LkQcpBep@qB}EmFqAuV_[_Xsw@gi@ggB_|@}rA`pAgz@}S}^qMuw@uMBqJoFw{@tv@{_@t]ekAjBm~@`kAayA|lBem@e^si@yPyH_LaEwcCeYtEy\\_I}[xFoTopBdHav@lJmkAxiAewAfLmWpHwl@dy@rg@fn@fUhr@zWtB|w@|Hjd@sE|d@oMxZ{eAzhArd@~bAt~AqwAbb@qj@r_@{\\aJ_EdEsMbQbHzEmB`BdPbm@`s@|FgJ|Ogc@vShJtDk`AcByIjDBfN}r@iPgFzVk]pjE}bGjfBgxBvbAiu@yS}S_c@mC_c@a\\cr@}O`kCqnA~Ex[yFzB~Chr@pFeFhl@t]`ScOvS~\\jCuKmD_g@tHaeBhUy{A~HdHrBj_Als@hV|QxP{NzJdUfLhAxT`]n_@h[rb@|NTn_@a~@lKwk@`L}Odw@wr@h\\mDtGkLtKaAtVxMpCai@|r@Ebd@nk@raBho@cMb@cKjWgIfE_k@qCs@zMb~A`d@hr@ph@le@fPvj@fHlRxQhq@nOfe@xVbs@jVjdA~AhUtO~}Atg@gRfaAno@v@bVsHdr@tCje@MvJpGwEfd@dHjbAh[cS|@pc@uFn~@_Mxe@|aA`DjGR`KZcIvIkJrp@j]tNlx@r\\jLssA||At\\hVcsAbN{n@rt@vf@yMxXu^`VvAvI_z@xvDkLbi@psAna@c_@rp@{NlU{Wvz@ig@rc@vOdJxJtvAgFzf@nMbE"
                        ]
                    ]
                ]
            }
        },
        {
            "entidad": "21",
            "distrito_f": "8",
            "location": {
                "type": "MultiPolygon",
                "coordinates": [
                    [
                        [
                            "obyqBlk`qQs}@zfDx\\y@na@dQaPhSjH`i@yK|g@pEvd@{\\oMck@ym@qP~Sy@pEkTnb@mRdMwUpBqHrRwUtCaItOcXlHuLr_@i]{MiLvlD}XxCkp@`IrBtKpTrRhPjqAuiBnQ|BtOrP`LdHlTnd@rmBcXd`@mi@pa@nRbUel@nKlg@n\\H`r@oE|UcTxViTfA{Q`Mk`Bta@_MnJyXvI}JtLqXeDuLxQu[s@yPnRgVRcItLw`@kBeCjHsOtBga@|UsEhNiRbJw~@gAiXrPaIv@g_@`hAic@pTmdApN_Dxn@kQp]`DxZuO|DiCnQiNpLhEhYcC`PuZoHgv@tJsm@bf@`C~\\pa@zQoBpg@tLCgCpZ~Pf]}SkAye@cZiX}@mn@mQy`@rO_McGod@`HoVbQwn@aG}]r{@~VvCrDhF|\\~nAs@tKac@vt@gKne@q@|EwFuB_Kad@oSjOsCnQmRtO_nAnGiE`gAmUlk@uK`AuGjLi\\lDew@vr@aL|OmKvk@o_@`~@}NUi[sb@a]o_@iAyTeUgLzN{J}QyPms@iVsBk_A_IeHiUx{AuH`eBlD~f@kCtKwS_]aSbOil@u]qFdF_Dir@xF{B_Fy[akCpnAbr@|O~b@`\\~b@lCxS|SwbAhu@kfBfxBqjE|bG{Vj]hPfFgN|r@kDCbBxIuDj`AwSiJ}Ofc@}FfJcm@as@aBeP{ElBcQcHeErM`J~Ds_@z\\cb@pj@u~ApwAsd@_cAzeA{hAnMyZrE}d@}Hkd@uB}w@ir@{WdBuwA}`@ciAmZzGwx@pQq^cSwi@sYbD{MeO_Qq\\gh@~U}[zm@iQrk@~Ge_@os@ugAc|@tv@qh@bDcMgGw]rLs_@bMeIv^{v@if@egAa@sy@iVqXgxAek@fDcObWi~@w~@id@yI_OdN}]k]_CgRm\\enAjUaHrp@m_@eVgnAmYog@`s@rn@v}Amo@voAcf@px@gYdHef@~@sp@fTwDjK`KpZw[by@cW~IpOt_@o\\lSah@_A{Tlh@y`Avn@kXcAy\\pQsZz@lL|K_\\piCu|@sTm_@~JeIPaJtJ~GjYaBzIeGvGuNSC|bBokBp}@`JxZyM|fA{gAsCe@xmA}DuBkNvHqh@em@{NuAeQui@{p@ao@qNgDqEtK{MjDa]aMaNzB_u@gIs_@}Ve@}MzG}FgBuRyN}LwH_Vl@cTbMgSvo@mXtYm^{o@H}SgL|M_Tn@c`@vIiWyC}UkGy[tPym@{KgTk[nCwViXJgJme@yDcRiM{EvPcZpSeV|s@m@`XaZoj@uc@u_@iy@kUih@{AeAga@qEsEkShGqMt]y\\mm@_o@sq@kVqMuQl@kLaRuLbIwc@qo@gr@aUyTM|EkF{GaFpC{LsOkBqKuMmf@hD~NkMgKqd@nNqXIcy@wIsoA_Xcj@sDwUkKvNuT_FeWuT_Mc_@wQ}Emh@nB{FqF{Ccy@Q{Gyx@yNhUaiAdtFmCgr@ck@efD{tDi[uT}Pug@wNsSQmSu{@mkBrDwWgKwInVk]_AcDqfAgWcPcMuMs@cAwNcd@oJsS{BmJyO_gA{w@nPiKno@gKzKyXvJcHdMlZ|c@cB|r@xItrBcUt]kLFsYkMgPpVol@gFyaArUsVbQdHjN|_@|IdHd@lSnKrEfIdPzKUdl@bY`]eFwAePuU{O`Bi`A}UaNg`@uh@eUeKcl@uqA}Yob@m`@}{B{Nu`@ct@cMon@qVuPf|@eOzZ{q@qj@sa@vA{XcGaSnI}gBk\\mnA{L}n@u[kPqC[]jM_{@aCsJ}YsC}X~HlBoPep@eDyVeNlKcLvL}@HeQgGoMhHkCoAwOgGaKoTCqPi_@oXeWmC_C_F}FvHwCub@kVks@wLgNiW|A_S{_@uPiYaa@}H}Xad@oTsXGiXuH}KwLcYYkOvDgFeF_TvOgOkPoEVqA_KoOkLmo@sHyP_PmFcQ|a@pOrXmFnU~CfKgEne@tLje@mFzh@fd@`XFvK{DfWjEr^jHrl@}CrPyGnZ\\hHeEvc@]hTfHdS`FrXrNhXAzFdHl^E|KgIn[lAzWmGtj@rGfJeKvx@cExMm[nx@lH~KwIlc@jj@fTpj@kErOpJnCnHz[bEqHxp@uc@|_@_LbUsUnFXj}@uk@hWk_@xX{@zIoFfOvAqBpfAeRd|@vIx~@eEjTxv@dRzN|Kh}@v{A|~Anx@`e@jb@dDrUsErP`j@tKpGdMjBx`@vLJpNlLdRda@dRjOmf@pYqMhb@o[fVhWhTbTfFv_@fh@nZ{A`RhGp\\uCfOzFtAfMjO}@lt@lOvVgUtRc@|TnIpq@q]xy@iDjDfIhI~@`cB_Gve@w}Arx@ya@pMrOn_AoWzwAyBxY}JBwKtLnBzGsGiDqhCmIsh@d`@ihAmHoMvRmTvZ}APoYffE}Hd\\xHrcAjd@bN|b@}EfSnC|NfHdF|BlOdBbh@_E~[dUfz@p{BnTtHgt@zUimAxjBsn@vv@yUfRyFgJeN{Boq@gLdAlCsNspBwuAjHeEhKsdDiE_MzE}o@hS{c@ZcYlRyV{Fu@rJeb@jNei@`IuAl@sPtANf@gBXy@`AqApAuCh@sBGcHGyDNy@WeEi@yDg@mDaAyDG}AF_ChAaDzAaDx@_GNo@xA{Ep@_C`@mD?kCjBuChBmDrBkChAsB`AwC`@oE`@yDhAmDrBsBjC_CbCkChAiCx@yDrBcDjB_CpAaDh@kCx@gFf@aHXsBpAcDhA}BjBqAdDgB`Bm@jCWjBIjCWxAa@`eArPhIeFxj@BrTbPfFi[|T_T~XVbSyb@hTqMto@ug@vUyOiA{MtIkLxi@gYug@e~@gj@kHe`@i`AyKeh@rCceAla@ms@jGk\\gDwIcGydArZsOje@eGhQgNnUukAfC}KkFsbAtL}JiB_WiTk[eNyGwHyXxE{]gOgIuZgq@kUmOp@iSzI}FzAsf@uGs^r\\yUvLkLzP{f@lUqBniAapBwFgFcGo`@~EiST}fAx`@aRjAgRhIoEnFiW`_@mj@nU~ChEfStPlMlLFf[rTd[~@vRfTrXpK`y@mHr`@zGBlLfNuI|BpF~Kj@rH`UtQfDL|r@~KdJ_@`L~m@fOnDbQr^~[uJbGbRd[`IaAhJnGpFxOgBvMbIdTvGjBd@tKtF~AoBfN|DjFf`@`GrAhOjUzKnGqHhHlAfM{GnCcLjOkJn_@wp@hk@cHlIl@l|@lHlx@wY~MvVnM[bo@wjA~}@cOtWaa@~IdHpKg@rFi@|FvHqFzC|LtUoFdXlCpGoIrBoMt_@kT|RyChRmN~HgBlTka@~g@vSgDwC~KoXtIoFfX}L`Gya@dLcLwEhBqHkj@pMgT|aCwGvNdBbM}X~`AyJvZpEjL{JxKfKtHjAjPuEjJnDrScGnh@h^rf@nRnKsJvJyLph@Ct_@dMpJS|JoOvIRtXtJlZgBba@aMbe@aRbRjGzQx]pFVpF{Prm@gYvPf`@rVnf@b_AxOiHlDsOfp@yk@la@zf@vFbOq@nU~Ip[nKjIrAhP|U}Hp[bYnPeBhJdF~G~[ze@r`@lTfGhV~]tt@bKzf@lQxtAfeApOrEdj@a@v]nSrwEd}@vDuCx@d@|nAbj@b~@~Rta@~Y~eBri@bWqTzj@kBhWcW|d@h@xaAkv@zPoF~KyVpo@wKhZ}i@jb@wBjPoR`Ik@nLiLOkHnYc_@xIPnUgO~\\iMpYrD`PkD`\\fPjd@~H`Ypj@j[`JjDbD}JdK~W`QE`f@fn@ls@n@dNbL~M?bMjL`ORjHqOxIjUbMfFhQeEfMuCzBa@`DfHx@fUgD~HjG|XaClHljA|v@gWhJ}RtJrJya@`fApeAtdAtm@tQfUmj@x\\uVxMfV{B|^zFrHpSaQtMmAxEfK"
                        ]
                    ]
                ]
            }
        },
        {
            "entidad": "21",
            "distrito_f": "9",
            "location": {
                "type": "MultiPolygon",
                "coordinates": [
                    [
                        [
                            "mlcsBtenvQlHnDcDjIcF~TaMlEq@xDhTtS{ErQsPhj@o\\nd@uIj@iBf@uHdTkC|Ea]aCiBnJ_NfCuSxb@|VxJvRzIqIbl@}u@mnAcZrKah@~QPx@nChWgd@qUoJyDmClFiGmCb@s@nSob@}@GiRpBuJ|X{EvLwZec@aNCcH{HiM}KzFkCtDbEpAiGwQ{ZnLkB\\aVwXc@oCS}K_DsAwRiXvLIPkOzEyK_MoOgMtLgTuGeDqVlEsAaM_h@gQkQ`Sw[{VqJpNoXcAcMgJ{Qt@_D_VcRmC|@y@`GkKdWauA{BgNkb@uw@_Aqi@~`@gVdj@`{@xTk^~I|EtQ|TvAhXzOn_@hBcPaH_VMoEq@sGtKasAhRo`@nJgRzJ}SzC_GvMaWpSvPvYde@hL|GrEqK~DjBaEtJ|KrGnEeK`NjF~L~FjJzDhIjDdSrFlA@zSd@l@sArCvHbFhJ~H\\yAhDbH|CfHvClChAjUpKyE`L~BhAfErBdFbC`R~IvCvAtCvArJxEnLxFaItQ`HvD|CxA|LpGfHlDpHnDhDpAkBdF~CrAzCpApHdDtCnAdCjBnHrDvCzAlHtDrIfExNnHlCvAxA}DlLtG|QtLlAkCrHnD"
                        ]
                    ]
                ]
            }
        },
        {
            "entidad": "21",
            "distrito_f": "10",
            "location": {
                "type": "MultiPolygon",
                "coordinates": [
                    [
                        [
                            "om`sBj`bwQ`Xd_@uBhC~NjMJ|Y~c@hOtNbi@|SpFpf@rv@iWfNgCaK_Y|OhUhq@_O|b@aDbHk@hb@kQzT~TvXe`Axp@oOha@pMnFK|GsDtQ{T`StSd[fK|^w^dTm[nCcjBzVwSiEq~@aDgKaAkUea@y@oS}{@~^fF~GuO`DuKfDmbAoPir@B|Q_m@u@sKhk@muAm^aKgP|DgGj\\gyAogBa_AgiAie@hnAqJwDgFrH_z@hSgKmYm_@}e@qFhFqr@_Kvt@yeCbRky@eLiGr@oiAOuj@g`@iMk|@yRqiACp@sIzo@ui@iRaRyPtCmK{G{NkGxUcf@gJqE|b@iXnWia@_o@{]_nAg^rDajAmJid@rRkAd~@~PvEohAzFw^xEq[mCoP|L}AyGyEdD_i@vTaG~InAxNhD|TiXhPcGfJrGxLeFbRlC~C~UzQu@bMfJnXbApJqNv[zVjQaS~g@fQrA`MpVmEtGdDuLfTnOfMxK~LjO{EHQhXwLrAvR|K~CnCRvXb@]`VoLjBvQzZqAhGuDcE{FjChM|KbHzH`NBvZdc@zEwLtJ}XhRqB|@FoSnb@c@r@hGlClCmFnJxDfd@pUoCiWQy@`h@_RbZsK|u@lnApIcl@wR{I}VyJtSyb@~MgChBoJ`]`CjC}EtHeThBg@tIk@n\\od@rPij@zEsQiTuSp@yD`MmEhRp@~@~G{BdJlL^`LlD}Wbz@hb@pw@dQrEbW_JdWfXrIlPlP{BbB|EbZ`E`NlC}@xLT\\hHfBfJuGpFjG`Era@NzHxL~FmYbNvAhZrNcCtEzIjOeBdKnT_`@rj@yM|QxZz^{NbNgp@|WiMtf@gc@fBsFzGyIaDv@zy@vGxAsBnNsV|C"
                        ]
                    ]
                ]
            }
        },
        {
            "entidad": "21",
            "distrito_f": "11",
            "location": {
                "type": "MultiPolygon",
                "coordinates": [
                    [
                        [
                            "i}jrB`|`vQnVkUfGlHfNk@xGeJwDi}@zDet@pIy@dVzLLrJn`@nTtB~p@hJ~VaGlIlE`HnWzCxJvPdV|@`BtGpPfEpC|Rt{@iFlIwn@~\\kVl\\zDpDzQ|CeFnHpCjJlNyOzJdQ|^}BnRcKxIzTlGzBdInO|AyE~S~@lUoMhPxPfAjDjGye@t^eIvr@LpRvGpEaExo@lXd]oLfd@`BbQkR`aBg[zh@gAnlApL~[cB|JaJtCeCvUZdk@}DtOnHtOk@bZgc@pd@ml@jR{XfTedAciA_z@ie@aKqNyW_BeXkWgUjUtIzw@kIzZs`@hQsLeEaJaPmTpOqr@qPdE}J}EmLdCcIiBkPyHuBii@fHg_@qD{q@lBsPeJ\\cJnNuEaOo[xDcJhGa@YaH_Lo@dVah@qS~DsY}NyDhGiAfR_RbFnDbN}PtS~EdHzSrAvAtFmDtIqShHo@tI}DlCwJgGwDxNeHfBir@uCyDp@mc@hb@}GgBiF}MyIjGkH_KaNtDsGcOeKoTkOdBuE{IsNbCwAiZlYcNyL_GO{HaEsa@qFkGgJtGiHgBU]|@yLaNmC`KsWpBfBj^ch@p@x@bEmHpAyDjFaLN[hEeIsKyF`C_F\\u@wB_L_JgFmGyC~CyGvJ_[_TcPqDeHeF{KrMkh@sFmIhFiS}HkIhGiFuJiNj\\}IhI{Bv@GE_EvAqOn@_FdByPuM_PyV}XoAdJoCoEmD_F}i@cCcSyIqPsLmN{H_HwCqH{AgFoMwHgFaUdKaEtAWDgFfBqDcL}QjC_A_@cImDuTmIk@oHaJk@sRaIyFgCaBwTaNmQvDsc@TBb[vCbA}CnYeb@lCyZA[`Dy[pFkBeIaa@|Cw@vC\\qGcl@lM_GrFvLrVOd~@yXt]kAhc@dDvU|Wz]fc@`@xLzMqErqAi]|UlS``AlBbNaDjd@hEzO}IrEtEhX_h@tVoVxCy\\tQi_@d_@oHr[`Hdy@whA~Ome@|\\uO`O|O^vPnIlPmKrKkBfO|DhBxCpRgDbZxSnL~\\uEsH`QfGn@{AjHtE@`C~S{BbEyKqVwNeDyQlIdApV{T_BhCxUY`HyGfBx@bInXcBx@lH}LCeDnM~Ql\\nBf[tTwIkIzN`C`PbBdEpPsC"
                        ]
                    ]
                ]
            }
        },
        {
            "entidad": "21",
            "distrito_f": "12",
            "location": {
                "type": "MultiPolygon",
                "coordinates": [
                    [
                        [
                            "_v{rBn{ivQo@~EwApOD~Dw@FiIzBk\\|ItJhNiGhF|HjIiFhSrFlIsMjh@dFzKpDdH~SbPwJ~Z_DxGlGxC~IfFvB~K]t@aC~ErKxFiEdIOZkF`LqAxDcElHq@y@k^bh@qBgBaKrWcZaEcB}EmPzBsImPeWgXcW~IeQsEib@qw@|Wcz@aLmDmL_@zBeJ_A_HiRq@bF_UbDkImHoDsHoDmAjC}QuLmLuGyA|DmCwAyNoHsIgEmHuDwC{AoHsDeCkBuCoAqHeD{CqA_DsAjBeFiDqAqHoDgHmD}LqG}CyAaHwD`IuQoLyFsJyEuCwAwCwAaR_JeFcCgEsB_CiAxEaLv@qJP}CJwRXoGTkIf@gEdAcQfCea@nKJbAEjLuP~FkIb@]tG`@xKZ~DLjKZjGpGpKkHzChJbIaCxIu@R`Hn\\b@xFfCrR`I`Jj@j@nHtTlIbIlD~@^|QkCpDbLfFgBVE`EuA`UeKvHfFfFnMpHzA~GvClNzHpPrLbSxI|i@bClD~EnCnEnAeJxV|XtM~OeBxP"
                        ]
                    ]
                ]
            }
        },
        {
            "entidad": "21",
            "distrito_f": "13",
            "location": {
                "type": "MultiPolygon",
                "coordinates": [
                    [
                        [
                            "e~hoBjkpxQ_Uu@ucA`Pw_@jUwGnMyg@hu@xFbgAi\\zc@xEzFwEnHdFCpJkNfQ`LtO}PxSoAn}@nmB|t@j~Ctp@dP}_@l\\cnCtbAoZjcByK|a@k]|M}\\dY\\tYdGrMqDxJoUcN{Tqq@sRen@ka@mx@eTiTiUij@_RyLmUvLzTxMz@`RvDfTuDz@O~\\hVxIpA`_@sVbc@zIxBpM~Wf`@p`AuIvFaQYiAzMn[eDaSl_@tBdFqXaVeIzGnMlC~F|PhYlA~DhDiF|IoJiCoC|Cd@zUeOqI}XzIsBaXaJnT{HlAsI}CE_RcO}IoEtJgSqD{MpMyBwWaI}EkBzEsPoIqM`FuUwQu[eCeNzK~PbYw@|H_KYoI}MWpT_j@q_@sFMkIjOoXnCzEy[}GiAoJxGaCve@wM~MuXbAeFxD}NgN_SyZ_TnEcGeXmIlFoa@~@sJtZo_@{CwYiLwg@fi@oDuQuD`C_BtYwa@rLhCiQaNf@gJ_GmCdClFbMsMcBaN|IhCaWgK}DqY~Kac@aFwYyCmQdTqV{@jFjIqBbDsOoCyLdL{MwF{L|Hj@kPaHmRi^@_IfIsR_Sgp@|PiU`RiLeHqKfIqOiAoPxJmIwE_CnMyE}G_q@iA_QpKgZgFiCnIiIr@yFrRwh@dQsHgD_HfE_FeB~BnIwb@jUyOSygBlk@iHqEcc@jNcT\\wK{KcBpFiIuVuTmDvDwMeEiO}g@cl@sa@{BuPmUaUjAwBiE_d@_EgP{Y_o@foA`z@`p@]zLlJtLkOz~@uaAoN_K|Nof@_Iot@am@waAmc@i`@P_K}Iob@{Ko]zLa_@_[u\\sAgKgDbBcPgVx@kQsPa@sKrRaJqCmEuVoMgk@ik@kH~DsGiJiL`DqDqLoKrA{VfKmDcQi\\qHwU}QuLwYyGOk]iAyGsS_[gEmB_RoO_JmHKqKeYyy@eIyo@en@ag@sXep@wOub@bR{Fnm@zRnkCl]fN|n@zHvr@gIrWxJ~i@|x@kk@xIwjA{n@u]gC{QpHah@aDkS}`@gb@{SuYu{@kYyPyNm]aJiNyKkCc`A{Luv@cAsY}YcT{k@oU_RuVwB_Sa^wnBmYszAed@oOeNiL}a@siAmf@ow@HmGqk@mZsh@}Gch@pPsbDbSwTpJe^wb@pAql@ze@uYSlXaeCdO{_@pRaU\\{]hMoXBsVdQ_YTcTkYos@~CgiBkDcWmeAoi@_LS{J_OqT}A{F`EwGgMwR}@_`@y\\ws@tAoAiLtKwc@zm@emAtbAksAXkKgJqThGsb@yCiSrFgOnQiMlEdInLyJn^gx@bjB{Vl[oCv^eTgK}^uSe[zTaSrDuQJ}GqMoFnOia@d`Ayp@_UwXjQ{Tj@ib@`DcH~N}b@iUiq@~X}OfC`KhWgNqf@sv@}SqFuNci@_d@iOK}Y_OkMtBiCaXe_@rV}CrBoNwGyAw@{y@xI`DrF{Gfc@gBhMuf@fp@}WzNcNyZ{^xM}Q~_@sj@rGbO`NuDjH~JxIkGhF|M|GfBlc@ib@xDq@hr@tCdHgBvDyNvJfG|DmCn@uIpSiHlDuIwAuF{SsA_FeH|PuSoDcN~QcFhAgRxDiGrY|NpS_EeV`h@~Kn@X`HiG`@yDbJ`On[oNtE]bJrPdJzq@mBf_@pDhi@gHxHtBhBjPeCbI|ElLeE|Jpr@pPlTqO`J`PrLdEr`@iQjI{ZuI{w@fUkUdXjWxW~A`KpN~y@he@ddAbiAzXgTll@kRfc@qd@`Un^rLkHtFnFoOzb@dC`j@wIls@nFfXdKeOfRl@pAbI_O~S[|VlScPt\\o[|p@yJ|AoHwp@ga@gKg@q@kWaTe`@xKcFjF{XtKyA}Cog@~Vi_AfOgWh@_KcKoG^}^bRuCzHkMjGjA~XmKzWeT~Fq@zAlMh[Q`NtJhFh]t`@xGrFvRj]]`CbED|JkNhXR`a@kd@ljAlh@n^dD|KaLdWvPh_@OhOxS?xYoKjI|LhSzAblA__@hSKrSic@fnAvf@hAvXsD~EdLmEpFdCxBhTdm@fHvOuGdm@ls@fQkK~DwKtUsI|NfRts@vLfUuP||@oeBoSuUrA_h@hHwAzx@bb@|Gz`@zX~q@jd@~d@hn@fYp\\aBfMo^bOgKxCxEpFeLtN{EjPoAfNbNzNzNrFpu@~l@u_@zThKdf@iEpy@xEn\\jLpd@kR~\\nD|Dzi@bJbSgCd[tSt[z[v\\fFw@gBpJ|EbC~_@uDfK`NMvLzNvb@nMe@dQdO|CbTpNiAxA|Vz`@pJdNgZvMZdXmLbUgNpRkXjShIrNuEtOtNtIiHkGkUbMqy@eFiF~AcSjSeZfa@~GtEsO}F_FnFgPjL~DhIsLpCdEx[mExIrDxHsLhIQrIiQiB{D~ImF{Iei@kReB|D_P{AuSrQpBe@gJ|SyLbLgLbRtCrElGdAd^`SlIlKbS|Xcj@~Z_dB`MzKdAeJjC`ClCxPpP`ExMfPPtKtWsB`SpJtQq@gQnf@pHdJlGjbAcHvThH`QqFhl@dD|JbJtCyMlPgRxn@bPfBlt@qf@zCja@cIrRmB`f@hPdo@pUtXfMbE|DjLkHlYjWjHds@wq@lSjD`HtKcBrO`AxYx^rjAd}@fG`NhG|S|l@zf@rX`OtXbWuBlh@~X|J{MfFlYfLkGjItCdRkCpNtGxG_CfOja@l_@tU`r@`IvSiBgSzYyTzo@|R`QbPx@tKeIj^iFlKbI`HtXzk@pGpNcMtDuObs@sAnLqEp\\fSnLwGa@aQhNzNnH`q@aCpTy\\nMjBjc@eJORaI{HF{G`JdMzMnOjABlWeHbT|MrI{E`SkZv^tBfX{Uzq@ck@nTaL~Q_ShJsE`Wg\\hb@iNfDyStSgb@rB}DeEuO~VmFfZ}^lQuNrRsGzs@{S}HoSu`@bSyvAsd@uF}WiViOq@cCza@qLlOuKrh@kNrMfHrs@}AxN~Ld_@m@`RzYfyA"
                        ]
                    ]
                ]
            }
        },
        {
            "entidad": "21",
            "distrito_f": "14",
            "location": {
                "type": "MultiPolygon",
                "coordinates": [
                    [
                        [
                            "ibslBlwjyQQpBeL`T~C|W{D`LuJhBiBhKlO|X}j@bSjXjImk@xSyKr_@cXx`@mQ|a@~AxJqPlw@eAd[fG}@r@xEgRjImCzNkMfHh@`RaGfNnHfu@_OdPyBfXcHeCuGjj@g\\tb@tBnWyLnYoR~VeUzLt^nXbS|m@kb@vRqAho@wH`TgQxXoU`@e`AgJ}WjXmSri@kQjLq`As|@}QcAym@|Mwm@_JsDaZxF_m@aKc_@tDuOyEsGiXlCkOgLoMXkHmQybAkv@s@{N|Nef@coAaZwd@mu@_q@gEeKwM_Bm]gZkRgN`C{b@hM_G|WaSh[eLn@sIeFiIlHw@xZaRdZwA`Yg_@tWyAf[mUhWyThm@bCfFgI`Lq_@nLaYnYwTsPeq@gIye@hAyWoOeKjCbDvhAlOlg@}FxUlBb_@wPle@m@lb@gGpEcGhm@oMcA_AtF|HhFuDrPga@p\\oMZmYtXbB~OuIdGa_@bgAeZri@}IxlAma@fXuQ|V{J\\cO`i@wYxM`FdC}HvK|v@d`A|NzCbVvWxq@jWfZhZzIfRaA~a@`LrW{@pF}KvA_m@\\i@yR{b@t~@_oA`}@oIsEiAjLwe@nRoi@sAmk@{L_c@dx@o]_CdIvjAaE|OewBzfHon@on@{h@lt@}n@aCwInS_Q`Joh@_S_^zM|GvSco@jRud@oZWaJga@c_@e_AdEyLu~@aXoJuCgWeRvFv@oa@u[kUoJ|D|@}ZiRkAiGwTuRkJ_BeNiUbBqDoSg[uIe[ViJsFnHaQkIaL`Ik@r@}SmOsIwEwL`Eqm@_TtAtIeXgCuG`G{BmEmU`Dqm@ejCkz@bBkgAsLurBkeBoo@co@wr@cZeZ|FcRiD_OmzAsBmFyCwCqV{FrLyFfC_X{NySsv@cc@}MoOoiA_Yiq@gJ}n@qJsI}@_OhEcJ}Hm`@uEgZdFiPcKkg@s_@i_@fAuPcQq\\k~@bo@qH_FCgJuk@{OuWtFqQwMfAiPeGyKCwPvGkQV{YmFmLdUcLuDm`@nUpBtAgK`FoAzLtIdHgPzNyBzKcSnEiDjKnDx@qWnZsFnDs`@xNh@bSoTyEiRbJZhQ{T|NlR|DUvW}g@iC}IkIeUpVsPjMqi@wb@_XjMep@bh@}{@bPiEbLxJzOiEU{Eln@[|@kLnNjAlAoIxM}DrPPjNaKvMxBg@sFtJaAhPaS`H_^`V}ZyBaGxEyAbIm_@oBoc@eMuLbOiXeHwEo^lPgHvXiJeA{G}OmQf@}Xh^cOo`@hF}I_EiDiYmA_G}PoMmCdI{GpX`VuBeF`Sm_@o[dDhA{M`QXtIwFg`@q`AqM_X{IyBrVcc@qAa_@iVyIN_]tD{@wDgT{@aR{TyMlUwL~QxLhUhj@dThTja@lx@rRdn@zTpq@nUbNpDyJeGsM]uY|\\eYj]}MxK}a@nZkcBbnCubA|_@m\\up@eP}t@k~Co}@omBySnAuO|PgQaLqJjNeFBvEoHyE{Fh\\{c@yFcgAxg@iu@vGoMv_@kUtcAaP~Tt@{YgyAl@aR_Me_@|AyNgHss@jNsMtKsh@pLmObC{a@hOp@|WhVrd@tFcSxvAnSt`@zS|HrG{s@tNsR|^mQlFgZtO_W|DdEfb@sBxSuShNgDf\\ib@rEaW~RiJ`L_Rbk@oTzU{q@uBgXjZw^zEaS}MsIdHcTCmWoOkAeM{MzGaJzHGS`IdJNkBkc@x\\oM`CqToHaq@iN{N`@`QoLvGq\\gSoLpEcs@rAuDtOqNbM{k@qGaHuXmKcIk^hFuKdIcPy@}RaQxT{o@fS{YwShBar@aIm_@uUgOka@yG~BqNuGeRjCkIuCgLjGgFmY}JzMmh@_YcWtBaOuX{f@sX}S}l@aNiGe}@gGy^sjAaAyYbBsOaHuKmSkDes@vq@kWkHjHmY}DkLgMcEqUuXiPeo@lBaf@bIsR{Cka@mt@pf@cPgBfRyn@xMmPcJuCeD}JpFil@iHaQbHwTmGkbAqHeJfQof@uQp@aSqJuWrBQuKyMgPqPaEmCyPkCaCeAdJaM{K_[~cB}Xbj@mKcSaSmIeAe^sEmGcRuCcLfL}SxLd@fJsQqBzAtS}D~OjRdBzIdi@_JlFhBzDsIhQiIPyHrLyIsDy[lEqCeEiIrLkL_EoFfP|F~EuErOga@_HkSdZ_BbSdFhFcMpy@jGjUuIhHuOuNsNtEkSiIqRjXcUfNeXlLwM[eNfZ{`@qJyA}VqNhA}CcTeQeOoMd@{Nwb@LwLgKaN_`@tD}EcCfBqJgFv@{[w\\uSu[fCe[cJcS}D{i@_]oDqd@jRo\\kLqy@yEef@hE{TiK_m@t_@sFqu@{N{NgNcNkPnAuNzEqFdLyCyEcOfKgMn^q\\`Bin@gYkd@_e@{X_r@}G{`@{x@cb@iHvAsA~g@nStU}|@neBgUtPus@wL}NgRuUrI_EvKgQjKem@ms@wOtGem@gHyBiTqFeCeLlErD_FiAwXgnAwf@sShc@iSJclA~^iS{AkI}LyYnKyS?NiOwPi_@`LeWeD}Kmh@o^jd@mjASaa@jNiXE}JaCcEk]\\sFwRu`@yGiFi]aNuJi[P{AmM_Gp@{WdT_YlKkGkA{HjMcRtC_@|^bKnGi@~JgOfW_Wh_A|Cng@uKxAkFzXyKbF`Td`@p@jWfKf@vp@fa@}AnH}p@xJu\\n[mSbPZ}V~N_TqAcIgRm@eKdOoFgXvIms@eCaj@nO{b@uFoFsLjHaUo^j@cZoHuO|DuO[ek@dCwU`JuCbB}JqL_\\fAolAf[{h@jRaaBaBcQnLgd@mXe]`Eyo@wGqEMqRdIwr@xe@u^kDkGyPgAnMiP_AmUxE_ToO}A{BeI{TmGbKyI|BoReQ}^xO{JkJmNoHqC}CdFqD{Qm\\{D_]jVmIvn@u{@hFqC}RqPgEaBuGeV}@yJwPoW{CmEaH`GmIiJ_WuB_q@o`@oTMsJeV{LqIx@{Ddt@vDh}@yGdJgNj@gGmHoVjUqPrCcBeEaCaPjI{NuTvIoBg[_Rm\\dDoM|LBy@mHoXbBy@cIxGgBXaHiCyUzT~AeAqVxQmIvNdDxKpVzBcEaC_TuEAzAkHgGo@rHaQ_]tEySoLfDcZyCqR}DiBjBgOlKsKoImP_@wPaO}OkDmSlG}Pzf@sGyFyO`RuBs@{N|Ron@zKUts@_mA`^hX~\\AaDySiUsYcDqTjGySgC}c@~Uih@|i@_bBx\\}XtRoSdTPzIpH~L_GnLhB`Vvd@|ZnUgElXpKnDxjAkK_HqUvDmG|JhBt@_G_BcF}Qw@m@gGfj@wHyDsQtFoX`[|NeG}Qom@wU|HuDtTdGzHqGnQ|CjF}DU{RqPaVfC_`@nEsUaPmp@zIoWsK_Gha@qQcNmD_DeP{Q{JUyEjb@iN|RiVwR{i@fCy]tLm@nQx[jPpBtGc\\uG{HrNvDrIcJUyE_UwA`FcThLwD|BdOxFPdK_UeEmWfB{QsG{C`QuKg\\cM{CkIg[pSq]lDwa@}m@iq@kDc`@oTyUhG_M}AgEmPcZqpA}}@rPuCdRgMqFaY\\tSuUsJ{Z{UqMoR_@uUcYe\\cEkSiKsZl@om@urAgOnE__@c@oMcEfF{f@yJuvAwOeJhg@sc@zWwz@zNmUb_@sp@qsAoa@jLci@~y@yvDwAwIt^aVxMyXst@wf@cNzn@iVbsA}|Au\\kLrsAmx@s\\k]uNjJsp@bIwIaK[kGS}aAaD~Lye@tFo~@}@qc@i[bSeHkbAvEgd@wJqGke@Lhh@kxB|Jcb@`]|L`KyGjIpBwApIpPjCtUoRdSiD`PeXr]{H~t@maCr\\_JmC_fAfVa|@px@~YfR}i@vRrR`i@rStL{Bzu@urAnWeUb^yDxQyPcAgNtMqRiE{UvGyLnb@kCdYe~@|KyHsH{PuOwIx@aHvk@_KvYzEnq@|lAtLeIf[hCly@|WBk`@bS}Vjt@dpAt^rWvOaTa@}NzQ_OkAiKdSl@oRoMoWae@lF}ZiBs|@|YnAhN|Jb^vnA`IeEfByTzAgK~TqI`KqRiOegA~@oUnPsg@dTaP~Ma@tf@tT`n@xz@pC~X|TdPbTha@ni@|NvUbh@`@x^vDhEtd@jg@~m@ly@sl@xHqXdn@kWpQrwBfkA{M`VyBp~@xa@zThLjYl]iHjHdQ}PzVal@`_@n@`Y|RTn]_O|a@xb@tBd_@b^k`@vFRjc@np@vLg@pp@qQ~h@xa@dTmRloBzl@uHjSx]~Kdd@dBdc@v^`s@fc@jd@aB|a@bJzX{EfPpDv\\dc@vLxl@aSdSud@bTog@xi@_Np}@xk@|UzoAzf@~~@heAb`A|s@gNbj@c`@la@uX`Hch@`v@mStO|RlQb^dEzVtO|YvJz\\_IjVzE|NzHhB|Zj_@r@plCyPnj@gIbCdJhLqCnI~HbIx^tGqSzj@vgAzhAsf@fPbxAmc@vBkMto@qSbCgIdKePdDzGrMtq@o]l_A|EfLoCdGbHhUqQnGf@b_@vTbXva@`WwKvb@Gh]_Pj\\pJfDyEhiAbl@|r@lI~RwSlL{u@bVyXbFwZjY}IzOwSdC`[tTjLrGlZ~MhNfI|Alt@xgAlJm[Ece@}CkUuGyFbKwEnCy`@bJi@zVhChf@~Rj_AtzAviAvs@xCoDaGiD|IeK|DyTjFjEfAbb@l\\{ClMfMjIPhKeGjc@kfAlJr@xBoDeQej@bKiDsHsi@g_AcEzKsXnZcPfEaOzk@_Osx@mt@lEoi@qe@_kAqYiKg}AmU}H_I_AeNbx@tJfmAoRxTuKrIsUvo@nFfg@ma@bSgF~O_Y`]}PbFgMdNmEb\\y`@xIi@pFmOvg@qc@bBkS`a@w^vYaKzf@`PC`Kje@d_@|\\bExYz_@jIfi@hN~E_CdI~JvF_JjIjJxOjFx^mBzM``@h{@~\\vM`RuChR~FdElRbf@~V`OIv^sYnb@ShSyIre@jAnXdSpI~r@tQhPnDdNfm@be@nHmZtKeE~IuXfx@{CtMiO|_Agi@|PcNncBxnBlY`AvYpOjQ{Dp\\jDrDvk@|^fT}FlZ|BbMrBuBzHAbJ{LfX~BnKuE|PrH`NmCfJpDbUsG|E|AJpSbrAlCxWqU|x@yThBcJbTgKjc@fDve@yL~e@~MzWgk@tMkKh{@ajEj`@~WhK`V~R|OjG|XyIfJhb@jVaAbIpKzWnMyDtEkLnEdFpQkBlLkQz^vAn@kQrIyDv}@n|@jmC{@~X_Mjq@eZvfAza@xNixAyEuW{a@sHkBgFiPFmFqIiUbByCgJeKCqBsFg[\\{DgJvQgPkF}ZqYuI{EwTa\\i`@gJib@g[qBcImIaNdAgPdN_MfA_A~X_aAlK_Kfi@uJn@HxI{PpAqKd_@iHfFgCo_@gKyRvAoR{G{NuKVeKsGuo@Gw`@qPoC{Ra_@jKgZsGiGyIfRsm@nGqtA`\\s~@fByZlAqh@dKsBxJ}WjPvD`WgJrP~C~T{Ijq@b\\bUnd@`\\zFIsKdeBatCp}Az_DzzB|mA|AtF`CtOuG`MbInDbJsCQ|JhNmElZjc@DzQlZff@Yrh@vInUS~SdN~EvJqFvObCrK`PpDzUjc@bRbQVx[kJhsBh\\tn@te@VjHjJ{AnA|XwjAj~E_Tvs@r]hZrFf_@bN`MnRdh@c@zt@rUpYkEr\\|Y~QyTeBoV~c@mVtqAws@zWoKgw@kg@an@oTaj@dCkd@ciCnmFyw@teBudAprAgbA_JvMfi@~LpHxKvTsEhWpP`]jL`C{|@bwAnDnJma@gMaVbT~Ejf@_Fr^xDdS}QxYuGnm@ig@lXgM|`@nlAKxsB`vBo~DxvFth@pg@t|@e@da@qNd[r@tGpP~YdXpDhLeH`NaKrgAz\\`WgBjOnXhr@mBvXpRhZpa@`Q|EpR_EfKbChGlu@vT`DdW~\\eBjYnEzJ`H~@~K~o@u]xCzRpIzE|x@oFjNk]uHmLjMfEhK{CpRda@fIyP~RrBxBpGh^pLvGmBbFpUdUbJ|FbTjA|PgC|EiG_AjLrWbDnt@bLsDfBfGpNhBeKrf@lg@d_@dJ`_@_Exi@la@xGPt~@_ZxFbBeFsDuCce@}Dgg@fMu`@yCwXhMeQMwVyMwg@lGon@|h@xIjGsFhQeq@xUyQhUwLvAqFvLtDrKzTrOdEdN|d@xHnWvb@nJ`b@{VbVmb@`M_TtPd]p[bZdFha@rS`^cIrVrq@d}@t]jX?rIkL|LlDvOf`@pFvs@pPfGkIrOfQd[vMm@sAzNxXdJGrOkPlMeLUn@dWcWpJyNfShAfOgT`MbkAhsDrvBrsCosDlfDitBfd@{kAqVubBc`@_v@_Dis@tRyGdMc_@jVuj@`Caf@eHl_@~lCajCvaBuSx|DzFvUmRxb@`YbWwJpvA]~g@fLfKxIbiA`gAve@h^f_EvR~XtGElD{@n_@lm@`VsHzOdOcUOcA|e@tAzOzYhMbDxSnm@|O|i@nv@nEvIcFk@o@bRgEsDkA|GnJth@tk@vc@dKgGtAvd@{IrMhDf^yN_BuAxMwWrUi[jp@IrKtIvFlA`[qJfDq[_Hse@fr@MxVmd@vTjAtU"
                        ]
                    ]
                ]
            }
        },
        {
            "entidad": "21",
            "distrito_f": "15",
            "location": {
                "type": "MultiPolygon",
                "coordinates": [
                    [
                        [
                            "_`poBfq}pQj]~FfZmA|ItKcBz]pJtOda@mNnLyPdLoB|Q}Ftr@_iBpNyPnFbBvEn]j\\fs@kE|WpOoNtIaVxm@xD~|@xWfMnA|ExMPlhAfr@uBkC|q@sJb}AqdA~i@xK~Lbu@ub@_GdtBvJnJt_@i\\qGnc@oa@~\\uSzl@ev@biA_dAf_@oOzMsQb`A}a@iByPeX}Z?cFdKqT|VmOxn@kSxi@[~r@gn@hy@|TxV`RrH`Fla@jRryApZ~v@p^|fAvk@dNnKlK~ElZ|PdP`ZzEdx@pcAhNxDpSh_@fDxTxQjLEh\\xQjMpBjJcIpV_IrClVpIziAhEfQoDlh@iEdt@zIxfAnuALpaAcPhbAiPv`@}EtO_VdVtaApb@bMrf@`Zpc@o@po@jeAtd@nJvJ~AxM`Tw~@|UoElQzDtZph@fIv{@s@rx@|r@rPbf@]|N~NlSw@kAnQoZ~WeaA|g@fYxM~Kd`@tJnIvbBdhAvQvk@{f@dDwW~\\eZfNaCzIal@vKy~@fu@na@|XvElViBdqBuMpp@t_@oK`UW~ToQar@jvB}D|Ji`@vT{RpVaNniAvDnN}\\cEke@e_@BaK{f@aPwY`Kaa@v^cBjSwg@pc@qFlOyIh@c\\x`@eNlEcFfMa]|P_P~XcSfFgg@la@wo@oFsIrUyTtKgmAnRcx@uJ~@dN|H~Hf}AlUpYhKpe@~jAmEni@rx@lt@{k@~NgE`OoZbP{KrXf_AbErHri@cKhDdQdj@yBnDmJs@kc@jfAiKdGkIQmMgMm\\zCgAcb@kFkE}DxT}IdK`GhDyCnDwiAws@k_AuzAif@_S{ViCcJh@oCx`@cKvEtGxF|CjUDbe@mJl[mt@ygAgI}A_NiNsGmZuTkLeCa[{OvSkY|IcFvZcVxXmLzu@_SvS}r@mIiiAcl@gDxEk\\qJi]~Owb@FaWvKcXwa@c_@wToGg@iUpQeGcHgLnCm_A}Euq@n]{GsMdPeDfIeKpScCjMuo@lc@wBgPcxA{hArf@{j@wgAuGpScIy^oI_IiLpCcCeJoj@fIqlCxPk_@s@iB}Z}N{HkV{E{\\~H}YwJ{VuOc^eE}RmQlSuObh@av@tXaHb`@ma@fNcj@c`A}s@__AieA{oA{f@yk@}U~Mq}@ng@yi@td@cT`SeSwLyl@w\\ec@gPqD{XzE}a@cJkd@`Bas@gc@ec@w^ed@eBy]_LtHkSmoB{l@eTlR_i@ya@qp@pQwLf@kc@op@wFSc^j`@uBe_@}a@yb@o]~N}RUo@aY`l@a_@|P{VkHeQm]hHiLkYya@{TxBq~@zMaVswBgkAjWqQpXen@rl@yH_n@my@ud@kg@wDiEa@y^wUch@oi@}NcTia@}TePqC_Yan@yz@fBsg@`_@}NlG}f@vO_\\tD{b@tQ_g@|m@}g@|g@coA|[a\\nC{s@sp@ai@fh@{K|LtCvL}F`OiXh}@uqAj~BcsCxi@yZnQpi@ft@vb@v]a@n`@pgAjHcc@df@}d@`WgBvk@rKrMyl@_@eRtg@ag@j_@}JtJwQ_IoRzHoNvk@vDn_@lVdNrXbVdEbwA{h@pQqAlEmGfDyKkTqIfA}U}FaMqElCeI}O}Ai_AcTaKuI}f@kQmTpQyAtJa\\vYeNnSxSdAiF|X`M|ZlD|Tc}AvN_TDmXn^go@rHrm@lQvg@jh@QfM`ExMh]bQvErQv@lOcJvJyJuBkY{Nga@kp@rDy\\wh@eK_DeQy_@eCmUc_@}]`Q_i@cn@kWeDsKxHgJk]y`@yNqSc]ecAa@iXd^co@vE_JuCgOtEii@k\\u~Az}@~Rhg@ce@yTy_@k`@uDaO_QwM_^rRk\\_EeWuRgCuh@{z@eFaJt^gf@aFcMjToQbLuWdBef@u\\ab@kJ@eHkPo`@uT}AgSwJaLrKgb@xTu`@vCw`@fQtXnnAjs@zx@|TtYq@jAz_AuPpj@tKxw@jc@|S~SYhUzNrJo@lPjL`mA|~A|a@j^jl@lExNtj@iH|q@}Xr`@xCrXrf@Mfp@ui@nNb@`f@|m@lVnVxJi@zLp@d]uLnS_Rbo@qMrJYx\\f\\|r@kPns@kv@bzA}I@iFh[rf@}@xJ|E`E"
                        ]
                    ]
                ]
            }
        }
    ],
    "parametros": {
        "e": "21",
        "dl": "0",
        "df": "0",
        "m": "0",
        "s": "0",
        "l": "0",
        "mz": "0",
        "layer": "d",
        "db": "proceso",
        "schema": "suavecito,public",
        "geom": null,
        "padron": null
    }
}