{
    "status": {
        "key": "ok",
        "msg": "",
        "kex": ""
    },
    "distrito_f": [
        {
            "entidad": "23",
            "distrito_f": "1",
            "location": {
                "type": "MultiPolygon",
                "coordinates": [
                    [
                        [
                            "yfm|BvseqO~GoM`FbJyQ|PvAqM"
                        ]
                    ],
                    [
                        [
                            "mfm|Bph~pOsEyB}A{OpHtS"
                        ]
                    ],
                    [
                        [
                            "kpm|Bpl}pO`@cDhDxAkEhA"
                        ]
                    ],
                    [
                        [
                            "mdp`C~bipOzg@kPj|@{o@iXbs@ci@r`@eIdIsd@th@_d@lSiq@bh@sEmUdLeG|CnHlGDtcAuz@}gAvd@iQ|KqR|IoF~AwCsDaAhFd@}EmC~@mNzHwAtHp@sHaCt@iLzBtCfJ_EfBPcMuKxFpAjQkCsASaJiBdGaDlQkP`QaK_JsPw@wAiNmCzENaBhCsFnC|DxD_NxWmJvq@uUjc@kWbyAufAvKa@rUqM"
                        ]
                    ],
                    [
                        [
                            "eht`C|anpOuDkHba@qQm[|Z"
                        ]
                    ],
                    [
                        [
                            "_st`CbfnpOD_@^ORYX_@PIb@SX?FVCVGVOJg@Lc@H]Xe@@"
                        ]
                    ],
                    [
                        [
                            "mkxaCbctpO{@uBbBWhB?jBWxAMp@?x@Kh@J^hBw@fAkCNkAOo@JsBIk@Lm@M"
                        ]
                    ],
                    [
                        [
                            "wqyaCjljqO~AkPtRjQ|J_]`JqDbC|EkJtg@pW_g@fQeGkf@dy@aQLyVoV"
                        ]
                    ],
                    [
                        [
                            "sapaCptspOn_EDjhBaI|aAaNrd@f@oI~K_{@tJsd@}CspBbIouCwBw`@`Eyj@uD{cDxFxwAoJlzBZ"
                        ]
                    ],
                    [
                        [
                            "mbjaChb}pOzC{@zWdZdf@vNuClUeq@}_@aMq]"
                        ]
                    ],
                    [
                        [
                            "c|xaCb~hqOaSqd@z_@wbApy@dw@nHdd@xNvQ{D|DaUyRsKen@uRyRiCvI~LjG_@|DgMoDoRxLbAlGhKgHnCpOeRd[eExC}CaG"
                        ]
                    ],
                    [
                        [
                            "al{aCrgtpODoDhY`AoYlB"
                        ]
                    ],
                    [
                        [
                            "umzaCtbtpObUgGrSxDoZvHgNiF"
                        ]
                    ],
                    [
                        [
                            "cc|aCjvaqOi@qDnHc@|\\nLle@jAdGje@e]iGkXgWe\\_N"
                        ]
                    ],
                    [
                        [
                            "{rxaClteqOe]ahBjQ`U~Mry@eBjW"
                        ]
                    ],
                    [
                        [
                            "ib`bC|ulqOoCsOzDuEeEiFjTR`QpIdw@UpPfr@|e@~s@eN_C{NiWmc@yLqb@cB`WoWsA_PyGUg\\~QkIkJgPiC"
                        ]
                    ],
                    [
                        [
                            "{nabCltrqOxG{^tLTlHqUzKYu@nUjJ|Hk[mAsExCbBlM{D`CwFiFiBfHuDU"
                        ]
                    ],
                    [
                        [
                            "s~abCzxoqOfJyM\\uVrKsAjc@_\\tLbAEfHiVv]gRhDdDbDcTvHkF`MyGgE"
                        ]
                    ],
                    [
                        [
                            "csbbCpy~rOnF{ClCoXoTis@eQaRnV`HfRjXzK}b@vAet@dJqXfq@ka@u@vPo_@dd@_Hd_@~G`f@cCzdAqFxW{NpJi]aO"
                        ]
                    ],
                    [
                        [
                            "kifbCbvvpOyZrGoBtOn}AgN}O|QaZoAs^dMqt@nA_LuM}My@|QrScUfDsY}Iaf@`Oun@zEzCwFddAy[ni@sCxnCwl@pbCaUnt@gPfWlDmRrUkUfD}TlBiPgIqc@bB}O|GfFzDqd@hQ|FeN{IsEuV~DkO~Ne]cEcTzC"
                        ]
                    ],
                    [
                        [
                            "cvobCfn`sO_QaM~LlBuN{JjGuHfIxL`@jQ"
                        ]
                    ],
                    [
                        [
                            "}ikbCfw{sOSgHvImE`KlLeUfA"
                        ]
                    ],
                    [
                        [
                            "_cmbCjgdtOqBmXdXoXwFp_@zRlC`v@|f@kN|EmhA}_@"
                        ]
                    ],
                    [
                        [
                            "ujmbCdlctOqEcV`HgNhM|CvA`KqRjT"
                        ]
                    ],
                    [
                        [
                            "oppbCnw_sOkJu@_CqZ|Qm`@hUzKqHQdN~`@gClFo@kJwIlEoB}LgGBnAxNeJvHlDbA"
                        ]
                    ],
                    [
                        [
                            "ueqbCxu|rOzDgDnMbFgElIcMiK"
                        ]
                    ],
                    [
                        [
                            "ikqbCdg|rOk@iFtEnBiDxB"
                        ]
                    ],
                    [
                        [
                            "ayqbCft|rOVy@V_BVm@\\mCh@sA`C{@h@dAOl@MfAYn@gApAg@fAg@fAkBV"
                        ]
                    ],
                    [
                        [
                            "g|qbC`n|rO{AuCjDs@oAhE"
                        ]
                    ],
                    [
                        [
                            "m_rbCf`~rOXH^n@OTy@a@Nm@"
                        ]
                    ],
                    [
                        [
                            "ixc|BtqqpObhBv|Adl@jTvd@rc@|r@|Ul@hFh_@bTzt@xgAjf@|_@rT`ChMzv@{BnPfNjRflA|}@tjB`eA~{A`wAdt@lc@`[hZ|oAfv@n`CdjAfL`PkGdFC|I~TfPtd@nn@f|@`r@veBr|@`a@tm@`W`_Azz@ro@p^vj@bTro@nl@|j@rQpg@dc@xj@pFtPoGrOsh@bWcp@Ro_Ata@{Q`VwFhi@hAbZaPJci@cWcc@eFqkAbGy`@xMu\\rVe^lIo}@Jch@zWiVfBeUgEq^hD_cCk\\_qCaVidBmm@cmCycCmgA}a@cH_Psh@_U{c@}\\ofBko@ab@{j@{i@o^cL}LmEzB[eDtEB_CmIgP_VaEzBhDqCoLwKm|A_j@kEmKgDrClHtF_JeEH}GwGtG{FeA{_@_Wga@wLk{@yl@oh@mnBUiRiUad@_VeSfO_QjHeo@nTyVvEyAlPzHlt@uL`VuYrGk[jR_QkAyRk\\um@uU_F{F~KiJiDoJ{vCzOfMfBj\\va@vZhGoBEeW`K}Nw[uu@qKubAi[wIzCqMsCoCiEjHx@ty@gNaSiChNgGPm@oKdK_Tr@kl@y@qSaP{f@jKO[iIyHs@_CsH_Dqt@sgAqbBee@aqAkPePmGqY{Uo]gd@uiA{d@uXcKkWpIwLjf@oHxnAfW~tClbAnUtTbTvCziAll@dv@lm@df@pHfUoAbkAxg@"
                        ],
                        [
                            "yrh|Br~rqO[VMf@Ej@C\\Gn@@`@x@{E"
                        ],
                        [
                            "srh|Bt}rqO|AcDaNuKbKxP"
                        ]
                    ],
                    [
                        [
                            "wcqxB|y`uOedQ?_}S@}gB?Mt~Wi`MBElRqHx|^mEdrV{AljJ{{g@ltBke@iw@k{B[AuqDmtE_yHq}Ge{L}Cc_GmdGKbC_lWmvFsnEkxJmyHqfBUoCxb[afIyiEoiOe_IgVeMgtFGsZmgDeeDmbBgqFgtCuoFjh@_]ijBobGkb\\jiDaFvB_`E_gAHe{AmoBsqOjCk@~yErfB`l@`cBrlWw@vlRagBKoeBJk_T`AwrFfAwd@amSa}BjBwhTzWgvSNtLew@iEq\\~C}d@Eif@bH_e@bAoq@tB_YhRiSlM_CbRw@|I`AjFxDeFpC}N|EuE`B_GtNxEjCfMsLzKcE|PeHpLvA`NtAtTwCrHqIzHsWnJmXzF{S|C}MvCySw@cJqCsVoOwUuLeIyFg]sMcc@yGqYs@mCyKaUgEiZdB_YlJ}Y|Sij@|Okd@zKa_@jH{YzE{SfBqT@mWhAaj@rD_b@fFg[nIeS|CgGdIePzC}MvJwe@tH_e@|G{SxNiPlPuFzLsFpSmKn@]jBsDXmAf@_BRcBZ}ADu@F{@Bq@A_AG{@Ik@Eq@Gm@Ms@Om@IWKOoAB_Bg@u@o@RQb@d@tAb@z@KQa@IUG_@EW]a@ISGUq@AATq@E@}@p@@f@PMo@E[CUDUF_@@YAk@AYCc@Li@?[Im@D_@BW@YAqAY{E_B}DUiGeBcG?uC_@}AkNiQ_UsfAvH_b@zNwh@fBySsEmTuMcITySbJePzBeMt@wSwA{GkIqBsKnRiLhJ}N_XjJa\\fRyWtFoFhKsFzEsQcAkCmMbBeAcDtGiGnMPnJvDhQbICuEsE{Ue@kIvIaHpKuT`HuNEeGcCk@sI|M}U`W{SrR{CqKtOgV|DkOjSiSlCeMvMgMfLyK`FoIlD}MjLiG|BeJ{@oQqHmNkVMoUwLsC`BrFiGtVeHrPIrSmDvGqClB}JqKoE_PtCg[nM}K\\aZyCqL_D_JwGg@yJlF{SvByScM|SkErT_CtHkHiCuEcXwIiWWsKg@{JHqKh@kOxAyPjCkOxFaY|F{VcIqQgIc{@s[cd@_CoRgcAsa@qTeWyEot@hKkEvEo[|F{C~Di_Aw\\_q@eMk@oEuIoNaDbDgHqHkCtOqC|@iSoO_@mHmUgQ~DwUgJuYxLqHw@[iLeLmDyb@dByY_HyIdG_MkJgYQo@bGoGhA~@eKgGqAkk@b\\qf@}JbE{Gs\\_DqIpCuBuI~I}J{GaNgMqLyZu@yd@`KqBlFmVi@qSvHwUfq@qFjo@V|SzGbE\\dKdTtBhRjPdM~NdCpZ~G_Av\\qc@pO|XmEp@yLmLii@v{@xTl\\aBxTpWdAjLrNhOaOpSm@dUdRzUuWrL`LhWgOlFCpCvJvS_Jh^vYrRbCrE~J~KsJjFhJkC~Rv`@d_@jA~WmGbWuDUeGqb@aJiNcAhhAolAsbAap@cDocAnKyPrM{Rzy@{K\\u_@s_@fAq|@gJep@iM{Jz@wIiUqr@gLeFsd@rTaRaPgCrKpFfFkb@fD~NbImRnKbSJiKvDjJbB}I|[~KnFvKrXiFgi@aE|GmB{DnIyW|K~UtNnJyItD~Glr@sFaHxIxv@vNxPaGmAl@lGjKjA{Vso@MaNbEyBbVdKXxUzHnB~ErTlNvLkIg@pVvXGiPwNkSvOvLjFba@|m@jt@dN~c@zu@x]xImAzKjO`Lz^mBl_@|PtZxEkI`Hh@wFdc@dA|HfKfGv@zKtJhGo@`QtPtLjLqB|EfPvO{A~KrGhUhaBkS|d@kCy@`Gc[}Pqn@fAbcA~Thi@C|nAzDbOuDnt@_c@vy@kXv^}DiCyChEgNld@qAxb@aQt_@cItKgFsQwWrSDpKlLZzFdIiFhk@nJj`AjUd]zi@|d@`[vn@_C|Y}SfL{Jg@mFiJsGbI{WtEvXsRj@yJet@eeA}DgTi\\oZsH}f@_HgM}KeCtFeCuJyExDyF}JkAgHeMoScJfLgJwAeHoOM~C{JiDeI|c@mK`FpBo@_JfEdBc@sEzYw^b@jTjGhG|LdChT}HdAgHmQoXdHcFgAkJzLkg@vZ}j@ff@ea@mMaPtSqLuPaItMmAlJaZpLmHuQ_WiDjEub@iDbOkGpG_OyB}LhHs`@iEiJqNaBlQ_JbBwb@}@eHyZuM|JmL}BcV{_@kk@wKuYj@aJ_Waf@jLu@sAag@iJoPgAe]oHoLgMeCm@tW|PpGqCvErFxH_Tr^dObp@cLlS~BbHvCyFhZb`@|D~Qe@`FgDuFwHtDJdYlFhNsGmHrAlUlXvm@kCrAuAsIqLxEaJne@iIzBao@oVxVdStFnOd{@pUtFdPy@hP{b@uA|g@ho@pIla@uJcBeAbGoAoK_RtFeGiN[|HlNfNuGfDu\\w`@@`CXdAXx@?Vz@pArAzAhAdAbAdAVl@bAdAbBpAzArBh@x@eBnG?V`@hBX`@|BvCVl@C|DOl@Wn@O|AgAfAkA@iB@mB{Ay@o@sBsBO~A`@dA@dA?z@sBJ@n@kBIkAm@aAy@sAcDQqAs@kCaAm@_@|AGfAX|AHx@EpDHdANx@HVp@|AjAvCw@lCOWcBoAYc@E|DMbDUxCMxCcBIyAIg@tBgA`Ca@UiAm@_AxCGdAM~AGpA_@fAIaCAaCIaCIwCQaC[kCn@oC`@z@Nc@AqA?_BSsBa@eDa@I@dAP|AG|AWz@a@eAY}Aa@wCkP`KvMtA|Hfm@aEb[uI~Gk@pKuM`AsFiJiInPff@jSuSMiS_MqAxQf`@wAgYrAmL|PvAmF{A@iALyA?W@cAW`Ac@hAAhA?x@Ap@Kf@Wh@W?c@c@iBy@@g@?i@VWb@aA@Gl@o@Xa@o@Oa@a@?OVOz@g@hB@x@GtB@z@i@Vg@K{@cAQ}A?iBV{@n@sAnAuBn@_Bv@aC\\eDcAoDv@gAI_COKaBViAd@iAz@g@pAg@fA_@hBWfAUtBGn@MbDH|Aq@Xq@?w@rAHl@F|AM~AiAn@Wz@WpAlBzAGfAFTMrAy@a@{@y@aAy@q@eA{@y@i@y@q@?e@~AN`@rA|AjAbAjBzA_@z@kBUaAIkB@sBIkCcAf@Wq@eAf@sAA}AaAUqAn@iALYo@Wb@@pAFVPb@`@x@_@n@{@m@a@gAiALo@z@Xl@FVFl@@tBPpAMxCp@b@VANm@FgANeADgAx@Vp@l@j@dAhAbAp@n@Xx@bAdAxATp@TzBHhATdBnA_@jB}C@qAUaAb@kBUx@o@x@c@Dy@iAVqA@q@y@Qo@kBk@_Az@i@b@gA|AcC|@y@?i@eAmCyDkA_Ca@y@yAz@OfAi@JOV`@pAU|A?z@h@HhA`@bBl@lDR`@|AiAb@qAXsCd@o@rAXT`CYXx@iAXqBLa@Vy@KiAUqAa@cBa@kAoAqGeB?z@z@nAh@x@XhBPJdEv@dF[tCA|EFbB`@vDtCFdAlBlDlCAhBHrHfCzAl@lDTxATp@HlC`Dz@bDw@rA?n@Z|AWbDEz@@`CNpAe@xC_@hBE|AHpAi@n@yA@uDG{BLyA?y@LqAb@kChA}DI{Ck@}CcAkBw@sBa@wDw@qAeAuB{AcCoAeC{AuBoAcCgBeC{AuCgB{Ba@oEmAaAn@qAU{BUsAUy@UaAIaBU{AVXdAXz@HpAXpAF`@`@n@`@~Bh@x@dBjCrAhB`@`@rBrBbAx@rBzAh@l@dCbAxA?Oo@{AcAkAy@aAy@cAy@i@m@aA}A{@eAsAgBcBgBcAqAs@cDYqAa@iBp@c@pATx@`@lC`@`B`@jBTbBbAbBHjCl@rBv@`@VlCnA`AnA@b@YKWIy@c@y@@kAa@g@KcAa@Wm@q@JOViAfA@z@W`@h@dA`@b@zBnA`Al@|CbAvEv@jCRtDTzIr@bBl@hATxFpBdE^zATxAThB_B`BkBx@c@~@Yz@l@pA`@tDTtCRbC`@h@|AP`@^`@?}AcAsBQiBIiBI}AYcDAuBV{@pAo@f@c@zCMbBj@p@b@HdAFpAMtBE|AjB`@h@l@X|AGfA_A|AYJyAXaAJWz@o@Ji@z@z@`@h@pAPfAXrBGn@r@rBp@tBP`@`@z@`@~B`@x@PpA?n@Xl@J|D`@zAbBdAXx@sAIq@Ug@Ka@Iy@?y@@GTgAz@kAUaAm@kAm@aB_@sAm@{Aa@iBIkBUsBa@iAUkAIsBeAy@UcBa@cBk@qAWy@LcBm@y@UWz@OJq@?o@?NVzATpAAxAHjAJx@TpA`@jA`@hB`@zA`@?l@_Ad@qAz@aArAXHVJbBMpB{@`BYp@W`AMx@J`BAjAHrBx@VTjAl@zA`@f@`@jBTrAHx@?v@c@`A{@`AHp@J`ATp@`@`@V^l@`@pAg@n@q@y@aAm@cAa@q@c@iAa@?z@XdAH|ANJbAfBx@JlDv@rAzAg@fAGx@z@`CHhBPx@x@MhAl@p@c@cA{Av@sAjBHrCRrA`@|CfBrAx@`@l@dCjCrBTjB^rA~Bg@lCg@vBHpAgAz@aBrAy@rAu@pDi@c@q@UaAUiA?i@y@{@y@yAXw@z@h@x@pA`@rB`@rAv@bBx@`AKhBYbCq@vAwBnAeDbCcChCoCdEHf@HrBo@|Fs@tDq@fElAFz@Z|E@hBXfAPpAH~EH`@rCMp@WhDoC`Be@jA|AiBrAp@l@EpAg@dD_ChEaAU{AxBq@rEqAlDCdC?rBNrA~AvCRj@l@r@`@b@\\`@Zh@Zj@^h@Z\\z@d@f@Nd@F`@P`@^XXgCdGhI`C`OaIlQzGxBdL_Oe@iExI~~@ra@tDj`@qb@nAkFlFlLdCsVtEmTuBi_@sc@aiA}zBcrAo{AcWqHau@wk@uU_b@uF}^lEwPcL~QlDxR{EuJxAkPdRs^jf@kf@`\\ej@~e@{cB`YknCpCc{@oH}uDiKstAa^}vBym@qcBqhAcaEkUqr@aeA_kB}nAcv@_C{HlO{EC}DxElDpCsDwM}@{GiJVjT_KmLzAgOzRjBiHqWsIQqJuN{GpJ~NhO_A|DsLzEkTe@{e@u]{A_XxDiHwBoYbHwL~InIxFs\\dMkRt@mJ_NO`HyPyCcKtXbG|KsMjM_fBj_@elBeBgo@~Ip^hDwEmBmG|HsDqEeLfGqQdDyw@}BcY}GsJfLk`@|`@m^~HaEzA~EbDkEtf@kqArd@ij@jFrs@lKzBtTkQyKyLjSeSnEiOl]wSwNqC_KlLsLR_C|KuRzLsFoLdkAis@tIcMvK|JaMnQr_@oScHuPcXkUbz@aTdIiOp|@}m@vEzA`DnX~Yi@n@kFqUyYld@mc@bT`AoDuIvHsKzoAuH|b@yRd\\`O~D`JeBjSvP|Bf\\m]k@kI`SaBbFwPxHzA|XcPf@cGv[oS|HqNjJv@~w@o\\vKmWdNF~c@eWhBsH|WoIza@iaAvmA}Ujb@_f@li@eIdGmMgBqRfQuHrMkSrf@{Eha@nBtHaMpQtCxnA}N`m@sPht@oAr_@gQziA_Prz@oc@~`Aih@l_@s@jQ`RbJpAze@cEnO|Bna@eF|YqXp`@vO`PTb~@mp@d]bLvPsKpc@nBjLoJ`x@iTnDyb@mCiIhOsP`Le^eJoRtPeNrGa[gJwb@UrOch@|MaOnb@lCnKsZgCkLpDg`@wK{\\~GAuIiBtEmLyGhHrL`B~a@i_@iN{_@{Z|W{McTeh@}IdRk@oRmDeA{MtS}NZ`@`GqZyAeWbFnNnK{Jm@_l@_]oz@uAog@mr@oCw[md@m|@qt@sf@{[uGcd@jAwJbJoF_CiJpG{k@mEmXfGo]}I{e@tDqNr\\eOpG`JjC|DeDW~EqzAff@eKp\\gU}IuCyJmOxBiYfm@cGf`@sLX{HuMmInXdAuZxViYfEzAoBoRjJdEzEeNvDpDc@{QwGdGeDcD{EzNiIyDaD~OsH_F}FtE_En[bD~BsN|N{@x[qEoKdKwk@kVxSqCrO_E{KmG`Fpk@is@L{NoIbQxCaQhWs_@`eAoNfv@yU~PmMhEsRwHpG}KsI}PpNsSaDc^dMmGnJcBuEcK@f@eKbr@sTvkAwP~bGFfeAf]`iCzyAdm@|Q|\\Fn_AtSjoA}DzwBqo@rf@uGpu@ya@zrBxAbd@cFjGzDsFlOtJvC~s@hh@rG|[tLxJhAt]aDEFnUog@kB]bx@I|MOd\\Ytn@Wdd@IfOEtIGdIKbSi@pcAKjRg@l}@gGblLuO`iW}dBt@pC|zAPhK`NfkOthAhEv~LLdEpwB~nEfhAtQ|kTviZ~Df{AsS[uT~~@iAfA`WhfKgKh]qpD`jBepRtOe`Bd`OgBjz@IviD{bGydDsfClZeu@ubAys@x@|LgVGNfhChw@i@t@na@{sBqAyCqc@wv@f@_@gu@it@w@wAq_Ao`@_@iUUsAq[hK@pk@DNu[{w@E?_y@qOI|Amf^?{HdN~H~kAv{@dq@n]ta@~_@fi@vWzo@hPfYdU`Nf^t`Apa@bVfU|gAfCxMqIzBoNdf@prAfi@tp@~b@fkAd^de@vOrj@z_BpbAj|AdUn}@zs@jt@f`AtKlKtc@f_@bKpf@zv@zj@vIhKjT~WxRbPlZrVdBeDcBfFj|@|d@f`@bc@x`@rWrn@xl@`e@tRlJn]b{@tsAh`A`jAlPpR@v]fRp_@`f@dN`P|[zRhJdm@z_Ada@l^rYdh@|B`m@zJzVnd@~NjKrW~UrNdg@xhAzh@fh@~MdVaGlAiFiGgB~JnM{@dc@|RUhRqWeViJF`UvOg@dFcGgDjDpNnHkKnPfNHrh@{TiL`N`NiAdE_QuPuCgVwE[vSrk@tK`BtRiFx`@vGpBpXrKtIvFrZvd@[~Chl@f{@fj@lOwCp^jYvWpVv]pf@~C|Qza@te@bY`MfYiClStKjCxL|Lw@~HnGjB`OlNwCrNnD|DvLpZhIjWl\\xVbBmIpQpB|BnIvBeDoHzTkJnAzTbJlMzGbCbVsD`f@dNoIxPbSzXta@~Yr[nKtYeIrQv@zAbLfVhWla@fQ~^o@pVhLhC`b@|UwL~B|Qvo@zExh@fq@nY|DjDbIj`@pPrb@iQjKdLjZfFgFtMsR~IdUpMsDeIvFiQ|M}ArQrIxzAdg@iHzXnBrRdd@vWtLyKQwZtFkAdJpOoEtc@p]`ZfVDrM{P~k@tYsMjRfIfSjzArfAnaAzbAd~@x_@pd@xg@rlA~c@heA`S`aAjn@xl@lOvQbExEnBtEf@zFdCxFxClDfB~BnAjGlB|JbChG~@lHzCvEvAr@rBvCnBvEfCjF|CvDxAhG|@jHdCzHjBzGdCxFvAhH|@zFnBhGlDpL|CzHtAzG~@|JxCjId@hFbCzIf@jGvAjHdCfFvA|HzCdDh@xFvAxF~@jItAxFf@tEP|JLtDPxGlBfE`AhF~@dEh@jHtAfEh@zGlBxG~@nKxC|HzCzGbCdD`AnKxCnLrAzHjBzHtAlGnApChAjHtAfDnBvFEbBTfGNfFP~HPpSr@fFvAvDh@lJxCjH|@hGnBlJrAxGtA|QEvF?dFAvE?tEeAfFo@dEjCdEyDxHl@vFo@rCWrBVtD?tETvGl@vE?dFWbGTzE@fFT`BVrCTrBl@fGjCzJl@zIVxHTxIl@vGl@zIeAzKWzIcDlMsEtDeAtEeAfFWbTWvEo@fGWtEm@hIT|LTzI?vGeA~Ml@hIAvGjCvF?vFVvFbArC|AdETOn@bCo@`@UrBTn@?O|A_@rBa@|AOn@q@rB_@|A?VrDAp@eA`@sB^}AN}Ap@sB`AuBbCeAbBeA~CAhC@bCuBrD?tD?dEeAdDgAvGkCdD}AtD}AtD}ApBeAbB}ArCaDPsEQ{Aq@kCo@mCq@kCa@kCaAaDqAiF?}A`AeAvF{Ddd@bAfh@pUpp@o@de@cOxh@j@ra@wJn_@o[rs@eOrbAuh@dD{WiI}d@|MgQhyBk\\ffBuPn^TzjAzd@|{@|Fhi@`T~_@fYveBpZrS`WtD~t@~]rm@bd@xTbRzAzj@z\\hh@RfhCkw@hHpMlLxDzKz\\eEdTmM`G?yOyIeIkIVaAjKeF@eDxg@kKxG}]kKeDhF}k@rEwGaWwFiCiYkCmM~IuCkCeEVdDoHuD_GtDmCgf@aLNhF}\\yTsS|AeEwGgGzTqp@iSeDiV``@rRkZi^q@uJyI`GdEyOqAwpAo]aLwfAqJscAur@ygAhI}}@gi@^dTgHbDn@oc@{KaGsr@|DwWxGmKzLm^n@__@sJeDpEvGpEcC|IvUuByW~d@sb@f\\kKl^yYfd@_NUoNsJii@{AcDbL}\\xGiHdTmMvJN`WzE`Gvd@pMj\\eIde@cd@|l@UdUoH`FoEfD}Yps@rVtv@rFrd@aF~]iXl_@h\\l^xMvFeAo@oXey@y[eXgo@fGVjLlCrTh\\rTdOh}BhNbCtB{IxTrDrUl`@ho@dWjQdhAnWxj@jg@~`@jAbOqL}K`Sb~@dSnk@zZdFvNgsT?"
                        ]
                    ]
                ]
            }
        },
        {
            "entidad": "23",
            "distrito_f": "2",
            "location": {
                "type": "MultiPolygon",
                "coordinates": [
                    [
                        [
                            "}ynvBfymuOdEgF^nHeFgA"
                        ]
                    ],
                    [
                        [
                            "yqpvBbh~uOeDuBtCkKN`O"
                        ]
                    ],
                    [
                        [
                            "eupvBpb|uOmA?cAeAk@}A?iB`A}Av@?lAdATlC_@vC"
                        ]
                    ],
                    [
                        [
                            "cgqvBrqhvOa@uBj@kCvAW`Ax@@x@eDdD"
                        ]
                    ],
                    [
                        [
                            "ihqvBrmjvO?mDxCYVb@w@fEaAJw@o@"
                        ]
                    ],
                    [
                        [
                            "yfovB~nmuOfH_ONzLwHbA"
                        ]
                    ],
                    [
                        [
                            "ivovBpbmuOwG{DdDeIvFzDeCdI"
                        ]
                    ],
                    [
                        [
                            "atdwBdcztOWiS|GeAxCbI_LjK"
                        ]
                    ],
                    [
                        [
                            "yvuvBbleuOlJ{Yvj@~_@ij@eJ{J`D"
                        ]
                    ],
                    [
                        [
                            "esuvBzteuOdEgFaA|IcCuB"
                        ]
                    ],
                    [
                        [
                            "mnxvB|gduO_@nH~PpPuViIsB_RtDqBrCxD"
                        ]
                    ],
                    [
                        [
                            "_u|vBdvjvONwGyHiFbAaObSe^tD?tEnHwFzl@kJbIeEeA"
                        ]
                    ],
                    [
                        [
                            "_sfwB|x|tObEiSfGo@j@zIwN|I"
                        ]
                    ],
                    [
                        [
                            "ghhwBbe`uOfXik@zE`Dc_@ff@"
                        ]
                    ],
                    [
                        [
                            "srkqBhvdvOxSrIpc@`n@rTjGbHtPrX|GzTn`@he@|OlRjVhCgCKdH|g@pN~r@pCxfApWzd@pTt|AfZzl@{B~gAnMxf@cAlk@jJbNgAng@zMn{BhTlaAlQhpBfI~ZhIfkAyKjjA`BxQhMlPoBnP`J~n@rFfLjOtYpJpZhVp^nb@r~@xEnm@vNx}@}Enr@rBddBnQzkAiRz~A`W|}AoDxpBtt@vUx_@~u@`c@lT|Yxo@~RtpArm@rnAfWnYx\\pGFzuAljAnmB`m@nJvIfvAjMx[fOdhAxAfQvGjXyBk@oDdq@hIhTyFtWbAlj@pXpmCj`@va@sBdnCdL~\\sAvb@xMvUbQtPj{@kc@|[eCdI{@zj@bKfb@pa@rFbyE~yDayAbcBsFd|Scd`@hDgmObASz~h@irJaAZlfG{WhdAil@v^mEhLOvUhEbFsBnV~C`WgOvf@|`@~dC_B|eAiCpd@ni@hhAl@b^}OrP{YfA}WlJoDbd@eNxU}ObIz@jNzA|c@tExDfOl_A|b@dn@nCnb@lObQbI|k@nb@rg@qtAns@\\tTlPlXkWvViA|ZsTgDiI~DcAhKpc@~g@vD`PvOdLzL~[pw@xy@xIfFpJ|Xe@|n@r_@nGpX~^hTfNbp@hDfHeFbN\\~\\rO|KClUjTx`@Sre@yPt_@`Ul\\fA|g@pMfb@|PdGhKdU|IteAd~@z_AlSbPJjXyXba@eMnPaA|MhFzmCnkBne@~k@lq@hYbYxa@fm@ff@nf@tl@pd@nXnf@zn@vD}XoCkUhIgCj^hNvw@sCrjAbg@vWcC`b@}@bS{KnPbL~MiHrUpH~t@bd@jo@hQxIrJrHbh@|NfNvKf[vXpMn@tLeQx`@bDbNph@zn@lPvY`ZzeAlc@lj@hS~~Az^fc@bh@t_@jLuDpHikAfp@qI`j@lAhl@vRd~@dv@rf@|Qh]d^rd@|L|O|Nj[DbVnH~\\vZnVjHvt@se@~O|AfZ~[pTjK`c@vJhJX`Mm\\n`@{CnRt\\h{@_Cjq@tl@xKnR`S`TpEde@bh@`n@jd@tmAnBvc@dYb^jLtBhYgMl]jF`P_N`f@fc@dF?vEaNvG`Drl@rpA`e@h[bQiRrScFnOrExIiCzJ~A~@jMrUvTpQaArDxD}LrQb|@n|@`c@`Od|@vq@hMlq@yDrk@rUbQzKcAzKrJbE~PgDbe@rTfNlb@xk@fYdIzKfSte@aPbeAuCdWbQhKrt@r_@tTvCzXqEjUxJpDqWvg@{i@dQ}McJ{FzHu@fS_R`_@aRtjA`c@rWyHhH{ZhEyFfb@}|@`_@gTpp@yHpBgZiSwh@dHcArGnPtG`BpJmn@~Jm[zg@sd@lB~R|r@a@~Pz]tTuRv`@cBpOtDzNq\\plAfG|Fdy@pKk[j\\uu@`Uqa@~W__@|CgGrQoNj@}^kPeV[gV``@gF~g@gT`j@q@hPwd@js@yJbAkJnTgEvQ~A|o@pd@f_Ax[tTtEjUStu@_Nzj@`BlRtXvp@fk@vs@dF~b@pS~FxH`Q`R~FpRdSnBdj@aQna@_OlEfGr]vNrW`MiEji@lBpc@dRrPri@vInHpa@xHn_Axj@}sF@whTgA}nCKqxW}B_xRx@o|HrAsg@wo@wm@wZmY_FiBgj@ug@eq@yDa[mVw`@ZuY{aJfeAsVlcEszPq@ehBBs}STwlPnAayB~`BawEcEqkAk{Aej@zgM{pBdvFcG{AyuGkwAwmFKa{GO|Bs}Rmqj@PmQCkqNuA}zJ~aHubY|pRuqDhgCqbJm|LsqS_y^ifBgfLgjA{Pih@h`EutFop@wrE_~Hq~@e_BmiMyuTwaAibBoDcGsiAenBsgBzuCu`A{aBe}KkmRq|D}_HmRqVyaEy~Gc|EuA}}GmBI_gCzkKscJwhFs{ImcLnH__HmDmDy_If@oqT_mCqhFwxEkzGqxAy_ChjIwBocIa~L_vAw`C{fAejB_zCwbGhwOp@C}bGouStAo{@wA_qEgqHz{g@mtBzAmjJlEerVpHy|^DmRh`MCLu~W|gB?~|SAddQ?fsT?nu@pxArDnSyIvDmKxd@eEaOxGkc@yJiIeDtRkJbAtCqUcDc_@}Pw]iHkC^fYzLvb@c@hq@z_A`v@qA`Dk[wB_Q}WuCtRnRxb@wY{OwEvDhIhY{I~FkL}DfI|LuEtGiHWcDnMh[|On_@xBlLgNvVcF`BnHcR|^aPbItC{IyGj@yY~SuC|Yhl@|m@pRvJbVpk@fW|W~q@``@j~A|k@NbL|p@na@zoBzq@fkBxaAjnA|kAflB|{@diBtl@|pCj[r{Ez`B~N|\\AjSiKsMrDx_@iItWo^dVhHsRkJmCq@_GkKxd@cRbQtRm`AaS_u@gF`o@rDpM}L_JzGgaAiIrBeDwOgGAOiN_QeL?nH}KvL^|IuEbAaAwO|KqRaQqHsCzIkKeTeEbLtFhNaRwJfGtRuEfFqQqP~OiKOyDkKhCbC{IcT`IpBnHeFhCiI}IvFmH_NzA_@mK_Q_Za@~N{K_RsCpErDtJsSxIst@{]cC}I{KnMkKaOyHrJyHeLuEbTuf@}WdEyLoNbImMcGgHyW_P}Lef@_U{JjHzKtUdgAtn@pb@n^fInPOx_@}KhKuEuBbBoXyIm[sBuBgHfFgG}QsC~FuD_JuDxDj]dz@vg@h\\aNrz@p@vb@pTrcBxm@pqBjJ|l@iGx\\vFzLjLUjJxG_OtOoNbAcTcG{JtGxIjV~McAn@pM~MyAQiFfhAtSpr@Ftu@oZj}ArQpq@g@zK~I`RfArB~FnN_DdFpE|LUdFfIhXpHln@iPtU{NjZyt@{Lc_A~NpH|Nre@fg@}c@{Kii@hWqbAvGVtf@bb@pQyAtc@eV`AmP|]_\\Mcd@oq@qvAhy@mb@uf@mNon@nGwFdQq@np@dF`_@sTu]vEyd@iHmK`AkKfw@kZvf@}ClM}FPgN|MfA~`@zg@jKk@bSuWbClK{InUjK~QxIlk@lMlCzKfQrEr}@fFnHtEiNeF_WdDqMo`@eoAdCcl@rBaDxHbDpQxOs@n`@tTrUpRln@vGUwGmc@_a@ew@tDqEzKlCn_@~\\xIn@eiAcx@kKo`@fGqUtCaDl^zGlNpPpQ|\\eEbQcTco@kKgApRln@xl@n~@vFm@aCif@zJg^jKrEuEaWyInEcCgFcCmc@fFaDna@pk@te@v]~OnHtF`w@tDm`@dVnKfHrmAj^hy@rBsJqd@ybB`@iNdFoEtUj^?dQ|LStV~Qeh@ky@iYiQk\\ab@rAyLwFTaA_Oeg@q[eDgI?eAOoE?eArB}AfFfAvFsBbDUxI@dEqExGwDaBkKgGiFuCWuFbAgFAeFeA`BsB`@{A?{Dq@{AcCgAq@?qAbDcDwGq@uBuEkKaA}AuEwGeD}AuEgAoPoHeDWsBA_@aDNWrBVfGgFuD|AqBwGeDgIgGkCeE}AqBcDq@_GwFsEqAl@`@dAdFrEp@TuDV^jCbBzAtElC`BjCrArBrCzDNdA`BdIuEWqAuBq@gFqAuBeE}Aq@xDqBeAsAkCqAeA}MuJq@}AqBcDwFiFuEqEcCuBgFeAuFcDsAAsDWa@eA`AUzK|AfFfApA?PyDeE}AeEeAwF_BwF}AcDm@iI_BuCWuFeAwEo@eFcDgF}AsD}AgFcDcCmCwGcDyI{Dq@dANjC|KhF^?tDlC`Bl@fFrE^?p@T`BtB`@VxIbDNl@hIlCvGtBrAVbC?pAV?rBa@VsDWaAA{J{DsBeAiJ{DuEiFwF}AwGcDmM_JcB}AwGqEgGeDsDyDiHuJcCcDqAeAcD{DcB}IcCsBcDWcDmKqAqMq@sJ_@cDq@qEcCyDaAuB`@oEp@eA^cD?sB@yLq@oPaC{LaAaLo@mSO{Iq@qMcCiN_@oHqAwOaBoHaAgFaBiFqAcDeDeIqAqEaBqEsBoHOm@aAqE_@gQOyDaAeIeFuJaAsBO}A?_G`@sBbB_G^WpA{A`A?bC|ApApEfF{AbDpErAn@`B|A`BxD`@bDcCbA?m@cC}AcBsBo@gAsBdAO|AsBhCQrBaAjC?xDbBtBpBl@`@n@^~Fp@|A^rB`An@NfF?|AaBrBpB|I^zAfGxGvFn@tDeApAaD?cDaByLaB{DaAeAaBkK`AqENaL@oH?sJ?yD_@eAsCgIq@aDaAcDaByDaAuBsCoHa@sB_AwGpAkC`@uGcCo@sAdAcCbAcD}Aa@m@@wGcCm@eDTsBrBuDT?zArCbDrA|ArD|ArBzD?jC`BjCNrB`@jC?lHcApEaBzAeEfFcB{AaAWOkC_@{DaAsBsBeIo@iF^mH?o@wGeIaAeAo@cD`A}AxHk@rCm@pAeAfEaD^eAbCoE`@{ArB}AN_G?gFo@qEpAmHrAT`B|ANhFaAfF^jCdEbLbCzD`B|AbBzAn@fAp@nE^pEfGrErBVpAeAaBcDcCm@OuBqAqENiC`AeAOqEaBeAsBo@cBm@o@uBq@wGPaDQwG`@wGPuG?iF_@kKa@WeF?q@kCaA}AqA?aATaAm@cBuBqA}AO{A?uBp@sB`AcAtDm@bBkC`AdA`BtBp@|ANTvGfApAjCp@dArBUrC{ArC?xG|ApAn@fGvGpBhF`@eAfHXvFyD@aL^TxIvZtFdIff@gPrB}FuEgIbC?`AcAcDmK{LqXOmHtFsBsC}Iue@zKrAcIde@qOkM}l@iZaJOsJkId^fHrUwD~^uiAg]k]yZbAub@uf@g_@hHiSxg@mJiYh@pP_LcCwGsQfS{KwGPs]sC}AkKtOgHub@cBvDwGkCyGlPrRdLxKpXcQne@Nb\\gEbIwXgDo@qUtFzL~NwDqAmHwFbAhHmPeEnE{KiFxXaYo`@EsAtGmNTbBoHkKo@bBwOyIyObCwD{KwB|L}F}LoHiHzQcEmK`^gcAlM`GbCsJjJyAfGpEfG}F~O~QrBsJfIfIo@mHcd@uP{ZpGeHuRqNbYiIcGyLkv@tCgFfHpEqRwRyMar@}JbIr@wGbSsOeF}ItDyLeEkC}LvLyYyBoLjXyIl@gFbIoP}DkItGsUgDoOkV|J}NfGtB?}Q_Oj@oQoKzIgVvXi@cEwGoNwBdDgFgHiF{XvYeEo@_\\bq@kLiI}KnMuUxAoNxIbTzGqQfKmMeDeD~FgHgAiIgIeUfC{KoKtCmPvhBqPn\\i`@jWgv@tTe^tb@k]|MdDhKlVtCcDiJuZlLk@xWwTrR{VbAiVhG{IhYqGhfE`\\ba@|R~Oz^~OnKte@lAff@oO~aAnd@fi@_F`b@jYbf@zJ~l@gMdd@iUdg@fO~PjN|LqBzKdDdh@db@rs@bEbG|i@rTzOv|@zpA~`Adw@hNj\\fK~aArUz_@|bAdeAdjAx{@`dAfj@Y`|MxS`L~T~k@v_Axt@pT`\\rDv^{EfLmGuVy_@_h@|AsEq^uNzI`Py@~k@lSpj@hf@ha@zJa@vTlPzF`StZ|XtQ`B|JlQ|TbD|DfHfLsFbPpPdQdT}MvS_CzThK_ChTq_@zYbNzHpQuD~QvPnCuH`UdFu@pF|HvK_h@rJgJlKJ`VzIrEhMgJdBmCoGqF~DoIv]|H`CdIcEpPbOrFaEhDtDji@sTdOe]ic@we@xKwC`g@vEvJmDif@eOmXfNoN`SoI_CqQw_@kRfHkPgYmMz@{DuVdyBd`@~|AhHzZ}A~a@j~@qLlL}NlBsBas@cOu@kRhHmBbi@gL|EwFmOSvLeE\\zHpQ{Kx@_GtH`HbH|NkBue@ly@}^lVcLt[lM}@~~@ilAhScNvM|GoFyXxU}NlRxGuF|d@`LeMtPlSqGnFlKnQrPmt@kZuLoDcKnMcPpOe@fAxVxFrAfRebAhJ_CcFdy@vc@|OiAkj@~CkFsPub@reA{IxvA~YnpCrjCeC`Occ@uKeSya@qu@cXb@je@kGlNzE|UoD~DpPbOfNvEjLqAbLqIyAsGnFeGvX{DdMxEtN`g@{a@npAdNsIdVyf@nFaZgF{PxB}YrKgJpHtFbEj_@kFhn@|[f{CjAn|@`JrFfFmc@g]eeElPb\\~Fzz@n@wd@gMgi@b]tAmQiIaNaRuGs^z@c{@_FoGh@`YmLgO~B{T`QkRfSp@w@lHnLbReBt_@xKrKlGyJpLnAu@mUaGfG{FcCbJmY|K`@db@tbAmJyb@~C}DnU|FxNcH{HyPfIuCiEoTvIgBbShN|Mz_@r@wOr\\xSoBmJwXmMsEs^nFgGy@iH|AmCdLpFlL|OlIoNhLwClSpE|B{DlZ[os@uVtLqI{JqN`G}GaO{O~EeGnL^fLlItNeMdJyUuEqa@hE}LkI{b@rJeJlMdOjLcUkIaP{ZaNvRfAk@gKyN}G}W~NmFiExAeI`i@iM}Q}YsJhGwCcS_U`IiHyPeEDwNjJ}HaCzHfRsn@sOcaA}n@}TcD_n@e^cSj@{x@on@iEah@bF}TqLgBkMzUaVcIoNeO`YlE_HyXiKlD{]aKaR}LtDgQaIuFyIzRov@wS}AeKlPiUiK}_@gNoFsGjDeg@kIsCtRnTzYlSnHb@nRfd@xb@pBjM`HdH|KHnMdOrPt@dDdPjJJd^ze@lNiBhLzJtG|MsTaLwTAdMrXpp@fm@_GjIyPkFgc@cb@cl@}hAgr@ir@mrAomBsrAs}@ahAgzAc\\ax@}GgqB}Os]spA}_A`Ji\\iWes@jD}L`ObRla@mIhU`Tlg@\\jVhShY}AbJrFnZ`A`OrPjP_Fb]`Spo@~p@l|AdYxGxPxGd@uD}P|JItFaR{fAor@{x@q^m]qLcdAyGc|@mv@wCqTsDhAuCtb@rHfJqN]aIoY_NgOlBiFxd@yPiQ_EV{IdJqF[iKmGoi@_L{Rqm@{a@s@j`@kF~LeLiG_WvLkNqKmDzGkEkEzp@m]bAmPzR{[aCot@hGsFnpDrpDtyCz|BpnBlzB|h@nYxBf`@n`@|f@rcAf^~h@z\\|XlK|wAdKfm@iF`}@dKbTwC~StLnU|@zjAyE|k@rj@xOfBrbAgH`f@hLnn@dDpoAk@v}@`S`}@qN||A|b@tQfIhGbd@n`A~h@xdArLl}Az|@`bAnP|\\|Rjt@tMlT~PrB|Ihs@vPp_@rc@vpAxTflAdn@jc@nIjQiBd^zJlh@du@roAlZvPpM|h@bGzeB{Uf~@jo@z[dLvjApHly@sMz}@vLbs@xu@nPjGrl@[vI~Y~]hBtVlZ~QbEnw@eBz]~Xho@`Lfa@eAjNhGzXmBf_BdOp[cMxc@dDpx@~PzhAno@pKhS"
                        ]
                    ]
                ]
            }
        },
        {
            "entidad": "23",
            "distrito_f": "3",
            "location": {
                "type": "MultiPolygon",
                "coordinates": [
                    [
                        [
                            "etb`CfrfqOpPnb@aOjHiIxD{dAfg@uSxLeQke@og@zUmEyLiKbFqEyKyFrBeIyRqGoOs}B`w@f@m}@JkRh@qcAJcSFeIDuIHgOVed@Xun@Ne\\H}M\\cx@ng@jBGoU`DDiAu]rh@xB`MVbMb@hQf@jOf@`@AlKVtCB|N\\HTfUf@jDI|EvK|EbOpBrHlEdMdC|HvB~KhBpGHv@tDpJ|IdUlEpMz@rBlIfTjKzWbKxWaJtOxG`QbAjCrIdTp@dBtGpP\\r@zQ~d@gOdH"
                        ]
                    ]
                ]
            }
        },
        {
            "entidad": "23",
            "distrito_f": "4",
            "location": {
                "type": "MultiPolygon",
                "coordinates": [
                    [
                        [
                            "alp}B`lyrOwiDzbGkz@He`OfBuOd`BajBdpRi]ppDifKfKgAaW__AhAZtTg{ArSwiZ_EuQ}kT_oEghAeEqwBw~LMuhAiEaNgkOQiKqC}zA|dBu@tOaiWfGclLr}Baw@pGnOdIxRxFsBpExKhKcFlExLng@{UdQje@tSyLzdAgg@hIyD`OkHqPob@fOeH{Q_e@]s@uGqPq@eBsIeTcAkCyGaQ`JuOcKyWkK{WmIgT{@sBmEqM}IeUuDqJIw@iBqGwB_LeC}HmEeMqBsH}EcO}EwKkDHgUg@IU}N]uCCmKWa@@kOg@iQg@cMc@aMWsh@yBuLyJsG}[_t@ih@uJwCrFmO|ExC`y@nOn{BbKt`@_D|SkEtbBy^ze@{`@xWeb@lW{D_Pyp@QOTExQwm@bVgUfEcNfJg[v@qY_Ls^qAy@aDcThNgKrC}NkAsOwFiE~Uh@xCxWvLpMfo@~`@pfBnv@fbGxaBxsA`Wdh@vCtp@mHnH_KkEoFbYfGbJtEoD~PrKzZ_\\rc@IXCZA^Kr@Ip@BZ@v@GPOVW`@Y^}@Da@LmDj@cAPuARBzAzNsAgDv]pHtRj@lCpWn^p_@zPvsHfoBdt@_Ap{@zYb~@hFfOtGfy@|Brj@oAdVnYf`@nN|r@vKjd@y@tYzOnOtXd\\|JdMva@zkAn[zo@pF|pC~x@lMxYzEcFnDrIyIMpOrWdlA||@ljBbaAjBdc@xRf{@?zH}Alf^pOH?~x@zw@DOt[qk@EiKArAp[hUTn`@^vAp_Aht@v@^fu@vv@g@xCpc@zsBpAu@oa@iw@h@OghCfVFy@}LtbAxs@mZdu@xdDrfC"
                        ],
                        [
                            "kvz_CrjzpO`SdLnw@nOzn@_X`_@lTra@kIhInFaC|HdZrBdCuSiRsWqOie@BsEvY}CwPjGnWjG~CsBkEkHvBiFfPlYdQpq@dQnLn_@{CrXo^dc@`J_k@lXnAjVnZbp@b_@lTrQ`Ax|@ag@nJ{Vk@yXeTkO_XqBqLvGgA}EaJnAsJcF}@eHfLiUqDaHe^~OrHzFu@|Fmj@yN`TsGxOoUfWgHtHyIcE}s@yH}LrTzLv@vKvOfBdi@xg@{NeQo@qFvD@kFcBvNoGGgBeAd@aBn@i@^}AfAeBbAkATeA\\eB|@y@Z}Am@NW\\?IUi@Uq@Wu@[{@i@e@]a@e@We@QK_@m@Zc@RU@g@Ie@UWFS^GNU@s@a@kA[WU_@Ii@MWOc@N_@V?\\OTAPHF\\T?ZI\\C\\O\\JNLVARE^?ZQHQ?Y|@_@He@VSN_@Q[IQL_@Oe@SSTK@[b@a@ZF`@h@t@RZPJl@Fl@JZVHRGLSX?TNPLNU@a@^]TQFa@Na@PONKTAVTBV?VCXb@NT?rDuHdMeJl@gK{c@}Ncr@_Act@fLsk@oMid@h]cKyDoIxTgFkCz@eA]?[}@{AEKNa@X?Vh@A`@Nh@AX\\G\\ie@`JyCgDnVsQz\\sHdGaUmEiWkxB{o@}eAie@_]wC{KvDaF_FbE~LuGpAtAuA@YoBFKP@d@TTJXfGbFgB~M}LgFa`@tDwB}GfRsHhDuNzF`DiFcE`HqH|KdFeJmGrI{EgNyMmaAs]kb@k^gKyDuIzL_CmKEy@YBLZPXcGzKjPxWHjJzQhHQhVxSbG|H~Mh\\|Pe@~J{SmAia@wWgKa@qCy@?}ACsISESKLOJOXGLUTNRODYRQXOVKRKRCRIr@Yh@Up@[j@Ou@{@wKnDQJAWuMlb@mOxJuLt\\yIrFY|EHXCh@yA`HA^BVQGpBx`@}A~h@_LcDfEdJ_CjD_MbE_IoCzFpCwA`LyMnIiLuBqCzCcY~TbN]~CiDcD{@tJ_FzG|AxJqInTdX|IoCaQdc@cK~DsUxH~DxLrIa@}CbErHvIll@_@jHqKjTKvg@g}@nFw\\rQ}PvKkBpCdc@tOvYfn@vm@"
                        ]
                    ],
                    [
                        [
                            "smf`CxbypOW@HULR"
                        ]
                    ]
                ]
            }
        }
    ],
    "parametros": {
        "e": "23",
        "dl": "0",
        "df": "0",
        "m": "0",
        "s": "0",
        "l": "0",
        "mz": "0",
        "layer": "d",
        "db": "proceso",
        "schema": "suavecito,public",
        "geom": null,
        "padron": null
    }
}