{
    "status": {
        "key": "ok",
        "msg": "",
        "kex": ""
    },
    "distrito_f": [
        {
            "entidad": "8",
            "distrito_f": "1",
            "location": {
                "type": "MultiPolygon",
                "coordinates": [
                    [
                        [
                            "iep_EzmehSnoBfmEvtAb}G_{@jXo|@`Y_nCp{@ok@zQk|CsiBqLcNaHxNoIwJ}]yKep@~m@yBg@eeBoj@itBgt@iTaIwLgEg@JyNyERw@mHmCob@kKId@cLqBwH_BuGoAyOqEXcVb@o^Q}WQgU?_LIeRC}EOq]BmFlH_S|AcC`F}GtIgInJy\\zN`AhB_KlAhFbDcAtQyHhZvDtPvBfDaUrYzEn@mDpYzLlCye@xJgOrMwMxQ}QtJsI~LaL|KeK`VaV|NkN~GpIxDsFrJiGgKyFpZuLlKgE`LkOpGoGbFgEbLoJ~NgM|PgSkDsKnP}OlErGfUcXhP`Pte@de@l@j@`H|GfDdDlDlDbHzGrBpBtMfHnp@~]taAb\\dOc@tUjg@"
                        ]
                    ]
                ]
            }
        },
        {
            "entidad": "8",
            "distrito_f": "2",
            "location": {
                "type": "MultiPolygon",
                "coordinates": [
                    [
                        [
                            "egyrDhd_pSwa@pq@yk@nzAu_@zl@jQns@kKd}CfBd_@zSdf@nE~j@jH`Mp]hOeb@x~AiwA|oFin@fTu_@fm@ue@p_@mz@zLye@jm@k`@`XiQd`@sZbE}BtGzZve@rK|_@`OhnAxTvX~i@dVra@`o@xJmCbIjHh@f_@cHlWeu@dt@gQjn@kE`d@{Tbh@bZ`f@fMla@mLnj@o`@tj@k\\fdArEl\\mdCdNsbAw_@{lA}Qcb@kP{W_l@g_Bgq@i^cf@eQw@srAflBwNk`@sd@jAoIm\\ui@bSi_AjzAcUqNq@gp@qIkb@{X~Pka@|aB_l@p~@aMph@{TzZ}eA~v@ah@nbAgWj~@u_Cwx@w`@oF_x@nGooBpq@{`Aj]_oA`_AmWz\\lt@xi@qYrnSgp@rAkd@bWaeAtiDicAhm@g`C~s@s{@j_@wj@~j@nItPpd@mCp@nb@_dBdNi|B`n@ow@|bAct@tEsMgl@oq@pEibBty@g[~`@sPl~@us@bu@si@jS_|@_NaUm\\_OmTwi@pAa\\lvArVf`@bGt`EtfAni@xIfr@_@r^_r@rbBgw@zpAaOdzAaHrgCnDld@|[`j@w]`c@lQj^oBpj@`a@`d@ly@~RigCxfBxGdfFkf@vnAur@dpChy@}CovBzeBqt@~pAeOp|@tSpPuKbq@iMbVjDzUqEzNlr@rPq]hi@i]lYxWd[mFfEelB{HiRyHYcNcOeKf@mL}MuTsXsFib@bGqLvbB{KlSoQlCqd@by@_OdL_TKwQmJ{MzImKxYc[jNdLngA{AxNcJdEwYuB_NwLcXcH}nA`j@}PzAax@qs@ay@dVyTlEyAwVsL}T{{@mn@uSyEmTsUdQeq@vLesAkb@kYgOi[ed@bAiqAsMkF|e@oXvg@_s@pScXvXom@TkMzGaQHoHiqAm{@t@wFtDq~@_Fia@vd@aXq]Iu^lf@kj@`Kge@rBa|@dHeNaFkg@gaAoKkMfNck@jTcOtg@_RjJcQQkJsCgb@ufAsNgLyImr@ab@xE{cAmWyX~@iUmG_HiXaNiHgd@}}@{B}]qfAw]{^|LcSi@gOsVkkA~Cqk@aKy]zPwh@bI~@rLb]fi@_B~Qsa@|h@wGreAws@~xAgS|r@}Clc@{R`_@iS|v@mLhlC`ZpzAmFhw@oS~f@eqMhlG{l@grAq^_nBjOqrA{FwVtBwb@iy@kn@_k@sRqm@wB_oAjIac@bO_Q~NeRzd@g[|`@wYtdAqS|X}x@d[cjAih@g}@ir@}nAxmGsPrrA{g@xjAWldBtNt\\lDtn@yYzt@mPndBfPljAgExd@u|A~aHa_@`]yP|f@mN`Kwe@He[`]vEtf@}iArrD}wArU}XuNcw@atAsYerBc]m~@s[s\\ug@e`BgQwZs`@uLyuB|C}s@qDwgBcVyj@hI_V~d@un@hOwzAgLyi@qVaRbzHs~TwaBei@cMwShpAk\\rfA_LfM{Mxz@H`[t`@rv@_AdfAomCkB_QmJsc@aEetAnCmf@|Tez@`w@o{A`ImYtJi\\|aAqMxJu|Apa@oeLk{Ewa@o|Co`@fI_l@jYoXdc@pE|PiJ`i@qSdMsKbc@qXd]`G|l@sK`_@ac@hKw\\uF_p@lGwKbU}j@qBiD}Nk[w@ab@uTyGsEac@pa@aF`^uQ|EwLp[w[sJoLrCmGlPu\\vUaHfYyQtNup@zKeHkJ}K`BsJdYqNvBoGtWwgEihCiYb`CeiAgKst@je@}lAzAa]jGcMvNgYqB}A{KpOqs@ha@{PrW_]r^kOl@w_@f]waAdu@qtAriAgdE`Y}TlPq_@hQaQrc@eoAvLkdA}N_p@y@sx@vRaq@bEod@iaIxy@acF{jJwnE{x@oWdx@{l@dwCvNno@?jx@zIfh@}Vhl@a\\dFcJmdq@gAkzbAmyu@rOmxXcGstEbAiJ_ikB_B}jALuh@RchArGe`aBdFkll@lnBy}Ctt@jNrRa@tj@_VfXyvA`pH_o@`WrHxvBpiDp_AdtDzI`HdxI`oBec@{_h@jwCtxCju@lj@zh@vQzM_LdUj@d[kg@~e@gd@r[ks@z[qFlKnLqFne@pSzzAnKt[b{@|w@dS|Ihy@|GtUsAfJ}KdiAoMt_Bu}@rgIufH}\\qjH}{JsmVyxBk|NwtAc}GooBgmEuUkg@eOb@uaAc\\op@_^uMgHsBqBcH{GmDmDgDeDaH}Gm@k@ue@ee@iPaPgUbXmEsGoP|OjDrK}PfS_OfMcLnJcFfEqGnGaLjOmKfEqZtLfKxFsJhGyDrF_HqI}NjNaV`V}KdK_M`LuJrIyQ|QsMvMyJfOmCxe@qY{Lo@lDsY{EgD`UuPwBiZwDuQxHcDbAmAiFvAyh@rJq[tCoQsCo@hKm\\`Kwg@kEcB~LqP_o@}MaXoGah@wKkHgH\\tEuu@{OuBaKeVoFaD_Ip}@yZzr@cVdRaTvr@q]fgB}rAvp@ue@dp@kV`v@Gdo@o\\nxAcsA~e@oVbj@{Lbv@aGjd@aQb}@mnCrOmVjq@yi@bsCyo@jW}Kdz@ur@pg@ExToIvx@aHxUqIf_@_Tdl@}l@b^qv@`PmsA~Y_aAtRs]|Y_X`]_K~s@qjAncAucC|@a^p`@_b@d]{eBtkByoBrRoq@vQq_BMc}C`VsiAa_@s|Bxf@cw@vpBakC`GwWj@__AlBmQ|LcLh_Amj@xjAjNtaCu|@x_@o\\`HcTW_eCjh@md@tyA}i@`Go`@qGm{A~Kcd@ztAmgAnUu[|j@mRfaB_qAzxBy|BvhBg_Ap{A{vAh_AitA|fBc]|c@wY~i@sgEpUkg@duAsxAdp@}aAdYms@fwAevGbeB}`Ang@o{BzVkg@n_AanAnf@u]hn@{WzhAiz@|fB{b@b~@eBrf@uSxc@sg@h\\oSp`@j@jWmGdWkSrw@yyAj\\eeB|Qg[z_A_z@~OacAvl@ui@|o@{CtVgu@r]mUh]kk@rQeo@pa@oQlWcwAld@h@tM_w@l\\oKnL_m@~u@oyBxk@sUjUey@du@`@hTeg@|]oCjz@|C~\\jT~YmCn@uhAhTcm@mAqnAlKa_@rYia@zPeKzMag@gBwn@rOeMnG}d@~^oMrL_g@G{ThWkI~]n@rTgSdE_UpTeWs_@i^ck@eRuZij@lFaSxa@oChYeu@rf@oYxH}f@nTe]ro@q]gb@y}BfGyz@wKixApn@sMnZj`@rt@sg@Owf@{`@iXqQof@zYiQlTcc@dv@wUrZay@}n@eRz`@agAj`@mO`o@bZbd@mU}Ion@lHwfAf[wpBtTeQnTcc@dp@fLpG}d@zpAys@jU{dA`{@qo@v\\pDmHs`@pL{p@la@ga@xn@fFxC{ZjScWvC{^u`@mNmDwXp`@wjB~BkbBrL{p@li@oIjXac@fr@m_@pn@qKjpBkLzk@mSpi@oCja@ee@f]}~@zDur@`W_g@Vsp@vZ}v@oHqn@tf@gYxo@oQzv@aoA~k@mMlw@m]xs@sCla@ca@zeAyEpk@a{@|a@nLnRrPpa@gYxLyf@fyAaB|bAmg@ziA~Ifr@gc@ruAvWhHtTqb@xqDwDnbA`Ohr@gChtAsVprA{k@hWabB`VcJxh@hUjvCzXrgFuFbtBr`@lFlm@qAlz@`Lp~@z[pl@~e@bv@noArY~cAn[nsBKjhAwMr|@gYvbAvInb@b~@daBtaAjlDtv@`sBnk@xq@lmBt~@hi@poAxGbnAai@hhCsmAj`E_YrpArfAnkF`DbrAkVvgDwAhnAbKld@na@v_A`iB`lB_Atd@a\\`i@jn@sUnr@yE|s@frDvq@v[xzBeAkaDfgGr{@~vAxQdl@Ut{Be[nQqIx_CaBjzGfIrj@re@l`Ad}B~cCpbCkb@b{Ccv@hpAkj@bu@zV~x@tn@l`@pn@tObtA`ZzNhR{BbVffApr@|Nxj@dpA`c@td@`l@hdAb~@t_CbMjv@bDh~@dVph@f_@vZn`@nl@|hC~uGhcAdhAp`@jt@fxBpyBtuBfsCfh@r`@jcAnd@za@p`@drDwX~aAqqBtmA}qAxdBawC~wAu_Bz|@kn@pzAyFnv@kl@lv@abAbkAkl@r_GmXdhEgh@hq@o^f_@}cArm@eo@zeGvyBdcCpEx^qFe@`YbJfS~t@``AdpAnp@vt@|HnmBjj@xMp^hBxm@rQpg@rOjqAQp_AyEtZlGro@qG~s@ix@|Zk\\ff@o`@fiBcb@h[oNl`@sh@lj@eNfw@i_@zlAbFh|@`\\xl@jKr`@\\t]qUpiAhTjk@va@|nAhh@fj@}P`|@{j@k`@g_@{FqqABu|@pdDdmB|}Hid@ft@e@dr@bHfn@}Ghp@uaA|nCw}A~zGcdBpiSxn@jZjWwV`g@rNvi@~u@v{@`h@fQ~}@frI~ZacAdfAilBhlAxzAtrJ_H|FeInb@nEtPwhDjbBrh@rgAjyA~]hxAjcAz{AfL`b@bj@nRdj@jy@neAd]`iBvW`r@gNjj@qdEhyDgEn^vItmAlQveA_Rjt@pjCdVjuRa_VbUhgF~EtxDwApjDsTtqGuE`jEnKzr@`pB~gEt[~aBoBni@{Onb@yS|qBvEpVnk@db@p^bInaAuLfUtJta@bjA_TvHcc@yIkdAj{AqC``@qV~g@uCvdC{YtzBkArw@tBzQv^rz@r_@`_@b~@vf@p]b[fQji@`F|oAeOngA[ra@hM|vAfDxUjXpNtUgFdR`XjIjoBbT|aBoy@o\\ea@q`@kY{E_OfBk`@f`@{JdBcXn[}@jWo_@dCnGnp@e]t_DvBdTd\\lw@`MjzBkFd}@lTvr@`DlnAejA_fAeb@eHoPpH_[qUiYDyPte@_Fjf@pJ`g@h@lt@{NtOUzOqTbSsJcAoB`UzHldBv_@tc@jaAjr@rCoyAhd@{{@bNtUjCvo@fMlp@zlA~}CjGfaBgCzqBpwAfnBcErd@cZ|fA|Fp^m@|_@yUnv@wA|`AhDv]sDhi@ou@p}BxC``@nqB|Bn|@gEnPvD|BpOeY|e@vW~o@|B`U_I||@{t@fwBrArl@mH~cAfFhaBgQnaCrDbwCcDpjBjC~Xlo@jlDp{ArgEti@f`CqGd}Ah`@nXfXhFx^pTvO`]jCz\\tb@fo@|Dx`@hc@be@fn@v[yz@rdDd^haC}N`_BnC~`Aie@v_A"
                        ]
                    ]
                ]
            }
        },
        {
            "entidad": "8",
            "distrito_f": "3",
            "location": {
                "type": "MultiPolygon",
                "coordinates": [
                    [
                        [
                            "ats_Eb}xhSnk@{Q~mCq{@n|@aY~z@kXxxBj|N|{JrmV|\\pjHsgItfHu_Bt}@eiAnMgJ|KuUrAiy@}GeS}Ic{@}w@oKu[qS{zApFoe@mKoL{[pFs[js@_f@fd@e[jg@eUk@{M~K{h@wQku@mj@kwCuxCdc@z_h@exIaoB{IaHq_AetDyvBqiDaWsHapH~n@gXxvAuj@~UsR`@ut@kNmnBx}C_Oqws@_VslIjD{TlLqu@j_@mbCrb@sv@fMoXvIgYhWeFj]}H~AeSbRmWfJsM~\\mi@rEiG|D{HbEcLq@qd@h[eEi@tO`^{DtNcDtL{AjAKz@fGtAlIhJyAjBYPLhRrFYxAbOlExNlEtNnEx@yDzPq@hL{BfDo@vFiAvOsCxE}@tOwChMaCjKiBhGgAjYiFvA_@hZaG|GsA|VwEfVsEf@MbXyElI{ArNmCrGqAC_VxQd@VcOoDwArB}u@sDUfAob@V}RgASx@m`@`K\\fDJ`Am\\HgBd@mMjA_]ZyHF{AV}GtA{SvDd@xOpEtGnAvH~AbLpBHe@nb@jKlHlCSv@xNxEf@KvLfEhT`IhtBft@deBnj@xBf@dp@_n@|]xKnIvJ`HyNpLbNj|CriB"
                        ]
                    ]
                ]
            }
        },
        {
            "entidad": "8",
            "distrito_f": "4",
            "location": {
                "type": "MultiPolygon",
                "coordinates": [
                    [
                        [
                            "q|g`EjorhS[xHkA~\\e@lMIfBaAl\\gDKaK]y@l`@fARW|RgAnb@rDTsB|u@nDvAWbOyQe@B~UsGpAsNlCmIzAcXxEg@LgVrE}VvE}GrAiZ`GwA^kYhFiGfAkKhBiM`CuOvCyE|@wOrCwFhAgDn@iLzB{Pp@y@xDuNoEyNmEcOmEXyAiRsFQMkBXiJxAuAmI{@gGkAJuLzAuNbDa^zDh@uOi[dEuF}NeGog@ki@gXk_@}`@yG{p@`Key@tm@qmAtE_d@pHyy@rRuh@xUai@|GuOnLaXlTue@vMs\\vO_]`SwWjg@oNdv@eOjViUrkAuqB|PeRxxAyg@`D~HdVnFtB`Ktu@zO]uEjHfH`h@vK`XnG~n@|M_MpPjEbBaKvg@iKl\\rCn@uCnQsJp[wAxh@iB~J{NaAoJx\\uIfIaF|G}AbCmH~RClFNp]B|EHdR?~KPfUP|Wc@n^YbVwDe@uAzSW|GGzA"
                        ]
                    ]
                ]
            }
        },
        {
            "entidad": "8",
            "distrito_f": "5",
            "location": {
                "type": "MultiPolygon",
                "coordinates": [
                    [
                        [
                            "ie_bDbds{RhY{QdOzKhaCpt@|_CzlA`i@rjAtdBxiGfNr[|g@bf@uf@bmBzNhCdP}Epf@c`@j\\t_@dTt`Azb@`u@lhCxyA~SpY~g@nQzFyIbGmnAvOpe@dp@ts@~fDnv@hvB|_AjuAz]xZ|Q`Bt]bd@lWdnAtXrqAj{@jq@lIlq@gCfdBk]n~@aA~k@lKheDlaDlvFjbGoBtz@{Hlf@cr@lUcUns@ipBhPjEjSbu@|e@|GjOk@jdAyM`\\}\\vNoUvt@ea@|UoVv^_JbaAqdB~k@cZhh@uLbHyWz@oNtQ}a@pSa^vj@ouA~cAi{@zjA}s@t\\ua@vx@_c@pW}SlXif@`zCww@sGe}@pCemBln@yPvtA{uBdiCs@oEmMzEmMgA}k@b\\aQqP}lAe^}|BqwAwf@eA_^md@wxBcAaPiD`q@{dBjJ}l@td@kh@n^cpA_@od@oN{l@tCir@uDyi@_PpCa_@d_@qQ}HaaAf_@udAUyxA`gAm\\`f@m\\XiIjQoNzEuTqCue@eXue@iNwVUo^kQ}\\iDcSel@~M}l@sCgKgWqC{YbOwv@rCuUiNaBkQkLuNgGeEyg@jGc_@~[_iAtf@mu@l{@skDxa@}_GjtLueD{n@{\\aVyUnWo\\`OkKmDig@fAyXrFJrq@dYxt@dkA|qA|^jl@j{@`IfYfl@tUpJuCvImKpM_^nMur@vL}h@tt@uQlk@wc@j[}j@nMq_@fU_MfAmnAo[gd@pWa~BnPs_AdUjaAbbByh@n@ec@d_@mg@hcA{eCn`BczA|`Asa@fK}Z|\\kx@~_@oLvSiy@uFo}@xB[jzG{s@hd@qOwC}`@o[c\\sN{@fYihG~nIeaCyBkcBsaHgp@_sDq[rk@s]rgBoaApAit@`A{vA`rAwE|O}j@rk@gUhKcp@hs@cSjKmK`VoNnGq`@eCX}OkLcb@vQ_yHoqGtbIonAx|AikA}\\s^km@cTcbAkaCpbBcbC|~AexHdzE~nD|sBjRrVdv@ra@xNpd@uOzr@ajFfwGedA~aBm{AraB}]xUcn@ry@_SnYyTzv@ud@nMqbCxfDp`@kDnxAxq@|e@hF|j@_\\n[mEtR|DrQgI|V~N~Wr]hUzKzr@nHlj@cX~W|Np]bGlVpPrNpPbL~f@nM~Ddh@n{@pZ`KlV~Xxr@dFbMdUvc@mI|W|Nrk@`@ne@~h@j^d}@zUjW]pQnb@`s@zo@tb@sEfYqOtGwHfV{BjaAsKt`AdGn~A_J|iAdKny@iNzu@iWdC_LgDuEhHr@`LqPdPux@k\\gUbCol@nZ{t@bHqNk@oa@e|@wF?{SdUgd@uZ{JrGcEpQ}LpDel@}PcGlf@gIhYuD@cZa_@u^_KoIm[mu@mA{Ta\\o[z@ej@u_@{v@nT_i@xAeCgHbH}d@gDkN_z@~Rq[qLmYwAwQ}KJ{]wEgAkf@~@if@nSmJcHlAm_@yFeHmNnRoK}Hq{@n[wRcKcUt_@{YxGPbL_Svi@e^uH}YjBa\\{NaPlOyVrA@rMf}@~EfRlTcEnN}ZdCql@lTcQD_J}R{YdMcB{ElPid@yR{Ro[iCq@dEkXlBgHpG_ZaDss@rr@fBp[wF`FaG|d@xSnWMtMmOp\\MfOkM~S_]~T_NnAoKyEm@nN_YyR}K`CxSxRwFnDoYuH`EfJpc@dDfDnFmUp]aI`C|IzHqApGme@kItC|EoBhRwSFoOvGOvFb_@e@lHbOgCrPag@hf@gOpt@jCbn@}Cpi@yTl}As\\t_AyAjt@mXjtAFzk@qq@`g@ag@po@kTpeAi{@j{@cRzCeMy`@wRsBm[`Nsk@wJkJrGmQ`b@}i@fD_OhS|Eh\\uIrXy\\}b@qg@cTkGgKw@mf@yM{j@oKuI}Xb@wfAif@sMoMwBuWmVsLsGpUc_@fJ`L~p@jOzRoTzh@lBvWf\\dYiGdHiHziA{Pjl@d@nNaMfPwG`@oHkH}a@vReZ~wAwM^u@hWs`@jt@kt@xmBhjBxgBlb@l\\fs@f{DsRzc@wShUw}@zFqAyDmh@wF_}ArMyJoDa`A|FuN}DkbAti@}Ltp@{EvcAbMz}Ayg@fq@lnAp{Dbd@`}Def@vj@gb@jYsTuGci@`P{zCq]eNayC}[xCaTcFcVuSik@u{@}f@uF{~@av@uHoZkAmc@_^a[mKw`@uY}YcQcc@eq@yKcU_Q}LrFg`@}CafAkXml@bGeUmC_\\kSqKsw@eZcTsj@?fFzh@vMhb@kQfDuHyKyHOuu@re@um@pE`o@bnA~VtVtW~Cbn@ldLmjAbq@gnAb\\gLvZgo@{Zk]{Dk^pd@gBr~@aMpM}\\HrC~o@la@naAsPpz@q^fw@i^t`@_u@dZwj@~e@wMz]cvBdpC{qAtV{w@rbAyHiv@gKaQmOaCwAgh@eUqr@{KiB}{@`Buh@ja@kbAd]kwAvD_gAfY_XvVoAftCfLrRj`@rSvh@tIcNtI}_@vn@{EvhAyFbEse@kJya@dXqgAfxAqWtyAgRhNij@}H}iBgn@oQyG_UkW_NgMeByP~PmVrwBqxAqyAmK}bAc[}IyIz[w\\bLm|@pU{i@sIa}@|O}e@{Du[`CeSvYei@gDqJqj@{Yg^mp@mr@ks@a`ByaAs@t~Ea~EyAqDoqEiVeHo_BsbAwbA~Ds]aOq^uB_x@oZkq@kb@eT\\_Rp`@wV`QkXgDbNweEzSeqGoO~Wcl@q^e_@{k@wBm`@qM{SkFsf@wPkj@cf@opGbUka@tX_iArw@{iBpCga@lMkV__Fnb@qx@r|BqAzWuEdBif@v@auBy[mYsT_KyWgR{Zid@gY}yC{rAoiAgJgkAmeAexGpyC|@f~@sId[tG`l@T|kCwLlZuHdaCao@tsBuBhv@sVtOsb@tz@}MrK{s@wJwx@uf@gWmm@}Gnd@rXf\\zAjd@cVzcAm}@pgAwj@vWgu@jDzO`a@lhB|~AlEdZrLrMc^vo@_TnhAcc@rw@}pClfBe{AlR{wCle@hYerBco@~FvNi_@{yDj|@oLjkAioAeNeTdPim@lNuMzCcAsGyO}bA_jCezA_iAqo@a`BxKmnEf\\iKdsDqEjK_}@zsBsDpIi~AxrDgsFhlMcyBuWq{Ajy@_mBbl@}R|P_Xkj@s_EhuAhCfLycB|fAer@cB}RzOgk@gU@n}@ge@tlAyIlqAgIv]fE`L}K~Dib@|u@oPfbAiIjHmLr`@qr@pz@sa@Bkg@o`@gF}P^uYs@{w@}Ye^kIci@an@wfA\\sg@kYkVes@oNiXfP}N~i@gHls@mgBzGoOtNzHlv@qiLz|EaNqvAyc@amAiv@{EsQ}ImKkVa@}x@wa@kaA}Wa`D}Jw\\}[wMwsAtDyg@qCmhAy[{K}PuBuUfHolApa@qpBzZ}_@lKsYQwn@dEyQsa@}t@_MauAwt@eLky@v`@_|@jE}\\qYa}@mRes@sr@{J~[cb@bj@qa@ptBig@`rAoOtNs`@{IgU_XsQcf@uDef@tCaMa^gLqa@b_@_]o@oNyF_]s`@yf@yNmyA{a@}y@ohAky@yXkx@_MiIhE`Adf@`_@jw@Nnh@mMx\\ud@fTwUxdAupChJgf@lp@a_@pOkj@nH}}@oVor@|Ds^oHw[{UeEa_@{WmIqIsM_t@ixBxIwa@rA{}@dS}ZCyg@m_@o|AhCuVm]a`@aBc_@jZs}@bDua@~_@ydApGoLlo@sb@bVci@fb@cTp_@q]rGyh@_I{LmOnB_g@vo@ah@lLcs@ba@ox@|OmU~Og~@jKgl@|k@ez@~Duq@uE}m@cA{dB|PaJmNcgA|B_UtIsMhUqb@tCyd@hTqPMmIkGrG_l@ud@WyVwe@}TmQg{As[a_B|WcPuEaVuWwh@B_c@hEuJ`KyQpsAuNhU|H~H{@zJxQnMVvNcFdFefAiA}_Afb@aMeDuKiV}TsPiVqEizAf@ax@hKei@lf@aTrBmI~Yme@nm@gc@kgAck@{u@[sVsNaHmEaMt@yYmZig@gZk}@uDSoh@lPi{B~eCoHnP_YzToPzcAmBpm@iaDwWiTkk@pUqiA]u]kKs`@a\\yl@cFi|@h_@{lAdNgw@rh@mj@nNm`@bb@i[n`@giBj\\gf@hx@}ZpG_t@mGso@xEuZPq_AsOkqAsQqg@iBym@yMq^omBkj@wt@}HepAop@_u@a`AcJgSd@aYy^pFecCqE{eGwyBsm@do@g_@|cAiq@n^ehEfh@s_GlXckAjl@mv@`bAov@jl@qzAxF{|@jn@_xAt_BydB`wCumA|qA_bApqBerDvX{a@q`@kcAod@gh@s`@uuBgsCgxBqyBq`@kt@icAehA}hC_vGo`@ol@g_@wZeVqh@cDi~@cMkv@c~@u_Cal@idAac@ud@yj@epAqr@}NcVgfAiRzBaZ{NuOctAm`@qn@_y@un@cu@{VipAjj@c{Cbv@qbCjb@e}B_dCse@m`AgIsj@`BkzGpIy_Cd[oQTu{ByQel@s{@_wAjaDggGyzBdAwq@w[}s@grDor@xEkn@rU`\\ai@~@ud@aiBalBoa@w_AcKmd@vAinAjVwgDaDcrAsfAokF~XspArmAk`E`i@ihCyGcnAii@qoAmmBu~@ok@yq@uv@asBuaAklDc~@eaBwIob@fYwbAvMs|@JkhAo[osBsY_dAcv@ooAql@_f@q~@{[mz@aLmm@pAs`@mFtFctB{XsgFiUkvCbJyh@`bBaVzk@iWrVqrAfCitAaOir@vDobApb@yqDiHuTxRs`@jNiIt\\wCrm@vCdRkMta@yIbp@eBpSoGvh@ss@bs@nSdiBfHtOkGla@s[|`@mu@|Jwz@k@inAtKeM`bAsJhjA~Npx@cd@|]uEbYc{@|QgYds@{o@zd@mu@vXqGzg@u]`Tau@~p@_X|s@eFx\\dDlm@aHfF{\\dNeSt`@dBzVgg@xJsbAbIaO~{AmtAzh@oo@nSkIdk@xKjiAkh@|ToAbE}R~]uCp`Cm_AbeC}WdeAbQbRgQnRlFvZ|a@zSjJ|XjBpWQ|b@uQdc@YfEaKlWmIfUhNhT~e@pg@kq@dg@~An\\oMpWSzv@nMrr@|fAz`@~M`k@|AheAcp@tWjDjs@fg@nj@u]|h@mm@haAbU|PgI`We_@z`@~KtPcW`]`RlTaa@d`@oY``AdUpk@ok@~H}RxxAl`@`nA~FvOkCnp@pUr_@}~@xUe[pNr@aJcl@vCyVdRgKdj@p[`QkAaBq\\pF_Kz}Aot@b|@sy@hz@eLzKgCtp@om@tc@cu@d`@kYx\\h@dT~_@~H{T|YmM~Kt@p_AguAo@wNnTa]zPeOjc@~ItG{Tlj@oa@j[oGvzAyuAp`@uEjl@zE`f@|M`t@_oA~Myb@~Tl@fY`X~t@{UnRlHx|Amj@pm@a@~_@ce@hOyb@fk@tQhPb`@v}@wg@pBwTt}DagCcBid@pY_e@rLsh@vYc[~Isf@|g@ia@pUwn@pSiEdWcYjKqf@x\\fBr[dLtSkClKw^~\\bNtOgEhAuTiQkLrHmn@fMIvRk~@vP}XjNcIhUm`AkB_v@`\\wp@f[kMt\\oCxTgKnGqd@jNeGtTyAhL~DfIaElHc~@z_@wt@sMg\\bAmb@vKaKrSiCnRlFzLyX~Dq`@vb@ca@Zo^yw@krAnKu^lNgEtK{RpHgv@vOqeBvy@owCzeBqlCviA_VgResAfOqh@v\\oC~w@vG|mANhd@mM|_B_gB~g@e_@jS{Zj~AkVvYyb@fRgGvk@_k@rGq^~d@q~@~g@ac@sImRGsRxI}cA|m@mhAlZ}qAbwB}vB~YeMjYg~@xCm`@hSw^|cAwjAhf@kdAlcAwcFdv@}xCyDww@fF_~CnQwoAty@knAdCiyAhP{eAy@}q@nJmhCdPqwAf\\on@~@{y@b_@wtAsEe_@lJy\\|cAc[hG{Qqd@m{@m@mi@hr@w\\~fAoR~\\~Blj@pVpiA}PtCuCuFgPo}@}n@uGe_@`\\_\\|ZcBr_@|F{BotAzIoDlx@Zxb@}PhVgPhS{_@xTcM|IwQzaA{f@_@uNuU{QI_r@rAiL~g@u\\Iay@rXqaAvUe}BzHgPlcAo`@tBwJsUmi@bIwy@wWyU{BydAsGy\\rAqR``AmlAxRgb@nDoeAuZ{y@{Cq~@oRa\\_AkSbOcTnM{Btc@fMzWeEoH}|@zv@ygBt`@}Er_AdJVkp@vMaq@v@cj@pLmKzm@z`@|HoKyKe_@bA}IlIaMlmA{w@xP_c@|VyTbNqY`MoK~l@`GtU|M~ZmGpI}f@gGwJ}\\aNeAkbAli@}AnLwFrYuc@dLqk@tQiS~e@iVdWrV~Ia_@eEYaC{Mt@aXnJoRdRiAvCgL_Gau@fDeIje@_PvC}I_QwYmBoVjTeWhu@eDgJyQ~c@qaCmAeTmaAgr@ojAqIyZyNcDqKhQu\\|Dqk@~H_Xxa@oNzX\\tWlWzF~x@vFnD`\\{PnXcWzD{ToDqd@cm@sbAoFme@zVqJvUdFbz@fy@z_@ai@mQgn@duW`tNp~RjcLhtH~iElHaTjBym@fr@k@b]uTrc@bXll@fMde@~[xg@bJ~j@mGrj@iR`L}^ls@s[|dC|Obc@rRv\\|t@jYlAbStN`_@Bfe@hPrSbMpUhe@pd@tg@dFhLfBhhAvi@pr@zP`f@iBfrGdcB|rAlhB|q@~mG|dD|W|T~qQrcKj`NfhId{PvfJ|fJdlDpXfWnYxKvaVxjIblAjk@bmFlfBxlMl|EpjFjbB~jEnvB~gAp_@tNpMhkTa{N`j_@etDn}V}xCxv_@suEzcDsI|pHaaApxE{`AroOmvB~uMopAjlAci@thJ{sAb~NkoBp`ZsmD}kFp|c@iy@phRphAplCxtAhfIpr@|o@khBjuCgFp\\`eAxeQscArkAu`@pIeeAho@gr@b}A_o@lZcx@lz@iuB|o@m~@vQ`Gb`@no@tnApYxbApS`XreAtmDj^qa@|b@sAp_@cS`o@gIgh@}q@@}z@z_@q_@l_@om@he@eUdu@{DpzCqbAdc@hoEfN`\\xh@v^~Xr]xa@bV"
                        ]
                    ]
                ]
            }
        },
        {
            "entidad": "8",
            "distrito_f": "6",
            "location": {
                "type": "MultiPolygon",
                "coordinates": [
                    [
                        [
                            "iyvmD`zdfSnZa\\pIkC_@nFnFx@hKhAcJlbApAhXD^NjPjCbQpHsClG|j@h@d@QxP_@|YKtG{@nOl@tFhCvDlC~C|CpDSf@`ChNd@dRExOVTtKdY~BtEtB|DjGvLbGhL|GpM|H`MbInIx^h\\xFdFuBtDtPjKnBt@bf@zR`UbQsc@fPaGeAc@bJnOfJrStdAnIjK^}OtGu@lGiMxJxHnQTdh@jbAuDdCzEtPig@|lAbZ`J{`@pVvCnWrEjA~pBsx@aAeEhKsNnaE~uD`zB`k@lhCl^j|@dh@|h@iBju@{NnqAbVn_EflDen@rhBwc@`nBcIjs@sRnOmiAfc@mq@`kA_r@nw@oFtn@~k@luAbOvMIja@sa@jPue@v`@up@|Nk[zQuEfPVtc@wGtNo\\k@}p@w^s_@rDsqBiPsMgS{a@gVa\\cLe{@cKgQsUaI}^mt@_Lsj@mUeAuU|N}T}HgL}JiA_l@tOe`@kKob@gh@uDjAy\\ne@uSbFgk@d`A_r@|y@wKt`@uThPdB`MeHp]qTzc@kLrKgUbFok@vD}hApf@cNcPqEgbAiN_q@g`A_pA_i@sM}Ruc@gSaPySmK{IlHT|T_NhEafAmFio@wWoNxJ`Yr\\~IjVsJ|q@zGrN`{@lrAph@jNhSbPhZl}@xSvMtOjVoE`c@zE~WoNfIqi@_PmKlAbEtkA`Jja@g_@b`A}vAjY_z@rxAa\\gDkXhIyMtY_G`n@fB~jBeElpA~HxX}CbrB}LfI_h@iGaq@b]{f@zG`M`IhMtn@y]fc@qOvG}KaB}\\jTcQ\\iaAc]q\\dAwXiM}w@aO{K~Ckn@wB{g@kOew@wAaqCj]oB|f@hBbIlRbKhChh@wKjMe]w@y[rQyVjCwh@iH{^~SsMg@i_AcUea@rCgEy[in@k@ub@bIsg@o@mp@xYuj@l{@|@rr@qVjr@coAfx@_b@no@`@x|@gIdJ_MOk}@sZ_\\nC_s@h\\kW~a@m_@jOoDlLfOdd@fOh{CoFdQkK|Ckp@g@wCdoCea@~b@uP}@iD}EyCc_A}NyScDwXsQoTg\\iIsMg]kGa_AbJ_o@_G_f@dDo^cT{RyRoB_Lr^_WpXyXlG}a@_C_w@bDq`@`Mkq@z@wJ|hAlGzb@aHhMqPdG{P}KaEuQVuk@oSsi@aO{w@uDiw@fLwl@_CuU{j@_IeShCqk@re@sjA|MyQ{DqYy]cSwSsEkVdJiMzVmCzE}r@rIuO_Km`@xPwSzUi@sk@ov@iX_s@ay@ir@oc@uaAgEy_@_NqXk[bL{p@~`@cP|]cb@fL_FdQmRbOeO_AvGtu@mp@n[oyEbTubAyd@}TyDai@~Bs|@_OkZeUaV}GzRhd@jChi@vKxLdx@p_@dPvAjKbWyRpu@fVhr@aGfQys@nI{]dPa@l^o^neAl@pV{JrXwmCs}BgSos@yFwr@kXsk@we@mVgUuU_^sCca@c[oNcB{LjLuE~TmL@q_@_Qk}@|k@klAvKwxAt{@{{@tOeUvNae@p{@crBgKuRoa@ub@mViVsz@}KcIk\\rl@k\\nSwXt]sd@~\\ik@vR{YxC_m@ml@m[{Mgu@wMuUUgwA~Uk[yBkg@c_@ap@_M}M~BoeBmkCkx@{u@}[eIgg@~FkZsCspB{b@{Hi[c~BqbBea@iq@sc@sNud@o@o~@bYyI~McUigFkuR`_VqjCeV~Qkt@mQweAwIumAfEo^pdEiyDfNkj@wWar@e]aiBky@oeAoRej@ab@cj@{{AgLixAkcAkyA_^sh@sgAvhDkbBoEuPdIob@~G}FyzAurJhlBilA`cAefAgrI_[gQ_~@w{@ah@wi@_v@ag@sNkWvVyn@kZbdBqiSv}A_{GtaA}nC|Gip@cHgn@d@er@hd@gt@emB}}Ht|@qdDpqACf_@zFzj@j`@|Pa|@ih@gj@wa@}nAhaDvWlBqm@nP{cA~X{TnHoPh{B_fCnh@mPtDRfZj}@lZhg@u@xYlE`MrN`HZrVbk@zu@fc@jgAle@om@lI_Z`TsBdi@mf@`x@iKhzAg@hVpE|TrPtKhV`MdD|_Agb@dfAhAbFeFWwNyQoMz@{J}H_ItNiUxQqsAtJaK~b@iEvh@C`VtWbPtE`_B}Wf{Ar[|TlQxVve@td@VsG~k@lIjGpPLxd@iTpb@uCrMiU~TuIbgA}B`JlNzdB}P|m@bAtq@tEdz@_Efl@}k@f~@kKlU_Pnx@}Obs@ca@`h@mL~f@wo@lOoB~HzLsGxh@q_@p]gb@bTcVbi@mo@rb@qGnL_`@xdAcDta@kZr}@`Bb_@l]``@iCtVl_@n|ABxg@eS|ZsAz}@yIva@~s@hxBpIrMzWlIdE`_@v[zUr^nHnr@}D|}@nVjj@oH`_@qOff@mp@tpCiJvUydAtd@gTlMy\\Ooh@a_@kw@aAef@hIiEjx@~Ljy@xX|y@nhAlyAza@xf@xN~\\r`@nNxF~\\n@pa@c_@`^fLuC`MtDdf@rQbf@fU~Wr`@zInOuNhg@arApa@qtBbb@cj@zJ_\\ds@rr@`}@lR|\\pY~{@kEjy@w`@vt@dL~L`uAra@|t@eExQPvn@mKrY{Z|_@qa@ppBgHnlAtBtUzK|PlhAx[xg@pCvsAuD|[vM|Jv\\|W``Dva@jaA`@|x@lKjVrQ|Ihv@zExc@`mA`NpvApiL{|E{Hmv@nOuNlgB{GfHms@|N_j@hXgPds@nNjYjV]rg@`n@vfAjIbi@|Yd^r@zw@_@tYfF|Pjg@n`@ra@Cpr@qz@lLs`@hIkHnPgbAhb@}u@|K_EgEaLfIw]xImqAfe@ulAAo}@fk@fU|R{Odr@bBxcB}fAiCgLr_EiuA~Wjj@|R}P~lBcl@p{Aky@byBtWfsFilM`CfqCxHfR|Kpr@mYnqAkWnm@|S~fBhJhcAhFlBk@|OdYh~@gaB|CwYjR|Dff@qJrTnaCiu@h]}L~HsC~FuBhQmGjMqElDoAdQgGrUgIxBhReFlZkExQLzIrH`NtCgAbP_BdDw@tE}AnBtHPPxCbLrAxCtHnWhQhLv\\ve@vOeOzHsHbF{EfH}GnXmXnUuSzLwLxLgLxBuBbSmRhHyGtC_ClAcAxNyKjQ~CnD}AvOkQjJsLp@{@|EeGvDgEdOiQvGeIlQmTzTeXjO_Rzk@sr@lCaDfHuIhHyInHcJdKcMfRsUuHaI|PqUeC}BbM{RnF}KdF}KfFwKrIgQ~BiFpGkNx@uCFkE\\iMvFoKlZka@"
                        ]
                    ]
                ]
            }
        },
        {
            "entidad": "8",
            "distrito_f": "7",
            "location": {
                "type": "MultiPolygon",
                "coordinates": [
                    [
                        [
                            "}nzcDr~stSfb@rYeFlNoZzPwNbx@l\\tu@iGfiBvFdYtT~YO~HnOnGl{@qFji@mo@xZ~uCcwA`nDuRoDmYfKqOkAyVbHcApQxUleAq@~x@|Khq@}K~uBosDiqAjSjvBnWhj@xMlu@lAhaAtZx[qZt\\_Zy@j@|EqJlBcJ}G_FrEd@zIyYmE_GxDaRlX}OxFoD~GKbj@id@ji@e{@`yA_\\|Ja_@|WkMeDefAy_@_`@sVao@qHo_@ev@ijAep@qqAgBi_B|`@mL~ZzB~i@kJwFwz@~@{d@kLwk@|Uy|@mBaLzVcb@P_P`y@}h@t`Ak_GdR}YkNa|CmaDay@ce@_i@icAqNYiWnJs^yMie@tPmZxB{HuCsQkg@gSiOwc@{FkOo\\yOqUu|AbpAaf@hL{UpLwdAb@qiAcz@|j@djC}vAcr@yUqEwf@ResFzlBm[mE}Fuy@bDqp@dg@sbBdImx@cRuzAyLw]moBj|@gy@xMmGb^l]rc@xBfRkEr_@eTvf@qU|Qca@sDmcAzXnAzd@fU~|A{Arz@wf@lp@_mAnh@gf@fA_u@cVkf@iEyPqSea@mEeOoPyBmNdE_uAmGkNe~AkKyErf@hPrS|D~RsA`h@ePn]{PpODxPqI|Wye@pe@gS~kAsP|b@hA`SceAz}A}uDvjEcbAod@cROor@wZgTgCap@ue@OhHej@xk@md@tI{c@sD}}@|q@gm@Ngj@bu@}e@fDu[br@ww@vy@{Rh_AmIrJm_ChrAg@zkAjIpGaAdL_Y`S}Htb@sNjKxHz^qZxBpA|SzIbPrx@zXyE|ZdRxTQzPnZ`MnLbPkkAtE`Bze@~[tt@}TjtAah@jUyo@vt@_DoBuZvIa_@cB{fAomAmi@k\\aVyj@mJsBaZ|Oab@jAsZxLoKnSqKlaAyWzViDfl@kr@vd@mMpZqgDdh@q|@ie@mpAka@q\\sQwZm_@_U{c@eSgC_]fVq[cFwZyQwGtYoHcH}XnQuv@jCfKbk@cc@rq@ql@wIi\\fk@iXnEeLn]o[hFob@v]{Z~Jrl@jwBni@xy@l]p~Az[|k@GnYwS^o_AgW}UcOoRgd@cXuWga@{DwIxJ~_@hj@Ubb@yYzNzIbz@oBxFea@xDga@mFiIxCuKt`@gHpDyUDsDtG}f@oBuXq[cj@gJiRiRyAuX_KqCsTjPoFhWmRnZuYsAal@pu@{@jKyRbEwDfWmEyTkIiD{ZzNuPzj@sf@z]oTt]wIfI_[b@dArJyGSxCrQeGbFs[yHxCrJwGpDya@gCgs@~Dap@lUaH|T}MpHkF}Ewc@KyO{SqqBfr@aH`Xo_@pPeYxYop@lU}YlBeh@fYqKwI}Kwt@{Oo\\aReaB_Qwb@iUhm@gu@vfAoaAld@}ZrE{fAlaAk}@ycAkM`Jcn@fDm_@|RsXa@eHyCOyq@mgA~Iy`@gNgGrDI`TwGrDvCnGcc@nMcGrRiInAeK|X{LvGwDyBOgp@sVg]aw@eFjBkZiFkDoh@qEqQtKkr@iIkg@ck@m@cm@kj@_gAja@t@vi@s[bXqWzR{g@re@qTjPi[`b@mMpAuG{EgH{c@qI_FoYoKyInJ}j@}HyIkr@wDyg@_h@h@_X`Yqi@gDyBmp@oWyGlA{Pb\\kLvGiUcA_Kg{BzKyCfJ}Qqh@kM_Deb@kGwFfOkb@mDw_@jh@aeAiBmVxF{u@~PqHva@c@nRwR|g@{DnEuHrTqm@gBsdA~D}r@vRmQ`f@fN`NcHdVpAoCsNjCqUiBcb@cGqKuw@cs@m^wA_j@kc@mx@sqAn]wEja@ul@|l@wSbHs]nReXmUmNc@aM}HqGe@oRsLqNqEok@gMo`@}JkDqh@|v@ySaEif@bG}XwEiVzC}ViK_[i@do@cDtFwCvLw`@|]iXzWa@pc@cYty@fJpE{QgAmVzJgIhAyc@xWiBcLeWya@uEhPqxDc\\gsA_J_MqNiDeRBuSbJkVwIuYbg@um@{DmK~BgXxRi_@hj@{Wk@~Cpk@uEfI_KaIgUbCeFrGgAiSuOeL@_d@pKsJhAu`@bYp\\vETxJoOAeIad@_^aUwf@bCaFn[y@xL_Uhk@}d@vR~Az@wUjc@zH``@qLbEkSxT`EjKcFzHjDhCzTr[dOdM`[|JCxRhOvHoOlKfAfMulBwm@yOeXqc@in@mXaW_[ueBuCaUai@gk@gY{j@sm@s]eHsJa[ScTxQyr@sTew@ym@aZkXbC|GkvE~Rm^jf@uHgRg{AhLs]tU}QnC}T}`@el@khAkj@eKcm@uk@cOhZ_lB_wAvVsHhTgVxL{Te@o]_PaLrA}wBt_BwaAU}NfF}TYe[gQg[bFif@`gAeZfHvErX]fWeFbIs|@lLoe@db@uLz@Rr]}Jhi@o|@ff@_`AjaCoOxHaYoH}EyHg@oa@kIyV}tAkx@qX_\\kOmFsfBdd@o`@kVct@h~AspApg@kX}SyN}c@ae@kk@qj@gRgWpCwxBoDeIoGcDih@}KmJc[kD{U{U{}@jK{K`KgDhQ{SvPsVuKad@nKgx@_UaH~GgJ{AgMo\\{KsAc`@`[_TgB}XdeAu}B__B{sAtRi[zTmSp^vEbvGwa@`Uo}AdNah@vd@mPreA{c@b~@wL~q@~DbbCen@tu@_w@|PqNjHiGlO}YhHmh@VyTpYqOjHerC|w@iq@he@^hp@svAnYqPkHwEqK_D_`BcQsR_M?eFke@}ZhAu_@~PoMwC~Ya_@kJePoMAgp@zf@_Ybf@cQkAoNqKqPma@mZjHcAnKhXdf@iG~PmZeBub@ma@qy@|b@mK}ByGzM{J_JkXaFu`@VoZvJwVoOke@aFif@lDmJhLlKxFda@WvGtNsAlO}KzMciAbf@cBiWyIuN_j@eTie@oDfEkSeGw`@c[x@yj@pQaEqHfKai@kCyNoLkXkX}WmQmJkt@x]~@aXsNeR}p@pIW}MaKcRcb@lVwa@ar@up@r[{KzS?lZub@rY_Hha@}TdJga@nD{d@cU_JvEA`\\eY`NaWxh@gXfQ_NJqJgk@uJmImiA|Sy]ki@ew@qJme@yRcR}ZgBwRsq@s_@_Dob@_g@vPkvCfSsn@d]{y@v`AsWLebBts@swChUi}@uGcf@}QupAoCal@lUgbA|Iel@nO{hAh@}nBcl@cg@{w@}_@~Kwj@qvA{q@q[xCo`@|G}HiZiJuEqRepAsqL}tCzb@eg@tAgZoB}hCsw@mZeRefA~IgiAcc@_]r`@}fAsMuzD`gCgB_{H_f@_Y}Q}UcKokAmnAig@k{@yt@qCyhFqj@nS{x@cQqMpAisAdbAcu@hJmk@x_AyVzQ}Gzc@_d@|i@iStu@oJhCuGeSyQ_J}p@wE_QvKabAfLlFn{@{iAx[y\\o@q_Bm|@u~@sQiVhAmv@n[_GoTwv@_FuBvTazB~DoQeb@ym@_PaAht@y{@zEm[i`@aoA}Don@xMwuAsAkIna@k]nJ_Pz^}LO{VbQc\\{Han@dPkXRgZaDee@}QaZfD_I}HoMFsJnF}BxYcV{CyGmNmXxBsSlo@mIpBqd@aFuNcIyFmNaRo@oFnV|DnYe`@yMaTj\\sc@b^ui@_Gwg@cRiy@xKui@dYu`@z@eElOjXfq@yGbP_YlShNdh@e@nD}LQqDtJ`[h}@nAfe@ua@|Ok`@aEsUp[{e@`Cs^m^eZsEqHpFIxZiHIg{ApoBiQed@k^qG}gBwv@yEq\\nGor@r]_k@tGwb@zlAnMwZ}o@oHkd@{E}zCoK{kAiEqkBy^scAuc@}a@sqBmv@s\\jKmnAhuAgJth@jHl^m[nAwPzb@mh@rCsa@fa@kp@_L{JsPku@zAu[iN{JqRkl@e@}NoLuSqPdOq|@pt@_qAnvB{eBiy@|Ctr@epCjf@wnAyGefFhgCyfBmy@_Saa@ad@nBqj@mQk^v]ac@}[aj@oDmd@`HsgC`OezAfw@{pA~q@sbB^s^yIgr@ufAoi@cGu`EsVg`@`\\mvAvi@qA~NlT`Ul\\~{@~Mri@kSts@cu@rPm~@f[_a@hbBuy@nq@qErMfl@bt@uEnw@}bAh|Ban@~cBeNq@ob@qd@lCoIuPvj@_k@r{@k_@f`C_t@hcAim@`eAuiDjd@cWfp@sApYsnSmt@yi@lW{\\~nAa_Az`Ak]noBqq@~w@oGv`@nFt_Cvx@fWk~@`h@obA|eA_w@zT{Z`Mqh@~k@q~@ja@}aBzX_QpIjb@p@fp@bUpNh_AkzAti@cSnIl\\rd@kAvNj`@rrAglBdQv@h^bf@f_Bfq@zW~k@bb@jPzlA|QrbAv_@ldCeNsEm\\j\\gdAn`@uj@lLoj@gMma@cZaf@zTch@jEad@fQkn@du@et@bHmWi@g_@cIkHyJlCsa@ao@_j@eVyTwXaOinAsK}_@{Zwe@|BuGrZcEhQe`@j`@aXxe@km@lz@{Lte@q_@t_@gm@hn@gThwA}oFdb@y~Aq]iOkHaMoE_k@{Sef@gBe_@jKe}CkQos@t_@{l@xk@ozAva@qq@he@w_AoC_aA|Na_Be^iaCxz@sdDgn@w[ic@ce@}Dy`@ub@go@kC{\\wOa]y^qTgXiFi`@oXpGe}Aui@g`Cq{AsgEmo@klDkC_YbDqjBsDcwCfQoaCgFiaBlH_dAsAsl@zt@gwB~H}|@}BaUwW_p@dY}e@}BqOoPwDo|@fEoqB}ByCa`@nu@q}BrDii@iDw]vA}`AxUov@l@}_@}Fq^bZ}fAbEsd@qwAgnBfC{qBkGgaB{lA_~CgMmp@kCwo@cNuUid@z{@sCnyAkaAkr@w_@uc@{HmdBnBaUrJbApTcST{OzNuOi@mt@qJag@~Ekf@xPue@hYE~ZpUnPqHdb@dHdjA~eAaDmnAmTwr@jFe}@aMkzBe\\mw@wBeTd]u_DoGop@n_@eC|@kWbXo[zJeBj`@g`@~NgBjYzEda@p`@ny@n\\cT}aBkIkoBeRaXuUfFkXqNgDyUiM}vAZsa@dOogAaF}oAgQki@q]c[c~@wf@s_@a_@w^sz@uB{QjAsw@zYuzBtCwdCpV_h@pCa`@jdAk{Abc@xI~SwHua@cjAgUuJoaAtLq^cIok@eb@wEqVxS}qBzOob@nBoi@u[_bBapB_hEoK{r@tEajErTuqGvAqjD_FuxDxI_Nn~@cYtd@n@rc@rNda@hq@b~BpbBzHh[rpBzb@jZrCfg@_G|[dIjx@zu@neBlkC|M_C`p@~Ljg@b_@j[xBfwA_VtUTfu@vMl[zM~l@ll@zYyChk@wRrd@_]vXu]j\\oSj\\sl@|KbIhVrz@tb@lVtRna@brBfK`e@q{@dUwNz{@uOvxAu{@jlAwKj}@}k@p_@~PlLAtE_UzLkLnNbBba@b[~]rCfUtUve@lVjXrk@xFvr@fSns@vmCr}BzJsXm@qVn^oeA`@m^z]ePxs@oI`GgQgVir@xRqu@kKcWePwAex@q_@wKyLkCii@{Rid@`V|GjZdUr|@~N`i@_C|TxDtbAxd@nyEcTlp@o[wGuu@dO~@lRcO~EeQbb@gLbP}]zp@_a@j[cL~MpXfEx_@nc@taA`y@hr@hX~r@rk@nv@{Uh@yPvS~Jl`@sItO{E|r@{VlCeJhMrEjVbSvSpYx]xQzDrjA}Mpk@se@dSiCzj@~H~BtUgLvl@tDhw@`Ozw@nSri@Wtk@`EtQzP|KpPeG`HiMmG{b@vJ}hAjq@{@p`@aM~v@cD|a@~BxXmG~VqX~Ks^xRnBbTzReDn^~F~e@cJ~n@jG`_ArMf]f\\hIrQnTbDvX|NxSxCb_AhD|EtP|@da@_c@vCeoCjp@f@jK}CnFeQgOi{CgOed@nDmLl_@kOjW_b@~r@i\\~[oCj}@rZ~LNfIeJa@y|@~a@oo@boAgx@pVkr@}@sr@tj@m{@lp@yYrg@n@tb@cIhn@j@fEx[da@sCh_AbUrMf@z^_Tvh@hHxVkCx[sQd]v@vKkMiCih@mRcKiBcInB}f@`qCk]dw@vAzg@jOjn@vBzK_D|w@`OvXhMp\\eAhaAb]bQ]|\\kT|K`BpOwGx]gc@iMun@aMaIzf@{G`q@c]~g@hG|LgI|CcrB_IyXdEmpAgB_kB~Fan@xMuYjXiI`\\fD~y@sxA|vAkYf_@c`AaJka@cEukAlKmApi@~OnNgI{E_XnEac@uOkVySwMiZm}@iScPqh@kNa{@mrA{GsNrJ}q@_JkVaYs\\nNyJho@vW`fAlF~MiEU}TzImHxSlKfS`P|Rtc@~h@rMf`A~oAhN~p@pEfbAbNbP|hAqf@nk@wDfUcFjLsKpT{c@dHq]eBaMtTiPvKu`@~q@}y@fk@e`AtScFx\\oe@tDkAnb@fh@d`@jK~k@uO|JhA|HfL}N|TdAtUrj@lUlt@~K`I|^fQrUd{@bK`\\bLza@fVrMfSrqBhPr_@sD|p@v^n\\j@vGuNWuc@tEgPj[{Qtp@}Nte@w`@ra@kPHka@cOwM_l@muAnFun@~q@ow@lq@akAliAgc@rRoObIks@vc@anBdn@shBpiGhqCbSoVzjC{EnqIwj@xbCuPki@ysApNzB|h@uKd_@fH~{@_Yv`@zErxAcK~]cMnZhDfUcFbl@nCtb@aQoQ|i@v@jd@f^vb@nGjd@lKjKlYgBvUgPbH}e@vR|LtPxBdT}F~ZfHik@pcDU|~@kLz[}o@~{@d@d^bOzExv@m^zGpNpi@bOvSeBtk@|Vp\\|Abq@yUz\\mh@}Ckr@nCel@fx@o`D|Rfv@of@`tAoErq@tIpx@bX|v@KrUm@fd@ibAzqAc@rt@saAyQ}j@xEec@t[{H|ZyWtT{HxW^lYpTtm@s@~y@~Q~v@q@dLz]rq@rCdZkIjYql@|r@kJrXeCdZzK|IeQjiBdFz^yF`z@zMr{@{OtX|Tzl@bChYcdBtqDcIvPbrAxb@vu@lHwcBtoAyv@lx@yGnj@`BrQxg@ze@pRhk@bCv[_MhpC`Qjn@tc@o\\zJiV~MkKvUqpAfFs{@bbAkDfcDiKrBrXkIju@zY|}@o]~mBaAhVjKvFtc@_e@tTdSfHsJlKueArQ}LlM?xg@lDhh@zWrc@b}@p@|L_Or_@Q`e@lk@pf@NrXgVfk@jJhsClLjKpnA`^`PjR`RhAne@fjA_\\ZukE|gHk^`m@lIt\\bUjJztAc@n~@`r@n`@|k@nd@~Sm|@|`AtBbmBkNf[bBrf@nL`_@uI`Y~RrLtEhk@aBjlA`Ot`@eC~j@r{@zoB~`@vqCxD|{@xjAlaBteAtlCfGvi@uEzpA~n@pkAcHbQoOlEoqC|nBqz@q\\arAiGuRoMf@bvA}NzkAm_@tAyLrKqWtYsJ~WdA`P`Grb@lq@zp@lqApBdb@pLoNv{@kSh^}Hng@zSlxCeJfPwt@xh@~Czh@kLnAyi@~sBu{ChuCcgCtbC}V|w@vs@h_AtRdHtZrb@`qAtr@bgB`qB`Oxj@Udh@vN`ZnvAxRfh@`@h^lVdP~`@jHpm@ns@kZx_@yXvc@|ArWkVjTuf@j[oA}BtQ|FvWsPdv@da@hDfy@kP~IfOtM`ZfGf|@sKj]d@xPkO|Pp\\xgAcIzWi`@`b@Hr_@_I`e@rYt^TnN{NxMtAjKuF|IqRrG_BhHtZ|]{Cr_@xWxy@lCl\\vN`ZleAziAe@ba@uGbIwWbFaN|\\y@po@zG~|@yV~o@eq@jl@_eAvhC{OnRdEvl@cIjVfFdr@mFda@mWrc@gGlg@vKlIn_@fF|nAmi@hi@bo@n`A|DnRqEhnBiiCvJaJnQkBbNnMtj@fqAtQdGpTiFbQma@v@u[eVu{AhbBwwCvJwGdTzDjo@~d@rUqEjQoLfd@orApc@so@tVun@u]{XnNio@hWjFzMaCrIyQ}@}d@eOiQ}e@_X{[wD_b@dDj@sJ~Kih@fi@}n@dYwKhYkl@nl@wc@dFqBzj@hEtHcFrS}p@hGkn@dNkZ|lCuqAlp@gAhcAhXbeBpGzg@hLdXwDfm@tb@`IFr^}Bjd@}YdVes@`e@kz@`JykA`WuRl@uJfXc@bH}IUuTfa@k[bMo`@tHsGvw@tFfdA~uB|jA|hAfi@}A_DxMdVbp@qAzr@znBxB`]oa@zOc}@hMmOng@kQ~\\bJzBdVwLvQRbLxQdUoItb@nQrk@cy@v}@V`SlTr]~ZbaA|Q{JjHzHpTcJz~Bo{Bt\\sF`uAnBsOfv@~@vZhU~h@vtBkIts@mR_BjUnMjDh[wCtTnJaD`Io^gD}N~E]b]uWvMcEfPrSli@zYzEcBz]o@xZ}L|Vo^jKq_@b]jJ`d@~^n@NlXrQxSgGzn@zJfHcr@dBaa@r[NdYxGjK|MAtDtMgv@xWgH~~AoN`Aon@`ZsSjAm{@l\\gGrJiIhAwe@iNeUnGaAzSwu@eAcd@|]__@hHkYrQiJbn@ue@h`@eEfYrBzLnM|EzJ`S_@zSwF~Yyi@t}@aCpl@{\\~_AaAva@jJzL~]xLzIfYl[dRzeAxlA~^dRbBrToRtqAiZ`k@eUjHgWuPgf@aEgx@rkAeH|]nNta@~k@fUo_@ba@hGzL~^oD`Pj_@cEz]vT`n@n]tIdUkRbSoDaAjUrOlXgGt^fD~YpOjNdDjUve@fUhVf\\~jA~l@ta@hz@bYlQ`r@xoAbq@t]`j@daAnm@~Nxj@lh@h`@bc@~IdeAluAroAp[fz@xe@b\\bq@lW|v@l|@`b@u@rBiHzJYzh@vOr_@l^zKwFp[bhAmc@zOyiB~yAuc@cDac@fIgv@pvAwZxTsd@nHma@fZqk@hu@}pA|RwX~IeRmJo_@F_QzFoQ~LoCb]eKxWcT~LqF`Z_QrGop@xDqg@ze@`Fzq@sFvW`Hxg@fj@j|@rLle@|e@r`@rJ~[jZdIpsAc`A`nAmO`y@bAvHbEvDrTm@re@kz@vnApPf\\h[bO{Qdn@}@hc@}f@n\\{b@|d@{g@zcAsXpNqUo@qSbIeJpXxH`SmGhMjn@xRdb@fJbE}Btj@xi@rb@jFiApe@iQza@og@~^_R`wAuLn_@{NjO`oAjnCtT`Hrc@kIha@c[lm@_dAvXaJl[bDtWwGnZ|NzNifH~qBgP`M|RjB|c@bXpn@rS_@lnA}hAxCtPk|@zkAgl@nVd@vZ`c@vz@`Fjl@yLbPzBff@f`@pVlCzj@dh@wKca@l{@kq@~[aIxZoiAvn@zWxkAjfCam@psC}kAlPqNzBmXbWqU~b@oL~aBoKz`AgXpa@yB`_@xFzj@e@~MxHjV|N`g@rm@lFvVpBr_AvNv`@l{AthApc@lBxs@nEpCwF|]{@dl@c[vUP|tB|a@fOd_@zErvAdVt}B`n@vmAdItj@_DjUdLfb@eJlUqd@tKgM|SeX~IoS~S`KzRn]jF`Zb[p\\zNjfA_g@pc@{G|WjMbKhWr]f[jY`KloDzr@zUtOjZrEx[kLli@al@|Dw]jQoUhn@qVbHwPrwAyM`WwTdM{]F{c@sXwi@hQ}]r~@}i@~pAkmAmF_VuS_He@mQdJ{SiEqPtYePbGcL}XgTnnAfAfcBpSvWeFd[oRhXiBzOrOdh@aZ`c@uJhY~DbPzRjx@hZjlAtAdr@pOxy@jFr@pWqa@hEgNjy@rNr~DpZx`A`eA`mBtq@hZzZ|Dxr@zr@}@jh@b]fh@cEzYv`@rp@bf@zjBrH|FpH~Fl\\lCdTfQbh@hhAnQpQrTtv@nv@rl@vLvh@mSnhAqj@~g@|UiA`X|EvYpb@c^lUo]xh@cv@bZa^l\\yW|d@gSdL`JpQvUxPhi@jHlL~HfWj\\~Opy@sBlG_|@fb@ap@dKmJ|w@kYvq@pA|OhL`Dvg@bx@rb@y`@`P_BjZpGfWhR`q@zlApBxq@ff@tJxWwS|CfF"
                        ]
                    ]
                ]
            }
        },
        {
            "entidad": "8",
            "distrito_f": "8",
            "location": {
                "type": "MultiPolygon",
                "coordinates": [
                    [
                        [
                            "uvpjDxadgSQtiAnc@tnA}UvZyDjRvH~I`e@rLnRvmAoJpXgj@dt@myBzuCyM~e@}M~P_~@fm@JsUcX}v@uIqx@nEsq@nf@atA}Rgv@gx@n`DoCdl@|Cjr@{\\lh@cq@xUq\\}Auk@}VwSdBqi@cO{GqNyv@l^cO{Ee@e^|o@_|@jL{[T}~@hk@qcD_[gHeT|FuPyBwR}LcH|e@wUfPmYfBmKkKoGkd@g^wb@w@kd@nQ}i@ub@`Qcl@oCgUbFoZiD_^bMsxAbKw`@{E_|@~Xe_@gH}h@tKqN{Bji@xsAybCtPoqIvj@{jCzEcSnVqiGiqCo_EglDoqAcVku@zN}h@hBk|@eh@mhCm^azBak@oaE_vDiKrN`AdE_qBrx@sEkAwCoWz`@qVcZaJhg@}lA{EuPtDeCeh@kbAoQUyJyHmGhMuGt@_@|OoIkKsSudAoOgJb@cJ`GdArc@gPaUcQcf@{RoBu@uPkKtBuDyFeFy^i\\cIoI}HaM}GqMcGiLkGwLuB}D_CuEuKeYWUDyOe@eRaCiNRg@}CqDmC_DiCwDm@uFz@oOJuG^}YPyPi@e@mG}j@qHrCkCcQOkPE_@qAiXbJmbAiKiAoFy@^oFqIjCoZ`\\mZja@wFnK]hMGjEy@tCqGjN_ChFsIfQgFvKeF|KoF|KcMzRdC|B}PpUtH`IgRrUeKbMoHbJiHxIgHtImC`D{k@rr@kO~Q{TdXmQlTwGdIeOhQwDfE}EdGq@z@kJrLwOjQoD|AkQ_DyNxKmAbAuC~BiHxGcSlRyBtByLfL{LvLoUtSoXlXgH|GcFzE{HrHwOdOw\\we@iQiLuHoWsAyCyCcLQQoBuHuE|AeDv@cP~AuCfAsHaNM{IjEyQdFmZyBiRsUfIeQfGmDnAkMpEiQlG_GtB_IrCi]|LoaChu@pJsT}Dgf@vYkRfaB}CeYi~@j@}OiFmBiJicA}S_gBjWom@lYoqA}Kqr@yHgRaCgqCh~AyrDrDqI~|@{sBpEkKhKesDlnEg\\``ByK~hApo@~iCdzAxO|bAbArGtM{Chm@mNdTePhoAdNnLkkAzyDk|@wNh_@bo@_GiYdrBzwCme@d{AmR|pCmfBbc@sw@~SohAb^wo@sLsMmEeZmhB}~A{Oaa@fu@kDvj@wWl}@qgAbV{cA{Akd@sXg\\|God@fWlm@vx@tf@zs@vJ|MsKrb@uz@rVuOtBiv@`o@usBtHeaCvLmZU}kCuGal@rIe[}@g~@dxGqyCfkAleAniAfJ|yCzrAhd@fYfRzZ~JxWlYrT`uBx[hf@w@tEeBpA{Wpx@s|B~~Eob@mMjVqCfa@sw@ziBuX~hAcUja@bf@npGvPjj@jFrf@pMzSvBl`@d_@zk@bl@p^nO_X{SdqGcNveEjXfDvVaQ~Qq`@dT]jq@jb@~w@nZp^tBr]`OvbA_En_BrbAhVdHpDnqE`~ExAr@u~E``BxaAlr@js@f^lp@pj@zYfDpJwYdi@aCdSzDt[}O|e@rI`}@qUzi@cLl|@{[v\\|IxI|bAb[pyAlKswBpxA_QlVdBxP~MfM|Jdp@tMlWta@js@prA~bAhP|sAlZ|q@a|@dkA~EhZt`@ro@zH|p@ySftAtRlnBl_@`jAzAx[}R`d@"
                        ]
                    ]
                ]
            }
        },
        {
            "entidad": "8",
            "distrito_f": "9",
            "location": {
                "type": "MultiPolygon",
                "coordinates": [
                    [
                        [
                            "wcbbDhp_~RjLtN`BjQtUhNvv@sCzYcOfWpCrCfK_N|l@bSdl@|\\hDn^jQvVTte@hNte@dXtTpCnN{EhIkQl\\Yl\\af@xxAagAtdAT`aAg_@pQ|H`_@e_@~OqCtDxi@uChr@nNzl@^nd@o^bpAud@jh@kJ|l@aq@zdB`PhDvxBbA~]ld@vf@dA||BpwA|lAd^`QpP|k@c\\lMfAlM{Er@nEri@|sC|zCvfEdk@tHaBdwAcBbh@gkDxsC_dBtvCvyDhwIqhAnzChwDrkFhcCetAfcAjdC|u@n`AaMdJ|n@rqAbiDd_Dew@`]m`Azm@_`A`Z_y@ve@q@zE~o@peDaBxf@hfCrkGwFpMsXfXuT~Eww@nHkk@{Daa@vCr^jt@m@`_@fSvl@hXvElHbb@bSiHbRlPsDnJ{J@qd@td@aVrt@}NjNnJrp@cGb_@eVrJ__@wHo_AlOu[~tArCrc@jd@fGeEh[vCvLzWpIjI~KrP_FtAtVrOxRwHz\\fEpPlu@zDwAlU{d@vqAuX|YmQd_@{ZhErPjJxGfQ}PbYm^nNab@i@u_Aag@kY_HwY~Oca@cDaD~Kac@vWpNtfGqy@fwGiIxi@r_@va@n_BfkBa}@f`@se@zqAisAnlCkUjrEwe@tT{zChvAlYnvCkyF_Syl@v[m[aAzNrcApOCuUvfGsp@yN}c@lcAkKdE}kCr|MciAzcD}L|oDoAv^c}DteK{Erd@aWbZkNnNqb@~Mq[qOikAxSc]gMcb@uA}BtZlEfXr[tUfUzDu~BvmDyHn[qd@l~D{PeGcDzBv@hpA_QzFiMxPgWao@{_@sb@yUuHye@{@ql@xl@qc@vKqF`Vi}@pWeHpGqH`]|FpPw^x^sGpQ}OtJnIrSlYhFnI~Na]np@o{@`p@jDfUqEtPzEdKjf@fINzp@bSh@nc@sR`MfGb@fKaL~c@k_AxkAmQvbAoj@do@hmCfhAtvGf}Cs`@p[wHjcA{v@vk@sBxI`@dRnZj^b@nu@jWvw@o@rMtQzRxGzYtBb\\iW|`@aDnh@jIxY_@xVzVnMbB|\\xVgYhXgEfs@mi@nk@w@lj@qXtQYb`@jJvb@bXd~@_@tBc|Hzg@|AxWmNxU|AzHtg@oOtPsA|O~L~Aa@kN|JzOwV~\\o]pQ{Jx`@zGzf@pO~KpMnWaPdOiIbYvEpWtg@bf@`Bpq@tCbOfGn@hv@yVtS`HbMxYdc@eLjIbEdBpMqq@j_@b@bO`^wCdCdHsDlQmMhKtAxLlJ`Ern@uJrU``Abi@|Xdd@eLza@`UjWl@tTsM|KYfPz_@`]wCnu@lPze@rBnJnJ`@nJlLwFzHpCnJpPqCrP`x@|DlNyI|Y}B~X|Ks@kNxIgKfp@rBpReOtw@r\\n^cLle@rL`P_Fjf@C~I|U`N~AxD|Kb}@ffGhRm_ApsAdbBlt@myEni@gGvs@a[h\\o@hKzJfb@j@`s@gf@t{EaS`LzRmNzOgJv`@}NxLjG`OkB|l@eQaEsCjD|Fr`@i@hh@thCabAhrAfh@pFxj@tNtVtA|ZnYh_@{HzKjFnEOvRzMvFCfLfKbOxaAuNvn@}`@tJ}MxAwm@pN{PnDmWjm@sqAzWu_@fgAlo@p^|eAhb@`NvKpc@Gb_A{GtTwwAfeAtsBhfBfgB~hCj|DnjCnxD|~BhKgKd]hJ|j@iOhTxHhMjq@kJjDnKbHaEzRmL~HbKbXyPbv@yKjQtAlJ}tAtyAap@nXkOhXqa@|Ywm@rcEk@l]uEdHfEhDvHcHpBy\\~n@w`AhKy_@p_@|ArB{HxXqMrSy\\l]oJvv@wc@``AaY`PiA~]tIn^}RjYpCrr@}Ete@qj@`Aw\\nNwLhh@gHtn@n@x\\cOnq@}h@d^h@zTpRzl@fRlXUhb@x_@vYkO~a@zHdPwEhB_e@x{@y^zoCrlExhAnApl@k\\~f@}J|S{Xb^oIpRjP{Oxw@|^_Ex_@`Fvl@r^nMJvj@}Wjg@~B`aAtr@|J`]pz@`Ht\\zd@nKeBfKx_@dLmLnRiz@pe@iv@~UlFbDhNlNjArIvi@ls@`p@xwAaF~QzOrHrc@vDzuAhMf[d\\nt@l^`Fdm@rw@n^sBtf@lKrD|Hvg@bIzL`O|LbBhv@q[xWZh~@p[vu@e@d\\pm@td@yArVfUno@hB|Eck@_Cw_@eXuV{K[k`@wf@hAck@xs@wd@xTi`@zi@cGde@jHlMoC|Wq_@Iea@nMqInNeAx[hHr{@v}@rs@lH|OrPdTmCjLrCrh@na@|Q|e@jLbBxe@gM|~@zMjv@k_@`SgJdSzUpN[`L|JdMne@ps@|g@`QrEnJh^pKwF~PdHrh@dEr|@eYzg@hCjpAgFn\\o`BtmBzp@hTdx@r\\xxBfOnCxn@dn@xUhn@jZnl@vu@x{@jaCtmB~DzQncAn^nKhWtv@nFv_@mC|Y|Hf@hLaKdTk@j_@|lAtxAfv@`IlNhe@{FxYye@f[tMvs@gQ`t@}hApd@}k@xAm[hP`DrYnSvb@j@zn@c]fv@m]CcArI~q@z_@jMhQbE~Tx[vY~@nS~Rnc@LfQ_`@wFg_@nhAaOtRkl@{LgTjc@u_@cBvJnh@`MvU~r@|f@fs@tCp_@|Mhs@zBhOdJxU`_@jJr[sAtSiUfK{ExOsUhSiEjZia@xt@_SvBcHlItPvw@uCbQaJjB_y@rIoo@tSgi@jk@mzDzsGqk@ttAiGfg@lPbn@uCrLvHl]gErLtE|HuEjMkEreAyg@fZcBdNvXt\\cAxXfIve@mD~_@_b@S{b@nc@s]_Cmr@xIwCfEaq@wLsWnS_b@wDiFpGw@~v@ea@na@k~Ad_@eAbLvShe@|n@hUhFfm@l_@hIgxDlkAy_@jfAwSbPcT{AgWc\\ep@__@gJ_g@qNsKyhA__@yi@w@a^~Zak@nKgs@zAaKlJpAtXqQzUyb@xYiYhm@aXpCw|@~FmRzQot@~~Awf@{Ike@d\\iCddAePr_BsJdd@ep@vx@sMvx@dAdPnHtP`XbDrc@im@l{@mVx\\t@nx@`oBkBpw@vC~FeZdXwi@uH_UhE{EtXkIzEca@v@_UrS}[aLyi@tXsd@kAoa@wYoTsl@iUly@ub@zTa_@fj@mKvEm_@mDed@x[qPtBoMfT_PvBiHbKaMr\\?tOj`@ha@n@hWxIjDyFnSmz@|p@aRhDwi@iKiGvBcAhTtWrVG~zAgs@hv@ub@|w@ue@hMkF~w@`Fdq@`SjWrEbXfYdKsAdNgh@x[aP`\\ea@xXcKP}XuPspA{VqjB_DcFtExJpUyXxXkH`UbEvb@iHzHac@cRgIuLo@wRif@v{@qt@oGqSkj@sS|NyHq@aRAcBjZcQxh@pUlm@gElJet@`q@sUaBoMzHiHbKrBfQsk@bgCyIdKiWfTyZnC}_AyLsu@l@cClJrEri@tEpC~Ajj@kI`u@nBto@yXr\\kBdOmCtXgGjGuy@jEidBngE{w@pbC|e@`{D`d@fq@`@~Ncb@ft@j\\`UxZfn@f}A`h@fj@jg@l]cXvDmpAjKWre@v_@lObXbBrYfYt_@rD~Q|MzEtDrIhJbh@gy@zk@ii@py@?|H|LpCvh@eH|MxB`c@hTnLjYgT|\\_ObHNns@qQl]}NxEar@wBoa@rVdFjcB{m@v\\tVj]NtIyI~Nqb@|KkLbXyH|[aSlMfG`e@{K|[k\\zHwEiDcDuLzK}^aA}KwGxBsS|KsC~QfHrYuEdHmp@xRgXzUhIzXeEpSm`AvLuf@`b@qc@uOeEbHdDbXreAvx@N`UyHrVcVvLsRqCwh@rCgX}N_a@id@wX`OaBri@{KhTk\\bByYkGwHjWbCvLh@bIw\\|c@o@pMvm@n\\pL~Qb@rSwNxm@qXzLqPzf@aLxHgWdj@ql@`j@w}@ryB`DtLeMlYtT~QkZ`w@jE~s@q}@zQcMrLav@oMgb@qVc]cHazAwqAmHm|@wPfAgl@fiAcw@jeAnDppEsLj`CapHxtCsSxt@r]~iBzKjWpB|D}IpFgw@hDcNzHio@vgAodA|z@oxAA{hBdd@au@q@oh@gWyQpIkc@iDy_@o@}]js@_d@hGmFl`@e[rIuMfTuPpCc\\sFwOxUkIiDgHwR{z@VmUhGaOyH}GrLkb@bH_KaBqb@o_Aib@qC}nAgd@kGp@uMhZ{Azn@{H`EsMxBme@{Ecg@rF{oAlc@ah@_BsItTx`@`zI}}Ag\\{zBRiiCmH{HrFim@gPoNjJc]rm@}G`f@{Vja@so@vUcc@{PwRrV}Gpn@s`@hJ{Wp`@lMjKChb@eR~X{Ft`@rSpQ~@rPiW`HcRoGoNl@yc@dh@mMA_Rsa@sH}dAiNii@op@ya@oaCqu@fLc_CcQ}Kmi@et@yqBgg@}pBUy^hT_Lp@c\\uIo\\aXsl@|d@gr@nJk}GbtBot@joA{fFdnCg`E{lComB{\\}LxE_Zzf@|Pdt@ySvc@uA``@|O`d@fYva@l^pb@bDyB~M`InN|vDvu@hvDcj@vgD~TvXQlQ{JxLq}A~Ps@lQ~NvFtE`Su`@jh@dArJe]vp@`BpE{qBzlB`AbJgJ`LcSnDyJ|Ok\\rJqaA}CaS`IoPfReg@x@eTqFoLuLaNkT_Kai@kvA|yA{YqIcFxVfAvc@yJrWvC~XwNtt@sVzS}i@{Qub@{[kOsnAqr@b@ub@sO{n@~S}[aHcUzIsR}Ach@ihAeTgQm\\mCqH_GsH}Fcf@{jBw`@sp@bE{Yc]gh@|@kh@yr@{r@{Z}Duq@iZaeAamBqZy`AsNs~DfNky@pa@iEs@qWyy@kFer@qOklAuAkx@iZcP{RiY_Eac@tJeh@`Z{OsOiXhBe[nRwWdFgcBqSonAgA|XfTcGbLuYdPhEpPeJzSd@lQtS~GlF~U_qAjmAs~@|i@iQ|]rXvi@Gzc@eMz]aWvTswAxMcHvPin@pVkQnU}Dv]mi@`l@y[jLkZsE{UuOmoD{r@kYaKs]g[cKiW}WkMqc@zGkfA~f@q\\{NaZc[o]kFaK{RnS_TdX_JfM}Spd@uKdJmUeLgb@~CkUeIuj@an@wmAeVu}B{EsvAgOe_@}tB}a@wUQel@b[}]z@qCvFys@oEqc@mBm{AuhAwNw`@qBs_AmFwVag@sm@kV}N_NyH{j@d@a_@yFqa@xB{`AfX_bBnK_c@nLcWpU{BlXmPpNqsC|kAkfC`m@{WykAniAwn@`IyZjq@_\\ba@m{@eh@vKmC{j@g`@qV{Bgf@xLcPaFkl@ac@wz@e@wZfl@oVj|@{kAyCuPmnA|hAsS^cXqn@kB}c@aM}R_rBfP{NhfHoZ}NuWvGm[cDwX`Jmm@~cAia@b[sc@jIuTaHaoAknCzNkOtLo_@~QawAng@__@hQ{a@hAqe@sb@kFuj@yi@cE|Beb@gJkn@yRlGiMyHaSdJqXpScIpUn@rXqNzg@{cAzb@}d@|f@o\\|@ic@zQen@i[cOqPg\\jz@wnAl@se@wDsTwHcEay@cAanAlOqsAb`AkZeIsJ_\\}e@s`@sLme@gj@k|@aHyg@rFwWaF{q@pg@{e@np@yD~PsGpFaZbT_MdKyWnCc]nQ_M~P{Fn_@GdRlJvX_J|pA}Rpk@iu@la@gZrd@oHvZyTfv@qvA`c@gItc@bDxiB_zAlc@{Oq[chA{KvFs_@m^{h@wO{JXsBhHab@t@}v@m|@cq@mWye@c\\q[gz@muAsoA_JeeAi`@cc@yj@mh@om@_Oaj@eaAcq@u]ar@yoAcYmQua@iz@_kA_m@iVg\\we@gUeDkUqOkNgD_ZfGu^sOmX`AkUcSnDeUjRo]uIwTan@bE{]aPk_@__@nDiG{Ln_@ca@_l@gUoNua@dH}]fx@skAff@`EfWtPdUkHhZak@nRuqAcBsT__@eR{eAylAm[eR{IgY_^yLkJ{L`Awa@z\\_`A`Cql@xi@u}@vF_Z^{S{JaSoM}EsB{LdEgYte@i`@hJcn@jYsQ~^iHbd@}]vu@dA`A{SdUoGve@hNhIiAfGsJl{@m\\rSkAnn@aZnNaAfH__Bfv@yWuDuM}M@yGkKOeY`a@s[br@eB{JgHfG{n@sQySOmX__@o@kJad@p_@c]n^kK|L}Vn@yZbB{]{Y{EsSmi@bEgPtWwM\\c]|N_Fn^fD`DaIuToJi[vCoMkD~AkUus@lRwtBjIiU_i@_AwZrOgv@auAoBu\\rF{~Bn{BqTbJkH{H}QzJ_[caAmTs]WaSby@w}@oQsk@nIub@yQeUScLvLwQ{BeV_]cJog@jQiMlO{Ob}@a]na@{nByBpA{r@eVcp@~CyMgi@|A}jA}hAgdA_vBww@uFuHrGcMn`@ga@j[TtTcH|IgXb@m@tJaWtRaJxkAae@jz@eVds@kd@|Ys^|BaIGgm@ub@eXvD{g@iLceBqGicAiXmp@fA}lCtqAeNjZiGjn@sS|p@uHbF{j@iEeFpBol@vc@iYjl@eYvKgi@|n@_Lhh@k@rJ~a@eDz[vD|e@~WdOhQ|@|d@sIxQ{M`CiWkFoNho@t]zXuVtn@qc@ro@gd@nrAkQnLsUpEko@_e@eT{DwJvGibBvwCdVt{Aw@t[cQla@qThFuQeGuj@gqAcNoMoQjBwJ`JinBhiCoRpEo`A}Dii@co@}nAli@o_@gFwKmIfGmg@lWsc@lFea@gFer@bIkVeEwl@zOoR~dAwhCdq@kl@xV_p@{G_}@x@qo@`N}\\vWcFtGcId@ca@meA{iAwNaZmCm\\yWyy@zCs_@uZ}]~AiHpRsGtF}IuAkKzNyMUoNsYu^~Hae@Is_@h`@ab@bI{Wq\\ygAjO}Pe@yPrKk]gGg|@uMaZ_JgOgy@jPea@iDrPev@}FwW|BuQk[nAkTtf@sWjVwc@}Ay_@xXos@jZkHqm@eP_a@i^mVgh@a@ovAyRwNaZTeh@aOyj@cgBaqBaqAur@uZsb@uReHws@i_A|V}w@bgCubCt{CiuCxi@_tBjLoA_D{h@vt@yh@dJgP{SmxC|Hog@jSi^nNw{@eb@qLmqAqBmq@{p@aGsb@eAaPrJ_XpWuYxLsKl_@uA|N{kAg@cvAtRnM`rAhGpz@p\\nqC}nBnOmEbHcQ_o@qkAtE{pAgGwi@ueAulCyjAmaByD}{@_a@wqCs{@{oBdC_k@aOu`@`BklAuEik@_SsLtIaYoLa_@cBsf@jNg[uBcmBl|@}`Aod@_To`@}k@o~@ar@{tAb@cUkJmIu\\j^am@tkE}gH~[[oe@gjAaRiAaPkRqnAa^mLkKkJisCfVgk@OsXmk@qf@Pae@~Ns_@q@}Lsc@c}@ih@{Wyg@mDmM?sQ|LmKteAgHrJuTeSuc@~d@kKwF`AiVn]_nB{Y}}@jIku@sBsXgcDhKcbAjDgFr{@wUppA_NjK{JhVuc@n\\aQkn@~LipCcCw[qRik@yg@{e@aBsQxGoj@xv@mx@vcBuoAwu@mHcrAyb@bIwPbdBuqDcCiY}T{l@zOuX{Ms{@xFaz@eF{^dQkiB{K}IdCeZjJsXpl@}r@jIkYsCeZ{]sq@p@eL_R_w@r@_z@qTum@_@mYzHyWxWuTzH}Zdc@u[|j@yEraAxQb@st@hbA{qAl@gd@~}@gm@|M_QxM_f@lyB{uCfj@et@nJqXoRwmAae@sLwH_JxDkR|UwZoc@unAPuiA|Rad@{Ay[m_@ajAuRmnBxSgtA{H}p@u`@so@_FiZ`|@ekAmZ}q@iP}sAqrA_cAua@ks@uMmW}Jep@~TjWnQxG|iBfn@hj@|HfRiNpWuyApgAgxAxa@eXre@jJxFcEzEwhA|_@wn@bNuIwh@uIk`@sSgLsRnAgtC~WwV~fAgYjwAwDjbAe]th@ka@|{@aBzKhBdUpr@vAfh@lO`CfK`QxHhv@zw@sbAzqAuVbvBepCvM{]vj@_f@~t@eZh^u`@p^gw@rPqz@ma@oaAsC_p@|\\I`MqMfBs~@j^qd@j]zDfo@zZfLwZfnAc\\ljAcq@cn@mdLuW_D_WuVao@cnAtm@qEtu@se@xHNtHxKjQgDwMib@gF{h@rj@?dZbTpKrw@~[jSdUlCll@cG`fAjXf`@|C|LsFbU~Pdq@xKbQbc@tY|YlKv`@~]`[jAlc@tHnZz~@`v@|f@tFhk@t{@bVtS`TbF|[yCdN`yCzzCp]bi@aPrTtGfb@kYdf@wj@cd@a}DmnAq{Dxg@gq@cM{}AzEwcA|Lup@jbAui@tN|D``A}FxJnD~|AsMlh@vFpAxDv}@{FvSiUrR{c@gs@g{Dmb@m\\ijBygBjt@ymBr`@kt@t@iWvM_@dZ_xA|a@wRnHjHvGa@`MgPe@oNzPkl@hH{iAhGeHg\\eYmBwWnT{h@kO{RaL_q@b_@gJrGqUlVrLvBtWrMnMvfAhf@|Xc@nKtIxMzj@v@lf@jGfKpg@bTx\\|b@tIsX}Ei\\~NiS|i@gDlQab@jJsGrk@vJl[aNvRrBdMx`@bR{Ch{@k{@jTqeA`g@qo@pq@ag@G{k@lXktAxAkt@r\\u_AxTm}A|Cqi@kCcn@fOqt@`g@if@fCsPmHcOc_@d@NwFnOwGvSGnBiRuC}Ele@jIpAqG}I{H`IaClUq]gDoFqc@eDaEgJnYtHvFoDySyR|KaC~XxRl@oNnKxE~MoA~\\_UjM_TLgOlOq\\LuMySoW`G}d@vFaFgBq[rs@sr@~Y`DfHqGjXmBp@eEn[hCxRzRmPhd@bBzEzYeM~I|RbQEpl@mT|ZeCbEoNgRmTg}@_FAsMxVsA`PmO`\\zN|YkBd^tH~Rwi@QcLzYyGbUu_@vRbKp{@o[nK|HlNoRxFdHmAl_@lJbHhf@oSjf@_AvEfAKz]vQ|KlYvAp[pL~y@_SfDjNcH|d@dCfH~h@yAzv@oTdj@t_@n[{@zT`\\lu@lAnIl[t^~JbZ`_@tDAfIiYbGmf@dl@|P|LqDbEqQzJsGfd@tZzSeUvF?na@d|@pNj@zt@cHnl@oZfUcCtx@j\\pPePs@aLtEiH~KfDhWeChN{u@eKoy@~I}iAeGo~ArKu`AzBkaAvHgVpOuGrEgY{o@ub@ob@as@\\qQ{UkWk^e}@oe@_i@sk@a@}W}Nwc@lIcMeUyr@eFmV_YqZaKeh@o{@oM_EcL_g@sNqPmVqPq]cG_X}Nmj@bX{r@oHiU{K_Xs]}V_OsQfIuR}Do[lE}j@~[}e@iFoxAyq@q`@jDpbCyfDtd@oMxT{v@~RoYbn@sy@|]yUl{AsaBddA_bB`jFgwGtO{r@yNqd@ev@sa@kRsV_oD}sBdxHezEbbC}~AjaCqbBbTbbAr^jm@hkA|\\nnAy|AnqGubIwQ~xHjLbb@Y|Op`@dCnNoGlKaVbSkKbp@is@fUiK|j@sk@vE}OzvAarAht@aAnaAqAr]sgBp[sk@fp@~rDjcBraHdaCxBhhG_oIz@gYb\\rN|`@n[pOvCzs@id@ZkzGn}@yBhy@tFnLwSjx@_`@|Z}\\ra@gKbzA}`AzeCo`Blg@icAdc@e_@xh@o@kaAcbBr_AeU`~BoPfd@qWlnAn[~LgAp_@gU|j@oMvc@k[tQmk@|h@ut@tr@wL~]oMlKqMtCwIuUqJgYgl@k{@aI}^kl@ekA}qAeYyt@Ksq@xXsFhg@gAjKlDn\\aOxUoWz\\`VteDzn@|_GktLrkDya@lu@m{@~hAuf@b_@_\\xg@kGfGdE"
                        ]
                    ]
                ]
            }
        }
    ],
    "parametros": {
        "e": "8",
        "dl": "0",
        "df": "0",
        "m": "0",
        "s": "0",
        "l": "0",
        "mz": "0",
        "layer": "d",
        "db": "proceso",
        "schema": "suavecito,public",
        "geom": null,
        "padron": null
    }
}