{
    "status": {
        "key": "ok",
        "msg": "",
        "kex": ""
    },
    "distrito_l": [
        {
            "entidad": "16",
            "distrito_l": "1",
            "location": {
                "type": "MultiPolygon",
                "coordinates": [
                    [
                        [
                            "mcxyBvnmmRndAgBrf@jFxbAlE|yAnEdj@xv@g`@zdAjyBxvCne@baB{A|NqChcCaA`XbTfXcmDntBokAb{@_Ex|@lHx\\kq@rXsOdXu\\fYqC~Orx@`@rb@iIj^jNvNlRqBnbAoYjp@bQx~AbS`p@gMxZpAvf@qLnOtGx`@i^rv@bD~i@hFrJmXvMaQaA}_@~@{M~InIz`@kAnh@qEpf@}MzlCri@~Edb@pOlFroB~FttB_dCjnBzLdgBjK|a@gA|MuGp}@iOxPnSbv@pq@oVpd@bNtMa@~GxGjSI~VrAxRpLnAfMwQzt@gd@tx@uNlsAhF|q@mE~g@fDbWgHmA{SxtAui@bSqUfUo\\mVmw@}CmZq@wHpNol@YiEvt@eY|Fkh@hz@c\\ngA{S|@m\\z{@yKqPk@wOfZgi@ie@yM_@oT_`Bec@gDnBm}@m^aRgdAu`@ua@}IsGwMfE}W{DwSdPw_BtYunAgNkv@c`@mXrBa@hY_L`@etC~KeDqe@uu@@gXwGslAfB}o@{l@sp@aoBlFcpAiOob@y]w`BhLwq@ioA\\qDePgp@gc@pLu{@oC_HaB_Nm\\mReGua@cn@ou@~Yyn@aCiYufAci@Hq_@hFgUpOyPu@qf@hp@tO|[iQp@eHuZsUe@_YXgAdCcJlCoHzNgUvOg@rPmp@}Dm`@}N}FlR}ZiTixAkL{PK{j@oMq\\OwZuYoD_MiJsEmd@e\\sYlLaGhBkZ~Vqg@{Q_i@N}TcLwc@oNih@_WtBaMtVcZeBeDu\\rMs}@@o\\ot@pKuGrh@yHtJqGai@zG}lAbOeaA{Bi[g_@wOzTwt@{EkTwKgh@hH}NZac@}\\iu@Lsw@lRs[~E{n@pMkSvJ{k@cV{lB`@}~@eNerAeEoImXsKmT}AqS_@sGeObAkKz[[jPmLjGwHxMeBnl@t[nuAfr@hx@|Gx@V|A\\rDhBjY`CnTaQlBoLCWrA{LzGsCjKwAjR^xb@iIlNyLvDsUeIcWib@mFyNtNie@|[of@dLmN?eGcNsEwn@vAq^ec@_v@e@sd@rBoZgBadA|r@wMvj@k[Pkm@jJkq@lDgGpQaCx^zTlMAbWzo@zo@pt@hHoHcI}QrJaKxC_UbJ{\\dEx@dMlDgHjZ|BxKlUkBlJtVxHjClFyDhQwi@zSqPwL_b@pR}z@fO`D|BhY~g@`k@~I~BhJcHjBmOaGs]jDiF~LYfGnDtCfUvTx_@p^n\\~Isd@bK{H|i@|Nl\\mCbRyOtOwZlEqXbb@_J|K~a@pH|AbSoK~\\dQf]nApI}MeB}\\~\\eHlUmO`H|M`QmGhWjKlF}AbBcHwEkKcS}Ism@gy@zRek@lP}Qh|@lQ|CvC_X|`@tMc@`OhRzb@hCjJgMx@sO`q@t[nL`[`PRjq@bWqv@rn@yi@hTrGve@zZnMpDlq@FxFiSnNxZmHjvA|LrS}Afm@yVbT}@~CzEvUsVjg@uEhFvg@`RzZn}@uXvHnfA~ZvQdC`Z~Tja@"
                        ]
                    ]
                ]
            }
        },
        {
            "entidad": "16",
            "distrito_l": "2",
            "location": {
                "type": "MultiPolygon",
                "coordinates": [
                    [
                        [
                            "mzmxBfvhkRbd@zHjVdReCvMvS|_Ao@dMdJbOoFbK~ClYcNzq@wd@dt@bVr`AyHvUa]rZ_WvFzUxm@fDYfYbp@gBzPePzX|p@xnByZ~oAxGyF~G|HyGlj@yMdQxQ`y@U`d@sRfi@n@xT|MfJq@zHuQkDwU`^w^}Nc@pE~OhhBvr@ju@bCrErFfOiBpaApS`l@gQfa@ir@vj@uStAyDcFiUrXym@vWdGzSqHtTpRh`AqOnH}DnSaRmIwQLiXfSxBeLcWfCxKv[TxPyEhEahAoFgoA_I__@rB}RkJwJfDwSuFUvSeE}KyHiBia@pLjhBpxByFjFfDrCggAth@cn@vu@~LnD`CnSkr@l`AoBpY`LdMiHza@eKoAeo@ls@cSpB_M`Qt@xRyS~@oF`LWlFwa@~\\cS~IeP_@eOfMoIyA}M|Em`BfhAb@jHhPpKoNvn@bOzKi]tq@eGnYec@vw@uOXqg@bd@kyByvCf`@{dAej@yv@}yAoEybAmEsf@kFodAfB_Uka@eCaZ_[wQwHofAo}@tXaR{ZiFwg@kg@tEwUrV_D{EcT|@gm@xVsS|AkvA}LyZlHhSoNGyFqDmq@{ZoMsGwe@xi@iTpv@sn@kq@cWaPSoLa[aq@u[_B{_@ye@aIiKeN|CwRuLko@fF_Ul^gXvXuCzLvM`QZqFw[lJ_M_AaK_OmFez@nOgTwt@ci@qCyL_hBoQmR_w@iqB~Oa\\fGM~MpEbUyIxh@_u@rJrAzKn]vKvCrAut@wQys@kU}D{b@yVDsHrQ_NaHaUmZySiQqn@pK}GtLvAvXaHzGkMyJoQd\\}h@vNiWHuVvPmXkQ_IxDwsAoRyJaGk_@oNgZ}XgIpYm[dUBfIaFwAuNtIci@cI_[tI_Pjp@sTjb@yDlIqKz@eS{Syf@oWmP}MMyDiEeSNmX~N_PcP}YyBkUqNqGcWvAsb@`d@yO}Bg_@gHkNaOmEyT~RoL_GgVhDeb@eZo[mBqg@oo@`UkL`AeZhCmPgi@qL{ZlFmKpS{K~NyW{Mm[g[sZ?uI_KxJoJ}@uFwT}K}GsNpKyIxZiCJsPqJeQa~@kJ{w@bv@mHnEwO~@qe@yb@q_@_CkI}FkNqGuPnH_NOyX}QgC_ZjPsJnCaJiCw^bI|@bLmd@bn@hE|U}GwEw^mTdA{WaFq@`EiH~EqPeOc@ibAw_@wTeL_@aq@`@qEeFdEyd@`d@}FdAiQr\\sKrByZgGa^yGm@uNxJqLeQmL{@eSgTq_@eR|N{\\vHig@lYaUaOiZu_@cYQwi@nHsGhRlAxT`LhWPBsQrQoa@}Bi`@_f@k\\c@qLjMuI`Hl@lIdMjk@iKvAwNyMwi@gXqHsb@ee@uUcL}RkUoBso@bP_t@lZ{OLwGl[cNbN}YbPyLxFbB~KmMxl@aGvTcObSiHr{@rIfa@yQ~c@~@pSqGxEsaAcJkT}@sX|d@ygBza@a_BhOac@|t@vr@pHsPry@{q@|Zx@xk@dQjLjGzJnSdg@}a@|V{p@|TyZxgAryDl_BdlAlsAx{@|oBo{CnWq]`PObDuInYwC|EnCxn@}QbZbIiIxh@xBvd@nYd`@tc@HplAsq@jM~Q{BvJvK`Cu@lC`UiD`GkHteBQ`Dl[hN~]l^zm@|RhHpc@nu@tTvq@fCyClV_Zb@oS|Tsq@fZs]vFLxMaPcBmP~FwC{B_]df@gg@rw@gp@pWoGt`@ub@sBgUkFa[uT_a@{Ioz@yUid@bEcMg]cm@IcKpHeCh@oIyRke@rCwB{CgZtFwNaNe~@wKq\\bEsMfDyZmMc`AbHshAwFiMl@wDv@uDEsDc@yEoAaKy@gCaAkDUw@{@iCgAaD}@yCs@wDKwBt@mDz@mBdAsBrBwApAw@`@i@NuAe@{AcAcEy@aEU{CIsBYyAeBeGdAwBp@gBNa@|@aC`@a@z@y@tAq@fBBj@@`Bj@xCrBd@l@hAtA~ApD|@rBtAlCN\\JRt@|AhBfFx@pC|@tB`CvBdBnAjBV|@q@~@mB`@{CBoBCyABc@?UfBa@RGnCi@|Ba@`CS|AEqG{i@lS}@`FyxB`q@oqCjAkt@~ZkSvOtDxDuDrExNzHuI|Gz@nNn_@fUqKpItB~SjFfdAOnOeFfa@iGbT~QdN~BdE]xBeUj_@dAwExVzHnt@_Hnm@vBzb@cm@vhAwNnPwKx]cPvVeD`V`I|Q}UfGaAhGdC~NhVlIaJvNg@`X`IvVbNfGHhP`UhLr_@~CmJ~H{ExUnvHuEfjAk@`Yw_@|i@xNjPyLxIdCzR~\\fZvQjOwr@pl@xV~`@yLli@~QlUdfA`Dbt@zh@t}AeB`s@lB~HhNzBfZho@zRhp@{CvX`FjS`TyNfg@z@vXyKzQrXbRlo@y@x[sc@jXyWjGdU~gDz@t{BpWbp@rAjq@zSv}@sZrFzHp}@hTfp@LnPfNfGzNuDbKlPpa@zKhPvNcFdd@xG`YiIfPkKlEjCpYsXpO}\\nDmIxRaHh@}IoIsDgWqmA}TeDdWeKlEsOr\\eMfEiSvh@iJtMmZp@_a@~J_t@_IqSdr@iHxeAkK|hAl@`v@uDfg@~Cvz@oZ`SnMzk@cRnRgQnRqT|GoFhVoLhNc@jVaUw@in@oRk^pKhGx{AzJxWfJjF{g@tiA"
                        ]
                    ]
                ]
            }
        },
        {
            "entidad": "16",
            "distrito_l": "3",
            "location": {
                "type": "MultiPolygon",
                "coordinates": [
                    [
                        [
                            "k_yvB|}}cRaf@rVsZjgAbF~\\a[dc@t@n[_}@qj@gXcLq@a^yGcI~PyiB}z@rCi^sa@gj@cNwT|]gUiIoZya@qX{Gc_@g[oCsUc_@m][oP}NlP_ZfHkQzf@eObPzDvrAmMtc@kOzEwi@qGuVcPcTrDmWhUc\\rs@aJsMaD~VqUnJqa@gOqO_BmOuMm`@pq@}AjSaRm@cYzLzGvC{EfJ{DwAtAdNac@wJg_@?hStjA~Idi@mYpdAeHbCuMnkAmGjl@lkBzoBig@vJgmApkBy\\fcAoD~{@sW|T{HvZnTffBgf@vn@utBvOdAv^e\\mF_QaP_j@mRBmHyjB_\\mKAqa@tr@kd@tGuHaQ{]vFmJbO{a@hNuDrK{ZQ_EhD{gAmWuH_m@ePyDyL_TaLuCu\\nWGdMu{Ao@{cAh`Auj@jOk[kMkQx@wb@ll@so@~AmR_BiGoQwz@q^mi@gs@eHuWcPhKoJqi@rK{zAdDsoCtVpEb[qDnB~FhNd@jPn{AjRvt@jhBdmC_Lyj@jNioAca@w_@cR}o@vE_Qlc@{UzFwp@kRkp@_VoPc[gl@sI[}I~_@eLD^gh@mD~A_DoExJ_X`q@aKzxAhQb}@u@xSvF|NbZhZa@xMpAlCsFba@gJfX~BmDiKnPwC_D_[mCoIdLsp@wMhDgIjSyYHaLlHsO`@}mAc`@mNa\\q_A_G_RfJyE_W~Fae@gSinAgXdEuH}Cw\\tA{v@lCh\\{~BcYUxFw`@kJyQsQdB{YtUeDaT~d@}oAmGgGlG_\\wCiZ{Lo`AdFeWmeAwiAuk@pPrDkYkJxAaMg_@Fob@g@chAxLuToIu^nIoKlCsc@oO{`@xD_Yc\\gW@me@vIgP_B_Z}eAeYeRuOoMk@{KfHgLr[xE|QaE`NoqAv[mYjTqa@`LcXfZmAdWvDfJeEdDkbAtAuUzJsJgFwj@yKeAcWwNOklA}c@yb@x@kb@HsLwHc_@d@nJnErG``AkKfe@ok@c[sF`v@xF~\\_MsCLuJq^wEaOyAa\\cYoNNa{@gYsCgg@mM_b@mTZg_A}fAkd@jHufArMuJhGsm@uaB{CcNugAnQ~KpJ|BhQwH|DrDh]iy@tMwR`TiMqz@aOwDqFsQyUqFwUgbAeLaDmQ_V}TvQzBs^s\\{IaJ_WcIfXkRgDqZ|\\_ImHgHsQ_d@_Lky@p]wXue@sDjJwMXgLgQqNqElDqLsOkOxAmRwR{JtGwV|Agw@bi@eg@d@uR~QkPwAkNhzAq{@~Egd@`Wwo@rI_DdGbKpGk@rrAw^rQ]`@qg@sIi`@fLkr@a@}[jTeo@jUsjAzaBifCpBrJtY|T`LQhi@_N|j@gBaCmG~ESdEVd@~IlMlBdj@kGd\\pjAjYwIy@tFvVjAwDgXr`@cH~HcXxtAaLhQvEbl@pLtOfKl@pP`a@fBxGnEt]r\\by@l\\xL~Pd`AyJ`Tat@dRyIvOyYv`@hGrNgKhPkAdPbR~HeIgB_RgX_SyCqPkNgJoBeWjKeDpg@fWfGc@fM_c@qJoWe`@yFnSuWyRcTlNcJhFc]nN{A|LZvNvZlIiThI`WdEWnc@ibAiCq[rm@qXhNm\\rPOdJ_\\nOoCbFoV`w@`f@jDjNfOlKdFdT~m@bNd`@zz@xg@{Cda@a|@__@iAyZgg@zFct@qJaGsBmOfUeJd]lJxVuA|p@~Hlj@rTtMdHxw@qErGq@jDkPxx@`G|EWxE_LnS{Sg@}Qtx@_e@fcA_j@|y@kJ`P`Gfp@wyApd@}d@zHwJhZzOb[jE|UpTrImHjNap@vGgBfW`N`BfQaHlPlF|MqDtWtDpXt\\vJxHw@tCgNfKnCxg@bCfa@mKeFpd@vSjEtEfLtg@sQGn_@{MtYaJbv@`k@lv@`_@bIpYpP`Z|hAtx@kZ`s@~Odb@sA|[eA|o@}Sd^pKzRnHxVeIdN{MdQjDrbArVxU}Dj_@`XfJ_Ta@eD~h@Epj@iIlXhBvoAwl@xc@hyAnHhg@qEf@b@pQtHnGhaAfF`GltAnbAj[`^hu@|Ex^uPbGoa@pj@kqAnlAxm@ba@fPhXrz@jNoCtr@iIxDc`@sIm_@xKyRj^^`U{L|FhD`O~\\na@bh@|`@dVtHdJqDkHhn@zLnOvm@pI~p@yHxW~Hbf@yg@hCgKja@i]wE_c@nGnDjGdq@hRtIvS`\\gq@|]kLvh@iAvTwDpb@zRdl@}L`]eAzlAbS`j@b]lQp^df@rFnp@v_A{M`fAvt@}f@~t@wR`NqKnl@nFbUpAj_@bTvL`GvLcWnf@k@d[|HzLyAhF`UhNt\\zp@b@r_@bJbNbFdzB"
                        ]
                    ]
                ]
            }
        },
        {
            "entidad": "16",
            "distrito_l": "4",
            "location": {
                "type": "MultiPolygon",
                "coordinates": [
                    [
                        [
                            "uc}xB|hssRtJApw@|BbOrKiA~_A}JxP}LhfA{YhVyFvGm\\bTcGxq@zClWqbAvo@w[cEiApAsIwXyKeKqLiCcDtF_FoAiNrSqC_RkY}@}Lc\\u]gTwNaAiLsNaNoFsDzH~CvGcLvBsGsJ`DeLiCcPeT}^aHn@_L|SgT}Gc[xEsOqJgOtAbQqZgLmEwWxBuBbSiWvAeDUkAbSeGbGeUdG_LqFyDdQw_@yBgQbRuJuCsFqMmx@rl@yJnOyIVccAii@ox@iFuZhHaKxKbJ|d@aOqBeUYeN`BkBlM}BwNrKgj@f@ue@eTBoI{QJqLya@fFk[sv@gFua@vTpCyKaLyAgYzFuQfc@iRpWZhFkReKobA`Lmp@Tid@ia@j@z@lKcDJgCpPkg@cDuBmf@mOoQvGeaAzRea@dc@}]xIqUbx@qj@bJgTcy@_^ci@v@kK_JmS`z@_l@lUq_@{Lme@jDeHhU_Avt@wb@{DIeKo_@}@mg@uvDc{Am`Le`Bq{LdBuFrDigAyg@cbAwOwj@cCq`@{Rab@yGaj@iXc\\cEu`AxOon@qXsNuDeLsDenAxf@cLgGmn@cLoK^}a@c[eTsBaSPia@xOsY@mb@~[s]xAaWmOit@iLsa@_[aP{x@u\\wQeBaMqQiJxC_HpPkJfAoKyWf@wOoK_GoO{AmUlNug@kYbMohAra@cFmAg]bSkRcJ}VwA}CaU{b@eBw{@mLqXyTByQjQiO{EuIwZxO}VbQoN~NcFvKbHv]bBbMwNFcHsOyLo`Bw]aJyJqEsOjH{^|HqFj^jCrNkYk@ySwf@}t@_Vu@{Qz@yDl@cPtIkNli@uN~IsMc@oQg]{OqZJi|@{E}PkScJux@x@aKsHBwOzTuWzVsKfDuKoF}_@mLuIiXeCwVgDeY{QqNa[}Zw}@{B{ZxIqYv@w^}EyGwT|CoHkFwSw`@x@s`@mIaVsCeHy@sd@dGcTl\\qWlImPfCuJiEg~@p`@m`Am@gIc^sVqCaOrZccAu@or@vHya@hoA]iLvq@x]v`BhOnb@mFbpArp@`oB|o@zl@rlAgBfXvGtu@AdDpe@dtC_L~Ka@`@iYlXsBjv@b`@tnAfNv_BuYvSeP|WzDvMgE|IrGt`@ta@cGvEaKvlByi@ntAam@b{Aac@jt@NnHaKuEae@plAve@dy@qVhv@iKbEgBjYsThp@_AnCa_@zdBbjCxu@fQdFE_Gr{BgcAlV|CXha@fFVrtCuAtYbY~@`}DrjA`Ajr@xE|k@mCde@iBhPlc@ri@zM~\\tf@nNnH``B{RpOsXrQrGoQhlBcf@bkCcUhQeL`b@ua@h\\xRvcAlZzUrRhJ`DwIvOiG~gAmK`~AmPv_@iE~fAgO`oBmIxi@eN~mAbTtu@dI|g@qXrg@mX~q@lOrRMx\\fPfe@pGtg@zV~XzW`Qxa@nAcH~GWl_@pOtz@iUtiC}r@rI`Pbi@G`iBvUrG`PhR~Lj\\nQ_@`Hce@zf@}B`g@uEfQmWb[gAjOqPbC{Gd`@yGy@gQpPa@zx@ud@bmAkThUSj[cNl_@_hAzEwtExiGaTpZk\\|i@uoAltEwQftAaHlL\\h{AaMd]}Bz[sA|WoI~Nx]|TdIFzOpgAe@p`@eGxGg@tKk^hl@mVtPe^po@Qtl@g]veA_c@luAyHp~@nFzbAn_@bu@~j@lb@rYbC"
                        ]
                    ]
                ]
            }
        },
        {
            "entidad": "16",
            "distrito_l": "5",
            "location": {
                "type": "MultiPolygon",
                "coordinates": [
                    [
                        [
                            "ue~vBpsejRrf@s@dHqNfM|Rfw@uHvFeGtFlM_CzWaVxb@kTfKd^jgAqKhc@{Spi@cAdYjJjSxCjSiCzIxQnaAcIh_AwQ~_@dUv_@sKvh@mWvqAgy@ndEcr@f`EhPnWsA~Iv\\~E{TjXtMlLzRfEnR~VtAbHcL|NpQtFdBrJcEhGpjFtq@vIzXdFsAxApGfWkFpA}Ev}E|rAfeAvXldBpuA|n@dPl^lNnA|EvMlq@m@|\\aRhl@sBt}@t[`dA_KaAcLhFkSrf@wPvLee@lMkJgEgKrKeFvTmEdy@yqAqK_XzX}]nCucAbhCgzAp^uAjeD~\\tO`O~Vfd@|QthAl\\hWts@dEjt@lLv\\rC`h@tRb]fG|r@kCtuBg[`qA|KdZx^tFxZ|k@pRxh@}CrN{g@zn@{BjSwFhG{QfByLpO|ZbdBamB`C}HbbAr@`}BoB~z@tPttAbIzXzb@pr@nHnBa^|^scA`q@wOqCoCkSqCZ_JnUvL|JS|RfFvGaFtRaEgHeMtAyO|jFaFdbBseA`qBei@Q_PlOkIzg@wf@`Wa\\rCdr@fwAwJd~@|PhUtEzq@vs@nQvc@bf@~ZZt]lNni@vp@xc@fz@ka@p[q\\zK_]B_Q_Lg^qEgNhEkl@kE_JfHgFyKg[lJiPoFsAl\\tOrm@kMh}@n\\ds@vJz[wLhRL|SyZnKx@ne@rC|MzPzQtCl\\vMfZn@jKiIpMhO`_@pHxQiWtWsKxx@iYpq@qTdIa`@yH{f@qMo{@`p@eb@oMuKqAi_@_o@uDa\\qUg^kZcT}Rb@}b@`@aW|Iaf@y@gk@rJsh@iGkmAsJuw@ea@gbAoLsJuGsJ}a@wEqAuE|MqW`PmDbPiHvCaOcHuy@vCoUbHif@_G{`@dMyUeA}MvOqaBjWuDrFui@wg@S`H_HL_Hmw@}QwW|SsFH_GeOaJKuHnf@eq@i@a{@`Oak@{IkS}R_g@xDoMkNYdE_Co@kK_Em@fF_KiI`EoZgO_I_g@uMBuMcSiJmj@kh@qGeQxJgTtAeV{GqT`N_IwAfT{f@qPqRwb@eHa@gGzDfBnFcFkCgYdOch@qH_QLuUe[L`Dya@|M_V{k@fFyt@hd@@llAe[di@oqCs\\gGaVd[mcAzTwi@p\\`@~@gEuHoBgIu]eQnCkAkC_K_j@tAoWtLiIrNlB`U{Yv[bC{B_DlEqO{QcSvz@kyAux@{n@ozAqbAo@}z@{ForBt@epBxAuj@dGww@vXerCv{Cy@`sAwa@tRo`Adi@tSlHbNdOiA`Koe@vMsLnZyFbOfE`_@_Dte@c^|BqK}Qsm@|NkhA`F|BvUwEnmAon@jLgpCva@cNld@aOx]h^`l@bHeb@wn@yJaZaBk`@jy@cBpa@uZ`SoEfKrDhOiP|G{~AgJiKgJqz@rD{HyJ}NoNyVmGga@tCa\\eMoYjB_Lxg@cpAiP_Pu@}k@~GiGpP~@vMyp@kLs_@cNqeB~Dg`@hXkq@KbLl[dQ~CqEoFsAfEgBtWrGhNu^x^rRlKiCjM`FnNu@`a@`We@bKhEhDl]uoAj`CbRjALsEmcHst@mHmQxNm`@eQqd@gi@qc@kIui@vHwHcGc\\Oj@yHeZhJmWmEqWjFwGe`@bDu_@kGkRgz@w@uFt^yXjQi\\tTkUsGoPwa@kJR{RlWkq@iM_JyGyc@aOvDo|A}Fj@s`@~e@qYfIw`@mUa@qc@yx@`GwOf_@si@{NsAtLckCqX{_B_Qcv@sH_`AwIiq@lCgDX{Uym@~VwF`]sZxHwUcVs`Avd@et@bN{q@_DmYnFcKeJcOn@eMwS}_AdCwMkVeRcd@{Hzg@uiAgJkF{JyWiGy{Aj^qKhn@nR`Uv@b@kVnLiNnFiVpT}GfQoRbRoRoM{k@nZaS_Dwz@tDgg@m@av@jK}hAhHyeApSer@~s@~H~`@_KlZq@hJuMhSwh@dMgErOs\\dKmEdDeWpmA|TrDfW|InI`Hi@lIyR|\\oDrXqO`WrWpMmJ|GnI~CoEn`@e@nh@nMrhCvsAb|@gqBjk@dJ~I}ATbJl`@pDvRa]dk@cKpaAvStZw@jUp]pq@vGb@oL~ZaB`BeEwEcE|k@eOgGaMfUi^uJa@}UyV_Iut@w[ut@{M__@eHmj@}e@gVwa@{GgTmd@sWiB{V_SlHwEzJ}d@tg@ec@ba@cFhH{WvJeIzPhA`EoLnLsEy@gJtb@{b@fKab@pJyN~ZfWp@fGyWlf@gAnMlA|N~Vra@`@z[zX|pAvYaPzK|QvH}@ph@bSdAbWx}@~A"
                        ]
                    ]
                ]
            }
        },
        {
            "entidad": "16",
            "distrito_l": "6",
            "location": {
                "type": "MultiPolygon",
                "coordinates": [
                    [
                        [
                            "ci}xBr_wnRmDrk@wFvChBfN}EnMfNrNtw@nnBrvAddBzLiKfNdOfWAbIa]t}@qQ`GnQpQpLoDlKuJbMaJE}NvTq@dd@kJxUbPnN{KtI{ApMyNwCgKxFgE}C}ShL{Pp@cTxRq_@ti@qCtFiYrm@ub@rr@_Mdi@`Abk@o]dHcOsWa_AlOqDpS{PbOoIp\\iT~DbXlGnWfFc@v]dQlk@uHdLf@b[f[F_BbVdr@x{AbUjA|Zl]q@rS_JtRca@biAtKvWPpx@s[blAoZlbAqXqRir@aQrIwZcVaSkA`GuXwJgKgQhAkG{XjKsAen@gIoCrA`KqY|YmVkAsc@g_AwZeBel@iVw_A|BiCal@wjAme@}Xbo@mmAsCvQ{t@oAgMyRqL_WsAkSH_HyGuM`@qd@cNqq@nVoScv@hOyPtGq}@fA}MkK}a@{LegB~cCknB_GutBmFsoBeb@qOsi@_F|M{lCpEqf@jAoh@oI{`@zM_J|_@_A`Q`AlXwMiFsJcD_j@h^sv@uGy`@pLoOqAwf@fMyZcSap@cQy~AnYkp@pBobAhpAgTbRd@btBphAdb@|f@oBva@~^aV|F}^hVqd@F_RlRvI|c@vo@nKwSsOwZjLwh@{Igr@~I_VpUqIrHfCpMzQ`XsEjOdJ|f@xI|TiBz_AlJrLvh@q[v_Cgl@leAuFhk@tNfG~KmJjcAeR}CfErJti@mF`Cp@`IbJ`JiDhNeLvo@"
                        ]
                    ]
                ]
            }
        },
        {
            "entidad": "16",
            "distrito_l": "7",
            "location": {
                "type": "MultiPolygon",
                "coordinates": [
                    [
                        [
                            "_uywBrmgoRd@bHpRjIheAjWrId@b^l^rl@zMfIhb@tSxNlN|pAbNpZ|AvSxNzRu]fZjn@lg@yc@nh@c`@bEz@vj@}p@p_@ua@lHgV~WsXdJkVvl@dErBiF~QjDxq@mDtGgQiC}VxE_h@cTf@k[iDmCkg@aJT~Jy]vl@x{@d_Dyj@~c@ch@}DgL_^qjAiAwa@gfAsg@wm@a_@g}@oZ_Iy[}Bup@_RWhNjGj@wLlFn@lMa_@fp@sUnFsKdO}KiEyIen@kSqBbF{hA|Rmd@ij@oc@gEzTqe@fl@zErOiEnJkUiSkeA}b@wsBf\\c]cRyj@c@uEuJad@zZea@`F{m@rXcQbSq|@ih@~IuRp@sS}Zm]cUkAer@y{A~AcVg[Gg@c[tHeLeQmk@b@w]oWgFcXmGhT_EnIq\\zPcOpDqS`_AmObOrWn]eHaAck@~Lei@tb@sr@hYsm@pCuFp_@ui@bTyRzPq@|SiLfE|CfKyFxNvCzAqMzKuIcPoNjJyUp@ed@|NwT`JDtJcMnDmKqQqLaGoQu}@pQcI`]gW@gNeO{LhKsvAedBuw@onBgNsN|EoMiBgNvFwClDsk@dLwo@hDiNcJaJq@aIlFaCsJui@|CgEkcAdR_LlJuNgGtFik@fl@meAp[w_CsLwh@{_AmJ}ThB}f@yIkOeJaXrEqM{QsHgCqUpI_J~UzIfr@kLvh@rOvZoKvS}c@wo@mRwIG~QiVpd@}F|^__@`VnBwa@eb@}f@ctBqhAcRe@ipAfTwNmRk^kNsb@hIsx@a@pC_Pt\\gYrOeXjq@sXmHy\\~Dy|@nkAc{@bmDotBcTgX`AaXpCicCzA}Noe@caBpg@cd@tOYdc@ww@dGoYh]uq@cO{KnNwn@iPqKc@kHl`BghA|M}EnIxAdOgMdP^bS_Jva@_]VmFnFaLxS_Au@yR~LaQbSqBdo@ms@dKnAhH{a@aLeMnBqYjr@m`AaCoS_MoDbn@wu@fgAuh@gDsCxFkFkhBqxBha@qLxHhBdE|KTwSvStFvJgD|RjJ~^sBfoA~H`hAnFxEiEUyPyKw[bWgCyBdLhXgSvQM`RlI|DoSpOoHqRi`ApHuTeG{Sxm@wWhUsXxDbFtSuAhr@wj@fQga@qSal@hBqaAsFgOcCsEwr@ku@_PihBb@qEv^|NvUa^tQjDp@{H}MgJo@yTrRgi@Tad@yQay@xMeQxGmj@_H}HyGxFxZ_pA}p@ynBdP{XfB{PgYcp@hq@mC~_AvIbv@rHz_B~PbkCpXrAuLri@zNvOg_@xx@aG`@pc@v`@lUpYgIr`@_f@|Fk@wDn|Axc@`O~IxGjq@hMzRmWjJSnPva@jUrGh\\uTxXkQtFu^fz@v@jGjRcDt_@vGd`@pWkFlWlEdZiJk@xHb\\NvHbGti@wHpc@jIpd@fi@l`@dQlQyNrt@lHrElcHkAMk`CcRm]toAiEiDd@cKaa@aWoNt@kMaFmKhCy^sRiNt^uWsGgEfBnFrA_DpEm[eQJcLiXjq@_Ef`@bNpeBjLr_@wMxp@qP_A_HhGt@|k@hP~Oyg@bpAkB~KdMnYuC`\\lGfa@nNxVxJ|NsDzHfJpz@fJhK}Gz~AiOhPgKsDaSnEqa@tZky@bB`Bj`@xJ`Zdb@vn@al@cHy]i^md@`Owa@bNkLfpComAnn@wUvEaF}B}NjhA|Qrm@}BpKue@b^a_@~CcOgEoZxFwMrLaKne@eOhAmHcNei@uSuRn`AasAva@w{Cx@wXdrCeGvw@yAtj@u@dpBzFnrBn@|z@nzApbAtx@zn@wz@jyAzQbSmEpOzB~Cw[cCaUzYsNmBuLhIuAnW~J~i@jAjCdQoCfIt]tHnB_AfEq\\a@{Tvi@e[lcAfG`VnqCr\\d[ei@AmlAxt@id@zk@gF}M~UaDxa@d[MMtUpH~PeObh@jCfYoFbF{DgB`@fGvb@dHpPpRgTzf@~HvApTaNdVzGfTuAdQyJjh@pGhJlj@tMbStMC~H~f@nZfOhIaEgF~J~Dl@n@jKeE~BjNXyDnM|R~f@zIjSaO`k@h@`{@of@dq@JtHdO`JI~F}SrF|QvW~Glw@~GMRaHti@vg@"
                        ]
                    ]
                ]
            }
        },
        {
            "entidad": "16",
            "distrito_l": "8",
            "location": {
                "type": "MultiPolygon",
                "coordinates": [
                    [
                        [
                            "_cpwBn`shReDfRuGjTcYhe@uAfDeH`NsHzu@kTvGlIt]`Th^gG~M{DP_s@nBcT|C|@`LmJ|PsRrAmOhJuOp@mj@~X_OmTyDgAqEjK}WkKdFbJ_AtMqMrF{BlMoGgF}DvDaB{I}Be@{xAzr@yaAhdAyHf\\uoBbs@}m@qoA}d@wi@OzYfOz^mB`h@oJlCx@lh@sKd[lMd`@mi@_R_a@xLql@yVkOvr@gZwQ{R_]yIeCkPxL}i@yNaYv_@gjAj@ovHtEzEyUlJ_Is_@_DaUiLIiPcNgGaIwVf@aX`JwNiVmIeC_O`AiG|UgGaI}QdDaVbPwVvKy]vNoPbm@whAwB{b@~Gom@{Hot@vEyVk_@eAyBdUeE\\eN_CcT_Rga@hGoOdFgdAN_TkFqIuBgUpKoNo_@}G{@{HtIsEyNyDtDwOuD_[jSey@mjCm]o^iDkTk]am@qEqDiB`FnEnOsC~@qMae@sQuJFrMmLfGkb@xt@KvZgLr^kM{GuHwXwKcFZwG}Sv@uf@|FkEyIs}@sP]{LeTkNo`@rKgCiZ}PeDuPoJpAeRly@gVx@uY~Og\\jV{BNgMvGweAvWc}@eO{^}K\\QfMe[jB{GaX|g@_b@PmK_H_c@q[{{@oFc}AgXc_@wCi^iAsv@qQagAr[sbBsBsTta@yHtSzCmAiVlFmLaJcc@mAif@RsBzLiW`Eo^kL{N`Lk_@n@qkBdLGvG|JdJ{F~BxEfPkD[pg@tHtT\\~UjXn`@l`@`BdHqRhnA`Ov@tAhJdOzUkKvVlOtPxAlDyk@lMIsAm_@rIk\\nLp@fLqYlY_I|Uil@fYpi@nJb`@fZgEtGgJt]`Xzg@i`@|GnGla@~FnTdA|N`NbWji@pE~a@xMdFpTjf@xFOvCiMnk@`PnHgIdPmA|GcGwMaTcJcsAvDcTtKbCzeBy^ntIgD|~@aErRaL|bAsoAreBamBtf@ei@t_@tCj[CjTqJ|yAagCto@eRne@rDdUeNrNfF`U{a@n`@wK~n@x@rCJja@eEjo@mb@xs@sFfn@aOlUp@~I_IpL|R`RwLh_@e@bW}GrPkC|OpE|NqIr_AxEbJsP|K{@`DhEhPeAnYjQv@mH|}@F`m@uUl_@Wft@pj@vUgBnNbDfGxFB~VhGrPefApI{BlWuVzO{@`KtLY{GdCgJxV_F\\vCbGcGrHaPUzJbNpCnSfr@wQxhAyCjhAeh@`Hq@tJiO`I~IfFiDxDfPvHKvN{Qv]aJhG|Ce@uOlGkDpUnCn]aM~UzHmAtMkCt[aHQyFtGpJh]lEEV~X`HvFhSe@rCfIlb@hb@r@|TyKdb@pJjGBjN~H`NzH\\}Dl\\lP|d@sDfZ~EjTeSd|@qFxA}Cb^dPnIzBjKfTvDfEdLx`@gS`Sl@fQnSfd@KpNhDdSxUjMi@{CxP`F`@lOpVxc@fnAiAtLkZnsAsm@r]cKhRwU|O]bm@pJzRak@l_Ay@rc@w[~D}QxO_i@dJkGqRkInXePrQsJeJkk@pByOl[yTzOeqAbKs[cGsSf^eSWye@a@}DbMdEnHgNrByOqIjBkKoFiGwEfJdDrJcJmDkm@~FiWqEce@b^u\\tYq]nS{f@fK_|@wTcWfHsx@kx@iC|IgShQeUoj@o_@mFgDwHtFgEiJyAy_@iAmq@dQs[fJ}Edn@nNrl@eDve@qZzGDbVaGdDcCyDuL|AuR_PsBqTwbAyQiq@~l@xd@pcBmBjg@~XbiAnMpz@|eAiCR~V}EjB_Wd_A~A`AfMbFj@fj@`@||@IlM"
                        ]
                    ]
                ]
            }
        },
        {
            "entidad": "16",
            "distrito_l": "9",
            "location": {
                "type": "MultiPolygon",
                "coordinates": [
                    [
                        [
                            "mtmvB|wcoRdjAtSt@dUiQp[t@bTvl@bpAoS|Kw@|IyIgCspAfmB_q@|cAuPjIlBtKbm@rFfGpFhGzq@hG|F|AxPw@dl@oZpr@hQpj@AjWpJne@fLrOe@fQoR~HgGp\\}GdH_J|LyOmM{KfgAxIlEvIhWaC`K|GxUqKhl@oCvv@dAfNhIdF}JhUdBjOgKzK|Etc@hI`A|@tNR~RhHjDE|IpHhDwA`GfWhIVl`@jXcBhWtT[hj@kLveAfP|g@l]~SkL~yAxPzKrW|{@nNjIfJvTze@bh@h`@ru@`H|b@b\\pl@}@hNhS~`@ZlL|XtYtEj\\~XdDhLr[zb@`C{J|Dk`@uFaEbHeIu@YrJsKEsCbXtNlNdDxU_Otl@lmA`kApVhbC|fAjfAb_AFvDvSdVrsAuoBzl@cfAhhBiB|YkKjUvMhUbQh}@dHgHpNjA`@tW{EdHd]|b@mA`KlIlFhGrWvQvJrG`YsN|s@xO|TiClG{ZbDo]gVgAuK}SaSuUhCcJ}SdA_GbSwDiY{Mi^sBcGwY_f@tA}`@aYmQlMwn@ac@_ZrJa@|QmY|QsIsCwO`Esc@cNqPqP_TjPcJzS}EX}D_PgWpUi^LrGp[yCdDgReHqBuKeU|VnC}Ige@aUcJwQa_@k@s@yWyCrRqOG{ElL{I}BHfNoFlC}ReJLlh@sQtFfDlLgHjGgNxb@pNhdAoB`QoIbHyMPaEbMqLeHy]|e@qDpn@tIxf@uNtNyi@zBgQ`Sad@GxFfQ_WTwI~WaSwQuClDrBfPiL~WiKaBeb@zHkScMoVpByFjGqXeFlDdo@iFtBp@vMiFfJ_QwPlBcRcZuLwDhBaF}L{MeDuCuMgEpEwKoLyEfAsZoa@sBmNyLlBu`@iM{M[kSd]aXvDiLtNyElUuf@dQwVqAuF|FWzQszAljAmW}[zBoHwLgGiQ|Hyd@kBsZup@oPuFdc@|kA_QlFiLfVc_@bHyR{Io\\bIoQyUy^oTyKxGwD`^uf@nPqLxKqoBwgC@ieBsW_dCavAoa@g`AaT_d@eCrG{Mq@wZwK}ZmPoDsM_SuOsEes@~]se@iEa]lQ{Yd`@}TcDoVdK`AhUibBl@bNm_@Rk[jTiUtd@cmA`@{x@fQqPxGx@zGe`@pPcCfAkOlWc[tEgQ|Bag@be@{f@^aHk\\oQiR_MsGaPaiBwUci@FsIaPuiC|r@uz@hUm_@qO_HVoAbHaQya@_Y{Wug@{Vge@qGy\\gPsRL_r@mOsg@lX}g@pXuu@eI_nAcTyi@dNaoBlI_gAfOw_@hEa~AlP_hAlKwOhGaDvIsRiJmZ{UyRwcAta@i\\dLab@bUiQbf@ckCnQilBsQsGqOrXa`BzRoNoH_]uf@si@{MiPmc@ee@hB}k@lCkr@yEsjAaA_Aa}DuYcYstCtAgFWYia@mV}Cs{BfcAD~FgQeFcjCyu@`_@{dB~@oCrTip@fBkYhKcEpViv@we@ey@`e@qlA`KtEOoH`c@kt@`m@c{Axi@otA`KwlBbGwE`RfdAl}@l^fDoB~_Bdc@^nThe@xMgZfi@j@vOxKpPl\\{{@zS}@b\\ogAjh@iz@dY}FhEwt@nl@XvHqNlZp@lw@|Cn\\lVpUgUti@cSzSytAfHlAgDcWlE_h@iF}q@tNmsAfd@ux@lmArC|Xco@vjAle@hC`l@v_A}Bdl@hVvZdBrc@f_AlVjApY}YsAaKfInCrAdn@zXkKiAjGfKfQtXvJjAaGbV`SsIvZhr@`QpXpRnZmbAr[clAQqx@uKwWba@ciAp|@hh@bQcSzm@sXda@aF`d@{ZtEtJxj@b@b]bRvsBg\\jeA|b@jUhShEoJ{EsOpe@gl@fE{Thj@nc@}Rld@cFzhAjSpBxIdn@|KhErKeOrUoF`_@gp@o@mMvLmFkGk@ViNtp@~Qx[|BnZ~H`_@f}@rg@vm@va@ffApjAhAfL~]bh@|Dxj@_d@y{@e_Dx]wl@U_Kjg@`JhDlCg@j[~g@bT|VyEfQhClDuGkDyq@hF_ReEsBjVwl@rXeJfV_Xta@mH|p@q_@{@wj@b`@cExc@oh@kn@mg@t]gZyN{R}AwScNqZmN}pAuSyNgIib@sl@{Mc^m^sIe@ieAkWqRkIe@cHtDsFpaBkW|MwOxUdAz`@eMhf@~FnUcHty@wC`ObHhHwClDcPpWaPtE}MvEpArJ|a@rJtGfbAnLtw@da@jmArJrh@hGfk@sJ`f@x@`W}I|b@a@|Rc@jZbTpUf^tD`\\h_@~n@tKpAdb@nMn{@ap@zf@pM``@xHpTeIhYqq@rKyx@hWuWftBda@|lAm~Bt~@nP"
                        ]
                    ]
                ]
            }
        },
        {
            "entidad": "16",
            "distrito_l": "10",
            "location": {
                "type": "MultiPolygon",
                "coordinates": [
                    [
                        [
                            "gdewBlediRh^rpAu@za@lHpZsF~BmBt_AyEzEeSr^yAhVrQbAzIlThRp@xDz^}VnhAyQzZdKfr@}i@~Bsf@K~F`ZsFpH{AhQw_@vC}Sni@uGhA|Bzl@wUhRoF~Nr@lTwFbP|p@sDnEfJdL}AnNtKpM`TcIdAlCdEbh@lMnDzIdOvGgK`b@ub@zb@x@fJoLrEaEnL{PiAwJdIiHzWca@bFug@dc@{J|d@mHvEzV~RrWhBfTld@va@zG|e@fVdHlj@zM~^v[tt@~Htt@|UxVtJ`@gUh^fG`M}k@dOvEbEaBdE_[`Bc@nLqq@wGkUq]uZv@qaAwSek@bKwR`]m`@qDUcJ_J|Akk@eJc|@fqBshCwsAoh@oMo`@d@_DnE}GoIqMlJaWsWkCqYjKmEhIgPyGaYbFed@iPwNqa@{KcKmP{NtDgNgGMoPiTgp@{Hq}@rZsF{Sw}@sAkq@qWcp@{@u{BeU_hDxWkGrc@kXx@y[cRmo@{QsXwXxKgg@{@aTxNaFkSzCwX{Rip@gZio@iN{BmB_IdBas@{h@u}AaDct@mUefAmMe`@rKe[y@mh@nJmClBah@gO{^N{Y|d@vi@|m@poAtoBcs@xHg\\xaAidAzxA{r@|Bd@`BzI|DwDnGfFzBmMpMsF~@uMeFcJ|WjKpEkKxDfA~NlTlj@_YtOq@lOiJrRsAlJ}P}@aLbT}C~r@oBzDQfG_NaTi^mIu]jTwGrH{u@dHaNtAgDbYie@tGkTdDgRHmMa@}|@k@gj@hXhLIzRpNeHxQjFhGrKxJrObWfAnYnA`IdAt^`\\hXrAl[cAtBhWc@tD{BjOkA`IeEfZ{@~GOtGBf@fF|TqEbJsGpNaIcBlEvWxFiAGrHMnLwDlApIAyBvSm@xQrWgGnAvKdIsA`El`@~Tt@xK`@x@pFz@bG~OlfAyUhRnL~J`CrOgY|FzMnu@jViGdIlZlDkNpA`GnIu@pTeQzRlBzExt@oStEq@eHoEfAK|q@mHJ"
                        ]
                    ]
                ]
            }
        },
        {
            "entidad": "16",
            "distrito_l": "11",
            "location": {
                "type": "MultiPolygon",
                "coordinates": [
                    [
                        [
                            "}jcwBdgkhR|P|`@bCzn@{UtK{CaFmA|BuClPcEjV_YeEh@yDeNkBcIzBl@~DiT`@qA~Hk@|IwD|Muc@oAqDrDgN}B?~K?~FIlF_DREdOeD?mDA{QlAlEjOm[bAiXsAu^a\\aIeAoYoAcWgAyJsOiGsKyQkFqNdHH{RiXiLgMcF_BaA~Ve_A|EkBS_W}eAhCoMqz@_YciAlBkg@yd@qcBhq@_m@vbAxQrBpTtR~OtL}AbCxD`GeDEcVpZ{GdDwe@oNsl@|Een@r[gJlq@eQx_@hAhJxAuFfEfDvHn_@lFdUnj@fSiQhC}Irx@jx@bWgH~{@vTzf@gKp]oSvj@pIdUjhAsP|fAzBhFsIfN|Dr^{_@lx@jAlHmKd]aaAfe@"
                        ]
                    ]
                ]
            }
        },
        {
            "entidad": "16",
            "distrito_l": "12",
            "location": {
                "type": "MultiPolygon",
                "coordinates": [
                    [
                        [
                            "szeuBlk{eR_W}HuImLo_@uIkKfA{DwFgIfJ{@kEkTtHaPuIPlIoRrCnDxN}K`a@rGl\\cV`vAxFpT{Ate@hUxUlQxb@{RbvBue@aOa`@g]oP{D}WjD{JtMsGXkZiFkZsPuAuG{PcC{QY{s@fN_b@{DsNbIw[{MmFxGvDxHwEbNlBxThLtRcDlHqS~ReElYk^eLsVzVxErSwSbm@vAxTzXr\\_bBzi@w^nXqGS~EiNcNaw@aa@ri@}OpG}XgB}d@iw@kBzDkc@t`AmFgERgi@_q@rB|EzHuMnZoXxS_A~SgU_BqH`_@yYzG_P{MwI|IoGg@qYL_C}IcMpHiHgECcNaJyCkAkIce@uDgDhGqS}E}J`IiEeMkI[y\\~FiQ}E}CrFwHoFwKjJyI_E_J~CwMoWmWkJoQjLsb@zHki@aMqg@oCwl@kYySvT_F|VeKyE}ShTbBdCg_@fUqi@zRmPUoDdd@{IlLqP|@DpUsOkL[xMcZ@{i@n`@}m@p_@sGzUm_@Vam@tU}}@Gw@lHoYkQiPdAaDiE}Kz@cJrPs_AyE}NpI}OqEsPjCcW|Gi_@d@aRvLqL}R_J~HmUq@gn@`Oys@rFko@lb@ka@dEsCK_o@y@o`@vKaUza@sNgFeUdNoe@sDuo@dR}yA`gCkTpJk[Bu_@uCuf@di@seB`mB}bAroAsR`L}~@`EotIfDyTa[tBqRfQcLqQkk@~KgTw~CccH~L{s@rh@qb@xb@cw@lR_OzAcmAsZqg@E}a@h]gTfAcIbOsEbJq@MxHzWqBDaX|JsP~XbO}Bed@a@eu@{Hf@hD_nAxPuSeHuKyWzAvCeLeEwSgS}[yCc_@~I_IAg\\dHsLsHoUWWx@wRhg@wEkEac@n|@q[vKcSmOmw@p@qqB^yXsvAdD|@{iAyFme@qdAwdCmGaNaNyXtq@oo@vIyCqMqb@hJeg@gc@mTuGwQji@{fAyKsfAgIi`@c`@}n@wx@_qBvb@ml@jQy@j[jMtj@kOzcAi`At{An@FeMt\\oW`LtCxL~SdPxDtH~l@zgAlW~DiDzZPtDsKza@iNlJcOz]wFtH`Qjd@uGpa@ur@lK@xjB~[ClH~i@lR~P`Pd\\lFeAw^ttBwOff@wn@oTgfBzHwZrW}TnD_|@x\\gcAfmAqkBhg@wJmkB{oBlGkl@tMokAdHcClYqdA_Jei@iSujAf_@?`c@vJuAeNzDvAzEgJ{GwCbY{L`Rl@|AkSl`@qq@lOtMpO~Apa@fOpUoJ`D_W`JrMb\\ss@lWiUbTsDtVbPvi@pGjO{ElMuc@{DwrAdOcPjQ{f@~YgH|NmPZnPb_@l]nCrUb_@f[pXzGnZxa@fUhIvT}]fj@bNh^ra@|z@sC_QxiBxGbIp@`^fXbL~|@pj@qCtHyYbKcRz^hAdEp\\dClW`SzOcCvj@`^sGrSuJ|GcGbYnRVbJrKcEf]hZzDfn@rl@aXhs@Ll_@z[~aFhDbm@dFvh@tKfUl[`X^bViNlTbAxD`OhFbo@e@lV`F_Avi@bH`a@rUzStQcj@~ZyN`SnAfV}LgCuf@~MZZ}JhO_RsDgD`CoGoN|BgDaL|C_g@xSkXtRyIzPcCtOxJnJlgAvLlLdc@pCdE`IyC|WbM|Lb^bFzKuK|i@`L|d@ld@pXyXtCmLzQoC`RtBba@fSlFvMnLmAUc[fJ}LzVk@to@qPjU`GpR{DpK~HbAbr@tFtRvXdXhIr`@QzXt`@vUtFtf@pTxZdEhVvTvAzV~g@zPpCvZaAn\\gUvKiPuByf@zNcZzD}G|]_HxLcNlNyWn@qn@v^_K|Tdm@jHy@|b@|NjD~S|EeG|EvGzBuGzMlWhYsWxD[bFpYwAtXxDzPuFpk@uN`b@jWtQvLiLtn@d{@~AlUoe@lF{Crg@dI~Zz^~e@cDkXd{@ma@vFgWbJcEtBcJnWf@fH|EwXxtAnWnCz~@biAhtA_LdNbDtJxk@gFpV`ChXiT|f@hZn|A|Xhj@hFvhAmKZyRePaNw[oCnqAcHlb@sf@TqGvI"
                        ]
                    ]
                ]
            }
        },
        {
            "entidad": "16",
            "distrito_l": "13",
            "location": {
                "type": "MultiPolygon",
                "coordinates": [
                    [
                        [
                            "_n}tBjvgcRlb@dfA|ZzzBn\\zQxU`f@mNnFBhTyOrKj@hSi]he@qVtGgh@ds@mEvZuYiAaHwHeHtEiFiGqG^rBn]qn@ru@`MhQk@`a@yDjH_MSxDbBmLx\\v@`HjM`AfAxHwJzPm^nRnd@peBbApV_JpPbDfAg\\hLcK}@bPzKfDlTn{@nK|GlKtOnBtIhRpO_FrNfe@cZha@uXvP|Ehy@wXoEeSvGgZmHcRp@{N}Gq]gNoHpTgR{Fyc@jGmDsK~CqKwd@qBJdRgGR_D`NiQzBcTqB{NqKqEtD_\\uGaOoSwTdEeCtHecAvd@tCoa@_Vh@cVuGgL_N_XgBkNeSiA_c@cG@_KbOqQkDkEwGab@h@_H{CvD_L{Yg}CqLei@fAaQsLga@H}WwKnGwBrYceAoOgTdEcO~MkS~[cXfFuOiD}HaKidB\\FbPoN~EkDtTepAyGot@dJce@swAiHCiCi_@wPoc@eMcYuGyIvDmEkFsCbAkGuIiH`c@uxAgIco@xMyU}H}HfBeRcLoCmCsImv@vf@{EcHad@pNuFsI}GvOy`@nRad@nj@iDzSyKdHw^a@gb@t`@aFrXhBla@sWjScA|SiL~QsNym@aq@eFc[fBsWgH{E}Jq[bo@iY~d@lBl[rIpI{N`BsExI{g@bDyQ\\ad@oKoLrPcFezBcJcNc@s_@u\\{p@aUiNxAiF}H{Lj@e[bWof@aGwLcTwLqAk_@oFcUpKol@vRaN|f@_u@afAwt@w_AzMsFop@q^ef@c]mQcSaj@dA{lA|La]{Rel@vDqb@hAwTjLwh@fq@}]wSa\\iRuIkGeq@nXjGlLlLvLd@dWmLr\\Flb@kg@`|BwDf\\s\\hSid@nh@oNbVmb@lRmInq@bYnLlUaDxKzi@zTyFxKjr@xGrc@oLnr@kM|e@gS``@cDeJig@k\\mi@fB}IbVsMtm@wEbVt@nAnEbJeC|AsZ~PnCxBiLdGsA@cLpWgK`C}OlReK`Fy_@|OsKrCi@lzAoz@dy@at@z`@sRvKaLrGmd@sB|cAfRzJfQgR|KiAhT`]yV~y@_t@rz@~GtAOrWpfAbL`y@yBny@tDpNqD`ObE~DlBfJoKnAiUv\\{Oh`@{d@xLs@bzDrrDlg@z`BhEpcAnFpYaXfjAeAxb@x@pZvOzBTnE{RxX~j@lI~TsFd_@xGhInXvQjHjWpc@lp@`e@ve@lRfXhu@xr@xf@b{Due@fEtK"
                        ]
                    ]
                ]
            }
        },
        {
            "entidad": "16",
            "distrito_l": "14",
            "location": {
                "type": "MultiPolygon",
                "coordinates": [
                    [
                        [
                            "wyluBpp{mRrMhCtc@`IHnAkCvH|NpIh@jFcOjk@~T~Bs@tFqW|JoN|Y{KyMz@pLyKp[zAh_@{L~[{QlStErUuEdV{VxYu`@|KiRnDa~Aj_@gVjFsRgCyk@sGel@nLwNdDcf@yKeTlEo_@n^~NffAqEfHn\\fkAiCtOoPvMsDfb@oKtSaCfmAj^zuAvF|LdVnLdJ`]dG`CGvh@aOrVi^rOyf@fy@e\\xJiQrTuz@fpDuWhmAs_AbmAhH~`I__@tSq\\qDePbCm\\sE{FaGma@rD}KzS}Ea@x@vo@_Je@yIdGaOlQgR|`Ba]jv@yKaO}IiMeDyVoSgAwFdrA}^f^_a@|Os\\fw@aPlCmDbNwH__@jBeX|GeHfGq\\nR_Id@gQgLsOqJoe@@kWiQqj@nZqr@v@el@}AyPiG}FiG{q@gGqFcm@sFmBuKtPkI~p@}cArpAgmBxIfCv@}InS}Kwl@cpAu@cThQq[u@eUejAuSu~@oP}lAl~BgtBea@qHyQiOa_@hIqMo@kKwMgZuCm\\{P{QsC}My@oe@xZoKM}SvLiRwJ{[o\\es@jMi}@uOsm@rAm\\hPnFf[mJfFxK~IgHjl@jEfNiEf^pE~P~K~\\Cp\\{Kja@q[yc@gz@oi@wp@u]mN_[[wc@cf@ws@oQuE{q@}PiUvJe~@er@gwA`\\sCvf@aWjI{g@~OmOdi@PreAaqB`FebBxO}jFdMuA`EfH`FuRgFwGR}RwL}J~IoUpC[nCjSvOpCrcAaq@`^}^oHoB{b@qr@cI{XuPutAnB_{@s@a}B|HcbA`mBaC}ZcdBjm@|e@hkB{U|SoI~e@rF`a@kCv_@{O~\\dXpI{Ae@jIn[bSbv@dmFf\\hPtQu@bSkU|\\aQhEwOr[wFhS{\\rHq_@zd@}XhIcUsCkLpQ`CfKiQrW`N~S|i@zKnIoG~Z|G~l@do@jP`TbuCzJjAbDzMpb@dYmOx[eGbNhg@d}@tPl~@jZ`AXZtAdXKp@hX`j@oAnUbR|D|OxCbRlDxGnA`H~@zMbD"
                        ]
                    ]
                ]
            }
        },
        {
            "entidad": "16",
            "distrito_l": "15",
            "location": {
                "type": "MultiPolygon",
                "coordinates": [
                    [
                        [
                            "s__uBtx~jRzIwgAxp@yJz_@nYrt@rGb[|\\rn@vPpB|xAdIrRlVfIhVsDkHnR_BxlBgm@t{Ca^|z@~KnZtUzLbE~OtU|QgF`n@_PxTkA~M~IxXpCvOmPzM}Onn@cAbs@}^`R`G`XfY`Xu@bSmMvNdFhW_Alz@lSn_@mHlN_@xc@hNnMhHl]hKtKqn@leB}W|TJ|UcNlXpIxxAuAlXkGlE~DxV_Ija@^t[qr@{j@aQquAw{@gY_`@ko@oCsOg^aScz@je@mBjWcb@~BdA~JkKzHeeAxLoClM`H`a@aOrt@TlTtPnc@hBnYna@bl@oHtFnCxHuOrLjEdNakCoM_ChbCfh@pNs@peCx\\hb@xEbbAhKtl@lj@htAsLdG}@dMn[~[g]~AgT`Y{Wb@eJdMkDtFGpYnKdg@dItD|UoBnFpVnIrC_f@vPe{@|GeZh]iMxEy{@eCu_@`R{L}@gc@lXkSkBeV`Py]iAopBjh@eo@kP}G_m@nG_[{KoI_T}i@sWaNgKhQqQaCrCjLiIbU{d@|XsHp_@iSz\\s[vFiEvO}\\`QcSjUuQt@g\\iPcv@emFo[cSd@kIqIzA_]eXw_@zOaa@jC_f@sF}SnIikBzUkm@}e@xLqOzQgBvFiGzBkSzg@{n@|CsNqRyh@yZ}k@y^uF}KeZf[aqAjCuuBgG}r@uRc]sCah@mLw\\eEkt@iWus@uhAm\\gd@}QaO_W_]uOtAkeDfzAq^tcAchC|]oC~W{XxqApKlEey@dFwTfKsKjJfEde@mMvPwLjSsf@bLiF~J`Au[adArBu}@`Ril@l@}\\wMmq@oA}Em^mN}n@ePmdBquAgeAwXw}E}rAqA|EgWjFyAqGeFrAwI{XqjFuq@bEiGeBsJqQuFbL}NuAcHoR_W{RgEuMmLzTkXw\\_FrA_JiPoWbr@g`Efy@odElWwqArKwh@eUw_@vQ_`@bIi_AyQoaAhC{IyCkSkJkSbAeYzSqi@pKic@e^kgAjTgK`Vyb@~B{WuFmM_@wJdi@cFu@{Rr_BamAeTaM_u@sx@xz@eo@bOo\\aJ{ZuVyLq^c_@vA{XkHsi@l`@oeArZdWze@hRjh@vH|v@na@fNmT~UeK}MeLDsHxVJn[qKtv@xVzx@pIzSbLxIhtA|Ic`@b\\nSrSa@`MiXj[hNfKm@fEeKtb@luA~Qdk@oJ~p@tGsAfoAmq@vQCli@se@rDwC_Eja@|CbNhPzYhJhDtK_N|r@yJbE|_@`_@iZ~NjQnZnE`I_UxCxPdVhU~jA|_Avd@kQpTeAp\\~E~ZeGdw@~RbdChfAyAuUjRkJbO|@nHhZt^lFsi@vm@vVvr@sKfc@f@nRxXno@sB|OqPhUSxK~\\`h@s\\`r@iWfeBnhBf@rjCzoD~a@hk@faEh{D"
                        ]
                    ]
                ]
            }
        },
        {
            "entidad": "16",
            "distrito_l": "16",
            "location": {
                "type": "MultiPolygon",
                "coordinates": [
                    [
                        [
                            "ebbwBnsyhRi@|Xz@~CjLo@UpOuQyEmEpMkQpG`\\LbKhZhOqCvHlTtOdKdLiSxh@oa@xSaCvPtF|BStItKh\\pBpVD`MuO`D`FtRy@fA`OyLlz@ti@k@J{Zr^yh@rKdc@|PlNxOcBcWng@pH|@dRuIdMbCxCre@vEoAhF|TtUvIqTlFrFjj@zN|SzIqBxC{i@jRs@{EzQfQnbAvRpOeShE{IfKlg@lG|hA`dAdNaBtjAn{@}C}SfEsGbv@xAdsA|h@gBwKxXex@zU_Mva@lJyKhh@kZz\\fSlBQzy@}Y`Gg_@}VqQa@ac@zLs]|[jz@fhApEgA`LbMtP`RtIbs@t^~O~j@sKjl@nEzi@vm@MnP~TjBwGjE}@rOzMKpWbWtOtE|PsBpK|DpLoLlB`Cz@ddB`HnJ|f@z]vFuJdYsHzQlI_CqMmKkAnFaLyEub@`MiCFlHtHlFa@_NrFiHgGwE~Cc@z]`PrXpi@bGtLcQpHx]fb@va@uKfHnFhOLnE|KnAvJcQbS_T~l@hDhC{DzARpKuSxHTbHrX}CnIlKt]pG|Gpc@rMjWqTdAwd@jQ_kA}_AeViUyCyPaI~ToZoE_OkQa_@hZcE}_@}r@xJuK~MiJiDiP{Y}CcN~Dka@sDvCmi@re@wQBgoAlq@uGrAnJ_q@_Rek@ub@muAgEdKgKl@k[iNaMhXsS`@c\\oS}Ib`@yIitA{ScL{x@qIuv@yVo[pKyVKErH|MdL_VdKgNlT}v@oa@kh@wH{e@iRsZeWm`@neAjHri@wAzXp^b_@tVxL`JzZcOn\\yz@do@~t@rx@dT`Ms_B`mAt@zRei@bF^vJwFdGgw@tHgM}ReHpNsf@r@y}@_BeAcWqh@cSwH|@{K}QwY`P{X}pAa@{[_Wsa@mA}NfAoMxWmf@q@gG_[gWqJxNeOwGoD{Ich@mMmCeEbIeAqMaToNuKeL|AoEgJ}p@rDvFcPs@mTnF_OvUiR}B{l@tGiA|Soi@v_@wCzAiQrFqH_GaZrf@J|i@_CeKgr@xQ{Z|VohAyD{^iRq@{ImTsQcAxAiVdSs^xE{ElBu_ArF_CmHqZt@{a@i^spAlHKJ}q@nEgAp@dHnSuE{Eyt@{RmBqTdQoIt@qAaGmDjNeImZkVhG{Mou@fY}FaCsOoL_KxUiR_PmfA{@cGy@qFyKa@_Uu@aEm`@eIrAoAwKsWfGl@yQxBwSqI@vDmALoLFsHyFhAmEwW`IbBrGqNpEcJgF}TCg@NuGz@_HdEgZjAaIfE@lMJfMNxB|KFRvUfAdB~b@^fJB`@@n@DpB?t@~XvK|QbHzPjGvDzApFpBnLjE|NnFbExArJpD`JhDdXfKVxe@"
                        ]
                    ]
                ]
            }
        },
        {
            "entidad": "16",
            "distrito_l": "17",
            "location": {
                "type": "MultiPolygon",
                "coordinates": [
                    [
                        [
                            "gurvB~}{gRdPsQjIoXjGpR~h@eJ|QyOv[_ExGpbBli@dN`F}VxGgLdGxDj@vK|McM|CkNfRaFvEpI~h@xJd}@jGdv@v_@dBhLjJVvb@Zzl@nQZzEs]ft@e@`SwYde@fGlJqDlFt@|VhL`S_b@|bAjBdNlQzBrE|GuAlG|FrHeq@zNwXbTcD`^ze@xo@|N~FiH`Mb\\zU~Cr_@rKrIxx@xQbQfOxIsCfRnFtEjItd@dNze@dKzc@`Vjd@lClLJ~h@{XpLhF~^oCfJfE|YuJdPpB|HaEpE|OdZiJuDtMgTxI{Yj_@~E~L_J|R\\xX}Tly@xBpJ{Fnb@SbT~Er@nLp]}Llw@gG\\}ArIkj@ce@{WuNkUoCoRpo@rKrYzIV`TjQdElYbfA~g@jBfOq`@tf@iJlc@eQ|SsMo@es@}p@eMb[aKvAsO{LuoAcFs`@{m@{t@aDJdM`MtGbFbk@{HeDaMhIaOkJwq@aCiJnCo@jImM|^tAxMaS|JtCpTaQvJtDxNpHlCaEtKdRjGnI|\\ig@hVwa@mJ{U~LyXdx@fBvKesA}h@cv@yAgErG|C|SujAo{@eN`B}hAadAmg@mGzIgKdSiEwRqOgQobAzE{QkRr@yCzi@{IpB{N}SsFkj@pTmFuUwIiF}TwEnAyCse@eMcCeRtIqH}@bWog@yObB}PmNsKec@s^xh@KzZui@j@xLmz@gAaOuRx@aDaFaMtOqVEi\\qBuIuK}BRwPuFyS`Cyh@na@eLhSuOeKwHmTiOpCcKiZa\\MjQqGlEqMtQxETqOkLn@{@_Dh@}XWye@eXgKaJiDsJqDcEyA}NoFoLkEqFqBwD{A{PkG}QcH_YwK?u@EqBAo@Ca@_@gJeB_c@wUgAGSyB}KgMOmMKgEAzBkOb@uDuBiWmEkOzQmAlD@dD?DeO~CSHmF?_G?_LfN|BpDsDtc@nAvD}Mj@}IpA_IhTa@m@_EbI{BdNjBi@xD~XdEbEkVtCmPlA}BzC`FzUuKcC{n@}P}`@`aAge@lKe]kAmHz_@mx@}Ds^rIgN{BiFrP}fAeUkhAwj@qIt\\uYbe@c^hWpEjm@_GbJlDeDsJvEgJnFhGkBjKxOpIfNsBeEoH|DcMxe@`@dSVrSg^r[bGdqAcKxT{OxOm[jk@qBrJdJ"
                        ]
                    ]
                ]
            }
        },
        {
            "entidad": "16",
            "distrito_l": "18",
            "location": {
                "type": "MultiPolygon",
                "coordinates": [
                    [
                        [
                            "inaoBzcleRiJbNsQ~PsSb_@aPxHi{@mKaTrWiDta@ukAbI{j@xFo\\tM}`@|]qHxMoCr\\jGbi@zIvNfVlJpw@sBlNrVgCt\\yVhh@ab@zYaRgD{YnFw{@|f@}AbVpTrWmBv]sIrPch@x[eGhTqSflAKrNoTdRe|@r@mgCfhAyf@|\\mCvSfa@v{@gDhh@lPty@i@rUR|f@uJ`Z{Fvj@|@~i@eIpW}e@xx@iLhHoH@}BuFiOpFuKpW|FvYvi@d^xp@jM`gAlb@bRtWm@r`@wq@hw@yHdUbAtOl_@fQlu@cN|n@xMvWfJbSp[iAp_@mn@j]iXf{@`EpRp}@vs@Inc@aQvf@qHtC{d@wD_q@wYiZa@{j@vUq_@dh@geA|wA_Fzl@lHnt@_NjRs`@dHm|BlC}d@xEmR~HiBnHhDjNv`@b]a]njAh@pe@tJl_@`i@zvAhOnqBnj@dq@bL~\\sSfbAgDneAdFr\\y@`^qPfd@ab@rW{CfSdFdNhb@n_@jD`^{l@jcAoNng@sA`|@dEj]`Afm@nG|Ji@vf@}DdFwg@jK}_Al}AjKxrAzClbBwX~m@eM|y@`Ita@nPtTrBxVgGjTsTzEkS`PqJbg@d_@rXz[nh@|Kha@OdjAbInNvP|`@{Bvf@|Cte@nWby@|Kbt@?|m@`Oz_@jKvHjvAaJtUn@`Lx\\{Xh\\}b@vMqIfQsDhu@lWxN~Hj_@gGdb@k`@h^}BfJtHhZd|@pFlZlWfIlO_EpZqZ|UqGh_@~b@~Wth@vMhHxS}Exa@wi@|h@sDtStJzTxj@lNvIjNaAz_@}U~u@`Lf_Akg@tJii@bAa\\b^{KbAeQgXKwe@c`@ug@kdAkVkNwOmXmCcd@nFgn@yWw`@ec@}Eqv@sQyE|BiYvXqo@}ShFcNsN{@`j@i_@qOsQnJtBfSyb@x]aOjCaHmJmZ?i[`\\yDpOeb@pHsR}AfAePwM}GpNyJzDmRmTnBua@qZ_NpVeXjSmN}@e@`HgVwNcO|FuIym@gKlGz@cO_M{D_v@u@wW{EkJ}Ae[vOYa[g^yFpGsU{`@}RfB{c@iQaBsGyHoN~E}E{IiN_Cm]|Fz@eL_h@sYiFig@jCmw@pBch@{XgaA{IdDuN}LyHpCy@yIkFk@{NnGrOet@qWabA_PzPb@fQwGpGdSrUgJfJWpXkVmAeBbNwSe@iEsExLm]gHyQsNfLgGeBqLfKaO`BtRxZ}G|Cw[y^~Rop@lj@uYwBmRoIaJjFkZtZqTtMmu@}MlFsCjM{XwEU`YkTcOgGvBkE|UyKgG_DmI|Uaj@nLmIdRzEtJ}R{XgOfI_a@gVytAuRkS}Zs[r@aQgOzDfBa`@mTkWiMaEv^cj@kJaU{Ka@_FaPfLnBWmKaGeQad@eg@n@oLyEiBvEuLxIhAhCoIhNbTo@wR}^sPcJu\\mUjGyMiD~Ccr@uEsHtE_DY}OcL[y\\sSnB}NiEoL{[uUtKkMcPwN}PKuKe_@ub@sBc]_KlG}NbAqh@cMiRcBiRrEwb@oGsGaGvAoNoU}S~O}F{GeLlLq_@uF}OlEqHoYiFlUmDgAyFnHzCpOqx@~@mEbQgKaLwMkAmV`EoEtMmIgHcElEcOs\\sG``@{PzKujAbDyEdPjPdXk@tFkRrNcImJsJoJiVfAsx@|n@u_@|BqYuDeCzXwGo@mIsU{Lh]cGs`@sFsBwGlQ}Dw@uCgQgMdZeQzKe@zLm_@ySoQdAqDnBhPnOkBjZeVrKuJvTjAtLmKvF_LuQtLo[Es\\}CmH{OaErN`Oz@nQmMbX{XvD~@dSuPvSoN{GkJt@k]qRsZpKqTsHqEiRvKgQ~Em\\wIgVtLgHjOij@zQqQzJfUfIgUe@kVpPaJrQjj@bJo_@fHoHtR|AhMcNfL[hHkWgI}FfDyGkRbDiN_DoIyVmYeEeFgPqEwd@|D}E{KuEvOwZcKi]pPrBzEeL`G~@pBmYkg@tCuMgHaBpm@ad@jBrBw\\iNiJuEhAsQvUmBjQgB_[q\\zJsIeCt]{WG{LoRyAvLwJ_PuXlLm\\iGkPuH[}d@bZuLbZkNxHik@cf@q`@xCa]iOmDdIyIvAwMiA}WlIiKoC}FmIjRcNsAaa@uThSur@~GwAvRoYd[aAyO}FE]rL_QgF_m@dHpGrV_HdPtAvFcDjIqPOpExRuHlEaIbAyCeE_Bwk@mU}h@gGsCi@uO~KaHyB}CpGaIc@gLb]kFfAmIdMoCL{KyY{Fk@zHsIuLgLhArBuKcq@]wAyHe`@tMo~B}iAqIqKqYdBiNq`@~CuXoMm[mEArBmc@cd@yPiQ}RyKoWu@eUmNeR}FoStAuSnH_]zUmSsi@uCcOwWuKrIgg@bJyWzU`And@ck@hh@aSdBjGjLqM`OcIgKeZmFgFjKaa@`HsZuImHlEmEjWwGaFgH~@wOl_@{h@vVkRcWqJ_A}LbIc[yCeElEzGxWwExA}Xw`@{FdDrG~TwR~SuWiXcVvKwE}F{@wN}IcIbDm]tK_HzEk_@zLaUs~@u_@oV`CqImc@kJkGrLgGuAyEqKnAuBuL{W_X{O~MuQmCyRkByCsL~GcP_d@mFyLmJqf@_MeSc|@fUsH}]iCrEmKqKXeCaJbPy@bFeJaKp@y_@`IoD{_@}MyGe@mR}l@vQ}Rgr@oe@k`@ig@iO}M_L_[vAwMlRom@c_@q_@R{DdIs\\sKeKhFoG{A{C}KkPqE`GuBkT{^}K}Fw~@XwQkMwIlAqDrJtBlIcNrGw@~MeToEcJ{NtHgVkIoHfGEeVwj@aMbBY{DgHuA`@zEqSeFyPdm@cWzHaLgA{NpJox@}[uFzEuXbAmP}LnDyC_PoHcY~Daq@aGmG}SkdAh@ih@u[mJLu[{PqMjEeb@fs@}Ga@oCnb@fHhWgh@jBeHiKqVgHwIrC_|@z{@wZ|G{AiScJa@a}AhfBko@u`@y}@ll@_V|`@aUbE{R~g@dKxUjPaIdIfFqPd_AvAxNug@lUmWw\\yAqKcRc@}Xiq@kZqBa@~F_a@wE{OaR_LzDsJaUgZcHwPhNaf@qRgGgPcXgAZaLkZgAgF{H_d@fGiYwKs[j^mLjYmMjd@}Hrv@iqA|aAwYlIcKeDfD|HgCtJev@w_@e}@kG_i@yJwEqIgR`F}CjN}MbMk@wKeGyDyGfLaF|Vmi@eNyGqbBx@sc@`k@m_AqJ{R\\cm@vU}ObKiRrm@s]jZosAhAuLyc@gnAmOqVaFa@zCyPkMh@eSyUqNiDgd@JgQoSaSm@y`@fSgEeLgTwD{BkKePoI|Cc^pFyAdSe|@_FkTrDgZmP}d@|Dm\\{H]_IaNCkNqJkGxKeb@s@}Tmb@ib@sCgIiSd@aHwFW_YmEDqJi]xFuG`HPjCu[lAuM_V{Ho]`MqUoCmGjDd@tOiG}Cw]`JwNzQwHJyDgPgFhDaI_JuJhOaHp@khAdh@yhAxCgr@vQqCoS{JcN`PTbGsHwCcG~E]fJyVzGeCuLXz@aKtV{OzBmWdfAqIiGsPC_WgGyFoNcDwUfBgt@qj@rG{U|m@q_@zi@o`@bZAZyMrOjLEqUpP}@zImLnDed@lPTpi@{Rf_@gUcBeC|SiTdKxE~E}VxSwTvl@jYpg@nCji@`Mrb@{HnQkLlWjJvMnW~I_DxI~DvKkJvHnF|CsFhQ|Ex\\_GjIZhEdM|JaIpS|EfDiGbe@tDjAjI`JxCBbNhHfEbMqH~B|IpYMnGf@vI}I~OzMxY{GpHa_@fU~A~@_TnXyStMoZ}E{H~p@sBSfi@lFfEjc@u`AjB{D|d@hw@|XfB|OqG`a@si@bN`w@_FhNpGRv^oX~aB{i@{Xs\\wAyTvScm@yEsSrV{Vj^dLdEmYpS_SbDmHiLuRmByTvEcNwDyHlFyGv[zMrNcI~a@zDzs@gNzQXzPbCtAtGjZrPjZhFrGYzJuM|WkDnPzD``@f]te@`OzRcvBmQyb@iUyUzAue@yFqTbVavAsGm\\|Kaa@oDyNnRsCQmI`PtIjTuHz@jEfIgJzDvFjKgAn_@tItIlL~V|HpGwIrf@UbHmb@nCoqA`Nv[xRdPlK[iFwhA}Xij@iZo|AhT}f@aCiXfFqVuJyk@eNcDitA~K{~@ciAoWoCvXytAgH}EoWg@uBbJcJbEwFfWe{@la@bDjX{^_f@eI_[zCsg@ne@mF_BmUun@e{@wLhLkWuQtNab@tFqk@yD{PvAuXcFqYyDZiYrW{MmW{BtG}EwG}EdGkD_T}b@}NkHx@}Tem@w^~Jo@pn@mNxWyLbN}]~G{D|G{NbZtBxf@wKhPo\\fUwZ`A{PqC{V_h@wTwAeEiVqTyZuFuf@u`@wUP{XiIs`@wXeXuFuRcAcr@qK_IqRzDkUaGuo@pP{Vj@gJ|LTb[oLlAmFwMca@gSaRuB{QnCuClLqXxX}d@md@}i@aL{KtKc^cFcM}LxC}WeEaIec@qCwLmLoJmgAuOyJ{PbCuRxIySjX}C~f@fD`LnN}BaCnGrDfDiO~Q[|J_N[fCtf@gV|LaSoA_[xNuQbj@sU{ScHaa@~@wi@mVaFco@d@aOiFcAyDhNmT_@cVm[aXuKgUeFwh@iDcm@{[_bFMm_@`Xis@gn@sl@iZ{DbEg]cJsKoRWbGcYtJ}GrGsSwj@a^{ObCmWaSq\\eCiAeEbR{^xYcKpCuHu@o[`[ec@cF_]rZkgA`f@sVnLsP`d@nKxQ]zg@cDrEyIzNaBsIqImBm[hY_e@p[co@zE|JrWfHb[gB`q@dFrNxm@hL_RbA}SrWkSiBma@`FsXfb@u`@v^`@xKeHhD{S`d@oj@x`@oR|GwOtFrI`d@qNzEbHlv@wf@lCrIbLnCgBdR|H|HyMxUfIbo@ac@txAtIhHcAjGjFrCwDlEtGxIdMbYvPnc@hCh_@hHBbe@rwAnt@eJdpAxGjDuTnN_FGcPhdB]|H`KtOhDbXgFjS_\\bO_NfTeEbeAnOvBsYvKoGI|WrLfa@gA`QpLdi@zYf}CwD~K~GzC`b@i@jEvGpQjD~JcObGAhA~b@jNdS~WfBfL~MbVtG~Ui@uCna@dcAwd@dCuHvTeE`OnS~[tGpEuDzNpKbTpBhQ{B~CaNfGSKeRvd@pB_DpKlDrKxc@kGfRzFnHqTp]fNzN|GbRq@fZlHdSwGvXnE}Eiy@tXwPbZia@sNge@qO~EuIiRuOoB}GmKo{@oKgDmTcP{KbK|@f\\iLcDgA~IqPcAqVod@qeBl^oRvJ{PgAyHkMaAw@aHlLy\\yDcB~LRxDkHj@aa@aMiQpn@su@sBo]pG_@hFhGdHuE`HvHtYhAlEwZfh@es@pVuGh]ie@k@iSxOsKCiTlNoFyUaf@o\\{Q}Z{zBxpE}hAd~DlUbtBlI_A|f@nF|UvZSh\\|Yj]vs@_Zt[xGrIeD|\\js@bd@hUj[`HpAXkGlJzK`\\rBx@jJnJbB`AfS`GzAStXlJlNhk@Jvs@pLrI_]f_@ul@xB}[vOmIjE{TrJ_EtGcUfUtJhUkGnEdJz\\tFvKlU`WhJqD`QxUScD~SlHvUeQ|TrFrWhNhQ?fJnYdGfEnUl^iOne@xWpQsDjChPvLqIvFpBlCzVxLwJlGdExNiAvJrOx_@tFd@`^lKHvHhRjLuIq@wJnH_Av[z@dNxRlTqGhCnIdk@lRtWgQhGtJtToHbEdHjAxOdKhGzb@hB|HoL|JdDcOtx@v^oAz@zfA`[iCfG|CyOr^jPrKbFzVnI|F|AfY~N|BpQcTnDv@i@pNqQ~HtB~Hfc@tPjIhYtl@`CjH|OmC~\\dRxIy_@`b@KnMbNbTbc@}D_LhY|EjLlNiOpSrG_KbSpOb\\oIdOtSvDnOzh@vUbEqAlThPtOoMnUzY`HgV~[vMhdA^iJnj@wb@l[qLvPTpFdRoHbYpPdMnXsQdIjL_L|SnQjMrGl@bb@kWna@hUb^}UxRaArJnh@iVlXrOvObSaC~k@tH|PcIvWjTzIgKbKe@hK}Vz]JhQvRuG|Tl@nUiDda@nUdf@fRMwCdJnDbAt]cCjIvZpLgCtBaR`Hx@{_@hcAtJjMfW}XfNtH|BbVoJpMvYda@sUxYFbKfRf@bMsRfH\\zHb[jf@h\\xBx[vPiLdSgR|ChA_Knq@dBnSjHzDzLgM|OnIjIxQp`@nHvGnSx^k@hNdSrY}E~C|CfEjNeJnNa@xXrC|h@pGzOxYYrHt[xa@eLpYWzJlQ{ApUnNrU`RQjQuPbB|KnFnWjYlQDjh@x]vOrDxQjf@qBzAcUrEiD`Tf|@qGbJ`BnJpEhBh[gNzR~KDhNxEvDd^dAaDzN_HlCvA|GrLdCaA|C{PdAsAjExZr@`YfKnOrKx@pHqM|k@tFtHiJrBwMoDg_@yHao@pSoOiF}Tgc@yPgFmT|WIdt@iItC}k@uSi`@jYeEpFNhSsa@`MuU~\\}B~fA_WzIe]mP}KvLbRl{@yOhGme@sFwJtLfTpwB`X~d@zDbc@tQxk@b}Ape@ttA{QlbAmLpbIaXxnCyv@b~@oTfy@cb@zp@a^dmAtc@vUiG~mAkx@xXoAfHaFfUdi@td@_DvUfNx`@Xfm@yVxw@yA|y@{uD|dDngDvfBnWtPyAnyAuNfvAtc@ds@yFncDy`B~KyHn`@cLdJtAh}@_Nr`@pI~UwBt|Aaj@`DqfAvBukB_e@iv@cAcMlm@mbA`vBa~Ep`@sB|gAaXrdB|UtSmrAz[q`Chg@a|Bl@{[dN}KtWeEdK`F~Lp`@dU~Qhc@j_@fVj@zVhb@vH{Dlr@pTfDpS|JzpAbNlRrWvMxSde@hTjRlhApDvStQ_A|O_ESyIzAkx@zu@wEbCyAf_@_KdP"
                        ]
                    ]
                ]
            }
        },
        {
            "entidad": "16",
            "distrito_l": "19",
            "location": {
                "type": "MultiPolygon",
                "coordinates": [
                    [
                        [
                            "{v~pB`t|iR{F~c@dNb@{N~LqXBi~@xZo[V}QlYc`@rSyKxRuM`BoU|o@m]hd@uFrYap@nz@gQnKmKo@if@`O{h@aI}JpT^pO`KxMrDxWlYxGeSfd@oS|TdP|DkHnM{QgA@xK}e@fLcLdWsEsDwJhGwP~HcSlWrAd\\sErOjG`GrEj\\mg@?qFlY}NbBiPcJ}HkQm\\_L_IaNi^uAkGeMiQ}FkQc@mk@z^ki@lCqF}NeTyLaOrUwZn@mrAquAwM}]aNt^gFNsXwk@q\\{SFnVjWla@qLq@kPdS|TffAe[gF}Vqf@sDgCoAvD`a@vgA|bAmN`DfZiEvNur@e@rKlN{Fne@rKzJf@vMa\\fKnJpRiItJtKjHaHzJhKnHoOjFnXxM{WxI{t@aDxNpPzt@nYrHjMoEbP{b@hNdAtVlMl[uB~QyEgNcNlGkYIa]mQqI_UyOdKeLcKr@kNkFoJmY^~CmViLyGbH}JcGy\\{`@vTkGqEeVgRmFx@sNrQmVpIea@p\\gMoH_^fXmFxKbRnv@{ClJgJj@aWgSwEpChAbRuEpJ{q@eGaUfI{ByRmNqAwSzXgUf@bHj]_InE~@fLmUvHhGdKyClCXfcAmFfF}NKeAnTeGKyXjq@{PoA_f@jIkKvLga@hc@MvLcv@rYuFdR{Gl@pFzIeCfS`DdLsG`OgWzFcy@X{WdQkAbGndA~k@}DgSc[oJra@KtR`Pv_@Zl`@~`@nDrMcCbGbK~LvFdc@gMpI{TgFiFr[mYrScIeDuG~Rfd@|~@|o@rl@bJ~XpNrF@~OoDz@aEmL{XeJjRhk@kShRaJyE_AbFdLpSzT{EaNj^iKvGiE~GcUlDa[eEm_@mS~AkR~IoL}IOuLrH}D|SuRpPqE|d@o_@zG}JdIlIbRLdOu_@d_@nKhZiFhZlBtT~b@xOiLfd@OdT_X~Asl@kIeLaLyWnPaa@~dA}Hzb@nHvIcE|R{R{C_JbFa^ji@mH~XwIpk@yFnFoHyTeVg@qCpKlDj]ee@r`@uN{MaCmPoP_GyBmH{SyCsOsVoB_TyJkGiRceB{_@s^mMt@{@tK}EbAiSoP{n@bUouAdX{Ot{@{Un`@kQ|Kc\\_EmTsTkZmByN_CiIwXmOrPz@rTqQjByGuKcZ~Auc@|i@cL{DqMxRum@ks@u@sSeM^{RlSwXt]kLvb@wLzJ{@lQ_XeH}I}^qTsIyJoQmNMsEyLqYkBov@e^}PlByZfZqXbI_k@~O{MhZ|Ivd@yCrB~DfSA~rAvGfFgEzJuEkCoMrG_EjLeMv@aF|K{DuCkI|Ko_@k@gJfXaIqO}SkEgIrKhExTmEzEsNwK{d@pO{H{RcZcSgOqg@c[}T~BwOkMAgGgRiLp@uF`JoE_BsOcr@cc@q_A^aUsNck@hFeZy\\`KmU~WcPvs@Kzc@_Xlj@hRxe@hC`eAeGd]`O|YpJlv@dTw@QrIxUjZvGvU{C|a@vRxdA|g@nElF`YkRj^`EbIsGnTcShDk@rNe]`L_KlOfCx~@rNjQ}F`c@vKbc@fQhQxFva@d]vOg@pHmFzSkWlVmWsFiT`BwQpRe^rHip@nn@u]rLaXOw\\lJczA~z@iMxR`Hpp@gRr]dC~Sc_@fRcy@iLmZxBoHmNsn@_Mmw@mzDq\\}a@qCsSwDJoIsCoFqV}UnBeIuDoKeg@FqYjDuFdJeMzWc@fTaYf]_Bo[_\\|@eMrLeGmj@itAiKul@yEcbAy\\ib@r@qeCgh@qN~BibC`kCnMkEeNtOsLoCyHnHuFoa@cl@iBoYuPoc@UmT`Ost@aHaa@nCmMdeAyLjK{HeA_Kbb@_ClBkWbz@ke@f^`SnCrO~_@jo@v{@fY`QpuApr@zj@_@u[~Hka@_EyVjGmEtAmXqIyxAbNmXK}U|W}Tpn@meBiKuKiHm]iNoM^yc@lHmNmSo_@~@mz@eFiWlMwNt@cSgYaXaGaX|^aRbAcs@|Oon@lP{MqCwO_JyXjA_N~OyTfFan@uU}QcE_PuU{L_LoZ`^}z@fm@u{C~AylBjHoRiVrDmVgIeIsRqB}xAsn@wPc[}\\st@sG{_@oYyp@xJ{IvgAgaEi{D_b@ik@sjC{oDohBg@hWgeBr\\ar@_]ah@RyKpPiUrB}OyXoo@g@oRrKgc@wVwr@ri@wm@u^mFoHiZcO}@kRjJxAtUcdCifAew@_S_[dGq\\_FsMkW}Gqc@u]qGoImKsX|CUcHtSyHSqKzD{AiDiC~S_m@bQcSoAwJoE}KiOMgHoFwa@tKy]gb@bQqHcGuLsXqi@{]aP_Db@fGvEsFhH`@~MuHmFGmHaMhCxEtb@oF`LlKjA~BpM{QmIeYrHwFtJ}f@{]aHoJ{@edBmBaCqLnLqK}D}PrBuOuEqWcW{MJ|@sOvGkE_UkBLoP{i@wm@kl@oE_k@rKu^_PuIcs@uPaRaLcMqEfAkz@ghAr]}[`c@{LpQ`@f_@|V|YaGP{y@gSmBjZ{\\xKih@hg@iVoI}\\eRkG`EuKqHmCuDyN`QwJuCqT`S}JuAyMlM}^n@kIhJoCvq@`C`OjJ`MiIzHdDcFck@aMuGKeMzt@`Dr`@zm@toAbFrOzL`KwAdMc[ds@|p@rMn@dQ}ShJmc@p`@uf@kBgOcfA_h@eEmYaTkQ{IWsKsYnRqo@jUnCzWtNjj@be@|AsIfG]|Lmw@oLq]_Fs@RcTzFob@yBqJ|Tmy@]yX~I}R_F_MzYk_@fTyItDuMeZhJqE}O}H`EePqB}YtJgJgE__@nCqLiF_i@zXmLKkd@mC{c@aV{e@eKud@eNuEkIgRoFyIrCcQgOyx@yQsKsI_Ds_@c\\{UhHaM}N_G{e@yo@bDa^vXcTdq@{N}FsHtAmGsE}GmQ{BkBeN~a@}bAiLaSu@}VpDmFgGmJvYee@d@aSr]gt@[{E{l@oQwb@[kJWeBiLfCuJgD}HbKdDvYmIhqA}aA|Hsv@lMkd@lLkYr[k^hYvK~c@gGfFzHjZfA[`LbXfAfGfP`f@pRvPiNfZbHrJ`U~K{DzO`R~`@vE`@_GjZpB|Xhq@bRb@xApKlWv\\tg@mUwAyNpPe_AeIgFkP`IeKyUzR_h@`UcE~U}`@x}@ml@jo@t`@`}AifBbJ`@zAhSvZ}G~{@{{@vIsCpVfHdHhKfh@kBgHiWnCob@|G`@db@gs@pMkEt[zPlJMhh@t[jdAi@lG|S`q@`GbY_E~OnHoDxClP|LtXcAtF{Enx@|[zNqJ`LfAbW{HxPem@pSdFa@{EfHtAXzD`McBdVvj@gGDjInHuHfVbJzNdTnEv@_NbNsGuBmIpDsJvImAvQjMv~@Y|K|FjTz^aGtBjPpEzC|KnGzAdKiFr\\rKzDeIp_@Snm@b_@vMmR~ZwA|M~Khg@hOne@j`@|Rfr@|l@wQd@lR|MxGnDz_@x_@aI`Kq@cFdJcPx@dC`JpKYsElK|]hCgUrHdSb|@pf@~LxLlJ~c@lF_HbPxCrLxRjBtQlCzO_NzW~WtBtLpKoAtAxEsLfGjJjGpIlc@nVaCr~@t_@{L`U{Ej_@uK~GcDl]|IbIz@vNvE|FbVwKtWhXvR_TsG_UzFeD|Xv`@vEyA{GyWdEmEb[xC|LcIpJ~@jRbWzh@wVvOm_@fH_AvG`FlEkWlHmErZtI`a@aHfFkKdZlFbIfKpMaOkGkL`SeBbk@ih@aAod@xW{Ufg@cJtKsIbOvWri@tC{UlSoH~\\uAtS|FnSlNdRt@dUxKnWhQ|Rbd@xPsBlc@lE@nMl[_DtXhNp`@pYeBpIpKn~B|iAd`@uMvAxHbq@\\sBtKfLiArItLj@{HxYzFMzKeMnCgAlIc]jFb@fLqG`IxB|C_L`Hh@tOfGrClU|h@~Avk@xCdE`IcAtHmEqEyRpPNbDkIuAwF~GePqGsV~l@eH~PfF\\sL|FD`AxOnYe[vAwRtr@_HtTiSrA`a@kRbN|FlIhKnC|WmIvMhAxIwAlDeI`]hOp`@yChk@bf@jNyHtLcZ|d@cZtHZhGjPmLl\\~OtXwLvJnRxAFzLu]zWrIdCp\\{JfB~ZlBkQrQwUtEiAhNhJsBv\\`d@kB`Bqm@tMfHjg@uCqBlYaG_A{EdLqPsBbKh]wOvZzKtE}D|EpEvd@dFfPlYdEnIxVhN~CjRcDgDxGfI|FiHjWgLZiMbNuR}AgHnHcJn_@sQkj@qP`Jd@jVgIfU{JgU{QpQkOhj@uLfHvIfV_Fl\\wKfQpEhRpTrHrZqKj]pRjJu@nNzGtPwS_AeSzXwDlMcX{@oQsNaOzO`E|ClHDr\\uLn[~KtQlKwFkAuLtJwTdVsKjBkZiPoOpDoBnQeAl_@xSd@{LdQ{KfMeZtCfQ|Dv@vGmQrFrBbGr`@zLi]lIrUvGn@dC{XpYtDt_@}Brx@}n@hVgArJnJbIlJjRsNj@uFkPeXxEePtjAcDzP{KrGa`@bOr\\bEmElIfHnEuMlVaEvMjAfK`LlEcQpx@_A{CqOxFoHlDfAhFmUpHnY|OmEp_@tFdLmL|FzG|S_PnNnU`GwAnGrGsEvb@bBhRbMhRcAph@mG|Nb]~Jtb@rBtKd_@|PJbPvNuKjMz[tUhEnLoB|Nx\\rSbLZX|OuE~CtErH_Dbr@xMhDlUkGbJt\\|^rPn@vRiNcTiCnIyIiAwEtLxEhBo@nL`d@dg@`GdQVlKgLoB~E`PzK`@jJ`Uw^bj@hM`ElTjWgB``@fO{Ds@`Q|Zr[tRjSfVxtAgI~`@zXfOuJ|ReR{EoLlI}U`j@~ClIxKfGjE}UfGwBjTbOTaYzXvErCkM|MmFuMlu@uZpTkFjZnI`JvBlRmj@tY_Snp@v[x^|G}CuRyZ`OaBpLgKfGdBrNgLfHxQyLl]hErEvSd@dBcNjVlAVqXfJgJeSsUvGqGc@gQ~O{PpW`bAsOdt@zNoGjFj@x@xIxHqCtN|LzIeDzXfaAqBbh@yCgNg]yZ~Gz^"
                        ]
                    ]
                ]
            }
        },
        {
            "entidad": "16",
            "distrito_l": "20",
            "location": {
                "type": "MultiPolygon",
                "coordinates": [
                    [
                        [
                            "ecstBdyvnRaAp@_u@vc@wJwAa\\`YMfMoa@uByT|@nAwHuFgJid@}JqReTy^xAkG|FcNqGkWmPmc@qo@mTf@mGbH}LkNq_@yH_KmOs][uOwf@vBiGq[oc@eJrCa_@uJoDwHg`@Hi]gpA{Z_l@sUcqAeK_k@}[wd@hBaIxPrAjOcEdEcPcFgg@ySBvPwa@mBoDmNTyYtE{VzVqKKoL{Ikw@dOeFgg@}S|Tq[zGzVyYtEeVuEsUzQmSzL_\\{Ai_@xKq[{@qLzKxMnN}YpW}Jr@uF_U_CbOkk@i@kF}NqIjCwHIoAuc@aIsMiC{McDaH_AyGoAcRmD}OyCcR}DnAoUiXaj@Jq@uAeXY[kZaAuPm~@ig@e}@dGcNlOy[qb@eYcD{M{JkAaTcuCnpBkh@x]hAdVaPjSjBfc@mXzL|@t_@aRx{@dChMyEdZi]d{@}G~e@wPvDKpCrSp\\|a@lw@lzDrn@~LnHlNlZyBby@hLb_@gReC_TfRs]aHqp@hMyRbzA_{@v\\mJ`XNt]sLhp@on@d^sHvQqRhTaBlWrFjWmVlF{S|T~QwDtXvJj@hm@pmBT~aD^tXac@n`@m^z}@kFpKmEffBof@j^{c@nqE~m@~j@vFbMhKQxLaPre@_CvTuUxR~CnZcE|Qic@pQ|C|Uoe@|LmEdR`Q`OmGyJyP~q@wQ~Cn_@oP|IgKcKgFpa@oHtCfFbScX~J{GpMoJlAkQdQiGpThD~M|l@pHx[mSpDh[~PqB~DeNxsAr\\h{@tD|X~B|^sNve@hPaClZwNzQqR}BwFhG?rSqYjK|DrFsCdVgPt\\jBpZoFbQp@pRaYbMmMhWm_@|VoWnn@_HxLqRrFskAbOyYjK}ErFtD`UyHfJ_Y_DuTjGk\\`\\cLcIuEdAuCfBzBvTu_@xPcWh@aD~XeUl\\_R`E}VoH{Zt@sOp]OlMbc@v_@lRfe@"
                        ]
                    ]
                ]
            }
        },
        {
            "entidad": "16",
            "distrito_l": "21",
            "location": {
                "type": "MultiPolygon",
                "coordinates": [
                    [
                        [
                            "uwumBxzbsRarChvI{ClNfDvHk{@|lBg]doBeApn@m`@b`@q`@lkAmDbo@nKva@{IhMiGdm@rGpN_NK^`GqKsAiIf`@`C`J~K~CyIFr@tFnMRlK|TkNxDBpDdLa@{N`PdAro@uGncArCxLiDdJ|MzHyGnH|Fu@jIvJsHhHwG|]nIlEsK|DrD|LnKx@eDnDwIsBqJbRgIsEwBjGcLyLwGZqJhEqLjVwIty@xBtStS~\\vCzXoD|XxGdHcLnMiImHcNnSEhM}W`a@kB`i@aGfKbEnLwFhFiIu@\\|LwLpEkGjg@iMjNrCtPwN|B_C|FgDjRzG~OsOxNbDjYoDlM`S`_@uVaEsWbCiTtd@yA|_@sGfPlHzOgKfTzJbFaBdLbG`C~DjSwBfMkK~CqFphAclAnlFiAnd@oKdF{@dNo`@rG__@hv@gJ|ZAxv@e]fv@o[joANdO~JzQnTpAkJrGpGzC@zGqPxDtJxU|LnIsBjH`ElMkS|QqG[lAdPaJlCfHZsRnBgDpMdN`JuQlFsGkHsSdBjAdIoJjAwKpW|NzIkFrBe@lVrIz]yQeDiQdFu@bLdFjG}BjJvEtJ_a@MdBt[jNfQsKkGePnEsEdO|CpKcVzF{Nj\\_aDpnKqVlZgJli@fBlXoQ_KkQbIqNjLiNh^vCjHiIrAlCnOy\\hUDnLcMwBMvI}GkLoIHeLjLoCjPub@_K_^jFmCnOcF{HqKtM_P`EoBdTcWgBkPdXa]~IaMfMm}@yIkZhHii@nA__Av[c[zWkwAvY}m@v]_xAxqAkm@_@am@bQa|Ap`Au\\hLid@yAw`A`i@mX`Wg~DpgE}_AjrAqmA~eCfCjUo]zGgc@r\\_s@xgAoe@pdAsXtlAb@lSbLdHlBlNkKnFkE`NuSfEmC|JeIqa@mX{CrF_XwDePs^uLwPCcT}i@yOkB}]lEoD}Bl@sNoPaCqVy@s`@bLi`Ct{AwcCt_Cs^xs@_Npk@sHlEiFwMaSfEvCgGyS{F}FkOkY~\\qVqJeFi}@ueAkg@yPgTkl@eKeLub@uPiMyAqk@sI_FsOtJtBpIuInXau@kQesAaPlRoK^uXuFkC_KiFlAeMyIm[eKmOyaAkJsl@mv@gKi_@nOme@cGmk@qRwf@tD{UsJsQkLuFos@uoArP|E}f@g]{p@aYaZoBuo@dRod@z@}_@nUmz@_NqDkKtEwTgHcG_^lJya@h^eL~Woa@bW}On^}x@ba@m|@gt@sj@}Qko@u~@h[_y@v`@mW~L}VkRgd@jNcFvc@}h@ln@lChLeF~CgQeAgF{c@cFmLnBeGuFc@oVhZeYe@uKwv@uBgUqTqv@`AyBsc@uRiVoq@eA_PaGxIgXgNsVuDm]oFyP|]it@aHcQsg@{Nom@d_@sj@|AoB}g@zD}S_NkSoQqD{L}b@cKgA_NxFcu@vn@iKaGaEgNrFaf@vRoKeMm\\qw@sRqMbJEjToUtEUwLtNko@hPy[LiOyDsJwi@iHyMgJgTvCvGaVwB}Ie]{@gY|NtCk]sDeDgMxBwJuIsFu^qNqEmLfMaGeEtYo\\pz@a[h@qIoKuWNaXeLeQqLq~@|D{M{BsZlL{q@s@wg@lQwC^uSnSbIbJkOr_@oLsBoMiO_O|Zea@Yoe@qPmObD{RsEaKeQiHg@gFu[lAuPy^bLsQ}BwOtP}I}IuMpFaIcFoH|LkRcZen@pJgP}Hyt@vXcf@xL_c@aXkaAmc@c|@gO{p@gk@ya@_EqQjGc[qHmO|McNwn@o_@tNqOr@aLmGcW}PsFYqN{JoPdBkd@{~@kYbLwMySaf@fJoS_Ia[ed@}^zHwV{[iMuDm^~NXLpJhU`Hr`@wI|w@el@q@u\\lR_HtHkc@zl@cPxLrIbGiEnc@~ExN}Gp`AzBdi@cEhBnNxIw_@dJ_ItKbCdAiSxI}Pq@kLmFBwJwWhC}Qrm@`MjVcD~LnCDu`@fMqXtWbJdDa\\`a@aJhGmKlQiGpLac@lVa]sR_m@sb@wp@qQijAoIwg@oG_MgNmCqPaPB_T_MuR{LkJwQfBeXyZot@iUcE}XrFmG}KkNu^m[k]BlKsH_AaMih@{QgHbCyh@aa@yZeDkZcgAxIi^qMgw@jDmOwSyf@aHwA|HcSsGkE{Ln^lOxYcBbYcPjP}Hhh@k~AvTsZb@gh@yLr@cUeVqZg`@wTvTeR`Oa\\fCih@wQc]aDoj@_[qf@}K_CsE~Emi@|Gy\\t_@yXcHuKrFyQeAzVoj@qcAsk@dEyHtR{E{RuGpG_OqPm@iD}^zHkXaBaPcLyHyGjCwA{Qy]bMgHsJqIJkNkl@qGxH{AvX{CkX}MeEpFoUbX_`@e@yYm^yPaNnQbFl]yOxHfD}V}GaTqe@pVoh@fg@{a@tGqOnM_^fFeKlHsh@rB_ZxO{e@pCsWjPqj@ic@dKsBrSxHrBuCoIgVkKkC{KiSeLsBu@}VuT_OiReA~Bz]aI_Cec@w|@rBkT}r@|J_MdV_f@eAwAoUpV}RlBi_@xSqDsD{n@mOqb@hBiSjYwUsScDcSmPlM}NdCuOiJ{b@iAkh@eNuG{f@oy@aeAem@eF}ZwQ}QkTqf@od@sdB|e@kErYyv@~IcDaE{UvMsJ_HgF`HaLslBsfBvOgB|BeIpe@eJgBsb@a\\yXum@}QeN_SuHmd@lAu[_L}^aHcD{a@vH_x@iVkDkKdCwPgHuJrEiMcF_i@sOuPiSkp@_IcGq@yKa\\mn@dNyd@xS}RtFgZde@eS]sn@pAgPbE_BxXyj@uDiOnGkCdHm]yOyMa@yHmNlDgEmMyZwD{@iOgG_Cls@ik@rKViBvLjSiBve@|Wh[yDcJ{ZjPae@_BmuArbAy`@is@uJv@aLtNqNqAsF{QaD{TpEqUiEvBuXyIeEuNtCcOg[{a@r[yQab@_R_DgI|CmEeLuSYgP{RwSVeOcj@eUdYoD{@b@aIqM_@qIyHaR~AmCfIoT{DwG~OaZsNgdA{Lk[cWkSwAsKaQ}K~FiE_BrA{Ku]yHcQsOiJao@oO}FuD_NsUqSkLLyRyLsK~F{n@q]whA~@qr@}Zad@w@cj@kf@eVHcxAcr@a[{eA`A_C`RnQ|Ag[jL|JqDmk@_EkEeQrBwN{FqNpI_Z`CcU{GHzWyLqCfA_Gub@JoK~Pka@bJgGtRyMmA_Kya@mS}Q_TuD}ImMbL}g@bYkZwBwHfKkD{EgKwI^fDca@yULoNfQ`GzFh@l_@c[lh@wHqJzC_d@kEyr@aO}AsQ`QmOh@Wzk@rDlGkCbS``@dv@wRtFmRiI{c@gAq{@kOoCsU`D}d@{Mi^TqLmNaUzPgd@yNiFuKhg@gA~b@yJ_HwK@|@ePeNoE}{Apf@uh@r}C}KkOaT|Jkh@qSaKhEp@zJ{b@aCiLs[_YeDuEk\\}XuY[mLiS_a@|@iNc\\ql@aH}b@i`@su@{e@ch@gJwToNkIsW}{@yP{KjL_zAm]_TgP}g@jLweAZij@iWuTkXbBWm`@gWiIvAaGqHiDD}IiHkDS_S}@uNiIaA}Euc@fK{KeBkO|JiUiIeFeAgNnCwv@pKil@}GyU`CaKwIiWyImEzKggAxOlM~I}LkBdXvH~^lDcN`PmCr\\gw@~`@}O|^g^vFerAnSfAdDxV|IhMxK`O`]kv@pSqJ~O|A|r@iMfOfNrNyAbQlLdIqK|IzHpi@sy@fBpQzZ_@nEbFzCiGdAbPjPwGv]nWtiBysA|l@aU~BhAuRjS`GtErSuHhUjFb^}Jnt@XfUvSlqBejAbC~Zcd@~eDnWnkCgZDiHzEwImG}o@rFuU~SmAddAqa@~PwMkDeU|DaO|n@{Ure@zg@`Va@~MrQiCfa@jQbQlYxFwAfKfHPuNpIrAjY|e@tb@bPwAzUgQrOdEde@{HtOt_EgdDoOvtGl^xlA|i@}Pl`CzUeLrHpAbG`u@hg@jHoCkA}NpTwNkA{`@dVyGNlIhc@jr@fDbCf^uIhSrZ}ClJbN_ElEtKxd@qf@bMnb@xiAhH}KqeAjc@unCbM{EbaBrThBiS{DgIf[eTpCeg@`NwXvDi]zAyCnPzTzOwCfQdCj[}I`GaLpMNZwaAwF_QkIUqGqI|U}EbBcFzMG@|GdMzEvG_J`SmEbd@nB`[pTjRmDvf@jPl{AvRrVoEp[~Lfu@gA`@mNze@|[zFaKf^gRt^}Ix@qVv^va@tCdOtr@he@mExQ|Hz[lr@jGbt@Ih`@hSbJgA|_AkiAnMwEbr@nb@fO}BpTp|@qIzp@dIfGqDxNymDdgCaAzQnQpXtx@xJhe@za@fNk@`@yEvVbAdBpXhd@|Zp_@nEn^zVlBaC`K`G~BmHrFc@|AvElo@sGpl@kHbXxDd^`J|d@ld@vm@fHvYiBni@wnAr]aR~S}_@jZlIbj@xQ|S{ZziEiGkDv]vGf^vy@`VfV`JjJ`MnCjh@yW~r@wP~nAf@zq@qDjm@jDpWa]mD}[yU_Ys@mWbb@yEn[rFl^mKlL}QuCc_@gu@uQoFuWjp@gHza@eh@vi@gMrPpQrc@|`Ax^r`@uCdGaFpsB|W~^mM|FdQ~MG~S~Rzj@kJ|X~HeG`KhGdZtu@zFbdAy[h`A{J`k@n\\`X_AtJ}FtVvKpb@gDtPtP`|@mEfd@|^~M`Vhk@`L|Jvq@la@rGpi@gLvd@tMrVcKpfAza@`ObZtx@pM~^iObFm\\jUjHlOyE|YoO\\wKhQmO`LlC~MkD`IpNrk@wb@zm@oMnK~FzPiFS{OvMyBdDwHnWwDhBcMjOkQr_@qJrCgLxLqGFqPpHmJ`j@mB~K`AzMgHdDoMf[gIvXzKh\\dBvh@mUbRNfTuSdu@s[re@{aApK_b@z]{RfGmUnQaHrFcRxnAeL~Y`H|~@{YxHi\\yCk[dYzGb@kj@qIeUrEyZ~Y_K~_@~GhPtOfKjY|fAfd@bI|I@zJuDtV~KrWwCvUlQvEd@x^bN~FpV}g@{@m`@`Zcy@tRkEtw@GxDr[nL~InBpOnPdVnNjbAfYpJfi@qBbO~Czf@~[rWdo@`WoInNcOdPxMrh@lGpXo_@`d@{G~g@sRrSbl@zCphAeFvcBj`@|tCiZ`Xbl@`_@|o@tMxw@fv@hS|p@dNvKmDnd@ld@xZfGhO~@`o@{DvT|G`NpY_YnWiAhr@w^nO@xRoYdi@wb@zk@hG|SbNnC~ZvInN{Exn@bNp@ObKlPtEnOjRMl`@oQxXXfUwJxYC~PkRkI}CzEnPh~@iCvRoJpB~Ytc@rNrk@bQf[pWoI`b@yA|X|@dMpGzg@aGfHmVnKhBzJkDjOwRpO_p@f{Awm@xTsl@`PlMrlA}TfOiLfTcClOjPxAxNrSl_@xF`EzSmAhJvTrRnWtL~D|Nr^mAnf@n]rInIhOvIyNh[dRpAtTmKhLfV~`@|YxN|FhPbR|O~e@~NtDdKxYaBhMwUtPmFb^mg@b\\aH|Yh@d]sNxJwb@vr@qi@pAeNdV_S`ThIj\\z^ra@sC~OrIlDhRyXdb@xBrIrIvCz^sAnNcIbEa`@hIcFhRzDn]pb@bHaAdKid@|HjCtEvZ|UNtEgMkC{_@bRgJhNvIu@tb@`PrDdImXsVcv@lCiKlJ_DliAn]r[sAf]xUpNuOnh@~FhAdJ{a@dl@|Lzg@w\\t@_DdHjUbVlIYbN{OlSjAzCpPsFf^`Up`@qKpQ|i@|OLtf@bO~Nvc@jGbTyBrSwLjT~@|IzJdAx[`p@tUzHmYlToMvTy_@n[nNbZqZ~M`SyDhQtCjKdQqM`Y{Elt@lNlHmRv`@qVlS_KnQdEd@~YtYdA~TlL|HxL`Ct`@lP~JvOiEpNaQ`v@yL~W{ShOh^pTvGzA}JlSaScM__@rJo]fKkJpPf[w@fXlEfDze@zChUkOfz@aI{AxLkXvUuOzcAgg@ndAm}BrrHqaCb}G"
                        ]
                    ]
                ]
            }
        },
        {
            "entidad": "16",
            "distrito_l": "22",
            "location": {
                "type": "MultiPolygon",
                "coordinates": [
                    [
                        [
                            "gr_nBrxjnRnBng@tGlRpa@nWzhAbZdOxRmA`[{Ntc@{g@~Mcb@mH}X`We`@bOHpaAyQz|@jJjhA|FlRzRzSnA|OsBfGwc@jMmRpP}h@tMmI``@uKtCoC|]dGbN~\\dAxIfK`G}FtD~BlPze@tVd\\lGp]pRfTkQ|TnBbXwNvHpIfGkQ|BeNwQs`@_CcRnEkIdKtWff@tKrB|MfPbS@pPtLyZtm@zDn`@{Fx\\gx@nj@{f@jm@zNlw@kMpf@v@dXbZfTja@qPtLlEtMpStJ_HfGx@tM|TaGbJsAn\\~P`[kQxRua@vI_U`Nh`@w@z_@wMf]`Hp^kMtEfKkNhq@`CdOv|@hPpQbNrw@eB|TnJnj@tlAmYna@`JjQaH`N~Wr]NfP~Yhu@zDth@gEzOf`@nWgAkMdLkHtLrK``@hHFqKlRmNra@nJxPqBrKjM}Cx\\zKdJ`LsQ_BmJpUdEgIfWxBnOhNgI|GzGvQs@bB|Pf_@fTcPzLvBpGbp@}HdNpc@fGk@hSHh@|Pyc@p_A}Hpm@`XvUli@qDge@fzAmYlWjThf@{BzRtHzGaMdl@|MjSs@r]rKg@iFn_@pMzHjRNzClScZ`M_NyTsRgAgc@|WmQn]q\\sKcMeMmmAwC{TzBiHvP{WrGeN`f@pElJkAxMiTdk@as@rf@ou@jcAbKbPxRoBlb@yl@rJr@bKlOji@lG`EaH_EmW|MElFtLeGtCmMxf@a\\xVoJtXst@rPyLrIgHpR_Pt@gYeOk|Azc@{i@{C_Nv\\wJ`G{]vGmS{DoPnTyXxNgApi@cDpAat@wMapA{m@ix@}T{n@dGlYnm@|UbMnS`^cA`^bSxQlLvw@ty@dG{^`Hhe@fHfEnFaQx]oO{MaJ~AF|Og[zb@ra@yF`OzD|MxPk[sPcLr@uA`HqIGJrGoHtAmBhKnDxF~NDlBpToOCaGlLmI_Wn@t^eTcDeGoKqIp@~LdU|^tM~H`OgHtSmYjV\\zJkI|MxCvI}DIsRrb@zSw@_DlH~CzFncA`LvUqKdLr@`HcQfUqGlWiUdbAoGlSbDn]bS|KkJzJh@xEqIfi@yB~g@uNtPxHtu@c`@hNvBnJnLjb@h@frA}iA~d@nGnHcChh@xTeNlTzHxf@bSbQmLhNvGzPch@rIhU`HzKuAuQl\\~CbXrHbBsG`HjAxEna@qEtBnF{DnDdKr@uV|T{m@uKfUdSlF}AClIaN}DyDbD_KgIyJrEnTbVvFRpBlNeJbHzJlB}@nEmPlFkTuPoPxTy`@cBebAfVd@faApErU{Spf@aApa@nF|PmIfi@ta@vJoBhTuUzSlA}J{Is@eEuQ}R}AeJnHtAfG}HnCk@hL_k@nTq|@a]qDrj@rd@zp@zT`L`[H`EjEjJ|c@yGbLlBlEw`@pVmHlRmt@mNaYzEeQpMuCkKxDiQ_NaScZpZo[oNwTx_@mTnM{HlYap@uUeAy[}I{JkT_AsSvLcTxBwc@kGcO_OMuf@}i@}OpKqQaUq`@rFg^{CqPmSkAcNzOmIXkUcV~CeHv\\u@}L{g@za@el@iAeJoh@_GqNtOg]yUs[rAmiAo]mJ~CmChKrVbv@eIlXaPsDt@ub@iNwIcRfJjCz_@uEfM}UOuEwZ}HkCeKhd@cH`Ao]qb@iR{DiIbFcE``@oNbI{^rAsIwCyBsIxXeb@mDiR_PsIsa@rCk\\{^aTiIeV~RqAdNwr@pi@yJvb@e]rN}Yi@c\\`Hc^lg@uPlFiMvUyY`BuDeK_f@_OcR}O}FiP}YyNgV_a@lKiLqAuTi[eRwIxNoIiOo]sIlAof@}Ns^uL_EsRoWiJwT{SlAyFaEsSm_@yAyNmOkPgTbCgOhLslA|TaPmMyTrl@g{Avm@qO~o@kOvR{JjDoKiBgHlV{g@`GeMqG}X}@ab@xAqWnIcQg[sNsk@_Zuc@nJqBhCwRoPi~@|C{EjRjIB_QvJyYYgUnQyXLm`@oOkRmPuENcKcNq@zEyn@wIoNoC_[}ScN{k@iGei@vb@yRnYoOAir@v^oWhAqY~X}GaNzDwT_Aao@gGiOmd@yZlDod@eNwKiS}p@yw@gv@}o@uMcl@a_@hZaXk`@}tCdFwcB{CqhAsScl@_h@rRad@zGqXn_@sh@mGePyMoNbOaWnIsWeo@{f@_\\cO_Dgi@pBgYqJoNkbAoPeVoBqOoL_JyDs[uw@FuRjEaZby@z@l`@qV|g@cN_Ge@y^mQwEvCwU_LsWtDuVA{JcI}I}fAgd@gKkYiPuO_`@_H_Z~JsExZpIdUc@jj@eY{GxCj[yHh\\}~@zY_ZaHynAdLlWeWcB}e@r]{dA_Esa@tHwr@~RaGgf@em@oS}vAyYqGyCkLhCk_@rNu[gF}Db@_l@uv@yOxG_ZgAwNzQyD@yQpWwd@e`@_g@uXlEsSiEm@}T{MeAaKaRLcX~Qyo@wDgKzUs]tPiMzKKj`@waAfn@ubAsUa~@uQmIsCqPlKy`@hBgaAcDsG|]y\\cSuTOiRpVmr@nXuS`BxDzHuAnNgYLrP~CAfIiXmEkHvMeGhCkOgYoJp@oIzIRoCmSfk@}UfCoYqGfEqDoF]aUefAcfB{c@gIxOur@zR}Qcf@gL}l@}i@{IsSbGwQeFkQxB{MgJp@}Ao_@_}@W{qAr~@imDjjBa^_Ruh@`Tmc@fGowB_FgwAml@q_@osDgj@}fBxqCqqBw^gc@mv@vX{WeCkN}uAkIqNoH_f@e_@ik@_I_j@sH}EgLfQm[r\\oHhb@{UoBeU{TmMsBwh@rL_Tnd@j@dRtHjc@kRtoAsVhn@ms@`DkCbWlJjNpn@fNbw@bk@H|QcTxd@k`@fM~Atq@aE~PsRrAiWtc@bMnOtClWr_@lj@dAd^o}@j\\xL~z@[j_AsFzOy\\~[co@aJcN|bBgg@xI_a@gUgc@mAbSyc@{Da[cN}Sma@cAkG_HrDiEkf@uD{SePaGbRmTfCg[oGcLfDyVqL}QfV{KqDqWlD}DnJoGo]mVyUyPtEiBsNgSuPRkRsL{Ef@_Qq`@yBwCAgOsAmKe]aXsWyc@sLu[k]c\\_G_PoNc^mBmb@aZa[e@qTgMkN}@}Ivs@}_AlR}WyEkD`MyOeHmRqj@pB}DqWnEkOoEwMkKuB{WePdEPzIkKdAUfLkKuh@me@eRci@qTcPsQ_JaEkP`AsOySgQ_DaUaRg@yQ}KdRjFfJmApNc^jWkLmKwd@}IwN_SePwGi]x@mhAi^wUsTuDgXeIo@]uKwm@lG_F_NhWka@yA{SqNcIu_@_@wf@if@cFRaj@jKeT_]iNiCkn@xOs@oC}RnEaN}AeNbHah@c@qI_e@_Xqo@oa@gHaa@}o@aHyBqOrD_YeBeFm`@wYaKqBuGoOc@mMzJ?`TqQv@mN}Ah@iOe^jDsEmP{J{Dso@iAyHxDkLoH_q@`HmRge@cc@w_@NmMrOq]zZu@|VnH~QaEdUm\\`D_YbWi@t_@yP{BwTtCgBtEeAbLbIj\\a\\tTkG~X~CxHgJuDaU|EsFxYkKrkAcOpRsF~GyLnWon@l_@}VlMiW`YcMq@qRnFcQkBqZfPu\\rCeV}DsFpYkK?sSvFiGpR|BvN{Q`CmZwe@iP}^rN}X_Ci{@uDysAs\\_EdN_QpBqDi[y[lS}l@qHiD_NhGqTjQeQnJmAzGqMbX_KgFcSnHuCfFqa@fKbKnP}I_Do_@_r@vQxJxPaOlGeRaQ}LlE}Une@qQ}C}Qhc@oZbEyR_DwTtUse@~ByL`PiKPwFcM_n@_k@zc@oqEnf@k^lEgfBjFqKl^{}@`c@o`@_@uXU_bDim@qmBwJk@vDuX}T_Rf@qHe]wOyFwa@gQiQwKcc@|Fac@sNkQgCy~@~JmOd]aLj@sNbSiDrGoTaEcIjRk^mFaY}g@oEwRydAzC}a@wGwUyUkZPsIeTv@qJmv@aO}YdGe]iCaeAiRye@~Wmj@J{c@bPws@lU_Xx\\aKiFdZrNbk@_@`Ubc@p_ArObr@nE~AtFaJhLq@fGfRjM@_CvOb[|TfOpg@bZbSzHzRzd@qOrNvKlE{EiEyTfIsK|SjE`IpOfJgXn_@j@jI}KzDtC`F}KdMw@~DkLnMsGtEjCfE{JwGgF@_sA_EgSxCsB}Iwd@zMiZ~j@_PpXcIxZgZ|PmBnv@d^pYjBrExLlNLxJnQpTrI|I|^~WdHz@mQvL{JjLwb@vXu]zRmSdM_@t@rStm@js@pMyRbLzDtc@}i@bZ_BxGtKpQkB{@sTlOsPhIvXxN~BjZlBlTrTb\\~DjQ}KzUo`@zOu{@nuAeXzn@cUhSnP|EcAz@uKlMu@z_@r^hRbeBxJjGnB~SrOrVzSxCxBlHnP~F`ClPtNzMde@s`@mDk]pCqKdVf@nHxTxFoFvIqk@lH_Y`^ki@~IcFzRzCbE}RoHwI|H{b@`a@_eAxWoPdL`Lrl@jI~W_BNeThLgd@_c@yOmBuThFiZoKiZt_@e_@MeOmIcR|JeIn_@{GpE}d@tRqP|D}StLsH|IN_JnL_BjRl_@lS`[dEbUmDhE_HhKwG`Nk^{TzEeLqS~@cF`JxEjSiRkRik@zXdJ`ElLnD{@A_PqNsFcJ_Y}o@sl@gd@}~@tG_SbIdDlYsShFs[zTfFfMqIwFec@cK_MbCcGoDsMm`@_a@w_@[uRaPsa@Jb[nJ|DfSodA_l@jAcGzWeQby@YfW{FrGaOaDeLdCgSqF{IzGm@tFeRbv@sYLwLfa@ic@jKwL~e@kIzPnAxXkq@dGJdAoT|NJlFgFYgcAxCmCiGeKlUwH_AgL~HoEcHk]fUg@vS{XlNpAzBxR`UgIzq@dGtEqJiAcRvEqC`WfSfJk@zCmJcRov@lFyK~]gXfMnHda@q\\lVqIrNsQlFy@dVfRjGpEz`@wTbGx\\cH|JhLxG_DlVlY_@jFnJs@jNdLbKxOeKpI~T`]lQjYHbNmGxEfNtB_RmMm[eAuVzb@iNnEcPsHkM{t@oYyNqPzt@`DzWyIoXyMnOkFiKoH`H{JuKkHhIuJoJqR`\\gKg@wMsK{JzFoe@sKmNtr@d@hEwNaDgZ}bAlNaa@wgAnAwDrDfC|Vpf@d[fF}TgfAjPeSpLp@kWma@GoVp\\zSrXvk@fFO`Nu^vM|]lrApuAvZo@`OsUdTxLpF|Nji@mClk@{^jQb@hQ|FjGdMh^tA~H`Nl\\~K|HjQhPbJ|NcBpFmYlg@?sEk\\kGaGrEsOsAe\\bSmWvP_IvJiGrErDbLeW|e@gLAyKzQfAjHoMeP}DnS}TdSgd@mYyGsDyWaKyM_@qO|JqTzh@`Ihf@aOlKn@fQoK`p@oz@tFsYl]id@nU}o@tMaBxKyRb`@sS|QmYn[Wh~@yZpXCzN_MeNc@zF_d@_H{^f]xZxCfNkClw@hFhg@~g@rY{@dLl]}FhN~B|EzInN_FrGxHhQ`BgBzc@z`@|RqGrUf^xFX`[d[wOjJ|AvWzE~u@t@~LzD{@bOfKmGtIxm@bO}FfVvNd@aHlN|@dXkS~MqVta@pZlToB{DlRqNxJvM|GgAdPrR|Adb@qHxDqOh[a\\lZ?`HlJ`OkCxb@y]uBgSrQoJh_@pOz@aj@bNrN|SiFwXpo@}BhYrQxE|Epv@v`@dc@fn@xWbd@oFlXlCjNvOjdAjVb`@tg@Jve@dQfXzKcA`\\c^hi@cAjg@uJeBde@bNnb@lBtKcG~_@_y@vr@Snt@zGv[aSrdAaQ|Tuy@t_@oDtOtJlcAs{@jbAuc@nlAyZbIqa@E{s@dDqNtMsNh^sXvLu\\z@yh@dSwiAfJa\\~[}e@|_A}x@vFkZvS_Lb`AsI~Nh@rJnc@bn@nOhh@iKtl@]fm@tk@hlC_Dxs@xEbtAmFrg@yRtj@qz@|qAoJr`AQrgAvP``CvW~w@tz@zmAjH|Y~w@vyArh@pqBvQd_@n^~c@ht@tZfk@vk@puAppAdbAhf@n`AdO~mAdK~zAg@`c@wGz\\yLjcCwmBt^sEne@`J~_B|_A|aB`g@dj@rU~]jEf{B_PvRsX~AwUzMcRdy@}Zvm@yk@xi@sMv{@lH`o@ne@pNlCf`@wShi@sw@lWcDtKdQvIhq@bItEnSnEp`AcJdTuX~QqGpHxBtVx`@~NzfAnHtNdUV`[_XhW{gAbM_V`LuEhPrBdD|gA}Mvr@wq@xw@m[y@iXnS`SjTh[bI~{@nk@~~@{O~c@lJxOrTnNffAnr@bh@eCz{@nP`e@vKpp@a_@nfBqAtOnHlZbQ|MtRfAvoAyWxN|D|MvOtX|uCgJjx@bNnm@a_@tgALr`Alm@nm@|^~z@fDlhC_G|fA`g@xlCdRbh@{@bc@cO~j@"
                        ]
                    ]
                ]
            }
        },
        {
            "entidad": "16",
            "distrito_l": "23",
            "location": {
                "type": "MultiPolygon",
                "coordinates": [
                    [
                        [
                            "yjbrBzbvnRfLgQrH|E~H~i@d_@hk@nH~e@jIpNjN|uAzWdClv@wXv^fc@yqCpqBfj@|fBp_@nsDfwAll@nwB~Elc@gGth@aT`^~QhmDkjBzqAs~@~|@V|An_@fJq@yBzMdFjQcGvQzIrS|l@|i@bf@fL{R|QyOtr@zc@fIdfAbfB\\`UpDnFpGgEgCnYgk@|UnClS{ISq@nIfYnJiCjOwMdGlEjHgIhX_D@MsPoNfY{HtAaByDoXtSqVlr@NhRbStT}]x\\bDrGiBfaAmKx`@rCpPtQlIrU`~@gn@tbAk`@vaA{KJuPhM{Ur]vDfK_Rxo@MbX`K`RzMdAl@|TrShEtXmEd`@~f@qWvd@AxQ{QxDfAvNyG~Ytv@xOc@~k@fF|DsNt[iCj_@xCjLxYpGnS|vAff@dm@_S`GuHvr@~Dra@s]zdAbB|e@mWdWsFbRoQ`HgGlU{]zRqK~a@se@zaAeu@r[gTtScROwh@lUi\\eBwX{Kg[fIeDnM{MfH_LaAaj@lBqHlJGpPyLpGsCfLs_@pJkOjQiBbMoWvDeDvHwMxBRzO{PhFoK_G{m@nMsk@vb@aIqN_NjDaLmCiQlO]vK}YnOmOxEkUkHcFl\\__@hOux@qMaOcZqfA{a@sVbKwd@uMqi@fLma@sG}Jwq@ik@aL_NaVgd@}^a|@lEuPuPqb@fDuVwKuJ|FaX~@ak@o\\i`AzJcdAx[uu@{FiGeZdGaK}X_I{j@jJ_T_S_NF}FeQ__@lMqsB}WeG`Fs`@tC}`Ay^qQsc@fMsPdh@wi@fH{a@tWkp@tQnFb_@fu@|QtClKmLsFm^xEo[lWcb@~Xr@|[xU`]lDkDqWpDkm@g@{q@vP_oAxW_s@oCkh@kJaMgVaJwy@aVwGg^jDw]{iEhG}SzZcj@yQkZmI_T|_@s]`Roi@vnAwYhBwm@gH}d@md@e^aJcXyDql@jHmo@rG}AwEsFb@_ClHaKaGmB`Co^{Vq_@oEid@}ZeBqXwVcAa@xEgNj@ie@{a@ux@yJoQqX`A{QxmDegCpDyNeIgGpI{p@qTq|@gO|Bcr@ob@oMvE}_AjiAcJfAi`@iSct@Hmr@kG}H{[lEyQur@ie@uCeOw^wa@y@pVu^|Ig^fR{F`K{e@}[a@lNgu@fAq[_MsVnEm{AwRwf@kPkRlDa[qTcd@oBaSlEwG~IeM{EA}G{MFcBbF}U|EpGpIjITvF~P[vaAqMOaG`Lk[|IgQeC{OvCoP{T{AxCwDh]aNvXqCdg@g[dTzDfIiBhScaBsTcMzEkc@tnC|KpeAyiAiHcMob@yd@pf@mEuKcN~D|CmJiSsZg^tIgDcCic@kr@OmIeVxGjAz`@qTvNjA|NkHnCau@ig@qAcGdLsHm`C{U}i@|Pm^ylAnOwtGu_EfdDzHuOeEee@fQsOvA{Uub@cPkY}e@qIsAQtNgKgHyFvAcQmYga@kQsQhC`@_N{g@aVzUse@`O}n@dU}DvMjDpa@_QlAedAtU_T|o@sFvIlGhH{EfZEoWokCbd@_fDcC_[mqBdjAgUwSot@Yc^|JiUkFsStHaGuEtRkS_CiA}l@`UuiBxsAw]oWkPvGeAcP{ChGoEcF{Z^gBqQqi@ry@}I{HeIpKcQmLsNxAgOgN}r@hM_P}AqSpJfR}`B`OmQxIeG~Id@y@wo@|E`@|K{Sla@sDzF`Gl\\rEdPcCp\\pD~^uSiH_aIr_AcmAtWimAtz@gpDhQsTd\\yJxf@gy@h^sO`OsVFwh@eGaCeJa]eVoLwF}Lk^{uA`CgmAnKuSrDgb@nPwMhCuOo\\gkApEgH_OgfAn_@o^dTmEbf@xKvNeDdl@oLxk@rGrRfCfVkF`~Ak_@hRoDt`@}Kp[{G|S}TdFfg@jw@eOnLzIpKJzV{VxYuElNUlBnDwPva@xSCbFfg@eEbPkObEyPsAiB`I|[vd@dK~j@rUbqAzZ~k@h]fpAf`@InDvH`_@tJdJsCp[nc@wBhGtOvf@r]Z~JlOp_@xH|LjNlGcHlTg@lc@po@jWlPbNpGjG}Fx^yApRdThd@|JtFfJoAvHxT}@na@tBLgM`\\aYvJvA~t@wc@`Aq@~p@aHjLnHxHyDro@hAzJzDrElPd^kDi@hOlN|ApQw@?aTlM{JnOb@pBtGvY`KdFl`@~XdBpOsD`HxB`a@|o@na@fH~Wpo@pI~d@`h@b@dNcH`N|A|RoEr@nCjn@yOhNhCdT~\\`j@kKbFSvf@hf@t_@^pNbIxAzSiWja@~E~Mvm@mG\\tKdIn@tDfXvUrTlhAh^h]y@dPvGvN~Rvd@|IjLlKb^kWlAqNkFgJ|KeRf@xQ`U`RfQ~CrOxSjPaA~I`EbPrQbi@pTle@dRjKth@TgLjKeAQ{IdPeEtBzWvMjKjOnEpWoEqB|DlRpj@xOdHjDaM|WxE|_AmR|Iws@jN|@pTfM`[d@lb@`Zb^lB~OnNb\\~Ft[j]xc@rL`XrWlKd]fOrAvC@p`@xBg@~PrLzESjRfStPhBrNxPuElVxUnGn]|DoJpWmDzKpD|QgVxVpLbLgDf[nGlTgC`GcRzSdPjf@tDsDhEjG~Gla@bAbN|SzD`[cSxc@fc@lA~`@fUfg@yIbN}bBbo@`Jx\\_\\rF{OZk_AyL_{@n}@k\\eAe^s_@mj@uCmWcMoOhWuc@rRsA`E_Q_Buq@j`@gMbTyd@I}Qcw@ck@qn@gNmJkNjCcWls@aDrVin@jRuoAuHkc@k@eR~Sod@vh@sLlMrBdUzTzUnBnHib@l[s\\"
                        ]
                    ]
                ]
            }
        },
        {
            "entidad": "16",
            "distrito_l": "24",
            "location": {
                "type": "MultiPolygon",
                "coordinates": [
                    [
                        [
                            "{uvlBbmonRdHqQb^}qA`QsMlb@Qxj@pb@rO`Bp\\oQt]io@vEwOfpCzpDbH`JeLn^`Mf\\zZxYpFxUx@zbAekAfqDsUdd@cxBjmEm`A`}Ca}@zaDeZvlBaoAraIctArrH}_A`fE{l@nnCaNlfAwAdi@rHzJiC`h@aI`LZfXgGlMfLpK_NxH}Nvj@}LxQxErPuDIo_@fp@OlD`PkKiSn{B{~AnjHiBpSpN~HyAnNnEdKsJ`G}Plf@Bff@jIfPwG`HnDhH_OdQWrKbInOgHbDdKlSJz\\}\\lW_Bn`@qWhgAzAjMdM{MhDzXrKuKbBpBk[xXh@bNfFzA@`IsJnDsBaEkDxMzNrVhIYlBzNwGjL`GvRiJxCoGdRdCvIgHzM`HvEwHvLyA|ScLxLX~Poe@vHcXd}@iFzq@pGjDgA|FvFiB`OvJtBbNuEfB}IgHw@pOyMiIqIrE}E~OtAjMtRrIdDeB`Bvi@iPvYkOuA}FfEeh@b~Cgz@`IiUjO{e@{CmEgDv@gXqPg[gKjJsJn]bM~^mS`S{A|JqTwGiOi^_XzSav@xLqN`QwOhEmP_KaCu`@}HyL_UmLuYeAe@_ZoQeEmS~JmBmExGcLkJ}c@aEkEa[I{TaLsd@{p@pDsj@p|@`]~j@oTj@iL|HoCuAgGdJoH|R|AdEtQzIr@mA|JtU{SnBiTua@wJlIgi@oF}P`Aqa@zSqf@qEsUe@gaAdbAgVx`@bBnPyTjTtPlPmF|@oE{JmBdJcHqBmNwFSoTcVxJsE~JfIxDcD`N|DBmImF|AgUeSzm@tKtV}TeKs@zDoDuBoFoa@pEkAyErGaHsHcB_DcXtQm\\{KtAiUaHbh@sIwG{PlLiNcScQ{Hyf@dNmTih@yToHbC_e@oGgrA|iAkb@i@oJoLiNwBuu@b`@uPyH_h@tNgi@xByEpI{Ji@}KjJo]cSmScDebAnGmWhUgUpGaHbQeLs@wUpKocAaL_D{F~CmH{Sv@rRsb@|DHyCwIjI}M]{JlYkVfHuS_IaO}^uM_MeUpIq@dGnKdTbDo@u^lI~V`GmLnOBmBqT_OEoDyFlBiKnHuAKsGpIFtAaHbLs@j[rP}MyPaO{Dsa@xFf[{b@G}O`J_BnOzM`Qy]gEoFie@gHz^aHuy@eGmLww@cSyQbAa^oSa^}UcMmYom@zn@eGhx@|T`pAzm@`t@vMbDqAfAqi@xXyNnPoTlSzDz]wGvJaG~Mw\\zi@zCj|A{c@fYdO~Ou@fHqRxLsIrt@sPnJuX`\\yVlMyf@dGuCmFuL}MD~DlWaE`Hki@mGcKmOsJs@mb@xl@yRnBcKcPnu@kcA`s@sf@hTek@jAyMqEmJdNaf@zWsGhHwPzT{BlmAvCbMdMp\\rKlQo]fc@}WrRfA~MxTbZaM{CmSkROqM{HhFo_@sKf@r@s]}MkS`Mel@uH{GzB{RkTif@lYmWfe@gzAmi@pDaXwU|Hqm@xc@q_Ai@}PiSIgGj@eNqc@cp@|HwBqGbP{Lg_@gTcB}PwQr@}G{GiNfIyBoOfIgWqUeE~AlJaLrQ{KeJ|Cy\\sKkMyPpBsa@oJmRlNGpKa`@iHuLsKeLjHfAjMg`@oWfE{O{Duh@_Ziu@OgP_Xs]`HaNaJkQlYoa@oj@ulA}ToJsw@dBqQcNw|@iPaCeOjNiq@uEgKq^jMg]aH{_@vMi`@v@~TaNta@wIjQyR_Qa[rAo\\`GcJuM}TgGy@uJ~GuMqSuLmEka@pPcZgTw@eXjMqf@{Nmw@zf@km@fx@oj@zFy\\{Do`@xZum@qPuLcSA}MgPuKsBuWgf@jIeKbRoEr`@~BdNvQjQ}BqIgGvNwHoBcXjQ}TqRgTmGq]uVe\\mP{e@uD_CaG|FyIgK_]eAeGcNnC}]tKuClIa`@|h@uMlRqPvc@kMrBgGoA}O{R{S}FmRkJkhAxQ{|@IqaAd`@cO|XaWbb@lHzg@_NzNuc@~PtQtPbD`~ACl}@l\\|u@xr@pf@|M~v@gUjqD~\\zq@Hdf@fMrn@fTpx@sJtZpBpu@oNxq@hMnIa@fH{KnNbPx\\hC`hB_KrMsAjx@ck@bJkPpPmF_AiWjSme@la@iY"
                        ]
                    ]
                ]
            }
        }
    ],
    "parametros": {
        "e": "16",
        "dl": "0",
        "df": "0",
        "m": "0",
        "s": "0",
        "l": "0",
        "mz": "0",
        "layer": "dl",
        "db": "proceso",
        "schema": "suavecito,public",
        "geom": null,
        "padron": null
    }
}