{
    "status": {
        "key": "ok",
        "msg": "",
        "kex": ""
    },
    "distrito_l": [
        {
            "entidad": "11",
            "distrito_l": "1",
            "location": {
                "type": "MultiPolygon",
                "coordinates": [
                    [
                        [
                            "clh`Cp}jiRlqDhu@o\\fZPhSlLjCx]uSrJhIlBhQ_Hh]Uln@fTtVjD~\\kFtYrh@t|@eBbFpQf\\rH`_@kP|UjEpDmNzM`Al`@wQ}Xug@zKs]aAcfCscByi@nJyi@rr@cTsKgcBP{I`@svBhhH{SbEoF|TkIvGiRqM}Kb@yw@dx@uCjQ|Gby@il@txAdHdh@qNhm@hArEfE{@fI|]gEpOfFdZeCzRvYnr@uC|e@rJrS`CzViN|o@p@nKmL|LtEf^gEbGm{@|EufAsIsB{CwsArTcK|Lur@hTqY}AkZlGwMaJ_w@pLbDxGhXxJ{@fWnFfLmKbNrAfLgM|LhI|a@}Jfa@fHfw@fNlCjXpvDsRjXoOgLqw@rIFuFeMWiAaQsUdMcWbx@P|VrW~p@nNqDp^dBaOtEqCbg@m@|R{F|BcUmCy]vC{HuJsaAoLa]z@yZ~NePrYch@zIyn@paAg~@phAaXpc@g|@i{@aW_r@qRih@eN}bB`O_s@ip@enAl@wgA}XcTcLqb@`e@ss@gPor@eBqjAoEdYo^pSqH|O_g@~EoEnKgO{KsyAxKqw@Jmt@}HzRzr@qp@|Aq_@v[ai@gAjC|K{PnYnXz`Ajk@|nAxOnKbD|RcR|h@kBtWsZqAgW_Mcd@wm@mSmJan@im@cCd{@w[tSkh@Te~@uXiCvQ{ObE}UqIwTcVeEeE{H{RgELoXkS}PbGyGsN{JGwGrPaQwCD{GkSyQkQVeIel@gM_JuFdIoFcMgNIsTnC{YkCyC~`@ka@cHyH~H}LgEn@qOsv@ca@YmJsg@i_@iPwCcS|Gy_@aR`Uuu@_EqOiIiBka@f@{K|K_NXm_At_@eFlQyIjPoQU{GnCgEcNanAs\\m`@_c@k[tHo]sPcSfRyGwMiX{H}BeOoe@eLiO{R{YcAcJqOsb@`BaVeVih@qFsIiLqWlBoUiPqH|@wM{NsxAoQwNrAAxeCXz_BdRnXaPlr@zDpTgeE{V~K_w@qE{y@fDwTsqA|KyH~MdFtR{z@{A~GkXaG{WjYeHlLgQ{Boa@xBkJdKyBh@{NsD}Tml@ai@lOmYaQ}a@lAuPxx@ai@cfBmiCmMkRw`B|j@_d@m_@}FcvAy|AouCnk@uNjq@d_ApO?dq@g[kb@so@kAmPq|AquAhOoGvEkzAfDmaBah@_jBih@ueFaFk\\dRooDlCohBdu@{xAtwAsmB_GyPqf@s^wC}uAsM_`AnW}_BdT_qCfwAxRdwC_wDnfAitAxi@chAlFmTkh@iPzr@sx@jEcoAByaAq_Ao|KnUklDzMw}Adb@}d@lSen@}_@sOi@cKSik@xO}`Apt@}_Aby@k[dDsBlJc|ApB_k@|kA}a@li@wnCvkB|eBiFyoBrDwE~BceAjg@wSt}@}H~c@aiCzBkYkjAch@beAybAhy@woBtzGjnCdvAiwEx[gr@vv@{^iJgToGotAnk@{uBsbAqR`_A{`@pPe[jGwSmGoOp\\qXdv@wV|TaA|b@ue@zaAeLf}Aiq@_Hmx@`CoGro@e@tCo_@nGHbSfUgBtLjHph@`f@W~Jln@lDWdBzn@v]oA{BcbBgVu~Ble@{j@hRwHjGfIfGe@lEzYf]y@`[~N~r@RjHsYjSoEvd@~AxzAvYx}@md@z}Aci@h`@hZ~AmJfOaExTyS~@eKtTu@|BoUngBma@hAua@fR_Vg\\q_C}Eb@aCsSrIqg@hFujBuDfA}Ee]vS}XmUk`@LwMx_@Pz`@el@v{At]|YhGvDmb@nt@VhFtFt@vw@qDxQqPxBd_@bTjQe@}Rrg@nMuAzAbGzJoCvByQzREdTyItGkvA|jA`YkgCznEajAxqB~X`SjMaPvOtaAeJ~YJnRiUvV`c@vMhBlXa[tNrTvVxjAac@`e@xJmMlaAt`@zGrz@sJ~ZtAbXlI`O[xCdv@bZk@vEv\\zSkAh_@nxAlq@g`@lCrIt]}Ijz@et@|f@_t@~hA{}AbIwJ|gBgaCPaQoKm`@dD_y@|DqRp\\tBjBsqAzJcBjCoUrb@{Cnd@xOoO`cA`~@rPyHn~@jf@~C`^dV|Eb~@r_@cGcA`|@fF`@fGrm@vDHnCvUnZ~AlTgCbMwP~T}FxKcQbBjCli@_I}FfKzRgCrGzLdm@ed@z{@nD_Ay^hIwBeBcRt`CsH[kQkLkPt[yUnDvCvQyr@vl@qBUaN|x@}AtUncFwEzs@C~UlLl^rw@|`@gn@~|@rBvc@fVpu@fk@|tDvAtfBdJhGjSr@|c@zs@nr@hd@uPfNrW|\\xEL`Rd~@wPyP}MtDpDriAuR|Tk@tPuMxB_J`LaFaGu]xCs^bRgAiTgV``@{SlAwKyEnHfQcP_EwCjMwUj@aF_`@}Ysa@cPwHib@nJ_[lNuLt]ql@byBhXdU~R~@tGtIPnJmNvWsN{IuGjD}ViFcd@va@_QyRku@l_@jXtVl@|PaV`I_t@hn@zK`]Sx^vLkBZfLzQjRyZloBoClHsRuAiB`FqI`UtUxIgHrToEjLl\\hHeApF{EpJuBfWab@``@wWdk@eUxSrEbOfV{A`EbOxMlEqK|x@ma@sFkTwPMdHiIdCeY{GyDtLmQnh@H|ZuQvR`MbIzYjzApInfAtRtEcApf@ga@Il@vv@vITpHdl@bUeA{R~hCeD`XaiAt}A_Lj~@~MlQnEnUma@nY{Oz@sJzKsB|g@zPxNyNJeD~SpWlbAWv[tKnq@}C|OlKtZp@~WkIjItC`m@}XbRkJVuReH`@_TkJqYuKfLwLa@cJeDwLe`@_GfAqG~Sp@nx@hHjMjHfk@aNbKoUzj@hNzYkI|RlYpOxHtP`O`CxAbNdYv_@qsCp_A|DrAl`Crz@zMb}Dy\\zfAvdBr{@m@hRd`@fdAcDjT|Hz_BvMbc@"
                        ]
                    ]
                ]
            }
        },
        {
            "entidad": "11",
            "distrito_l": "2",
            "location": {
                "type": "MultiPolygon",
                "coordinates": [
                    [
                        [
                            "quw~BdnabRiGrr@sKjAaDpYgIpCdGzLCh[lHnIwCrHrJdQs[|@cF|GvHhKaHdc@hB~MpFpBgCtL~Dne@be@~{A|YXaUdW`JlgAcHtTkPjGyQvl@gr@dd@IvRyM|_@cd@dv@c^tdAieA|_CfK~KxAz[`]{Hlf@~CjEvGve@c_@|Yr@bOyUbiBlAyHzaD}Bb_Bf`@zGra@}OxMgWvo@d}@xgB|vCa@joAlG~tDyFpuBpOr{@~Jv|@aL`SoXhaBsl@ddCkhC{E_Mde@M~pAb]`{@vvBrMxA~BiUOol@]l@~^mUkTt@mJoPxRq@}SqHrYgp@yd@qVqh@sU`CkOnVyhBxVe[|NoRzA{Wl[wf@xHq]bPkR|^cSrLhElAyp@fRsb@pWs[`Bq_@xUo_@lF{NzMhGrB_b@nNyDlM{A{DwU~BsNvHcj@zBuWjNsi@~@qFq[iiAeJ_ClJmSe@yAnYg|A~DsSlv@iRqMuAti@at@jw@qHtAgSzD{PoC{Pdy@sCnaEiTdoAnaAlDwW`GqJxl@eLG}Gbb@{XsAaJrn@fD~yC}x@|AT`Nwl@pBwQxr@oDwCu[xUjLjPZjQu`CrHdBbRiIvB~@x^{{@oDem@dd@sG{L{RfC|FgKmi@~HcBkCyKbQ_U|FcMvPmTfCoZ_BoCwUwDIgGsm@gFa@bAa|@s_@bG}Ec~@a^eVkf@_DxHo~@a~@sPnOacAod@yOsb@zCkCnU{JbBkBrqAq\\uB}DpReD~x@nKl`@Q`Q}gBfaCcIvJ_iAz}A}f@~s@kz@dt@u]|ImCsImq@f`@i_@oxA{SjAwEw\\cZj@yCev@aOZcXmI_[uAsz@rJu`@{GlMmaAae@yJyjA`c@sTwV`[uNiBmXac@wMhUwVKoRdJ_ZwOuaAkM`P_YaS`jAyqBjgC{nE}jAaYuGjvAeTxI{RDwBxQ{JnC{AcGoMtA|Rsg@kQd@e_@cTpPyBpDyQu@ww@iFuFot@WwDlb@}YiGw{Au]{`@dl@y_@QMvMlUj`@wS|X|Ed]tDgAiFtjBsIpg@`CrS|Ec@f\\p_CgR~UiAta@ogBla@}BnUuTt@_AdKyTxSgO`E_BlJi`@iZ{}Abi@y}@ld@yzAwYwd@_BkSnEkHrY_s@Sa[_Og]x@mE{YgGd@kGgIiRvHme@zj@fVt~BzBbbBw]nAeB{n@mDV_Kmn@af@VkHqh@fBuLcSgUoGIuCn_@so@d@aCnG~Glx@g}Ahq@{aAdL}b@te@}T`Aev@vVLwNsGoMxOmk@n@_WpWce@bb@uIzk@qd@rfAaXnJoqAyW}Spe@{q@oCkjAnn@_j@tSkd@r`AwPbVwOmDe\\`C_T{S{`AdBsd@sCwB~e@o{Aa_DwyAiD}K`D}OU}Cfw@nEpcBkmBiSoEsQqk@p@yQ}Su}@bIwXgFyJ_GiImK{}@m_@ug@sJq^_M}B}@erIvMgPfEwy@gPkDyWe`@sYwFg[n\\c@_a@oJmW_WhA{E_GeTy@t@`Gw}@lh@e\\d^ae@jM}O~MgTjy@qU|YoNK_O}`@uLgHaPgk@{n@wMw|@ot@ic@uGaKhG}ZkAgIbE_^y]ePfHcTmJaLrFo`@oXsDbCc^kEkNiVwTxMoa@kd@_D`IsJxAoVo]|L{RqHDoY}WtAeGfX{CuB_T~Rm[gNy^ePoHiJua@p[m}Aj@sVcB}RqPqKaAuIlXyXcQoX_HpAiWuZuLeAyG_IvHiVaK{h@^}Ryl@ub@rUkh@rIaAtL}PbCoMjRqAeEmbAySuzI`IuSxh@weEtiAc}B|ToQ}GeW|e@eRg@cX{SyLw]nDlw@}s@jQwf@fRqS`[wOlH_MvUjAx@af@tNqVzEfM`a@sIbWvHv^kJb{@rGgJup@tfAt]{r@azAiQuh@nDs]~YwOhV}c@rT_Hf]Q~AeRlo@gTeB{KtsFo`JpbC}rAvCs]S{t@nk@c}BrZ}Ib_@pJlUd[vA~ShNbOgGd@rK~[r`@oAyHdGdAzNf]h`@zOzB|J`UrCuHlEzA|MkI|St@`KeRlc@|C`Rf[rZ\\|\\sJhUgVoDcK~HqR{Awq@bFyQvm@wr@kBaGqNgBgPdGmBeS}I}EsFoVuZuNgDeLx@mj@dXuV~Eqr@|FwFxWmBpCaJ{_@oIwb@iVpAkFkG_Ji\\kY_Vu@wP`M_[wHyo@eq@|DuBx\\cJEqSxPvBhpA}s@xIfHvM_@|K}L~MeBxHpDbWsQtG`J~X_]rQcHqEw][_a@_KeYc]gNbFsiAcVulA~DqHra@eCxG_q@`i@ih@~Ek`BaCeKuD_~@mJePeA}ZqLyYi_@mHfIcGyGoKsRvIi\\e[iOakAfRwWlIa_@kj@uv@{P{HqHagAmPeZ}QiQ{d@f\\e\\XaYyv@qCo]kFw@fEiLpNwGvOpCtJuMvOxIxQBnTsJkB|EfOw@`c@|Tm@_QzXkKrS`InRzT`ViNbw@|Sz^eJbOtSfEsBvXlInFoH`Pp@h[q\\tq@``@fO_@~p@gVoAaNxEoHrd@hGj\\~HhOpLf]Yb[{Nta@pId]{CzQnDnHkf@z`@}G|[zOhW^tC`Jr`@fX`g@xDdx@hd@|SfWtzAoe@tKc@jJxKh_@bA{@gb@rM}}@p~AqcAq_@un@gzBogEoEaUbYc@tZzLzJmCzVbd@fY_Wft@aExIeHsPy`@iXpDka@aHiHzDmc@LkZkGcBuFkh@{SxLccAfy@alA|EwQvw@m^xWkBbRaJ~a@bEd`@_OfMfL|CrZpaA`ZpY`|Bln@jAp~@gIxe@}u@ptAif@ww@duBqWb~E|Zp[nEvQr[xI~TvIxN|PpVl]vMpi@r_@x]nExK_@t_@xdA|FzJlGtC|Ltt@cc@pHxD|Qpb@rJ\\iEnh@oS`R_Mr[fb@bWlJ`h@|d@dk@dXtJf@xQ~y@~oB{Fz]ga@hr@uCdZ~Af]dFtB}EfeAbFzj@aiAz~A__Anq@oC~o@o@`\\oIxFaI`_@pEnHsCx\\a[hqAgOvZmc@qEqL`PuIqMa[nHcMd_@t\\K_BvFxTjPsOdMqWiAwY`GcV~bChIxq@vcC`pBnh@d~@`p@olA}BcHlViCt^jTha@}Epg@p^~O_a@lq@pf@|LmBz`@~SzQgJtZ`F|FsHnUqC|TdKmD|Vf|@lb@`^|Dx`@~[pD|Lbu@rRrAuTrJiAdHrQvVmAt|@k]rM|BhMyE~n@uAd[iQdShD`KiHhWpCnHbCFyNxNgIjg@u}@l[tVbc@rGrYeFnXbJ`^pc@zQzC~T{LLdhA}]hg@y]xlAyIl@}Oz^wAr^gKpShl@vh@x_@eFfScS`Qm@nk@qUdcAtr@dM|Jy@tFrTrK|a@}Xvc@li@rZdGr^o[dI}SjhAoGfS`b@pr@zPvh@iaB~BhTn\\nkDbaBdAgDzNyKrCgD~LoXnGy_@ja@uEtSyNjOiM|q@"
                        ]
                    ]
                ]
            }
        },
        {
            "entidad": "11",
            "distrito_l": "3",
            "location": {
                "type": "MultiPolygon",
                "coordinates": [
                    [
                        [
                            "{~``C~bvkRoA~DsBvFmBbGUzBMnE`Elo@LvBfCxz@jVVmFhVdCxKqMzB}Zht@oiAjHcEh`@|Xi@p@zUjIz`@}VdKuAnf@w@hOvKfLYhThEbEgKr[jGp\\gXxK{Ekh@g\\yY_e@HkVkPoCjEgYfBpBzHuz@gMauAp`@mz@yA}W~Bs@nDe_@nn@mj@_D{_AqfGe@yu@~GsWbSeOw\\mYqOSwHbZsv@fwAywAgK`IcVeFiUdBuZ|Rqi@qD}FgHj@tCm^eNrAfXyuAmRcVrIa~Abh@wx@k]gx@{[i_@qh@`G}LzKeLeSoXuPgFqAgVlNsZo]{CoGtDmUwNmGzJuMiAoR_g@vCq@cKcKcDi`@bKee@wXkc@oDaYlFq^eBoNpDsW_q@Q}VbWcx@rUeMhA`QdMVGtFpw@sInOfLrRkXkXqvDgNmCgHgw@|Jga@iI}a@fM}LsAgLlKcNoFgLz@gWiXyJcDyG~v@qLvM`JjZmGpY|Atr@iTbK}LvsAsTrBzCtfArIl{@}EfEcGuEg^lL}Lq@oKxl@dVvMl]nQlaAhPvRjV~s@zOl}@_AjMzVl_@tM`d@~MjG~h@b~@_Hhj@zLjX}AlFdMjGwAhLtOzCuPpZeG|Bz[nb@`Lpa@`k@jh@`K`c@|f@[tLlGhd@zC`A|Iba@jHrQ`JnJu@?bG|JrFjFw[jd@vSbOz@`@gFnK`LiFvGha@hPfB_H~K~FnGsNxCjBaCdFpFxCzF|CbCaF|ThMnOnJqB|GWnI}B|]}@jKj@Lm@nFm@bKoBnXmErM_@lTd@nPwGzGkGrNrQ`AiKv_@hGzAtBlHbAjEfUuCkBnGcAlFuGpX"
                        ]
                    ]
                ]
            }
        },
        {
            "entidad": "11",
            "distrito_l": "4",
            "location": {
                "type": "MultiPolygon",
                "coordinates": [
                    [
                        [
                            "q`h_C||tjRtCrEuEvFbIbHyInSbMpC`@hJyIGMfMzKhB`HpXvQGy@`m@c\\aB{B_e@qRuGcYhFaGp_BmLZiBbJyNZiQdz@}EaD}MrMqb@wJ_IdOcVkIoF|EiRaHcgCzhD}fAuo@uN`\\uOyHgGvCoJxL{N_IaJbOwGtKq@e@_FpIuBrD_@j@uFyDyJlO}BeBiJuGoOqH_B`E]a@kAjTgFnu@k@~MoHvm@aDh@j@~HaL`i@cDpSu@lFiAjIeDxTaKcDaFkGD_AqGwRqVxC_G`AqH}DsFrKwFgBmBjMgWjKaOgAmXxKwFkC{DjUaB|JyBdC\\|Eg@rC}TiMcC`F{F}CqFyC`CeFyCkBoGrN_L_GgB~Gia@iPhFwGoKaLa@fFcO{@kd@wSkFv[}JsF?cGoJt@sQaJca@kHaA}Iid@{CuLmG}f@ZaKac@ak@kh@aLqa@{[ob@dG}BtPqZuO{CvAiLeMkG|AmF{LkX~Gij@_i@c~@_NkGuMad@{Vm_@~@kM{Om}@kV_t@iPwRoQmaAwMm]yl@eVhN}o@aC{VsJsStC}e@wYor@dC{RgFeZfEqOgI}]gEz@iAsEpNim@eHeh@hl@uxA}Gcy@tCkQxw@ex@|Kc@hRpMjIwGnF}TzScErvBihHzIa@fcBQbTrKxi@sr@xi@oJbfCrcBr]`Atg@{KvQ|XrFdC|OwEjNzQjYkAjJyFrAfQ|KbBFdVs`@fnAkBfh@xCzP{Nfh@b`@vOv@fTcHbEe@hPiWoGoT^}OtZxNbS}t@fVdNjClAhXhuA|hBvRtKxOzi@pYpL~Rt@dHlXrBmTkHkI|Ib@{CkH~Dg\\dK}Spd@nG~HmD~BqNpZcRvi@[frB|pBd@pCjdBwH~yBcPtWrLbf@hTs@t[`Q`Ed[~q@kIM_Czn@sQhKU~b@iK_FeJpSqQ_Owa@yDuOt_@uChZleC`Xe@nFpQhF"
                        ]
                    ]
                ]
            }
        },
        {
            "entidad": "11",
            "distrito_l": "5",
            "location": {
                "type": "MultiPolygon",
                "coordinates": [
                    [
                        [
                            "ihx_C~e|kRL\\`BfAlDzKiMfUfEjBvCjM{CzV_R~KjZh_@lN`l@wAlV_iAj\\Gtc@[|wBwMnH|OjvB}cDnC{p@kq@{Eyd@ih@ev@_WqKDcYuRwVkGq\\fKs[iEcEXiTwKgLv@iOtAof@|VeKkI{`@q@{U}Xh@bEi`@niAkH|Zit@pM{BeCyKlFiVkVWgCyz@MwBaEmo@LoET{BlBcGrBwFnA_EtGqXzQzEnOnDGtCzIIa@fE^rMnEn@j\\zEl@dFbEt@tK|@jAbBlT~F`Pgq@z]|GjMzBHe@dUhSMl@xPtDUhAjVpFj@L|ArGr@pDh@|BjHp[`F`U|EtU|DjM~BfGnA`EaVzR[nL"
                        ]
                    ]
                ]
            }
        },
        {
            "entidad": "11",
            "distrito_l": "6",
            "location": {
                "type": "MultiPolygon",
                "coordinates": [
                    [
                        [
                            "oj{~B|ctkR|HwkBicEsNmBoEce@lD|At`Bu]rI~@d_Dd@hv@lRhBfRcHhZpMQlrAdV|_AaToDoe@_c@cOzE}Yi@qQcNuNeBmXii@ySuDuWdf@eFto@{UlO}@xQ|{@bTmj@vgCgGry@ox@oS{NzH~r@ry@kGvZo_@bXsEaEsJ|^}Zy@uT}l@el@`K_Gk]{YhPsIv`@m^pCch@uMgQcExBiZ}F_HgNtIsNqE{F`Ho{CtIuhAcd@Z}wBFuc@~hAk\\vAmVmNal@kZi_@~Q_LzC{VwCkMgEkBhMgUmD{KaBgAM]ZoL`V{RoAaE_CgG}DkM}EuUaFaUkHq[i@}Bs@qD}AsGk@MkVqFTiAyPuDLm@eUiSId@kM{B{]}GvC_Rf@_EhD{LlB\\nFyK`EoDgA}DYoAtD\\~Hcd@hBqM~@d@xRq@\\KjDyMlDcOvEoK`CaFp@cC~@eFdD{P|@_FhFwYtFgA`SzR~JdEbHfBlM{Hf}@rMr@uApV}h@|Xok@hQw^hx@maBaQcBaRaKvQmd@lBaIyF_CpCiOuFgCjDaRsTqNtPgn@ye@yTbgC{hDhR`HnF}EbVjI~HeOpb@vJ|MsM|E`DhQez@xN[hBcJlL[qF|]jP`[yGd_@l_@tKzK}a@|n@tPda@ws@bZlZzKhWrVhItFvKjpAchA_d@cfA}u@o]~b@i~@rOhAzyA|MzThBtFxJvOfDhJzd@`Rx[hL{MlXsIvU}AlJbI|AgP`EjKrQtDzVjCbw@iWKly@g^h_BryAxMyO~`AmwA{BdHxmAzHvDbO}MbJt@|`@tCuMhxDjc@n|@dMzMrDkBvHnMxNhDr@hFpGR`CrQtp@pXnMjYvRdGdNvPzLwHhE`HnMPjYcRlKbBrHjZaWbRdNxo@l|@h_@jJf@l|@v`Aul@`Uoj@sXiDj[mNv@mOmXky@}O}Epv@kdAtVgHth@oOuLyLjDol@uPy@nG_SlHkBoE_t@hu@eBgCcQxL}AsOsQxGk@q]oFu@D{d@}[NEnhAw~@oLe@w|@vHetA"
                        ]
                    ]
                ]
            }
        },
        {
            "entidad": "11",
            "distrito_l": "7",
            "location": {
                "type": "MultiPolygon",
                "coordinates": [
                    [
                        [
                            "uty_Cz{lkRnE~@lHrCrH|D~HfEoJxe@iFvY}@~EeDzP_AdFq@bCaC`FwEnKmDbOkDxM]JyRp@_Ae@iBpM_Ibd@uD]XnAfA|DaEnDoFxKmB]iDzLg@~DwC~QaPfq@mT_GkAcBuK}@cEu@m@eFk\\{EoEo@_@sM`@gE{IHFuCoOoD{Q{EbAmFjBoGgUtCcAkEuBmHiG{AhKw_@sQaAjGsNvG{Ge@oP^mTlEsMnBoXl@cKl@oFk@M|@kK|B}]VoIpB}GoOoJf@sC]}ExBeC`B}JzDkUvFjClXyK`OfAfWkKlBkMvFfBrFsKpH|D~FaApVyCpGvRE~@`FjG`KbD[`GjOtNfAlA`QnKx]lK"
                        ]
                    ]
                ]
            }
        },
        {
            "entidad": "11",
            "distrito_l": "8",
            "location": {
                "type": "MultiPolygon",
                "coordinates": [
                    [
                        [
                            "}`d~BtcuhRrEtXlc@lh@`LlEiDzGxAlNuK~CjFvGyBr`@jT~k@s@lu@{L`]aHbBuYrd@i\\|Djb@ld@qAfv@tErM_C~KiIjAaIjN{A`YsMfJzS|YzDpZ`i@f|@eFpXw[trAcUyCy@rS_Bvg@qCzn@eSeBaHgKwQMmMwHqHqMvDcMqIoWwUuOaJvG}Lnh@|CvN~@mC~b@vH_Gbt@viAjH_@po@}Cdd@c\\Ix@oYwKjOi|AmRgByOmeAw_APwVkHqPqSqg@iYiWcz@E{r@QeRnOqc@kOwIxLo[d@qCkGkFxFvAhIaQpWzIba@wA~Pe[WuBdl@ra@zA}Yfi@wa@eLtAu`@}rBcQb@rIxQ|NqFfo@qK~K}Lbq@cNiK\\qHkJQyEcHlFakBofAgDuw@pCimAfEkcB|@eGhGYf^cYtBsHcJmThKoEd_@aQdNuPpGsMkNknAy`@ybAfpBex@|h@ow@prAyXjq@{_@vl@_Op@oHcQ_La@yBbNgUgHcNjFmEmI~@}K{v@he@oBaOmIkBvB}NeSt@iFdZsJy@qLpTlKjShG|MpHn@nKlt@yJh}A_k@`FcL_Yw\\bFqLgFcLjC}LzUuX~Iac@a_@w@gTc`@wOzNgh@yC{PjBgh@r`@gnAGeV}KcBsAgQkJxFkYjAkN{Q}OvEsFeCaAm`@lN{MkEqDjP}UsHa_@qQg\\dBcFsh@u|@jFuYkD_]gTuVTmn@~Gi]mBiQsJiIy]tSmLkCQiSn\\gZmqDiu@wMcc@}H{_BbDkTe`@gdAl@iRwdBs{@x\\{fA{Mc}Dm`Csz@}DsApsCq_AeYw_@yAcNaOaCyHuPmYqOjI}RiN{YnU{j@`NcKkHgk@iHkMq@ox@pG_T~FgAvLd`@bJdDvL`@tKgLjJpYa@~StRdHjJW|XcRuCam@jIkIq@_XmKuZ|C}OuKoq@Vw[qWmbAdD_TxNK{PyNrB}g@rJ{KzO{@la@oYoEoU_NmQ~Kk~@`iAu}AdDaXzR_iCcUdAqHel@wIUm@wv@fa@HbAqf@uRuEqIofA{YkzAaMcItQwRI}ZlQoh@xDuLdYzGhIeCLeHjTvPla@rFpK}x@yMmEaEcOgVzAsEcOdUySvWek@`b@a`@tBgWzEqJdAqFm\\iHnEkLfHsTuUyIpIaUhBaFrRtAnCmHxZmoB{QkR[gLwLjBRy^{Ka]~s@in@`VaIm@}PkXuVju@m_@~PxRbd@wa@|VhFtGkDrNzIlNwWQoJuGuI_S_AiXeUpl@cyBtLu]~ZmNhb@oJbPvH|Yra@`F~_@vUk@vCkMbP~DoHgQvKxEzSmAfVa`@fAhTr^cRt]yC`F`G~IaLtMyBbP~GmElXTtm@|Wtl@he@~Fpr@kJzWGnc@yQbZ|ZrUcLqAmYjDsAdw@{OhZ`I|N{AbG`HndAq@}Md|Ag\\dQ__@x^bB`Ge`@ng@kQ~q@fGvVfb@cNza@_BxUsM|IjDpCnSqA|VwHnHdApZzDzCsC|DbGjGLdSvWcHcIjp@fsAnDnMk`@zSeS~X`HuA|HtR}CySja@qJzb@c~@hpApK~KpeAnMrQiBxEfF~XkEbYbPfl@ga@nSbDwAbd@mJvKk@nKdPlXnLdr@v`@t{@|l@xh@`Z|J~Q{H|EtKnW}RwGdc@zSqAjHnQpGmMjo@tObKv^uZ|NsClHqBvYlEpMvr@|d@fyA|~Ahm@lcApDbQ|j@~mC|p@~kBr@lBvvAh~Dc@vIgXpOSts@zHht@tYfa@xV~L|Bfz@pQvo@jn@hErFbVf\\hHaQ|\\yCtZ{HZqGjSsDppAdUoK~`@j`@Lfa@`O~q@qChZrG~T"
                        ]
                    ]
                ]
            }
        },
        {
            "entidad": "11",
            "distrito_l": "9",
            "location": {
                "type": "MultiPolygon",
                "coordinates": [
                    [
                        [
                            "kgy}BdrogRyZxCqRhU}F~OPlg@mQdy@i}@~Jmn@nZqQtu@Q`Us[hb@_Eb\\{e@pj@gc@lTer@Hur@ycAmWAkPpFaZ_f@rEsOqM}Ci_A|u@eKNcD|KgLPoQvY}p@_lB}j@_nCqDcQim@mcAgyA}~Awr@}d@mEqMpBwYrCmHtZ}NcKw^ko@uOqGlMkHoQ{SpAvGec@oW|R}EuK_RzHaZ}J}l@yh@w`@u{@oLer@ePmXj@oKlJwKvAcd@oScDgl@fa@cYcP_YjEyEgFsQhBqeAoMqK_Lb~@ipApJ{b@xSka@uR|CtA}H_YaH{SdSoMj`@gsAoDbIkp@wWbHMeScGkGrC}D{D{CeAqZvHoHpA}VqCoS}IkDyUrM{a@~Agb@bNgGwVjQ_r@d`@og@cBaG~^y^f\\eQ|Me|AodAp@cGaH}NzAiZaIew@zOkDrApAlYsUbLcZ}Zoc@xQ{WFqr@jJie@_G}Wul@Uum@lEmXcP_Hj@uPtR}TqDsiA|MuDvPxPaRe~@yEMsW}\\tPgNor@id@}c@{s@kSs@eJiGwAufBgk@}tDgVqu@sBwc@fn@_}@sw@}`@mLm^B_VvE{s@uUocFgD_zC`Jsn@zXrA|Gcb@dLFpJyl@vWaGoaAmDhTeoArCoaEzPey@zPnCfS{DpHuA`t@kw@tAui@hRpMrSmv@f|A_ExAoYlSd@~BmJhiAdJpFp[ri@_AtWkNbj@{BrNwHvU_CzAzDxDmM~a@oNiGsBzN{Mn_@mFp_@yUr[aBrb@qWxp@gRiEmAbSsLjR}^p]cPvf@yHzWm[nR{Ad[}NxhByVjOoVrUaCpVph@fp@xd@pHsYp@|SnPyRu@lJlUjTm@__@nl@\\hUNyA_CxV~^jb@`M|n@t_@|o@zb@j[fh@xFwJzj@iKf|@uPvJ~i@~xAzmDjp@pfClEhJwBbJ|HbB`BuEnLrKdKr`@`Mu@xb@o^rh@gEvOg]bpA~MjXyFpGxLf_AvFbs@gChg@mVrgAg}@|h@Mrg@bAdd@p|DzJx`@zd@pXx^bp@fH_Od\\uUttBoy@nMC`j@dRzh@}B~r@up@uN{x@vDsEmGqTxlCoh@pcA}I~SqKsYuxAKuo@pQkK`WaDnGlGfbAsyCvGx@zA_R`KkMx[qKfGtFnt@{\\za@eFsDyN|IaLzDpMn[wKlHl_@tIjHbkBfAV?xxAl@{Bp}@|lC|Opt@pzDcRdAxDxZvRqFnPb|@z@rE}Mf@uHcLu|@CrLxq@nMlAzJnoAnUf@xEuPxv@~D~_@lo@t|AfeCb[`OdLvfA}b@cBkIsFaIvFMvU{M~Ll]pk@vQpM}^tmA}MtP~Tz\\lGx@`Wg@|g@{c@vb@lMgHdHsMvn@wIlDv@fIuJGxRvMrTjY`QnRwRf[aPi@qBn`@cnAzYw`A{A}C|v@O~RxHoAiAhKdEfAlpClDsEb`@gP`mAiU~n@~d@hQ{UxZve@dPkVhy@gReGwIdv@sdA{i@wC~Jw|@dxCos@iHufBcb@sL^ed@cd@od@kHq_@mAiF_\\uS}DZec@mL{A}n@wi@yPyDOoo@bDgArFoaAaVc@_kAsFosAsZguC_p@XmUzPgNcA}gBgi@onAw[_EslApGeGhEiAfP{O|JmJoEVsPsVw_@UoOsLr@w]wUw]bO}e@zGb[}W|Iyg@wKqc@qEjMwPfC~LyMeKka@bE}DeTcYyL~HkAwYyRyQcUtD{VsHmAnKgR|Jk_@mKcGuJzDu[kJ}XVoZsLaScKcBaK|]aNyE|BqO{HgFue@p@oHtEqNaE{P~Ei[tE}Ipv@eJ}JmMCuR|Rwf@rcBN|SeStQgTpEeRla@cTdEqEN}CePhSsS{Ho_@eA{~A{WiFsVcZ}DvBqC`[_GwKjAw_@kG{B}VhBmQfWmFbXqk@hBaHrg@_QYcA|]_KO_ExQkM~JjCvNeK{JyC~HsLwEqBxCjDnLiPtFbGrU_L^PvU}DhAbI|rAlKnQul@nn@kWqAsP{@|H~Y}O~[`Dv]iQ~TwJ`^{XpEw@b`@~HjIv\\pDjG|FrEmXfFmBfWaF|VpI~U~b@wEfa@rCzQnPpFkCbCqP`R_B`J`JzMuFhAuh@yRmRK}\\iKmOjGk[gJgMvOpX~^nRvFz`@pRrF`HVfPvM~OFnO~Qhm@r\\zm@nCnWpQhIdEja@`v@~eA|CbScJta@tKbQxG\\sIbIeb@jMqdAf[cw@uAmGpk@vZfUkG`I|HlWmObi@iTzKeBlJlUf[zcBwr@nm@xOzc@yVpx@q`B~ElJ`DfQsBxbAqa@||@aTfWgKdn@y_@vSoQdWkU`y@sJxAe[l_@qMmBhI`LwJpJzNnRlEnSgb@nmAs@tB}Nrn@e@nz@}I|JkJ\\c@lJzCll@bRfPer@jOeOuEgPzAtLjP~JbFdFsDlMfOkYz\\mNxDlK`u@iPjNsJbb@{AzKzOoH`U|AbIlT`F`AxLqX~VuAnLsJxSnDuQ`o@hUvd@rCpm@cQbO{ArLpWAja@mOlNtImOdE_G|`@iXb`@~\\~@~Un^hj@jGsFddAn[hT"
                        ]
                    ]
                ]
            }
        },
        {
            "entidad": "11",
            "distrito_l": "10",
            "location": {
                "type": "MultiPolygon",
                "coordinates": [
                    [
                        [
                            "gwu|B`pklRzxCj}AaJrEtA~r@pf@lDzXnf@lIrn@zHdLfqAn_@jSgAti@x^zx@fB|Pn[wGvUj@bb@c`@}I_BfT{Rb^m\\a@y^m^sIrEfDbb@iXnyAuh@{PkSzDm[{AvZn_@dlAdtDeiBaEqXlCjYzeBtG`xCs[rAoTyKuJ}TwFa@uUzSwFeAa`AkrAsKtMcSbGj@pKgj@yA}c@yf@cf@{CdKbLaDxR_{AlBajA`c@hFjNmEnOgWrA{f@uYwk@{Igm@sJgGpLvCjYyDvd@jl@|r@Rzm@~DnK}SrEyCtMyOb@nx@~gBkLpKeOsBgIxJHzKyKgH}WdCuj@h_@iW}\\ybA?o_AsJ{FeRso@aVsVjHc^{AqP`fAuv@e^_o@uJi`@{Hqt@wBqX{JqKzGcUuAkq@xfA_RtUrDjP~QrEbPfTzDjj@|KlL`UnC`^td@_RfTdc@zt@wDlgAs@xDkl@_Oyb@o^wPW_BuExFeC_M_GqAwM{WjDsJh[gVlA}Z`QGl^cOrUt@|EfKtBnFb\\oEnWt~@fe@n@rUc]uIwa@w[sTgFcw@vDak@odAcUxGuTsQcbAwHcr@rQyNqQoUn@aYkUsAsu@cNeFyM}`@{RaSeEcc@bAm\\~DoEgCeW{|AelBcn@_k@u]hAqFyIu[oIhAr[}R|B|A{PmMe[ef@y\\pEwDoKk_ApE}YgMwBc[q\\o@cl@`W}Kc@uFaBhBql@ke@yL}h@c]{Fp@iMeJoFkGpJqZjAoTaR}GdFsFzg@_r@{UqUcWfTmy@dFtKhe@uI}IeVeWyPsQ}a@{f@rTk`@zC}_@aDii@qIeFgNmMpBcp@iSu\\qn@wDjIq`@zAoC{E{ZEsBoLaHu@cf@uj@{`@rMoT{QgbAs[TwXuYy@ag@gb@yBwRcu@dZwlA{`@_\\aDaFqC~DgGgC}MgTyWwLbGcQcL~CeGic@~QgWkBm]xMab@t@wP_RzDuo@oDqMuc@tJsMnNwLaN{SxL}R}XxFk]eG{uAa@qeCoQ@yGrEwSaCuFs^gc@{f@UyNtVkYyGog@}OkvBvMoHthAbd@n{CuIzFaHrNpEfNuI|F~GyBhZfQbEbh@tMl^qCrIw`@zYiP~Fj]dl@aKtT|l@|Zx@rJ}^rE`En_@cXjGwZ_s@sy@zN{Hnx@nSfGsy@lj@wgC}{@cT|@yQzUmOdFuo@tWef@xStDlXhi@tNdBpQbN|Yh@bO{Ene@~b@`TnDeV}_APmrAiZqMgRbHmRiBe@iv@_Ae_Dt]sI}Au`Bbe@mDlBnEhcErN}HvkBwHdtAd@v|@v~@nLDohA|[OEzd@nFt@j@p]rQyG|ArObQyLdBfC~s@iu@jBnE~RmHx@oGnl@tPxLkDnOtLfHuh@jdAuVvxCjSviF|\\lUdC~lB~PpBs`@r_@nLxBuChGlmAt_@~MxZdIlPjXlDqNfLyLhIg@{Bms@|m@aF_Ba]}OzHcOeVnIyE_GqQDoh@{f@ak@n@yRj{@aC|eAuZvUx@Ft_@bO|ZpX_Tj^tH|b@|p@OfIhVvd@|zAuc@bJxCfKry@fHmK~TT|^m~@rJhB~F}LxXkJxHpAjSmGrQtBeDoKrXfIvG{HlSo@tMgXtm@}^Veq@pH|EtCit@vJeVlKcGvBqOegA{yBbx@cmAhd@QbL{RnUh@|YoJbGnOp`@cTwGc^tMgOyNeBuBiF`\\oj@qFsQr[aTpRuWjh@oTtGc[rF{Tfa@nBNVu@fPhNbEXjJoFvFcQcAGfEpZxLh]oF~AoOrJ}DuBiM|L_Fi@cKnIgL~QtCbYgGfXxSzPnEhHgElKuAvRfMdYsDtWpJ~m@uZtChF|Mr\\qBrI`N|BdB~PmF`NjPq@hTdMxOeDbA~FxUFrQcG~AmNzJeDx@yGxGTxCmNvDlG~LHsDpL`VmFxNdInUoJIaGiHmDtLmJ~Z|J`O_BbXiA|FnWsB~EbMxZhFpIpHeH{EhT`NzEcDnOdIhJnSdBJ|SeZfoA}Crq@ibA`Aci@hOmL~LuOnl@gC~f@{KbVdHdb@hG~MxOhC]fPh]nThL|@dKx]vTdTzAfP_G`a@fFh\\gGrM~SnSiQtQlLdWhOxKOlO|ZnH~FhXsfC`VYvaCme@xRkFoy@mUerD{`AfIeqAoWeZgEw_@pb@qfB|b@XhUsAvsCbH`s@`O~I_WdLfFfThHiBvEvGuDjQ`Nhd@uFr[jl@nvAhGt\\bCdjC_HhF"
                        ]
                    ]
                ]
            }
        },
        {
            "entidad": "11",
            "distrito_l": "11",
            "location": {
                "type": "MultiPolygon",
                "coordinates": [
                    [
                        [
                            "}lj}BlcaiRzd@xF|VgHxHdFdIpN`OoElOd@`Tbh@l{@|QjFcApRjJpI~HgbA`yAwB~\\wg@v^uhAh|@vOb_@D|NuJeDuJlCsCtRnLoBxGfNld@oEv@|FhU|z@oLyBtCfViFtAlCpY{KnEyCp@x]`JVjBxApIt@|Gn@nEdArHaHfEiBjAsElCrF|JlI`Q``@tx@tDvHrQuElDvEpMsDnDnf@bUkBbg@{D`KhKtBfB|BbBx`@jIbe@bEfF`@fE^d[rXdiB|`BxHpGnf@r`@flBeQ_g@gk@`PwR}IbAlBmDfZmGdq@~FuC`YzLjItFmZhy@_Wfw@nh@bSfEzGdQuCxUnMm@nFfKpHsKm@sRxT_Hr@dMeKvV`Pp\\dz@sIcF~a@xp@@aAtOx`@oAd\\}Y}EkTK_m@bkAcGn@tL|C?`z@raDhY~~AqZnTeHgAvNd{@hDdw@cd@lF{]no@{I|_@ga@pwAnMrc@aCnB{y@pOka@jH}u@k@es@pQ}y@u@b@o{@c[qYhE}w@{Wme@gWud@oaBfNk^cGpQn[mU`kAgeBg~Aa@~IsCg@t@|yA|@va@jGvAiArL}hEuE{AuKgs@jBsV`IHhBiLrFoJ{CkRbCcGvP}c@|Rim@Hiq@rb@mpAxbA}TjEqoA}c@if@tBus@v]_i@lb@sBnKkb@tPur@oYzDcPecA{eBkf@kDkHi@uO}TAq@sk@mq@jAkQ{PuMwImSaNoG}K{|@qJi]ed@crBwCsF{_@nLqAkMeAoh@qJ{nCg@oKjQqLuDeMzBm_@uVvq@oJpFuRc@eU~L{HwA@{Kyq@|CfKgJgI}JdYkEdJeJag@qD}EoLbIiKX}h@@y@g{@mIwBleAg~@cD_@xH{NcA`DkXm^gHvFcnAfFmUjYiGxHksBLsEyK|FoT}Al@eZzb@kNfCmx@|Ced@^qo@wiAkH~Fct@_c@wH_AlC}CwN|Loh@`JwGvUtOpInWwDbMpHpMlMvHvQL`HfKdSdBpC{n@~Awg@x@sSbUxCv[urAdFqXai@g|@{DqZ{S}YrMgJzAaY`IkNhIkA~B_LuEsMpAgv@kb@md@h\\}DtYsd@`HcBzLa]r@mu@kT_l@xBs`@kFwGtK_DyAmNhD{GaLmEmc@mh@sEuXsG_UpCiZaO_r@Mga@_a@k`@eUnKrDqpApGkSzH[xCuZ`Q}\\pHwQd[kInK\\bOdQjSjIhMZhYmJnV`~@~mD|pA|k@vv@h_AndAx@ie@vK|QyBpYhJhG`BnOrf@dXwBqIbG__@bY{b@rDyq@Xba@|Ud^`NpvAlNxJlDv`@pL~H~Lbu@pmA|k@fWtn@vFv~@je@xUnIh]bX^~VpLlBtJpMhL"
                        ]
                    ]
                ]
            }
        },
        {
            "entidad": "11",
            "distrito_l": "12",
            "location": {
                "type": "MultiPolygon",
                "coordinates": [
                    [
                        [
                            "g`r|BrxtiRpUj@b[~R{Gv`B`^dkA{@rHgw@oh@iy@~VuFlZ{LkItCaYeq@_GgZlGmBlD|IcAaPvR~f@fk@glBdQof@s`@yHqGeiB}`Be[sXgE_@gFa@ce@cEy`@kI}BcBuBgBaKiKcg@zDcUjBoDof@qMrDmDwEsQtEuDwHa`@ux@mIaQsF}JrEmChBkA`HgEeAsHo@oEu@}GyAqIWkBy]aJxCq@zKoEmCqYhFuAuCgVnLxBiU}z@w@}Fmd@nEyGgNoLnBrCuRtJmCtJdDE}NwOc_@thAi|@vg@w^vB_]fbAayAqI_IjkBybD|`@n`@r`@|BzcAxVvBdTzMhPth@rD|JzFtd@nnA|KhW|d@x^rbBxrAng@|IjGtUnsAf~Eci@dr@qe@|aA"
                        ]
                    ]
                ]
            }
        },
        {
            "entidad": "11",
            "distrito_l": "13",
            "location": {
                "type": "MultiPolygon",
                "coordinates": [
                    [
                        [
                            "euw}BdipjRtO|TjHh@jf@jDdcAzeB{DbPwCc@\\lRqu@rbD|fAaDdf@py@a~@zJyJrGmFvaBVzObHbEmHzJdc@rk@iRxHgh@_b@eSaBcJgo@ebAjl@mKxTaA|Wvk@v}Afn@vhB~`@~`@xb@jHbR~ZtYlAroAql@l`@bFnN_IcAyz@dIsWjCkFdc@zXfa@xBgE`r@f`B~Gd\\qNxLvGdgAzyBwBpOmKbGwJdVuCht@qH}EWdq@um@|^uMfXmSn@wGzHsXgIdDnKsQuBkSlGyHqAyXjJ_G|LsJiB}^l~@_UUgHlKgKsy@cJyC}zAtc@iVwd@NgI}b@}p@k^uHqX~ScO}ZGu_@wUy@}eAtZk{@`Co@xRzf@`k@Enh@~FpQoIxEbOdV|O{H~A`]}m@`FzBls@iIf@gLxLmDpNmPkXyZeIu_@_NiGmmAyBtCs_@oLqBr`@_mB_QmUeCwiF}\\wxCkS|Eqv@jy@|OlOlXlNw@hDk[nj@rXtl@aUm|@w`AkJg@m|@i_@eNyo@`WcRsHkZmKcBkYbRoMQiEaH{LvHeNwPwReGoMkYup@qXaCsQqGSs@iFyNiDwHoMsDjBeM{Mkc@o|@tMixD}`@uCcJu@cO|M{HwDeHymAlwAzBxO_aAsyAyMf^i_BJmy@cw@hW{VkCsQuDaEkK}AfPmJcIwU|AmXrIiLzMaRy[iJ{d@wOgDuFyJ{TiB{yA}MsOiA_c@h~@|u@n]~c@bfAkpAbhAuFwKsViI{KiWcZmZea@vs@}n@uP{K|a@m_@uKxGe_@kPa[pF}]`Gq_BbYiFpRtGzB~d@b\\`Bx@am@wQFaHqX{KiBLgMxIFa@iJcMqCxIoScIcHtEwFuCsEqQiFd@oFmeCaXtCiZtOu_@va@xDpQ~NdJqShK~ET_c@rQiK~B{n@jILe[_r@aQaEr@u[cf@iTuWsL_zBbPkdBvHe@qCgrB}pBwi@ZqZbR_CpN_IlDqd@oGeK|S_Ef\\zCjH}Ic@jHjIsBlTeHmX_Su@qYqLyO{i@wRuKiuA}hBmAiXeNkC|t@gVyNcS|OuZnT_@hWnGd@iPbHcE`c@`_@tX_J|L{UbLkCpLfFv\\cFbL~X~j@aFxJi}AoKmt@qHo@iG}MmKkSpLqTrJx@hFeZdSu@wB|NlIjBnB`Ozv@ie@_A|KlElIbNkFfUfHxBcN~K`@nHbQ~Nq@z_@wl@xXkq@nw@qrAdx@}h@xbAgpBjnAx`@rMjNtPqG`QeNnEe_@lTiKrHbJbYuBXg^dGiGjcB}@hmAgEtw@qCnfAfDmF`kBxEbHjJP]pHbNhK|Lcq@pK_LpFgo@yQ}Nc@sI|rBbQuAt`@va@dL|Ygi@sa@{AtBel@d[VvA_Q{Ica@`QqWwAiIjFyFpCjGn[e@vIyLpc@jOdRoOzr@Pbz@DhYhWpSpg@jHpPQvVleAv_AfBxOh|AlRvKkOy@nYb\\HgClx@{b@jNm@dZnT|AxK}FMrEyHjsBkYhGgFlUwFbnAl^fHaDjXzNbA^yHf~@bDvBmeAf{@lIAx@Y|h@cIhK|EnL`g@pDeJdJeYjEfI|JgKfJxq@}CAzKzHvAdU_MtRb@nJqFtVwq@{Bl_@tDdMkQpLf@nKpJznCdAnh@pAjMz_@oLvCrFdd@brBpJh]|Kz|@`NnGvIlSzPtMkAjQrk@lq@@p@"
                        ]
                    ]
                ]
            }
        },
        {
            "entidad": "11",
            "distrito_l": "14",
            "location": {
                "type": "MultiPolygon",
                "coordinates": [
                    [
                        [
                            "yi`|Bl|ugRto@hI~Yox@nl@lE{@pLiDre@jTW`BrQdKLuDtUpJhEtIyH\\mVbOMDuOjw@@wGjHkA|PlMna@oLjh@}QxKYdq@|s@rInGyDjk@hQFx]mq@~`@w]hF{BgIwO~BzClNwDjd@mRhUcBr_@q_@qD_Epb@qWfc@mKjJ}\\cDcJdLGdPeq@vd@iP~BoNlRy@pPrUtg@~M~Ehg@cDdIpD^|KkNdCi@vPuPzLrEvLoJ|HnNpGp@`Gwk@bWnOhQrQbDvNtQ|DqA{BxKrJzD_Ebb@{H|q@|EzO|p@}@iRzyBnFpj@vO_JvFrPrRrMrLx_@j\\~t@fg@|q@eE`@a`@xCsJcD{i@hMsYfTky@lGoGne@cBjGd\\fEjClKqg@@`AbWcHfA|Rbe@iIhU}K}Ekb@vUq@bHdMjJi@pWqg@jz@xPd[_g@dDoY}Lch@nO{GwAcWfHko@hAlEcQ{EwH`FgKuKyQa\\oT}B`JoMO{CbUnFxLmFjf@mJcBqNvKtAjG{GzJnVxl@xVzAzEbWeEvBqeAmLkEvT~B|Eaz@kBsM_j@oRKil@qEsXjk@uIuKsq@sSmY`Aog@}IsbByrA}d@y^}KiWud@onA}J{Fuh@sD{MiPwBeT{cAyVs`@}B}`@o`@kkBxbDqRkJkFbAm{@}QaTch@mOe@aOnEeIqNyHeF}VfH{d@yFqMiLmBuJ_WqLcX_@oIi]ke@yUwFw~@gWun@qmA}k@_Mcu@qL_ImDw`@mNyJaNqvA}Ue^Yca@sDxq@cYzb@cG~^vBpIsf@eXaBoOiJiGxBqYwK}Qy@he@i_AodA}k@wv@_nD}pAoVa~@iYlJiM[kSkIcOeQoK]e[jIqHvQg\\iHsFcVkn@iEqQwo@}Bgz@yV_MuYga@{Hit@Rus@fXqOb@wIwvAi~Ds@mBnQwYfLQbD}KdKOh_A}u@pM|CsErO`Z~e@jPqFlW@tr@xcAdr@Ifc@mTze@qj@ja@|l@xs@xXrIxv@cCzQfm@ve@n_@ri@fNp_@dx@`a@pu@tE`tAzZdRha@yMrQzRrKn]ma@rJs`@xNgQrMuGlKf@fZ{\\nRiJji@wClJlErW`d@eBho@bYB~PsXq_@wfBu@eZjCwTdm@`Gu@eW\\}HbOkKbTwC|AvCby@wVj~@}PpeA|L~|@gXkE}m@zLaqAdr@wTjOpz@``@eU|q@q@dm@yYzGth@~RpV|HnXkGbMgAt}AfPeBfG}lAdoB}UlV|a@fLmBtm@wk@t_@_^dW{KsKdu@jCv@faBaTxkBmVRjUwaBhZ@j~A}NvDlIrGwBrV_FdVo|@zx@zDjl@`mAhOdGmbAuFsWfEmvA|]qGjYuTfaAb@|GgGrFbm@vJtDro@Pvi@tAsKmq@fBeZ`WoQ~]fD|h@qx@~Dia@wGiNfFcb@}Nwl@lBaMhOXh{BzT"
                        ]
                    ]
                ]
            }
        },
        {
            "entidad": "11",
            "distrito_l": "15",
            "location": {
                "type": "MultiPolygon",
                "coordinates": [
                    [
                        [
                            "_~pzBvroeRh[_X|cAqWxb@_HhTtF|SVhOqMgB|SlKls@pa@dm@fUpPmFrDbP`t@xAzL~YhGcDjQ|D`P_FnNdc@zKjXcKjPGhDpl@~RnDf]F`[mJtS`OlNmTfZdh@_Hf@pH|a@kj@fEmIbFeQs_@_r@pTbMfVlNxp@~K`jCrHbtAjPd_@s^yBuUfE}StN_z@o@oPoK]oW_EsCfIkv@g|AcIbKjaAsDvWiPbJexBvDob@l[Qr\\iIr^nh@jJoXjBsOb\\bArQyNpMN`OlQzSiNpk@mLiAw]e{BuD`NbCl^e`@}CpAx^mFXgCxYwm@}MjHxtA}x@{@_s@j_@_Qsg@DgTki@_NcAvYZhF}SfCkpAs}@sy@tMzQpO}FtEkq@wJmHcn@vNqC|C_k@`Fmd@{ScUiAxLsEn[a^p`AgNdCkCbl@kIS_|@mHwd@jA}yDg^q@wl@~oAqgCsMoFv^iv@ySsAqk@zrAbOpCu^hx@qQbBca@eb@_LtKwMj_AckAFlR~bAgCxFiOE{j@rhAq^aNatAwc@ej@sRwFdo@mnAv@m]dHof@jE_P{Mc|@rIwIdb@pe@`EyKf]kcBsNeRd^gMh\\]zXqBpVgRhN^jQy@fi@gIl[uJcEuDvBoD`u@wUvk@sEf\\vC~XaHvBtB|P{Z`BvCabBcSp@if@g@rFpyAqIUh@fP}\\|@xCizA}j@QPun@s`A{@yAqToAkbAqGuW`A_`@zGmcAqEsSs^yLr@sEd@}QbFwOs@UkEcBwEmBlBuC|C_FhDcFlEmG~AsB~OeVfFwBbF}@k@i]jWkCk@kUQaHhJsAEsNAuFV{JfK`@dJ^xSdARgGd@gKr@kQVeDXaOrFsJrCoNlADDwCjAkLpAkI`DcShEkYrIin@`GeV`@{@bByM}Ouy@ns@hHv|@exCvC_KrdAzi@vIev@fRdGjViy@we@ePzUyZ_e@iQhU_o@fPamAj{AjcAjEdIhi@{JfPu]fi@ue@vQiKtJt@zJgYv@oDfUXxa@``@dOi]{@a`@nLhGbLmIfNs@RxKdU{^HqPx\\qWsOoUeX}DtCyVzg@cVv]oJfC}^sRhHzFo]dTC{AeIfPgOlPp\\bgAwBN}IfWQlLmJkHrm@~e@}ClZu@bBvGr~@gEbgAmCnYiSfU`A`Zb`@qZdNlCbOl[rb@jM_LjPjAuA|L|tAhjBx\\eSfw@cf@xNQbXnRfCcKrJcBxElHf]o[rTx]lb@lSlKmBzJel@gAaOdPiO|kAxU|MwEbUhEfSuOtNvIrHjZta@sAxGfa@"
                        ]
                    ]
                ]
            }
        },
        {
            "entidad": "11",
            "distrito_l": "16",
            "location": {
                "type": "MultiPolygon",
                "coordinates": [
                    [
                        [
                            "}ok|BncnfRvElBjEbBr@TcFvOe@|Qs@rEr^xLpErS{GlcAaA~_@pGtWnAjbAxApT~`@ldB|u@dh@}GfW{p@i@v@aZcwAlFeDwCGrEyODocBb@s`@hDgJfEhSenCymAiF}B~m@oSsJ}BgTwd@i@lTwcAlXk_@}cAjNmTfDXlGoOrAY}Eqi@dJoCeLyl@}YjDjr@sq@hKuc@sG{H}B}@mk@}ZhDan@yIsIwGe\\Bo[qM{SZi]}MmJiUcI}Eab@hOea@qkAoc@sRkOsTdFcKeQsTuLoAgVcfAxRkMzGod@zAqbAtx@uwBbS_EdBsm@aEyd@nHoGxTbSx`@mIkGuc@ScZdg@_e@gA_PjJ|BgJgE}FuWhWaCoTaH~OiR`b@`YfvAcNnV}Ntg@fD|JcVuN{Ry@qX_LwLwEw_@_UuRmNqEeGcPuW_IyBxCyLsNgSie@d@aJkCp@_f@iJ|PkH|@iI}l@id@kRm[Di_@iScTgG}_@_d@qr@c[sn@vJoJtAqOrTu@lHyMdQmI|e@{Gv]cOv]vUrLs@TnOrVv_@WrPlJnEzO}JhAgPdGiErlAqGv[~Dfi@nnAbA|gB{PfNYlUfuC~o@nsArZ~jArF`Vb@sFnaAcDfANno@xPxD|n@vi@lLzA[dc@tS|DhF~[p_@lAnd@jHdd@bd@rL_@tfBbb@|Oty@cBxMa@z@aGdVsIhn@iEjYaDbSqAjIkAjLEvCmAEsCnNsFrJY`OWdDs@jQe@fKSfGySeAeJ_@gKa@WzJ@tFDrNiJrAP`Hj@jUkWjCj@h]cF|@gFvB_PdV_BrBmElGiDbF}C~EmBtC"
                        ]
                    ]
                ]
            }
        },
        {
            "entidad": "11",
            "distrito_l": "17",
            "location": {
                "type": "MultiPolygon",
                "coordinates": [
                    [
                        [
                            "sre|Bni{fRdDvwAxBv~@aIDf@fQtJCzBhpAsIBbDhiA|GMlAjYdX{@j@jzAlUBcGzNvFh]gKjVPpYcQ|OeBnKvI~_@sBnf@zEvYgRh[qCxi@vCdE`f@?TncAmZhOiOYmB`M|Nvl@gFbb@vGhN_Eha@}h@px@_^gDaWnQgBdZrKlq@wi@uAso@QwJuDsFcm@}GfGgaAc@kYtT}]pGgElvAtFrWeGlbAamAiO{Dkl@n|@{x@~EeVvBsVmIsG|NwDAk~AvaBiZSkUykBlVgaB`TkCw@rKeu@eWzKu_@~]um@vk@gLlBmV}a@eoB|UgG|lAgPdBfAu}AjGcM}HoX_SqV{Guh@em@xY}q@p@a`@dUkOqz@er@vT{L`qAjE|m@_}@fXqeA}Lk~@|Pcy@vV}AwCcTvCcOjK]|Ht@dWem@aGkCvTt@dZp_@vfB_QrXcYCdBio@sWad@mJmEki@vCoRhJgZz\\mKg@sMtGyNfQsJr`@o]la@{RsKxMsQeRia@atA{Zqu@uEex@aa@gNq_@o_@si@gm@we@bC{QsIyv@ys@yXka@}l@~Dc\\r[ib@PaUpQuu@ln@oZh}@_KlQey@Qmg@|F_PpRiUxZyCo[iTrFedAij@kG_Vo^_]_AhXc`@~F}`@lOeEmNuIka@lOqW@zAsLbQcOsCqm@iUwd@tQao@ySoDoLrJ_WtAyLpXaFaAcImTaU}A{OnHzA{KrJcb@hPkNmKau@lNyDjY{\\mMgOeFrD_KcFuLkPfP{AdOtEdr@kOcRgP{Cml@b@mJjJ]|I}Jd@oz@|Nsn@r@uBfb@omAmEoS{NoRvJqJiIaLpMlBd[m_@rJyAjUay@nQeWx_@wSfKen@`TgWpa@}|@rBybAaDgQ_FmJqx@p`B{c@xVom@yO{cBvr@mUg[dBmJhT{KlOci@}HmWjGaIwZgUlGqk@bw@tApdAg[db@kMrIcIyG]uKcQbJua@}CcSav@_fAeEka@qQiIoCoWs\\{m@_Rim@GoOwM_PWgPsFaH{`@qRoRwFqX__@fMwOj[fJlOkG|\\hKlRJth@xRtFiAaJ{M~AaJpPaRjCcCoPqFsC{QvEga@_V_c@}VqIgW`FgFlBsElXkG}Fw\\qD_IkIv@c`@zXqEvJa^hQ_UaDw]|O_\\}H_ZrPz@jWpAtl@on@mKoQcI}rA|DiAQwU~K_@cGsUhPuFkDoLpByCrLvExC_IdKzJkCwNjM_K~DyQ~JNbA}]~PX`Hsg@pk@iBlFcXlQgW|ViBjGzBkAv_@~FvKpCa[|DwBrVbZzWhFdAz~AzHn_@iSrS|CdPpEObTeEdRma@fTqEdSuQO}Svf@scBtR}RlMBdJ|J|Iqv@h[uEzP_FpN`EnHuEte@q@zHfF}BpO`NxE`K}]bKbBrL`SWnZjJ|X{Dt[bGtJj_@lKfR}JlAoKzVrHbUuDxRxQjAvYxL_IdTbYcE|DdKja@_MxMvPgCpEkMvKpc@}Ixg@c[|WeQlImHxMsTt@uApOwJnJb[rn@~c@pr@fG|_@hSbTEh_@jRl[|l@hd@}@hI}PjH~e@hJjCq@e@`JfShe@xLrNxByCtW~HdGbPlNpE~TtRvEv_@~KvLx@pXtNzR}JbVug@gDoV|NgvAbNab@aY_PhRnT`HiW`C|FtWfJfEkJ}BfA~Oeg@~d@RbZjGtc@y`@lIyTcSoHnG`Exd@eBrm@cS~Dux@twB{ApbA{Gnd@yRjMfVbfAtLnAdQrTeFbKjOrTnc@rRda@pkA`b@iObI|ElJhUh]|MzS[n[pMd\\CrIvG`n@xI|ZiD|@lk@zH|Btc@rGrq@iKkDkr@xl@|YnCdLpi@eJX|EnOsAYmGlTgD|cAkNmXj_@mTvcAvd@h@|BfTnSrJ|B_n@xmAhFiSdnCfJgEr`@iDncBc@xOEFsEdDvCbwAmFw@`Zzp@h@|GgW}u@eh@_a@mdBr`Az@Qtn@|j@PyChzA|\\}@i@gPpIT"
                        ]
                    ]
                ]
            }
        },
        {
            "entidad": "11",
            "distrito_l": "18",
            "location": {
                "type": "MultiPolygon",
                "coordinates": [
                    [
                        [
                            "gba{BjvrmRwDrUmNxLyb@hIkR_@kKvA{GrCsAzLBVmBnLoT`QkYaCsDiB}A]y@Wix@}GouAgr@ol@u[yMdBkGvHkPlL{[ZcAjKrGdOpS^lT|AlXrKdEnIdNdrAa@|~@bVzlBwJzk@qMjS_Fzn@yMqL}Zdo@OnLiHhBiXaO{JpEoGkNqWpAiHuJkRy@yAaGfG{LyHoD_GtBn@wJ}EiF_GeArBeg@gJRmWjBqHhY{Qm@wf@u{@rBdc@cC`GuLfBkB~U}DeAp@kVmZaKgHqPaPiFaAtF}DeAF{D}KwClEsFuEsMsZmG|EgDcFuQ_Hv@uG{KeLrFaJqDk@q[}Lq@hGyH_AmKsFuIwF`@wA}LoM`HgO[mr@iNqO|JcOsSg]jIiOjOeYkL}HeWoY_H}QsWwa@GImnAmGjAme@kPmRvFuViBsh@g]iWs\\}]q@iVcHeF_T_LmIiI[q[fPxWicA~I{InNp@op@eL}SoUe@cWq^}z@m~@i_@uGaxCkY{eBpXmCdiB`EelAetDwZo_@l[zAjS{Dth@zPhXoyAgDcb@rIsEx^l^l\\`@zRc^~AgTb`@|Ik@cb@vGwU}Po[{x@gBui@y^kSfAgqAo_@{HeLmIsn@{Xof@qf@mDuA_s@`JsE{xCk}A~GiFcCejCiGu\\kl@ovAtFs[aNid@tDkQwEwGiHhBgFgT~VeLaO_JcHas@rAwsCYiUpfB}b@v_@qb@dZfEdqAnWz`AgIlUdrDjFny@le@yRXwaCrfCaV_GiX}ZoHNmOiOyKmLeWhQuQ_ToSfGsMgFi\\~Faa@{AgPwTeTeKy]iL}@i]oT\\gPyOiCiG_NeHeb@zKcVfC_g@tOol@lL_Mbi@iOhbAaA|Csq@dZgoAK}SoSeBeIiJbDoOaN{EzEiTqHdHiFqIcMyZrB_F}FoWcXhAaO~A_[}JuLlJhHlDH`GoUnJyNeIaVlFrDqL_MIwDmGyClNyGUy@xG{JdD_BlNsQbGyUGcA_GyOdDiTeMkPp@lFaNeB_QaN}BpBsI}Ms\\uCiF_n@tZuWqJeYrDwRgMmKtAiHfE{PoEgXyScYfG_RuCoIfLh@bK}L~EtBhMsJ|D_BnOi]nFqZyLFgEbQbAnFwFYkJiNcEt@gPOWga@oBsFzTuGb[kh@nTqRtWs[`TpFrQa\\nj@tBhFxNdBuMfOvGb^q`@bTcGoO}YnJoUi@cLzRid@Pcx@bmAyLwGe\\pNg`B_HfEar@ga@yBec@{XkCjFeIrWbAxz@oN~Hm`@cFsoApl@uYmAcR_[yb@kH_a@_a@gn@whBwk@w}A`A}WlKyTdbAkl@bJfo@dS`Bfh@~a@hRyHec@sk@lH{JcHcEW{OlFwaBxJsG`~@{Jef@qy@}fA`Dpu@sbD]mRvCb@tr@nYjb@uPrBoK~h@mb@ts@w]hf@uBpoA|c@|TkElpAybAhq@sb@hm@I|c@}RbGwPjRcCnJzChLsFIiBrVaIfs@kBzAtK|hEtEhAsLkGwA}@wa@u@}yArCf@`@_JfeBf~AlUakAqQo[j^bGnaBgNfWtd@zWle@iE|w@b[pYc@n{@|y@t@ds@qQ|u@j@ja@kHzy@qO`CoBoMsc@fa@qwAzI}_@z]oo@bd@mFiDew@wNe{@dHfApZoTiY__Baz@saD}C?o@uLckAbGJ~l@|EjTe\\|Yy`@nA`AuOyp@AbF_b@ez@rIaPq\\dKwVs@eMyT~Gl@rRqHrKoFgKoMl@tCyU{GeQcSgEz@sHa^ekAzGw`Bc[_SqUk@pe@}aAbi@er@osAg~EkGuUlYaArq@rStItKrXkk@hl@pEnRJrM~i@`z@jB`N~A]zVjHbTwVxRe@xUkOf\\o]jb@QhMtd@xJ~UoJzCtB{@h`Afv@|pAnOfTp`@aElVxIzUhE|GrAnOkMb^sCvh@rKlg@xFvUbSjCbLPfXzKhOpIt^aSpXhZmCxZlLvGxLcJhOsc@bFvDbWnLrDlUiBds@ij@tPmHrb@sVbd@yAx]gOrVlG`P@|l@yZ`WdA|HwEfSaOtu@oF~RjFhFbXwOrUOnS|H|YlY|XfRvFcAla@`a@oF`VqLnVlGvE|k@`FzBrMwDjMuDrGjCl`A|o@mFpVuUrTfCfJxRtItgAnI~h@tOjQjOwI|ZlB`Ern@sKxr@d@`t@bb@qFxNDja@xm@xN|IvMMvGmZzOcP~s@nBro@|RjUtUbLrb@de@fXpHxMvi@wAvNkk@hKmIeMaHm@kMtIb@pL~e@j\\|Bh`@sQna@CrQiWQyTaLiRmAoHrGPvi@t_@bY`OhZmY`UwHhg@}Nz\\p_@dRdSfTlLz@pLdQtNyJxGl@fG`^sBxZs\\rKeAhQad@|FeExd@pEdF`q@a@dL^v_@vTb@hbApPdOhH_Fp@aEzW`FlTeAvEv^}U|Gcn@iEcLld@cI}@hCv^oC`JkPrJfC~YxX|Q~MNtPoHjNpGjI|Fp_@~Bpe@xb@vO_AlHoEzw@cv@`~@jJpJdQKrPyZhCqKxI|GrNvT|K|@tFyJnJtI~JrZ?l[f[xWzMzK_OlKqSzZmFfi@pLiClPaAdZaUjLpg@no@n[lBdb@dZfViDnL~FxT_S`OlEfHjN|Bf_@ad@xOwArb@pGbWjUpN|YxB~ObPlX_OdSOxDhE|MLnWlPzSxf@{@dSmIpKkb@xDkp@rTuI~ObI~ZuIbi@vAtNgI`FeUCqYl[|XfInNfZ`Gj_@nRxJyDvsAjQ~HwPlXItVwNhWe\\|h@xJnQ{GjMwX`HuLwAqK|GhQpn@lZxS`H`UsQ~MErHzb@xVjU|DvQxs@sAtt@wKwC{Ko]sJsAyh@~t@cUxI_NqEgGL_P`\\~v@hqBnQlRxL~gBbi@pCfTvt@dz@oO~NlF~@`KmJ~LpFv[aQ[{LwMwXtCm^fXgF~TtLjo@}CvRhKdNxe@`I~Az_@y@rOkJfM{b@iCaOiRuMb@~W}`@}CwCi|@mQmP|Q{Rdk@rm@fy@bS|IvEjKcBbHmF|AiWkKaQlGaH}MmUlO_]dHdB|\\qI|Mg]oA_]eQcSnKqH}A}K_b@cb@~ImEpXuOvZcRxOm\\lC}i@}NcKzH_Jrd@q^o\\wTy_@uCgUgGoD_MXkDhF`Gr]kBlOiJbH_J_C_h@ak@}BiYgOaDqR|z@vL~a@{SpPiQvi@mFxDyHkCmJuVmUjB}ByKfHkZeMmDeEy@cJz\\yC~TsJ`KbI|QiHnH{o@qt@cW{o@mM@y^{TqQ`CmDfGkJjq@Qjm@wj@j[}r@vMfB`dAsBnZd@rd@dc@~u@wAp^rEvn@dGbNlN?nf@eLhe@}[xNuNhb@lFdIbW"
                        ]
                    ]
                ]
            }
        },
        {
            "entidad": "11",
            "distrito_l": "19",
            "location": {
                "type": "MultiPolygon",
                "coordinates": [
                    [
                        [
                            "cnp{Bf}mfRzj@shAhODfCyFmR_cAbkAGvMk_A~KuKba@db@pQcBt^ix@cOqCpk@{rAxSrAw^hv@rMnF_pApgCp@vl@|yDf^gDjpC{HaAgCbt@tMhOwNzB`XbOoM[SzH|DRwZle@dVl]tB~XkjAkQypAjCuGrDsG}BsDrW}Q`ShAdTc]zBfu@nQdoAlKjQqBxg@rKzaAwPr@|sAQneBwAxcApJ`gBzBxl@xGn}@pe@hx@rp@~I`c@eNh]fQmIjr@hSbGhTgJr@`m@dE~NrLvE|Cl@vhBza@sAlGc_@vOlIjRn`@lO~L~KkB|[rKzSnVvpAzBjLdOrw@mMzb@oo@|aAzBbN}QdTwMAw]xSyb@zAgBzf@~TnVpJr_@rOUbUhYdFsB{Ynf@jDr\\uC|Ldo@bq@vm@hMbEvh@bf@rxA|[wKrJ|IhIh\\mDzHyVxKi^lq@cIz^rL`t@vgA~z@lFnb@hR`p@lPtE_@`b@wKpN_g@xDap@rg@}AhMe`@r^sn@tM}F~W|\\iEnArJ|QiNzJv_@eVhFyh@th@yXzW|Fn\\en@nGvPt~@nXtaBnK|zApCz~@pFlA{AhM|c@xNij@nWxDzIsDhAl{@v{@lKvTA`ZcKvAsFkWc`@kAiBtEzP|PxV~s@~\\qCoMnq@xAlSfk@|WzWbW~Z~p@x`AxKtXiMor@||@ut@peBiO`c@{a@`_B}d@xgB|@rXbJjTyEraAqSpG_d@_Aga@xQs{@sIcShHwTbOyl@`G_LlMyFcBcPxLcN|Ym[bN}IwMym@yNEka@pFyNat@cb@yr@e@sn@rKmBaEvI}ZkQkO_i@uOugAoIyRuIgCgJtUsTlFqVm`A}o@sGkCkMtDsMvDaF{BwE}k@oVmGaVpLaa@nFbAma@gRwFmY}X}H}YNoSvOsUiFcX_SkFuu@nFgS`O}HvEaWeA}l@xZaPAsVmGy]fOcd@xAsb@rVuPlHes@hj@mUhBoLsDwDcWrc@cFbJiOwGyLyZmLiZlC`SqXqIu^{KiOQgXkCcLwUcSmg@yFwh@sKc^rCoOjM}GsA{UiEmVyIq`@`EoOgTgv@}pAz@i`A{CuB_VnJud@yJPiMn]kb@jOg\\d@yUvVyRkHcT\\{VaN_B_C}EjEwTpeAlLdEwB{EcWyV{AoVyl@zG{JuAkGpNwKlJbBlFkf@oFyLzCcUnMN|BaJ`\\nTtKxQaFfKzEvHmEbQjo@iAbWgHzGvAbh@oOnY|L~f@eDyPe[pg@kz@h@qWeMkJp@cHjb@wU|K|EhIiU}Rce@bHgAaAcWpg@AkCmKe\\gEbBkGnGoe@jy@mGrYgTzi@iMrJbD``@yCdEa@gg@}q@k\\_u@sLy_@sRsMwFsPwO~IoFqj@hR{yB}p@|@}E{OzH}q@~Dcb@sJ{DzByK}DpAwNuQsQcDoOiQvk@cWq@aGoNqGnJ}HsEwLtP{Lh@wPjNeC_@}KeIqDig@bD_N_FsUug@x@qPnNmRhP_Cdq@wd@FePbJeL|\\bDlKkJpWgc@~Dqb@p_@pDbBs_@lRiUvDkd@{CmNvO_CzBfIv]iFlq@_a@Gy]kk@iQoGxD}s@sIXeq@|QyKnLkh@mMoa@jA}PvGkHkw@AEtOcOL]lVuIxHqJiEtDuUeKMaBsQkTVhDse@z@qLol@mE_Znx@uo@iIi{B{TlZiOUocAaf@?wCeEpCyi@fRi[{EwYrBof@wI_`@dBoKbQ}OQqYfKkVwFi]bG{NmUCk@kzAeXz@mAkY}GLcDiiArIC{BipAuJBg@gQ`IEyBw~@eDwwAsFqyAhf@f@bSq@wC`bBzZaBuB}P`HwBwC_YrEg\\vUwk@nDau@tDwBtJbEfIm[x@gi@_@kQfRiNpBqV\\{XfMi\\dRe^jcBrNxKg]qe@aEvIeb@b|@sI~OzMnf@kEl]eHlnAw@vFeo@dj@rR`tAvc@p^`N"
                        ]
                    ]
                ]
            }
        },
        {
            "entidad": "11",
            "distrito_l": "20",
            "location": {
                "type": "MultiPolygon",
                "coordinates": [
                    [
                        [
                            "kmiyBj`mgRw@uAinAaOeHpRm`@aBkXo`@]_VuHuTZqg@gPjD_CyEeJzFwG}JeLFo@pkBaLj_@jLzNaEn^{LhWSrBlAhf@`Jbc@mFlLlAhVuS{Cua@xHrBrTs[rbBpQ`gAhArv@vCh^fXb_@nFb}Ap[z{@~G~b@QlK}g@~a@zG`Xd[kBPgM|K]dOz^wWb}@wGveAOfMkVzB_Pf\\y@tYmy@fVqAdRtPnJ|PdDfChZn`@sKdTjN\\zLr}@rPjExItf@}F|Sw@[vGvKbFtHvXjMzGfLs^JwZjb@yt@lLgGGsMrQtJpM`e@rC_AoEoOhBaFpEpDj]`m@hDjTl]n^dy@ljCkAjt@aq@nqCaFxxBmS|@pGzi@}ADaCR}B`@oCh@SFgB`@?TCb@BxACnBa@zC_AlB}@p@kBWeBoAaCwB}@uBy@qCiBgFu@}AKSO]uAmC}@sB_BqDiAuAe@m@yCsBaBk@k@AgBCuAp@{@x@a@`@}@`CO`@q@fBeAvBdBdGXxAHrBTzCx@`EbAbEd@zAOtAa@h@qAv@sBvAeArB{@lBu@lDJvBr@vD|@xCfA`Dz@hCTv@`AjDx@fCnA`Kb@xEDrDw@tDm@vDvFhMcHrhAlMb`AgDxZcErMvKp\\`Nd~@uFvNzCfZsCvBxRje@i@nIqHdCHbKf]bm@cEbMxUhd@zInz@tT~`@jF`[rBfUu`@tb@qWnGsw@fp@ef@fg@zB~\\_GvCbBlPyM`PwFMgZr]}Trq@c@nSmV~YgCxCuTwq@qc@ou@}RiHm^{m@iN_^aDm[ueBPaGjHaUhDt@mCwKaCzBwJkM_RqlArq@uc@IoYe`@yBwd@hIyh@cZcIyn@|Q}EoCoYvCcDtIaPNoWp]}oBn{CmsAy{@m_BelAygAsyD}TxZ}Vzp@eg@|a@{JoSkLkGyk@eQ}Zy@sy@zq@qHrP}t@wr@tt@qeBnr@}|@uXhMy`AyK_[_q@{WcWgk@}WyAmSnMoq@_]pCyV_t@{P}PhBuEb`@jArFjWbKwA@aZmKwTm{@w{@rDiAyD{Ihj@oW}c@yNzAiMqFmAqC{~@oK}zAoXuaBwPu~@dn@oG}Fo\\xX{Wxh@uh@dViF{Jw_@}QhNoAsJ}\\hE|F_Xrn@uMd`@s^|AiM`p@sg@~f@yDvKqN^ab@mPuEiRap@mFob@wgA_{@sLat@bI{^h^mq@xVyKlD{HiIi\\sJ}I}[vKcf@sxAcEwh@wm@iMeo@cq@tC}LkDs\\zYof@eFrBcUiYsOTqJs_@_UoVfB{f@xb@{Av]ySvM@|QeT{BcNno@}aAlM{b@eOsw@{BkLoVwpAsK{SjB}[_M_Lo`@mOmIkRb_@wOrAmGwhB{a@}Cm@sLwEeE_Os@am@iTfJiScGlIkr@i]gQac@dNsp@_Jqe@ix@yGo}@{Byl@qJagBvAycAPoeBs@}sA{aAvPyg@sKkQpBeoAmKgu@oQb]{BiAeT|QaSrDsWrG|BtGsDxpAkCjjAjQuB_YeVm]vZme@}DSR{HnMZaXcOvN{BuMiOfCct@zH`AfDkpCvd@kA~{@lHjIRjCcl@fNeC`^q`ArEo[hAyLzSbUaFld@}C~j@wNpClHbn@jq@vJ|FuE{QqOry@uMjpAr}@|SgC[iFbAwYji@~MEfT~Prg@~r@k_@|x@z@kHytAvm@|MfCyYlFYqAy^d`@|CcCm^tDaNv]d{BlLhAhNqk@mQ{SOaOxNqMcAsQrOc\\nXkBoh@kJhIs^Ps\\nb@m[dxBwDhPcJrDwWcKkaAf|AbIgIjv@~DrC\\nWnPnK~y@n@|SuNtUgEr^xBz]jxAhVrbAhYzXrJv`@`WnPbh@mOzArNpSfX_^xBl_@`s@|k@oOhO|n@dLbI`QhRwB|DeNuIYtNhLlUEvRnJlUzHcJhNjB~b@~Fl\\eH|p@hS~Kpq@wB|Ryd@|^{HqCyW`a@ok@@{Jxk@hu@z`@fe@mN|YtOjMyTtS`OtWbEuAcc@hBmRvH}CEcLsP_NeIaX`IPzPqMnZhDy@_OrExIvF}Ol]}CgIjc@jLhz@~S~Qln@zFfMe]fh@dXzD{CnGxBfWtt@wl@`]sBrP`Ii@bDrJ_DrXz]~D`RuCuQti@jZdNzs@~DH`Sxd@fAxX_Bc@tYjNvFw@fQ|Dq@mC~LJ~Fz`@yA~HqCnb@tEff@feB{BnOnDzBxTaGhJ~WkOxH_ApTcQnLoLv_@}Uhl@mY~HgLpYoLq@sIj\\rAl_@mMHmDxk@uPyAwVmO{UjKiJeO"
                        ]
                    ]
                ]
            }
        },
        {
            "entidad": "11",
            "distrito_l": "21",
            "location": {
                "type": "MultiPolygon",
                "coordinates": [
                    [
                        [
                            "q_s_C`{bkRxe@xTuPfn@rTpNkD`RtFfCqChOxF~BmB`IwQld@`R`K`QbBix@laBiQv^}Xnk@qV|h@s@tAg}@sMmMzHcHgB_KeEaS{RuFfAnJye@_IgEsH}DmHsCoE_Ay]mKaQoKgAmAkOuNZaGdDyThAkIt@mFbDqS`Lai@k@_I`Di@nHwm@j@_NfFou@jAkT\\`@~AaEnOpHhJtG|BdBxJmOtFxD^k@tBsD~EqIp@d@vGuK`JcOzN~HnJyLfGwCtOxHtNa\\|fAto@"
                        ]
                    ]
                ]
            }
        },
        {
            "entidad": "11",
            "distrito_l": "22",
            "location": {
                "type": "MultiPolygon",
                "coordinates": [
                    [
                        [
                            "oy~xBdfedRzYuUrQeBjJxQyFv`@bYTi\\z~Bzv@mCv\\uAtH|CfXeEfShnA_G`e@xE~V~QgJp_A~FlN`\\|mAb`@rOa@`LmHxYIfIkSvMiDeLrp@lCnI~C~ZoPvClDhKgX_Cca@fJmCrFyMqAiZ`@}NcZySwFc}@t@{xAiQaq@`KyJ~W~CnElD_B_@fh@dLE|I_`@rIZb[fl@~UnPjRjp@{Fvp@mc@zUwE~PbR|o@ba@v_@kNhoA~Kxj@khBemCkRwt@kPo{AiNe@oB_Gc[pDuVqEeDroCsKzzAnJpi@bPiKdHtWli@fs@vz@p^hGnQlR~Aro@_Bvx@~pBb`@|n@fIh`@xKrfAki@zfAtGvQfc@lTiJdg@pMpb@wIxCuq@no@`NxXlG`NpdAvdCxFle@}@ziArvAeD_@xXq@pqBlOlw@wKbSo|@p[jE`c@ig@vEy@vRVVrHnUeHrL@f\\_J~HxCb_@fS|[dEvSwCdLxW{AdHtKyPtSiD~mAzHg@`@du@|Bdd@_YcO}JrPE`X{WpBLyHcJp@cOrEgAbIi]fTD|a@rZpg@{AbmAmR~Nyb@bw@sh@pb@_Mzs@v~CbcH_LfTpQjk@gQbLuBpRxT`[{eBx^uKcCwDbTbJbsAvM`T}GbGePlAoHfIok@aPwChMyFNqTkf@yMeFqE_b@cWki@}NaNoTeAma@_G}GoG{g@h`@u]aXuGfJgZfEoJc`@gYqi@nLw_@bQoL~@qTjOyHiJ_XyT`GoD{BzBoOgf@geBob@uE_IpC{`@xAK_GlC_M}Dp@v@gQkNwFb@uYyX~Ayd@gAIaS{s@_EkZeNtQui@aRtC{]_E~CsXcDsJaIh@rBsPvl@a]gWut@oGyB{DzCgh@eXgMd]mn@{F_T_RkLiz@fIkc@m]|CwF|OsEyIx@~NoZiD{PpMaIQdI`XrP~MDbLwH|CiBlRtAbc@uWcEuSaOkMxT}YuOge@lNiu@{`@zJyk@nk@AxWaa@zHpCxd@}^vB}R_Lqq@}p@iSm\\dH_c@_GiNkB{HbJoJmUDwRiLmUXuNdNtIvB}DaQiReLcIiO}n@}k@nOm_@as@~]yBqSgX{AsNch@lOaWoPsJw`@iY{XiVsbA{]kxAkPe_@sHctA_LajCmNyp@cMgV~q@qTdQr_@lIcFjj@gEqH}a@~Gg@gZeh@mNlTuSaOa[lJg]G_SoDiDql@kPFkXbKec@{K~EoN}DaPbDkQ_ZiGyA{LcPat@lFsDgUqPqa@em@mKms@fB}SiOpM}SWiTuFyb@~G}cApWi[~WyGga@ua@rAsHkZuNwIgStOcUiE}MvE}kAyUePhOfA`O{Jdl@mKlBmb@mSsTy]g]n[yEmHsJbBgCbKcXoRyNPgw@bf@y\\dS}tAijBtA}LkPkAkM~Km[sb@mCcOpZeNaZc`@gUaAoYhScgAlCs~@fEcBwGmZt@_f@|CjHsm@mLlJgWPO|IcgAvBmPq\\gPfOzAdIeTB{Fn]rRiHgC|^w]nJ{g@bVuCxVdX|DrOnUy\\pWIpPeUz^SyKgNr@cLlIoLiGz@``@eOh]ya@a`@gUYw@nD{JfYuJu@wQhKgi@te@gPt]ii@zJkEeIk{AkcArEc`@mpCmDeEgAhAiKyHnAN_S|C}v@v`AzAbnA{YpBo`@`Ph@vRg[aQoRsTkYyRwMtJFw@gIvImDrMwn@fHeHwb@mM}g@zc@aWf@mGy@_U{\\|MuP|^umAwQqMm]qk@zM_MLwU`IwFjIrF|b@bBeLwfAc[aOu|AgeC_`@mo@yv@_EyEtPoUg@{JooAoMmAsLyq@t|@BtHbL|Mg@{@sEoPc|@wRpFyDyZbReAqt@qzD_A{OtY`BjMcFfg@?~JmJr\\cDhj@xz@hI{nApx@tBdJ{[dL_I|MxDbLmBr]Rva@mIh_@_Lzd@tDbaCw@zmAKdc@cFvRcYrG`K_CsPjd@a_@nkAiM~pApAxEcD~Jyd@hFeq@?czBlZuoAvNqa@|PkiAvd@mJbTyXpKs@zEiI`RQiAcEv]cO|V{V~OiMdl@{@hg@oOdv@`MdoA{D~^sSd_@ea@xIiQ`AitAdDtJrd@ag@dh@igAqy@u[l\\cdB|v@ciCvRzJyAlRrOjOmDpLpNpEfLfQvMYrDkJvXte@jy@q]~c@~KfHrQ~HlHpZ}\\jRfDbIgX`J~Vr\\zI{Br^|TwQlQ~UdL`DvUfbAxUpFpFrQ`OvDhMpz@vRaThy@uMsDi]vH}D}BiQ_LqJtgAoQzCbNrm@taBtJiGtfAsMjd@kHf_A|fAlT[lM~a@rCfg@`{@fYnNO`\\bY`OxAp^vEMtJ~LrCyF_]rFav@nk@b[jKge@sGa`AoJoEb_@e@rLvHjb@Ixb@y@jlA|c@vNNdAbWvj@xKrJfFtU{JjbAuAdEeDwDgJlAeWbXgZpa@aLlYkTnqAw[`EaNyE}QfLs[zKgHnMj@dRtO|eAdY~A~YwIfPAle@b\\fWyD~XnOz`@mCrc@oInKnIt^yLtTf@bhAGnb@`Mf_@jJyAsDjYtk@qPleAviAeFdWzLn`AvChZmG~[lGfG_e@|oAdD`T"
                        ]
                    ]
                ]
            }
        }
    ],
    "parametros": {
        "e": "11",
        "dl": "0",
        "df": "0",
        "m": "0",
        "s": "0",
        "l": "0",
        "mz": "0",
        "layer": "dl",
        "db": "proceso",
        "schema": "suavecito,public",
        "geom": null,
        "padron": null
    }
}