{
    "status": {
        "key": "ok",
        "msg": "",
        "kex": ""
    },
    "distrito_l": [
        {
            "entidad": "17",
            "distrito_l": "1",
            "location": {
                "type": "MultiPolygon",
                "coordinates": [
                    [
                        [
                            "cvorBvmn|QpT^oJpp@jCbLl@pOHxP@tN}Hh@lCnIcJlKmBpA}EzGMtWcR|BFjIeMlNgLlRmQnBAp@RvAiEpK}MnBsM|Ec^`Ik@OscAlI}BtPcRu@kBmJq@Jm]hLeJvOwDFYyJqU~Nyi@bTyCzEqO_Buv@~SmOqLqXfDuEec@_Aqc@_CcaAiAod@}@{^g@uS}FgJpBqLrf@svCzmBu`Ahl@yHpa@YzkBvBjI~IdFr]xM_G~L~E|RrGxIWtTjZ|Y~e@p]xJ"
                        ]
                    ]
                ]
            }
        },
        {
            "entidad": "17",
            "distrito_l": "2",
            "location": {
                "type": "MultiPolygon",
                "coordinates": [
                    [
                        [
                            "cqerBn`r|QrErEvLoEz]jAf]`@}C`PcC_ByEe@{MzTeIoCoL~EyPnAq^vSBhYyM`A_DnDbSfy@_rA`fAyNzGxArFxZhjA}@p[mQbVdDh\\hGjn@}`Azr@uSroAgkBzlCoG`Wey@|JyMseB}]}s@c^o@gr@mn@ajCiCwhAlR}h@m@kSeGo|@ft@cKmRoJ`b@mPc@mMiKcAmKmbAyb@bJgeBpoA_cAjy@_eBDqw@@UpXgDlOpLtv@_TpO~AxC{Exi@cTpU_OXxJvDGdJwOl]iLp@KjBlJbRt@|BuPrcAmIj@Nb^aIrM}E|MoBhEqKSwA@q@lQoBfLmRdMmNGkIbR}BLuW|E{GlBqAbJmKmCoI|Hi@AuNIyPpUMlAmJ|]rCn@eH|CcJxNaBlGTr@fFzO_APm@rSbKnb@eUdS~FbFyQhUhEnLkC|Ieb@rg@fAKuKhSa@~D~AkDdYhFvVmP`q@rGQdNnOs@hF"
                        ]
                    ]
                ]
            }
        },
        {
            "entidad": "17",
            "distrito_l": "3",
            "location": {
                "type": "MultiPolygon",
                "coordinates": [
                    [
                        [
                            "ilorBdcl{QFnJGrBcAfc@mHhUbCti@wO~P_LvAtMrRpx@f~FrObClr@rKbi@hiBzYz[pGvSZ|KiJ|\\pFlB`FzQcAbEwFbRet@r_Aeq@f{@sXl\\}@jA_GjHeFrGqLfOsIrKgGxHyTp\\{Xve@uGhMqGfNrb@hAtL}CbKwFpH_BtDdApBNdP_DbFChQk@m@hXf@pEcBdVw@`SrUf@xQvAdK`OxAwF|Kw@lZThHrAyJfIgKrh@kHgAa@zImFN_HWmIqAy@zKd^Es@pQaIpDQl@{O~@s@gFmGUyN`B}CbJo@dH}]sCmAlJqULm@qOkCcLnJqp@qT_@q]yJ}Y_f@uTkZyIV}RsG_M_FyM~FeFs]kI_J{kBwBqa@Xil@xH{mBt`Asf@rvCqBpL|FfJf@tS|@z^hAnd@~BbaA~@pc@tEdc@ATEpw@ky@~dBqoA~bAcJfeBsPht@mwAlC{i@kWcj@pTsaAua@cZoLuvGmjCwdBsq@lrF}`JtYoaA^s{@HcPJuVxM{eMhlAi~BheCg|E|Zyv@ybD{gB{~@a~AlUwaD~NiuBiD{cAfw@oOdFbHh_@{[xTc_Amw@c}Bjb@mfCnj@sA~tBkcA[q`@tLghAB]zw@oa@bE}KlhAan@x_@nUta@_j@`XbLpC~fAlm@rHlu@|]rYbNll@tC_Gt_@rd@pSzo@jAzFt@mD|_@BlMzf@bUyIvLnCp^sKzBtBvKpf@tM}Sza@lc@tMlr@h{@fv@zl@fCjWtCv@gRzk@qC~g@~Rt@{T`LyLvr@bd@l[pOtPlI~Ix`AvEvq@vAoi@ps@gUftD}BtKmWrHwGkItA}QiRsm@ib@i]{f@_PmQvXe[sSqXuCaHxw@nQlOpGzR|S~KtGpGlT`@rJiE|I~DdHiHnAsPwJmW`o@nj@"
                        ]
                    ]
                ]
            }
        },
        {
            "entidad": "17",
            "distrito_l": "4",
            "location": {
                "type": "MultiPolygon",
                "coordinates": [
                    [
                        [
                            "soiqBhl|yQqVcFy[vEuOdVy@za@rV`^gYjnAxEnJ}Vbz@bDjH{c@h`BgaAgK}JzDySd_@hZvqAci@~`Age@lrBmhA|JqSsEo`@tSkP_BDxEaLb_@yNdo@uFruAwDvd@sFtUgBbPs@zGqWwH}J_DuWoEsZoJ_U_@oZvOkWqOuCcLzAy^hEsKvGu@sSc`@qVEur@{Aw]sIhC|C_IfZLpk@bNp^uKpTqI`@mCaCcWcJmIjUaK|S`s@xXjDzH}K|KwXnW}{@zv@gm@ti@|BpRnWzTaDvAkHpElFtXrE`ByCfMxIlXxEr_@m[s^_IzAeBsL_NgMaWqWnJeYiAwNyB_\\w^|Cya@uFeYjm@cRaHoUsi@uQsDaKsIiv@mMoSrRwPaFeKxHkDlOi`@jAfR{k@uCw@gCkWgv@{l@mr@i{@mc@uM|S{a@qf@uMuBwKrK{BoCq^xIwL{f@cUCmMlD}_@{Fu@{o@kAsd@qS~Fu_@ml@uCsYcNmu@}]mm@sHqC_gAaXcLlu@rMbk@_MfaAih@bWmVht@lObEuFbqAsfBqGqUx[yOg]_x@fAcI|Gyc@~[iHtPnEtTepBxMu_@`R}OsN_NuMy]rAiS_V_b@_@uN~JoRcBgKlFkVe@}^}@aKcJgGtBoRcK}p@yCovBvJwt@lAwb@RsGgdCstAiLuc@ecAob@mfD_`CutBw{EtJe@nw@IriAlf@hL|a@nOdNrzAdd@vnBlY~R`^tVvBnU~QbTzk@rY|Ytv@bAb`AzLxKjC`JhNxNl]jYxPtYt{@fb@zSjS|`@`h@`DzQqHt]fCvjAzn@jk@yI_j@}x@sWyJwr@fI}n@{Hm]gN{RokCzFom@tb@cRdp@vO`g@rXxo@dn@xy@dIpKdYlHJnO~IlB~Q~ZfExGrSj]hAxGNtLvYvU|Qh\\pHlDbQzVgKnKsApDpLhLaDrGhJjH_Efk@hk@tVnMpClEsR`J`@rKjQrPfVy@cBbPfKfDt\\rA`_@~Zn]{Lnb@zK~J|Ih`@QvaAlc@nt@`m@nf@~H~J}NtaAnNjO{~@fNtBbr@tdDm`@vgB"
                        ]
                    ]
                ]
            }
        },
        {
            "entidad": "17",
            "distrito_l": "5",
            "location": {
                "type": "MultiPolygon",
                "coordinates": [
                    [
                        [
                            "iofqBtoj}QeeA|TsbA`Tq_@dIqp@zBgEr|@_HpVhAbStUpB}o@ny@f[lgAmQhb@ahL`cFiu@qOiT~@eh@qI_cAnByUmBoD}]o^z]qc@kFafAmH`To`@rA{WoHcp@_sBwZaTqhE|^qp@ypAat@gRuYcj@eb@kJ}\\_TkWnGaWfkB{lCtSsoA|`A{r@iGkn@eDi\\lQcV|@q[yZijAyAsFxN{G~qAafAcSgy@~CoDxMaACiYp^wSxPoAnL_FdInCzM{TxEd@bC~A|CaPg]a@{]kAwLnEsEsEr@iFeNoOsGPlPaq@iFwVjDeY_E_BzXcAj@nd@Nz^LjEzc@w@rwA@m@wZJu_@pTt@fg@`BRuAzNt]jQ|AzOfAfaA|Dj|@jKHSJPr\\vOvNwDoE|i@eAp^cTfWdHfh@uIzGkRzJmPzIkZrPmRnKsHnEBbCbDnNm@n@Cr@YnJBzADTwA|EnK~K~AjZrDbk@`x@jBbU~@zVuAh@gIfTeJzHGnEiP~C~@|BjCpr@aZ_A}Izc@sU^sLtISfDJl|@l{DlgAwYxV|DxQ~oBn{Ajg@zQu|BtjAyJr_B~@pEeY`VxGnYbINtLfMu@zPtVil@va@li@d_Ade@vuAnCvkAsWzXqj@qIcf@|dBcL~I_t@}E"
                        ]
                    ]
                ]
            }
        },
        {
            "entidad": "17",
            "distrito_l": "6",
            "location": {
                "type": "MultiPolygon",
                "coordinates": [
                    [
                        [
                            "g}arB|ui|QwBpFfFnB_HfViFf[tDzCkFzC_FsAAuImMkFqBfNom@rv@qAfPaMq@{XbAiS`@JtKsg@gA}Idb@oLjCiUiEcFxQeS_Gob@dUsScK`IqDr@qQe^Dx@{KlIpA~GVlFO`@{IjHfAfKsh@xJgIiHsAmZU}Kv@yAvFeKaOyQwAsUg@v@aSbBeVg@qEl@iXiQj@cFBeP~CqBOuDeAqH~AcKvFuL|Csb@iApGgNtGiMzXwe@xTq\\fGyHrIsKpLgOdFsG~FkH|@kArXm\\`BxP~Lj@bC`H`Gq@wBbMtC`D|ZjLzARfGmRbTdCdH{DRq@nKVVhIvNhIjMDiB`AnTxE|LkA~l@hPh_@vFnZcYxI?tWgGjMaWnc@dSeX|WeI|IOvVpj@~IhFiDmVj\\"
                        ]
                    ]
                ]
            }
        },
        {
            "entidad": "17",
            "distrito_l": "7",
            "location": {
                "type": "MultiPolygon",
                "coordinates": [
                    [
                        [
                            "mbqqB|k|zQePch@\\kO}l@iAm\\hC}D~HnIzJoTxIoL`T}EbWaUrU}GtDmOqCoGtFiFj@wFfBrMbRpKzP~DrKnB~Uw^qIeAWjFrFfIlkAoGnaAsL{AoDfJqIjw@cY`aAcUpo@ynB`}Do\\nAkScNuKnAsVjLoV_p@oc@kFmB|GmJh@iHkGtWcbD}MyJySy_Agk@|GyKjQuIiDt[ufBySc\\yEs_@yImXxCgMsEaBmFuXjHqE`DwAoW{T}BqRfm@ui@|{@{v@vXoW|K}KkD{Has@yX`K}SlIkUbWbJlC`CpIa@tKqTcNq^Mqk@~HgZiC}Cv]rItr@zApVDrSb`@wGt@iErK{Ax^tCbLjWpOnZwO~T^rZnJtWnE|J~CpWvHr@{GfBcPrFuUvDwd@tFsuAxNeo@`Lc_@EyEjP~A|EzW~Ei@?zEtk@r]tPzAiCzJ|HuAjGpKtGmEeA`KnEaExd@`s@dHE|GfLrZtJpIRxEnK~FeAxi@pd@vn@{GtR`Fl^pTkb@|j@cj@jn@mSxdAcAwJgEnAyBxVaM~QlDbCuBbEsLO_FaMqTgEaGiKcT}f@"
                        ]
                    ]
                ]
            }
        },
        {
            "entidad": "17",
            "distrito_l": "8",
            "location": {
                "type": "MultiPolygon",
                "coordinates": [
                    [
                        [
                            "eehqBlql|Qnk@nCh^cQll@iY~Xx[~Lu@`FxF`[|]hLvMsU[{~ByCbGvYaLjq@xXb_A}RzVaMo@mVlrAfGvf@mRX_En\\tYfe@_]txCujAxJ{Qt|Bo{Akg@yQ_pByV}DmgAvYm|@m{DgDKuIR_@rL{c@rU~@|Iqr@`Z}BkC_D_AoEhP{HFgTdJi@fI{VtAcU_Aax@kBsDck@_BkZoK_LvA}EEUC{AXoJBs@l@o@cDoNCcCrHoElRoKjZsPlP{IjR{JtI{GeHgh@bTgWdAq^nE}i@wNvDs\\wOKQIRk|@kKgaA}D{OgAkQ}A{Nu]StAgg@aBqTu@Kt_@l@vZswAA{c@v@MkEO{^k@od@`Mp@pAgPnm@sv@pBgNlMjF@tI~ErAjF{CuD{ChFg[~GgVgFoBvBqFlVk\\iFhDqj@_JNwVdI}IdX}W|d@_@tZqu@j_@_b@lj@__@jb@f\\`aAbYjw@fq@zk@?zzAo~@dUgElkAeOraApBvJ`She@l`AnSxmAbOl@fRhM_Urh@ym@|YsIzW}d@~E{Clb@~dA{\\pa@sDb^y_@pq@kECzDz\\vKpFzWbFV"
                        ]
                    ]
                ]
            }
        },
        {
            "entidad": "17",
            "distrito_l": "9",
            "location": {
                "type": "MultiPolygon",
                "coordinates": [
                    [
                        [
                            "ygroBvun|Q?|h@JhxEd_@dBaTdhEaTgCvBtXcLj]dF~TyLx_Bre@fOkc@zwBauB{B_Jl|Aqw@fxAvh@tc@_Hxa@mV|c@gDrJeh@|[avAvKi\\`J}eA_XbBl[_h@|H`EhYq{Anl@k|Aj~@kIe@iGz_@s_@ds@mQf_AsXtl@_PfCyg@qJk\\wAyGqFqm@okAspBfrBpQpjAcPsKaOpEuTtPkbCrZwS|QsNfBmQvEgwAt_@eg@zUcz@hMerArUcTpPuW~Ao\\zLgKfTq{@bOmz@xU{i@wb@kYqGm@gKuNsQszAekAe]{Tcb@sJga@ReZwRwIK_^oc@olA}a@sKoLyIdHgJkIqSeBoQnGsT}ImZxCmJkLir@aCyb@q`@~A{W`hLacFlQib@g[mgA|o@oy@uUqBiAcS~GqVfEs|@pp@{Bp_@eIrbAaTdeA}T~s@|EbL_Jbf@}dBpj@pIrW{XoCwkAee@wuAmi@e_Ahl@wa@{PuVgMt@OuLoYcIaVyGqEdYs_B_A~\\uxCuYge@~Do\\lRYgGwf@lVmrA`Mn@|R{VyXc_A`Lkq@cGwYz~BxCrUZpXzSjQaF`Nkb@iKe`@pCyHbWfAfEcYlGLjFbPvMlFjFoMi@uAhV}[_@}@{Lw[`A{a@xM}Dt_AQ~y@tRro@zJkRhTsVhw@}@tJ_D~LcDnOvN`GnSaQd@hOzOmDlEdFL\\bBfDxHoEoAlItJ[lEr^`g@nXmElDtJjXkJjj@_C|PjQh^nC}KtE~DnBuCrsAxlB~@`OkuAiGaVcqAq{@aEhR`cB{h@~x@jR|C`g@hS|k@nqCc@zItOtRvx@bg@njA~b@tb@~OnGaOfU{h@jY]r[yK~y@d\\lg@ql@jEsS~Yo`@lE~DbZsNfJZfc@nKpc@wC~OvCzTtX`R}EeVak@qU_UzOqPbJ_OxFh@~F_t@dHy{@mKan@{}AyaA{o@eA|i@mMvdAav@jP_@nZoc@l}@sIzCeLztBl|CzL_DdwBmj@_m@sxHhv@ht@~`Bl}AzxAhW"
                        ]
                    ]
                ]
            }
        },
        {
            "entidad": "17",
            "distrito_l": "10",
            "location": {
                "type": "MultiPolygon",
                "coordinates": [
                    [
                        [
                            "_e{pBhah|Qv@dBu_APyM|DaAza@zLv[^|@iV|[h@tAkFnMwMmFkFcPmGMgEbYcWgAqCxHhKd`@aNjb@kQ`FqX{SiLwMa[}]aFyF_Mt@_Yy[ml@hYi^bQok@oCcFWqF{W{\\wKB{Dqq@jEc^x_@qa@rD_eAz\\zCmb@|d@_FrI{Wxm@}Y~Tsh@gRiMcOm@oSymAie@m`AwJaSsaAqBmkAdOeUfE{zAn~@{k@?kw@gq@aaAcYkb@g\\v_@ao@_Een@cKsPnF}p@bUgZpf@{z@jh@iGb@sDqKcAbZe\\lSUz@y\\hc@mKgNuy@gQ{ENk]jKeIjj@qlAzIuSw@aPiOwQqe@{Tge@~Qc^yCm`@bDs}@cKxnBa}DbUqo@bYaaApIkw@nDgJrLzAnGoaAgImkAkFsFdAVv^pIoB_V_EsKqK{PsMcRvFgBhFk@nGuFlOpC|GuD`UsU|EcWnLaTnTyIoI{J|D_Il\\iC|l@hA]jOdPbh@bT|f@`GhKpTfE~E`MrLNtBcEmDcC`M_RxByVfEoAbAvJlSydAbj@kn@jb@}j@m^qTuRaFwn@zGyi@qd@_GdAyEoKqISsZuJ}GgLeHDyd@as@oE`EdAaKuGlEkGqK}HtAhC{JuP{Auk@s]?{E_Fh@}E{Wn`@uSpSrElhA}Jfe@mrBbi@_aAiZwqAxSe_@|J{DfaAfKzc@i`BcDkH|Vcz@yEoJfYknAsVa^x@{a@tOeVx[wEpVbFl`@wgBcr@udDgNuBmJuL\\{Laz@ap@~n@goAfPzY~c@~DvBhE`UkAtPlUra@zB|g@bl@dEhOwDvMtTlDhItVbBqFvKzKbT]bc@kNhHpExgBmk@xORvb@kU_CoI~EdB~GgErHfDvh@eQxFsRhIs@hCoIfZfF~PqK~p@hAxE|G~BoMlIvEnPyJpOhApKgIhLdHhUaRfp@}PrR~R~HgIh^A`HlRk@jPzL}HzMvFxLeLrOnCpBcDkFkIpVz@lQeTvYxC~Hn_Adj@b_AxCdTapA~Dy@bg@vGdXfKzj@?h^al@h`@ugAz~A}aAhoBezBrqE}U{Br@uh@kXe^gM~@cWgNaXs@cjB`wA{z@dp@gL~IBfV|PnBz`@h\\yGbHjKdBqDpInBzLkIhG|EtNkDfRpG|Q|@fXmEjIjCtNuLnQl@tOqIf\\n@|xAdElUmHbk@mErf@|FjIBvQ~IcOA`h@oJhVvAtGvLbDpO~r@du@sTrs@cm@vj@jQxc@vr@lf@vg@gdA|f@eRrRwFdYrhArsBx_@xG~\\~GfL_JfjAk{@fsBoK`[n}AqWndC`\\pe@bzB`Kdx@b~CuC~@mdBxZyNzZ{Z_CuDzCjXzd@gGxHhE|\\sG`e@|EdH}N~N_CvXarArZeh@j@}{@zZgNhGc[bCib@pSqs@dEew@tS{Ihv@u`Aj^kTxaAnp@fgBay@viDr[lt@"
                        ]
                    ]
                ]
            }
        },
        {
            "entidad": "17",
            "distrito_l": "11",
            "location": {
                "type": "MultiPolygon",
                "coordinates": [
                    [
                        [
                            "{tbpBha~|QaR|E{TuX_PwCqc@vCgc@oKgJ[cZrNmE_E_Zn`@kErSmg@pl@_z@e\\s[xKkY\\gUzh@oG`Oub@_PojA_c@wx@cg@uOuRb@{I}k@oqCag@iSkR}Czh@_y@iRacBp{@`E`VbqAjuAhG_AaOssAylBoBtCuE_EoC|KkQi^~B}PjJkj@uJkXlEmDag@oXmEs^uJZnAmIyHnEcBgDM]mEeF{OlDe@iOoS`QwNaGbDoO~C_M|@uJrViw@jRiTso@{J_z@uRw@eBs[mt@`y@wiDop@ggBjTyaAt`Ak^zIiv@dw@uSps@eEhb@qSb[cCfNiG|{@{Zdh@k@`rAsZ~BwX|N_O}EeHrGae@iE}\\fGyHkX{d@tD{CzZ~BxN{ZldByZtC_Aex@c~CczBaKa\\qe@pWodCa[o}AgsBnKgjAj{@gL~I_]_Hy_@yGshAssBvFeYdRsRfdA}f@mf@wg@yc@wr@wj@kQss@bm@eu@rTqO_s@wLcDwAuGnJiV@ah@_JbOCwQ}FkIlEsf@lHck@eEmUo@}xApIg\\m@uOtLoQkCuNlEkI}@gXqG}QjDgR}EuNjIiGoB{LpDqIkKeBxGcH{`@i\\}PoBCgVfL_Jzz@ep@bjBawA`Xr@bWfNfM_AjXd^s@th@|UzBdzBsqE|aAioBtgA{~A`l@i`@?i^gK{j@wGeXx@cg@`pA_EyCeTej@c_A_Io_A`c@`FpY_LfK|DiC`W`N}IrMbBmFcMlCeCfJ~F`Ng@iChQva@sL~AuYtDaCnDtQvg@gi@vYhLn_@zCrJuZna@_AlImFbGdX~SoE~RxZ|NfNdFyDtXcAvM_N`Cwe@nJyG|GhA{Ex[nXoCjIkOrFL~i@p_@VqTnI|M~JXv@}H_QcYdN{Kt[dCtUvQpMaFrPnIjB{E`I|ExBvWzMqMfSpDnEuJbO|ID~QrI|CzHmA`JoTrB`X|X{IdOpIe@{UnC}CnJhCbOn`@|Xi^lQg@zG|OhJdAfHwXn^mPdHvEcOhXdMtLnBnc@cIl_@yExAxB`GaV|ZaH~]iP`SuJ`Af@rFwMyBkN`KsPQyM|DmAnIoNkA}@jLmn@ZTzE{OhEcLyJcPhEch@|{@kMdp@vb@~WkMpi@qVrPjIdUhC|IwW|g@}DT}NmRiQzTcJ[xEhRcSnTyNi@oDr`@oZrFy@pWkKoDoEhD{KbS{NxBeHfP{LuIaFnAuAfKoUqBtDl`@eUbLlFlLWzYwGjQBvPdGxKgAhPpQvMtWuFtk@zOBfJpH~Ej~@co@bQp\\gAtPr_@h_@bKjg@eFhPtEfZ|Hl`@iEbJ|@~NpJrIfJ|n@~Xhq@nOniAbc@|MxSrv@~WzNxFgCzFsLvCpVlFxClzArBhD~N}FbRbZdZbo@vr@jeBno@rLtrBcBjgAdjCjz@aDpm@lElUaGzBfCtGuIdX~SuAaEpm@vEvLlOrIs@|SaIj@jI`LoH`QhJrFd[Wf[tIpDnShUcB~AdNtRjJhGvThRjA}@|ZnJ}Dt[jUw@na@dRwFtCfW`XnJxLt~@d_AeEfa@b_@V`JoMpl@y^bUqU|Asi@yd@ss@jG}D{FtFgN{BkFso@k@qJ~HoBfQen@fQt[za@aBhL}sAuOg[d`@yt@n`@gKtIiCnRJ`TrEbHaw@`l@kAbGsb@tCsRxMdCbPgs@n|Aq]zK_Ys_@aa@_CuDfFvFzVgVzQgMlCkOvOkq@}Kof@~^{WoFgJpCu@pJ|GbIhSr@~@vFoHtIbJzHcMzMt@vYnDfQnNfNaChJ~FnEh@nLxk@zf@lOp[|v@hARdd@thAxIsfB|aC{xAiW_aBm}Aiv@it@~l@rxHewBlj@{L~C{tBm|C{CdLm}@rIoZnc@kP^wdA`v@}i@lMzo@dAz}AxaAlK`n@eHx{@_G~s@yFi@cJ~N{OpPpU~TdV`k@"
                        ]
                    ]
                ]
            }
        },
        {
            "entidad": "17",
            "distrito_l": "12",
            "location": {
                "type": "MultiPolygon",
                "coordinates": [
                    [
                        [
                            "civqBzrr{Qkj@plAkKdIOj]fQzEfNty@ic@lK{@x\\mSTcZd\\pKbAc@rDkh@hGqf@zz@cUfZoF|p@bKrP~Ddn@w_@`o@mj@~^k_@~a@uZpu@}d@^oc@eSkM`WuWfGyI?oZbYi_@wF_m@iP}LjAoTyEhBaAkMEwNiIWiIoKWSp@eHzDcTeCgGlR{AS}ZkLuCaDvBcMaGp@cCaH_Mk@aByPdq@g{@dt@s_AvFcRbAcEaF{QqFmBhJ}\\[}KqGwS{Y{[ci@iiBmr@sKsOcCqx@g~FuMsR~KwAvO_QcCui@lHiUbAgc@FsBGoJao@oj@vJlWoArPeHhH}I_EsJhEmTa@uGqG}S_LqG{RoQmO`Hyw@pXtCd[rSlQwXzf@~Ohb@h]hRrm@uA|QvGjIlWsH|BuKfUgtDni@qs@wq@wAy`AwEmI_JqOuPcd@m[xLwr@zTaL_Su@pC_h@h`@kAjDmOdKyHvP`FnSsRhv@lM`KrItQrDnUri@bR`HdYkm@xa@tFv^}CxB~[hAvNoJdY`WpW~MfMdBrL~H{Al[r^xSb\\u[tfBtIhDxKkQfk@}GxSx_A|MxJuWbbDhHjGlJi@lB}Gnc@jFnV~o@rVkLtKoAjSbNn\\oAr}@bKl`@cDb^xCfe@_Rpe@zThOvQv@`P{ItS"
                        ]
                    ]
                ]
            }
        }
    ],
    "parametros": {
        "e": "17",
        "dl": "0",
        "df": "0",
        "m": "0",
        "s": "0",
        "l": "0",
        "mz": "0",
        "layer": "dl",
        "db": "proceso",
        "schema": "suavecito,public",
        "geom": null,
        "padron": null
    }
}