{
    "status": {
        "key": "ok",
        "msg": "",
        "kex": ""
    },
    "distrito_l": [
        {
            "entidad": "26",
            "distrito_l": "1",
            "location": {
                "type": "MultiPolygon",
                "coordinates": [
                    [
                        [
                            "_ktdE|ug|TlfElxCyMfaAqbA`pD_k@vHaQcEm_@`[eg@|NyiAa\\mvA_{Aom@sOi~@sCiNsc@ue@sQwXsYe_@qScb@lm@}BdOiM`KsSgCus@ofAuv@|X{ToSoJoYkFglAvKuc@gNm\\xImj@kFgwAgb@um@tEgGda@lJba@cl@hi@epB~D}_@mDs]ya@yd@{IanAco@ol@{McAgUoNjd@uvBpK{i@jFwXxHm_@`Luj@dKug@fK{g@xHi_@xIqb@rMyo@la@pMtHw`@nSvG|C_OcTqGjAcG{E{AlAaG~EvArJof@za@xMv`@jMnh@nPfe@~NzIlCfOxEpj@nQ}~@v{EgK`h@|LxD}J~g@eF`WfuA~c@gPr[sYhk@{L~Uj@`aBpIdGk_@tbByAja@pdBbpBnEtg@fwEfoC"
                        ]
                    ]
                ]
            }
        },
        {
            "entidad": "26",
            "distrito_l": "2",
            "location": {
                "type": "MultiPolygon",
                "coordinates": [
                    [
                        [
                            "}u`~Ddy`tT_VhIyKsEnWih@kEsMwM~Cf@hLzH`B{ChNwj@zJya@ts@ua@lcDoF|dAaFrvAbEjJsInnAih@hl@mJf^gXlG}Zvo@eMwv@hGsTjYs[yGykBpSwFel@iIcBxGjOvMyI`Fg\\kTa}AeAsd@jOwExOaWoOoO~Ak~@z_@{aAvKgj@nR_^hXzHySmM~AuHeGuBvTad@`DyKyDyGvKcW}@cCuDfGeJ}@_XeGkBaNzg@|P~LyGbFyJeCaSpKqd@bD_RkGsBrHkNiOwYyAcw@vPqd@nF{MmBwjAxg@izA~wAcQdZsTjHo~@bqAiq@tuBkYdj@qN~o@_]lq@}Ipe@mgAjcDsOty@gCpn@gGbF}Jln@_N~RcFw]uEdJj@nw@cXyIgH_L{LfAeGiSu\\uc@uVpGrDpIzMm@pXhbAmKt\\xIjBdFkIvIj[kExnAmj@loB{[ji@gUru@_a@l\\M{\\uDcCeE~WiInDtEhFcAbKae@`QyKgKoB{q@uFTiEls@sg@rNn@xT|M}NrUeAhJxD`CpMnPSbGx]mOzJrEvDtUeEpWto@rEj[gXdb@y[wAaTfIsAxGkr@wSwGbBe\\ii@wY|EuEcCnNsXyJuMwG]bF|XmQiGuDfF|OzHn@xTdEtDxKaFhJnAzLvQqR|Ra@gFaVyMqSfEgGuMwGbBxKdi@`SqT~P~CzNdT|NrA_AmVlPtIo@rDv[lGrDdK{JpLoRPhKvUaStKiIqEtDuP{N_UuWmOyKeCwHvCQjV~QiMbD`P`}@hdAqw@`LeFqEoBqf@wHgOuWkG_PrTrBnIdXmLjMdX~@va@rWtAdDpEkKbF}O{DpBvH|NfGuCrHoQnHwJoc@k^aIwHhR}NxBcAlEfH~Gl^gUrEnAxJxYdGp^ug@fa@ag@w_@gHdFiKkB~@hN|`@d@a@pQyJ`SpBzC|MqPvYtAnAfWfHdGOeSxI}FNfWdGjNrCcBeGk[jJeNxK}FdFnEdE}BsCcGpRgE|N`H_@{GtE@zNhKcDfJhMpZa@t]eVvp@gHbBuD}G_RgCdYl`@}N~RaQzJeGiBka@km@uDlI{MgGvHtUiHbS{Kl@tCuPcDeOsBjVwFn@rBrUh]pBvHwGdYzQlMv@uBta@qe@xZ{KkFma@fYmOcLim@xIw\\{Q_c@uJeGjEhK~GrUtAlQz]}_@jPci@gD^~S}N`BsDsMgHlMn@pMbVkDxHnAq@tH`TsX`Rx@rVdL`e@eQjM^`lAdW~PnJjMkMfpAyKfFoQv[yJjLjB|MeNpw@{HpTfTjPx`B_wAvnArBjNuEvCrDbXhJhBQf[hIkE^qQgI_PjKqHsCoZrCq@`A|Kh]xIdEaOiIbBiLwQho@uk@hJrb@vGUsCmo@~PhOfJp^wHfNrCfBlMyS`D`TlMcB`@iNQhc@iJdNzN`DbBaGdF|`@bDnAdE_GpC~OvG}B`AsUeIey@f\\tk@fGt@{Kya@_B{`@{\\bIoBms@}OqRp@{KmNy@aUqRdGsHwZwIcDmNzJqLla@iLnOyOho@mW|Png@liAd~AhJ|CtVuOcUiGzLaFd~@zp@lN|TrZfjAuEdFfGzToPne@wFrDi\\gPeYd^mMt`@Abh@gHbWwHpD}s@ij@aBrHdl@~b@wH|Fpf@fHtE}FjLec@aBkg@~OgZvGpAjMzT~u@nP^|KiJxOgXtSO|OzKv@n@gJ`R}J`Sy[rg@lC^nEaSpTcCd[vHbG`@wTbVoe@PnErC_Ca@|OwG~g@bDvHbVx@?mEkMqEp@ay@gIuUysAic@eFsQhImMttBjfAzq@iChKvDfHrQpVpoCuUdpA`CbvAgGjqBtM~f@tBhfF{fBfiJijCt}Di_Bb{GwcC~_E}yBz_C}n@hD}|AzlEcvCfhFyLlyAslB~hFou@jRgkAzfCwTnmBki@lkAa^pi@yKmNui@l@ch@foB{hEpeDea@baAsMdo@uk@`sAcj@zt@sQf}@iSrmBdRbfJka@jcB_kHrlJy_@fgAgRfhDXpaAiHfi@mI`S{zCjnBylBraEsIhk@yElyGsNb[uSeA{eBfaCyaCht@iLpaAkk@lyA}e@zV_jAlB{gBlb@lAh[{Xx@cy@oCoAeMpVm}@kh@vDgQbYkp@~l@ocApHs{@wYwKoc@ki@_`AyXkI{}AeC{QbRoaBzd@}|@uQgp@zZ{qApTkl@|ZwJh_@mV`W}{@~l@kRz@_HeIgEqm@eRum@{t@knA_^kM}a@zL_j@vDceAkKsU}MsaBhcBcq@{{@koAx_B_E|RwPjUMf@yl@lv@_CwCs}AtqBafCb_D_JjK{YPa`Bkr@ocAqAiIeGwf@ebAmqAodAklCqtDcc@iCu`BkuBkd@uY{vA{a@{KtHcc@kGpbAapDxMgaAmfEmxCgwEgoCoEug@qdBcpBxAka@j_@ubBqIeGk@aaBzL_VrYik@fPs[guA_d@dFaW|J_h@}LyDfKah@|~@w{Eqj@oQgOyE{ImCge@_Ooh@oPw`@kM{a@yMsJnf@_FwAmA`GzEzAkAbGbTpG}C~NoSwGuHv`@ma@qMva~@ignEngIul^~gIybAxMmTpn@zGvj@uQjYpB|xBvbFru@wR`j@om@nIks@liAmy@vu@mB~[jLpeAkZ~e@oh@bXc}Ajk@myA~f@ixBzLoKdV}Eno@YkF{TjDov@qD}w@{EwYePsY]o~@mU}d@dLif@eCydB{T}[u`@{Igw@eqAzfAzJbi@aj@jXhQve@Dlv@hWfr@ihAlq@iXd~@nZf`@~^lp@rbA~NsFbFiKtMgx@jPm]zLkGhw@cCpu@qWnHk{@l|@cdBtm@_|Cxa@{v@ekBou@q}AchBz}WunRrGie@fhAc|CfkAex@lRyp@vw@m[fW}@da@u`CtYqe@bd@sTl^y[hi@wKtc@cArf@sa@ra@eEhnDn~@lg@db@hiCco@hm@cd@xh@ySnn@sLzx@lJp_@iDnm@zQ|j@bDvrB}BhpAzx@fx@pfBpsAvdBlQrJdj@kArj@lNddBtNrpBbBzUha@|NvA~o@eRpu@wBtYjHzG}Nn{@~UlMeEtYrGzP`MxTfe@xIz@xR~]rVtBnl@|~AlgIuzMrsIisHruLymS|aObbIfnLhyWq]nZbJcj@yKGkg@lYxEcN_CoIzb@_l@qBoEsi@tp@{g@}[dBkI_XkXkLh@q~@kXeoAiFyj@vCgW|L{~@bH_p@hQw}@HyYfCiHtGyaAmDst@~Mih@sm@aRjCka@oHlDm]a[|\\sSxE_e@kEqCcGhF}Nv`@ob@cDcC_MdMiAy\\iNqJgFhA`H`XeDpDwKkKaI}\\cCbB|Kbq@}Ct`@eLqN~Doi@{M}DuKqVgIgCtMn_@|RxIyGtKTjb@kN{@uA|FzMdHuChEpRtw@{HzN_l@dZmOh@{x@|YkLvBaF_PuUhCqLzZgWvEsFeGyWpJkTj`@a`@xP`Rg@s@rDq^zXsSxEfNxQ~BxP{`@js@wIyD_MxN\\rH~SzI}D|g@nLaNdAsPgRwb@hLnFjKyBfK|H_EuUfk@m~@hLnB{Dx[zQuo@xg@{SrDjFiBfVrHtQyT|]ca@|uAm@rm@qJja@cu@vpA}Ox{@mKxJaIdj@gh@zmAqx@l}@o_@nRkp@qA}KlLkk@fNm[jS}z@bpBn@lEtTaMi@dg@zL|Dkc@|l@{\\|LgHkBat@tKwDvG_a@lNhLhGrb@oVx^fI_Xlh@yCfZaUyApC|GbWlCiExSfHDfCsTv_@tWxEcJmNuEkS}Ud@{S|KaRfUoOreA{UfIlF|D|`@yBz[cNnXdScIuLlm@jBrY{LpmA}IhQiCb[l@zOjLz@mA}OjGyWsDwD|LeIjBhg@rFdGe@qv@cHaPRoQpQ{A{MiKrGyx@|GiUxLzDxC{SxKnBcFmJnMqKkTy^zOs`Ax]jD{@oQyL}HzOa_AmFig@nN_Jj@si@f`@bRl@p{AsJ~j@xE~p@uJhv@wOtg@cGd{@yxAlkJHx`@gP|j@wZbiD_JvW_BdlA{HtOeJraAk@nz@wKrmAmJbRab@nJb@yGnOkHrAyGwSiaAjRa{@fVcQfDsTq@{iAbFdGhImDaUuJwFvCm@rnAqi@f|@aLdf@e@vXpF`X_Izg@uDjM{[jCcBdJhEhgDrQsShOcgAcNyr@j\\eLhL`DxLzHpDf[_Dt}@ka@zmD}SvvCzFbdAij@|pC{_@pp@"
                        ]
                    ]
                ]
            }
        },
        {
            "entidad": "26",
            "distrito_l": "3",
            "location": {
                "type": "MultiPolygon",
                "coordinates": [
                    [
                        [
                            "gnyqD|s~kTebAv_@yr@xe@m}@v|ACvP{S`j@mFpnCwFxFg]uaBuJrNtHp{A|Qjp@qNnVhNzNnAvNuEjd@{Wvy@xXsF~BqThWzT~CrXf\\hz@Ifj@nw@dWoi@lFsHj}A~Ocj@~TqNqMvcAwsAjkDgaAthByzBj_@kyAlk@g}H_uDmzDmuAywAwAyrAzSku@tu@gQhb@{h@xzB{\\bj@qm@`b@abAbRi_AoC_y@hL{cB`mAyzDhzEi_@lT}cBvhBu`@`p@_p@nHsJvJya@pHiu@~i@}hClg@_aAnkAmd@lRkgAr_AfEnj@wv@nsAye@dj@qlBx_@}aAlFmz@~m@szAry@sdAd\\au@p@cwB`aBwSl`@qi@j\\ey@z_AipA|m@}sAoCceDpa@ih@nTuv@ji@ih@zs@c_@dlAa@l\\{c@faApYfiDqNp`@ap@fl@ez@gGizAgWez@gAoi@pPynAkEua@}TecAgKc~@nJ{eAfd@}aArDulCz_@uhB|u@cc@vJeeE|Aa}Bm]c}AdHuxCsNcnBbBmy@jGapBvb@suAzl@qbAxl@}}DvmD_lAnpBca@|yAr@pmBxF|Fvt@eD_T|b@wU|CqEz^eB{R_LyJiHt@kGyR_[cQ}|Ckb@}MzGohAwHgpCvAwoDnOm{B`[qdD~kA_IQg_HdcFghDvfD}g@zo@el@x`@o}@peAmj@fmBeIfhAwaB`z@aoDxyA}fDl~BckDxuBu_Bdv@o_A~`AsdEzcBsjDp|@gxAnUc_CtNyy@dMyUiDinAp\\o{D`lAwl@l[uu@vNuQeEap@}g@ivAci@siHm`AsrEwReT{GmxAlCa~AqJeqA`IgWmE`nA}Mb~AJ_m@kJanAuA}qDtt@a^tOis@rk@wqAf\\}w@xb@oxA`e@kdBn_@yg@kJgHeRdCy[|h@uStq@eEpPkI|f@an@~PhNdBgVnMcJlJkU~{Ag@`zAgXpn@s[r_@mDhHkIqo@qI{YtGlI}r@_PuLkrAlgAgnLiyW}aOcbIsuLxmSssIhsHmgItzMol@}~AsVuByR_^yI{@yTge@{PaMuYsGmMdEo{@_V{G|NuYkHqu@vB_p@dR}NwA{Uia@spBcBedBuNsj@mNej@jAmQsJqsAwdBgx@qfBipA{x@wrB|B}j@cDom@{Qq_@hD{x@mJon@rLyh@xSim@bd@iiCbo@mg@eb@inDo~@sa@dEsf@ra@uc@bAii@vKm^x[cd@rTuYpe@ea@t`CgW|@ww@l[mRxp@gkAdx@ghAb|CsGhe@{}WtnRp}AbhBdkBnu@ya@zv@um@~{Cm|@bdBoHj{@qu@pWiw@bC{LjGkPl]uMfx@cFhK_OrFmp@sbAg`@__@e~@oZmq@hXgr@hhAmv@iWwe@EkXiQci@`j@{fA{Jfw@dqAt`@zIzT|[dCxdBeLhf@lU|d@\\n~@dPrYzEvYpD|w@kDnv@jFzToo@XeV|E{LnK_g@hxBkk@lyAcXb}A_f@nh@qeAjZ_\\kLwu@lBmiAly@oIjs@aj@nm@su@vR}xBwbFkYqBwj@tQqn@{GyMlT_hIxbAd{e@q{}Bze@k|Bvl@srCxy]asaB`sJ}cd@n}_@o`gB`mMowl@dfGypXzQfUvSjIxS~k@bl@hn@lu@j]`M~g@hD`l@pZtd@tRlIt_AuAzKcKf[unA`BoMsKwaAwa@{g@n@oQxJwTgCon@tf@cl@rlAj@d|AxNfp@bNta@jUdb@|BtuDtuD`\\vSrO`Sl[hEjHlIzq@jyEvnAkvC`RcSbQvC~Ac[fEY`aA`xBfl@fz@fU|JjcApCzi@qEzJ{GzUybCkGuh@hK}WhfA}\\bm@tS`[la@lK|B~MgFh\\go@lgA}Tnn@gW`Pp@xV}Grq@eSxeBwz@`^|BxUvKvf@tGnMaOjJXjmBvk@~rBaWpQg^leA_[tSeRto@{CbuCs`Ada@pHmKrXzI?db@_[pl@YvFsHgFeNtCqDfc@jAnMkMrE_gAlLq\\b`@kIb_@kUxVyC`P~B~g@bf@|h@xWn[VvTeF`m@xCd}@pPfkBnh@h|A`r@hpBolAhUvSzpAp`@vTnX@|Vn\\xG|v@_SjYp@ro@_jAthAl_CzqBgeAfs@{v@|Jb^o@n\\lKzb@t}@iUvtDy[nh@htAnrA|eA|KtSqBbRzWzZfOtuCaV|lCdn@jd@jd@xn@zItSxDjx@dRt[zc@vf@`\\bRzVf]dPnw@xNtyBfRfa@peAxaArOlX~cAfl@tqGodKjIslCnz@dYp|C}qFbn@pWh`@pE~MzMtYz@hk@Nxd@|GhaDgsFdg@ovBxdCxyCxeAuy@bj@jTtq@jG`j@qYtX`b@dWv_AhHjdA~Nzr@byB~tId}CoA|ZjEpm@zVlk@_G~\\bFpOeBtr@so@ra@X|i@f]tc@tKhH~JPfUfGvKb~@po@toAtChsAnfBfUhMxdA~UnMs@|k@wKxf@YdEeJsC{VvGcJfUnPfe@|Fvs@qXjw@da@|h@hl@lwAba@daA`q@hfB}cC|eAhcAfe@zR``@{^zxA{~CxXnLjWx^~l@xR|KfYh_B`~BzJtKdTdBpn@ga@`zBkU~O_ZdDq_@uB}`An^ea@vaBmIhdAze@fU|BxGwCaf@rjBKdh@q\\t}@}A`V`CvNp_@dXtGjO~@rq@b\\~\\lPja@uQhaAhUnz@oGdZzDdXtmAneArN|EbD`Arl@um@|JqZte@gBvtJ{`I~j@_PnKadA\\gfAdKil@|~@zc@jw@xSz`CjM`HwF~PfE~|@sO~aDpjCvThG|\\vhApXhOpJdC~a@asBx{Dd`@rOdKlA|Hjn@tQ|m@dw@vfA~[d`@~zEbxAd}GzeDli@hJ|T`Aph@zrB~BrBvTnjAp|AbhBhvAdKnv@hu@v|Azl@hc@teBh^vq@`}@bgAYbVhEf}@`iArQpv@sbG|xZtT~VztChjAteBb^pwCl|@jvA~UbjA|pAtiBnrCpk@|p@bq@rEp|@nW|`CtLvwDrhE|pAlo@ldAxItiA`@|zBud@pwIrf`@xdA`kW~oCprF"
                        ]
                    ]
                ]
            }
        },
        {
            "entidad": "26",
            "distrito_l": "4",
            "location": {
                "type": "MultiPolygon",
                "coordinates": [
                    [
                        [
                            "efp|Dzr{bTlUxMrPjUhGhnAr_Bn|@bBrXgVlQij@~cAdRrp@bBnmAgYjnAfSxo@yJ|o@`@r\\zIfr@fUp\\adAbxAtPxw@n[dr@kL|_AjIjYb@tl@{c@nfCft@dsGiRlnBdzAdfHgApaCjW}[zpBghAfKcSbHvKLlg@ddBx]rrCgQdr@cZvXDd\\rIvi@`i@vY_JwFis@|z@yc@zL{AzYjJ`SoM~fA`\\~PiT~Muj@zOiXlaAwqABk]pWrObMiFd]dCx^dUhSoK|qAhh@~MtQ~MnBx_@lYpQdh@kC`ZaVxn@zUreAtWnKjXsKrr@~CbPaTxKcDjQdX`Fzd@n~@x\\lLdL`A{`@wGqPrUs]~QtDvn@kBzOsUjhA{I`i@_q@ri@eQdUUrJ~Ln]bExVgE|BeHsGga@fUut@iJqZlLsWsGc`@l_Bs[|N_qAb^}{Dvd@}cFqg@cbCnVgsFkG{^f_ByaCyEg`ElNoc@}@qN~H{HdBmf@hK{HfBoPhP_JjHmXpYvD|Vxe@}F`NfFlAfMsKtOgAhOfLc@nNhVfThxAjRpnCohC~R`Kb`@rd@rAn\\z[dd@vjB}{@f`BcVzd@zW~Nj[zPlKjAf]zs@vf@p`@{qAyEcy@|Q}OnKe[vr@`Tb|A||BeAzLvLfk@`Gr@zPqOxm@_MxJsKxd@`BdRsMzQfTtU|AxO~Nla@l@|Ild@sIpUgNlJjBjGeG`DeAhKzCdLht@wKtdAWnz@qa@zTgZrLp`E_o@hnFzGvaAL`sBpObXR`T}D~Sgf@tPqOdSmKhw@eSpr@ckFw]ojEzqCieC~_G{fDjyDid@lh@sLse@wF~]g`@hRc|@`IcRtMyd@k@gVze@Fps@gFx^sl@lpA}e@p}A_Lpa@_h@px@eFzReAtbA|d@d\\bEvQzVdVoi@p_B}UmAu\\gPgv@`a@oOfSeU[eAbLod@{E{d@rGiPnJuEeH]bRsG~@kCmE_PnLaCtS{GdD_^~{HwtDx[u}@hUmK{b@n@o\\}Jc^gs@zv@{qBfeAuhAm_Cso@~iAkYq@}v@~Ro\\yGA}VwToX{pAq`@iUwSipBnlAi|Aar@gkBoh@e}@qPam@yCwTdFo[W}h@yW_h@cf@aP_CyVxCc_@jUc`@jImLp\\sE~fAoMjMgc@kAuCpDfFdNwFrHql@Xeb@~Z{I?lKsXea@qHcuCr`Auo@zCuSdRmeA~ZqQf^_sB`WkmBwk@kJYoM`Owf@uGyUwKa^}ByeBvz@sq@dSyV|GaPq@on@fWmgA|Ti\\fo@_NfFmK}Ba[ma@cm@uSifA|\\iK|WjGth@{UxbC{JzG{i@pEkcAqCgU}Jgl@gz@aaAaxBgEX_Bb[cQwCaRbSwnAjvC{q@kyEkHmIm[iEsOaSa\\wSuuDuuDeb@}Bua@kUgp@cNe|AyNslAk@uf@bl@fCnn@yJvTo@nQva@zg@rKvaAaBnMg[tnA{KbKu_AtAuRmIqZud@iDal@aM_h@mu@k]cl@in@yS_l@wSkI{QgUdkHai\\[ilTfM?UhQfSsDjJk@{@uOxPgAva@wRrEkLIn]KfRny@S~S`Vf_@vCAq\\{CiHbH}]iUyDfQpAd@aIsNiFrAiY`X}DaA_Dbh@ux@hL{G~g@bAzKkd@|QNnKaj@eFaEeELoAiS}C}NdDiS_AeKsb@wL_DeLpSebAypBcVAbUjApMal@bFOh}@gAsO{i@bR_\\?\\fr@gy@sa@ue@g@AgmLyAcxW~EqjkAxd@rX~z@zN|i@oE`|@fAfc@dZ|Z|Ft`AmRba@bFvTiFfVjAnx@b^frAuMzv@rCfd@oIrPl]~\\oI`PiNtTu@pNxGxFxWcUj{ArAf^|JrLb_@pPzXff@pByx@pPuD`kA~MsTlv@{ZdWbCdJjI?jZqYbQbB`C{WtS}Ohm@}uChu@zBblArS~XzcAhc@rt@jGz{@nYly@|Itp@trAbcEntD~tDzNtFxQ~GznDb`Etm@nh@vStKdmA`UvCle@bx@xbAvC~b@lWbn@_@rPeUhRzV|Nk\\jf@oNtDyTcRgHfBrKfjA~NoIn\\w@iXhVpMdFoMzGkJkAjE`w@~LbJaBxG`Pn@tR{G`BpDwHtLfEvGzWzNzGjQfUhMPxGdS`B|Vn\\cbEr~Bta@xFgw@vi@aVlz@dLj}@mq@diEwHnIb@~^sl@l{AhF~VaFzg@pHlu@{@tl@hY~lA"
                        ]
                    ]
                ]
            }
        },
        {
            "entidad": "26",
            "distrito_l": "5",
            "location": {
                "type": "MultiPolygon",
                "coordinates": [
                    [
                        [
                            "{}|}Dpd~cTrb@vL~@dKeDhS|C|NnAhSdEMdF`EoK`j@}QO{Kjd@_h@cAiLzGch@tx@`A~CaX|DsAhYrNhFe@`IgQqAhUxDcH|]zChH@p\\g_@wC_TaVoy@RJgRHo]sEjLwa@vRyPfAz@tOkJj@gSrDTiQgM?Ago@AufANae@O{LAqc@Aa~Ate@f@fy@ra@]gr@~[?zi@cRfArONi}@`l@cFkAqM@cUxpBbVqSdbA~CdL"
                        ]
                    ]
                ]
            }
        },
        {
            "entidad": "26",
            "distrito_l": "6",
            "location": {
                "type": "MultiPolygon",
                "coordinates": [
                    [
                        [
                            "{sepDdvfdTnIx@eA~Xe]nJ_Ddk@oFvG|cAhCxV~@qOj{@mEMnAxw@}r@bSbUtm@_hAvm@uIqNkUbOcU|Ba\\tH|@tG`WtuAso@rTuXwTsZ}{@g\\rJ_m@fE?_@}@uV}@gu@]wWyOetAQue@~A{UlK_c@l@kCdFaYlGyc@kBqp@lIqAlSgCjAzUfPgAnNw@k@qZ`h@kDrRgAvR`B`LjArEf@|RvBjEh@zs@vHzKfAjKvAfWrC"
                        ]
                    ]
                ]
            }
        },
        {
            "entidad": "26",
            "distrito_l": "7",
            "location": {
                "type": "MultiPolygon",
                "coordinates": [
                    [
                        [
                            "az{zDtmz_T~AbuBbSfK}RtZw@nPiUhD{FlHmHrOnF`WwBhMeh@p]{FfIEpPbKff@bk@lo@xt@j_CdVniAr^qBvq@`Frh@_TtStAhIhJjDhe@oDld@_TfXkUfLoI~QhMdrAwAtOkd@hfAYha@oMl_Ak@rg@t[zgBuWdh@LvKtLfb@lMvH_C~q@rP`{@hEtw@pi@aHvf@rVoh@zcAiTpGoa@lf@a_@kCqcEb}CeiAdqAg|De`Aik@dg@{F`NyEjlAmRba@mJfEilBmjAg{Ccg@kWhHoyCn@oIfQy^j[o^cLimAy{@emAaKu^~Ds[`QwNf]wh@fc@{O~i@uy@pQhBw_@}NqMwAsl@_n@o[i^we@aPwlA|Z{aAiZuM_Z`Egv@jf@kk@zl@o\\|HemAaUwSuKum@oh@{nDc`EyQ_H{NuFotD_uDurAccE}Iup@oYmy@kG{{@ic@st@_Y{cAclAsSiu@{Bim@|uCuS|OaCzWcQcBkZpYkI?cCeJzZeWrTmv@akA_NqPtDqBxx@{Xgf@c_@qP}JsLsAg^bUk{AyFyWqNyGuTt@aPhN_]nIsPm]gd@nI{v@sCgrAtMox@c^gVkAwThFca@cFu`AlR}Z}Fgc@eZa|@gA}i@nE_{@{Nyd@sXqEsnY}Acym@A{m@Ao~@Fmsr@f@aaR?{nAAqT?ye@Aie@?wq@CueD~GceeCwC_oB`\\eF|Vil@{Igh@?kx@wNoo@zl@ewCnWex@vnEzx@`cFzjJhaIyy@cEnd@wR`q@x@rx@|N~o@wLjdAsc@doAiQ`QmPp_@aY|TsiAfdEeu@ptAg]vaAm@v_@s^jOsW~\\ia@zPqOps@|AzKfYpBbMwN`]kG|lA{Art@ke@diAfKhYc`CvgEhhCnGuWpNwBrJeY|KaBdHjJtp@{KxQuN`HgYt\\wUlGmPnLsCv[rJvLq[tQ}E`Fa^`c@qa@xGrE`b@tTj[v@hD|N|j@pBvKcU~o@mGv\\tF`c@iKrKa_@aG}l@pXe]rKcc@pSeMhJai@qE}PnXec@~k@kYn`@gIva@n|CneLj{Exg@pxEfrDjmA}C`ZcWhc@lHbjAbi@}WhpA}Tz^mb@xWuBvw@yj@`cB~Ebn@aKdg@xoCegBlpAxp@ztBeJp_@p|AjeC~eAfRhTgLp^eDnrBvz@cZhnAnDxOz[pq@j_Aj|@nLjm@bYzP`w@lPhjAtH~DxO`Nji@}DlXy]z`@sRhDh@nTjLjBfK`OmYxx@|b@|T|AjQaEvf@s]|cAdJtL_Nvy@Vl\\zTv`@eMfoAjqBrqFhM`SlD|qA|\\`s@~fBj^b`@nu@mk@zw@o[fLkHxJvAxf@~Wj^l@vKwRzMeAnLnt@puAyw@rzBp_@n_@jkAz[j_@jWr}@jAvp@wDbPqGVbb@vFnAx`@oVvZk_@ncAcNj^jWvb@qBdj@z]zUaIlMhFsIf]jApToIrOmA`f@qk@jqBa@`~@mQze@jD~b@tFfFpMnlBjSpe@vAvg@`qAz_@v`AgBja@wQBiQvDwC|nAeYh[hnAbqBmV~QjNpJxg@eJde@|@pP}Ptf@]rs@~E~ZxwAo_@rsAx~ArbAfYv[f[hWFho@eOvTd~@b@pvBma@b`@kVdmEtlAr@HhUiNbi@iAl`@mHzJ_E|m@uNjTk@dm@eXrf@Ez^kO|i@pBdJpe@lb@bR^r\\{I~QzO~JyJjWqCdGlIr^b@c@hIzt@`dAxv@bM_kA`cRoqCz|FmCjp@_Wn_@sa@rmAuSjoA}n@ry@cVrz@gSxMlG~Mr\\|Pnm@sOdZ_\\tg@w|AxKiNpZxIxXkCrWe_@rsBit@`j@qn@h`@kr@zXc@~CkQ||@hd@|WrF`{@vClk@qKrBbyHqNjBuK~Zht@dsBwh@|qC}[jGmU`g@{e@qA}^vQ_FdZ_Pb`CsMvk@Jde@|i@fq@~F|YcKlwAcHzSqh@xi@oHbf@nFhXr{@rpBfAzNm_@~ToE|ZkObS}`@rV}ZrBqeAkOsuA~d@mc@lc@ea@nr@zAd]_[ds@jV~DxP~PQjp@ew@vbFmJbaBevAhoA`I|U{L~Gu]bh@q~Bf`@giC~Bw`CjTqp@kd@uYvhAwZxQ{Elb@e`@bk@i\\zUoQtI{c@wHkOfOcc@dMqt@qSqPz@qRbLsFzKeChi@`@~q@tHp_@uNvd@iOrQmd@cGcq@zCaaAiWqgBieBxC`qCerCplB"
                        ]
                    ]
                ]
            }
        },
        {
            "entidad": "26",
            "distrito_l": "8",
            "location": {
                "type": "MultiPolygon",
                "coordinates": [
                    [
                        [
                            "uaupDb~tdT`AfJ^|Er@vId@|Fc[hEtBxUz@lJ}LdBf@tFqLnAiNhc@}VrEkjDzhD}jCoyEcEiqBeH{tDhpBsDdS_AjI_@|Os@j`@w@lc@i@rV}Gt@Or[uIhPkCp\\BzC?zDATxo@bBOnAnWxPsAv@|Mi@`NpGi@`AdZzMAdP?@~bAn@CeA|u@"
                        ]
                    ]
                ]
            }
        },
        {
            "entidad": "26",
            "distrito_l": "9",
            "location": {
                "type": "MultiPolygon",
                "coordinates": [
                    [
                        [
                            "aeopDvyodT\\vW|@fu@|@tV_a@D}@SgSDk\\Vc\\n@sUn@kHN_Xr@gBDiO\\o@BA_cAeP?{M@aAeZqGh@h@aNw@}MyPrAoAoWcBNUyo@{D@pBuEzJeVzKsXhM}Y{Eb@}Dwn@vGm@aBqWi@mHy@aOoA}Rc@eH|I}@~@ka@HqKGmG`LvAzBkEpKLbBwFbUN?|H~k@AlXAAhFx_@}Bd]gBr@|UdAn[xJbEjZgDjBpp@mGxc@eF`Ym@jCmK~b@_BzUPte@xOdtA"
                        ]
                    ]
                ]
            }
        },
        {
            "entidad": "26",
            "distrito_l": "10",
            "location": {
                "type": "MultiPolygon",
                "coordinates": [
                    [
                        [
                            "ilvpDz|fdTnA|Rx@`Oh@lH`BpWwGl@|Dvn@zEc@iM|Y{KrX{JdVqBtE{C?q\\CiPjCs[tIu@NsV|Gmc@h@k`@v@}Or@kI^uCsh@oAiS_Eqq@LurEhsAuDvc@{C~e@z]z_@ec@zV~EoDdV~l@xKFlGIpK_Aja@}I|@b@dH"
                        ]
                    ]
                ]
            }
        },
        {
            "entidad": "26",
            "distrito_l": "11",
            "location": {
                "type": "MultiPolygon",
                "coordinates": [
                    [
                        [
                            "kblqDv{ilTp_@d`@pQoBlFdLvHcC|Mik@oH}P_KaEjAeMpfA`G~`Aiw@fX}Hhd@_g@p_@fg@bQ~@|_@cPtVd]b[|Ndh@}Mvc@U~pAtN~k@[nf@mZh_B}uBfl@iTju@of@rc@_r@lWlFzKkBlxAws@fz@wSpf@aX|k@cF~m@mm@|a@{TzXg@bUsIru@m|@rg@xUnQiJfa@`CjBxXiKbo@lwAje@p{C`Rjc@fMnBmLecA{eATnKiGDgO_P_Vq|@xJsHbNhKvt@fmAv_Aln@d|@tE`eGz`B`x@~s@nw@dDz^gO`QuAhStEzTlM~g@vr@|^rZhSjJpfAdJv]nLdp@di@n{@~d@dsAd[dFmE|IhDnQiJvf@oD`e@wQnXdG~PsExPgU`r@mcBnSxZ{NfJr@fElT~N~GzPmBnOqYbZrJhz@bP`l@rS`a@x]lPv_@jt@~g@hp@_CfIs]yG}Q`OwDtd@sj@f[_Nte@hBtQcInLGb|@|Kze@v\\xR]`F}Q~N_Ng@qw@z]{ElWvC`m@wHrl@yz@fv@yWbe@kIcAiLdJ}j@jqAbRlgAea@~fA`D`cA_HbUbIvx@aIpSknAxU{d@~[sHjq@Zh{@qG|Q}a@~PKlHsU`HiP|Rqn@hoBeMpPiTt_AmZfe@iNpm@ikAdu@cG|J|HnlBkOtLeStb@{JrAyNmQmLyfAsr@eVb@y\\mToq@eZot@gXiX_g@yrAaZ{GcLgKmJai@gQoFc_@ag@yi@qYy{@oPhAwNeC}EeQqBwFq`@_JwIq^[wKuT_AnDmG_IkYbAoChIcp@bd@km@yTyVa@k_@rNoaApv@ab@xFwQmFiMhJgg@`JkfB{YkjB~Pui@cPshAbXwRgCoJ{m@qIkKojBi[wk@pSqi@}Eue@sYcQqBma@rNkXbA{p@sMkh@ac@_vAuc@kXkBgwA`Omn@qz@m{A_x@a`@c`@{Voj@{AeTlF_RqPsc@r{@}^bFqHnGgQ}AoZvSs_@{Bix@oWgo@kv@wkA}tA_oAcw@y}AU_`CjR}{@uAql@iXemA}G{vAmaAcw@ug@q_A}CiSrCyC|KNh]j}@pWpT"
                        ]
                    ],
                    [
                        [
                            "_zfkDtftfTlClZkGtSrPzs@mKdQcIkFw`@nSkPuF_RcWij@pJya@vUdFxRad@b[oc@tGiMwEw_@vDuw@j]eSh^~@hSxOn\\_AtMk{@r\\iVjRmElX`BjSuHzKg[rIoHni@o[jQuNhWqSfL{Dlj@kDpFcRgAyAfHeG_DmNt`@{QzF{B}FiGLX{Iki@}Bq{@zb@_d@tGxCaE_aBaLyLgYnFiGpCca@yA_\\mU}p@_DuDcM|CyVpQeBtTiEtBwGgx@eDPo`@`uAc]dg@xi@eL|QnG|Zne@xKoL|Jc@}GxVtYsIvB|Mo_@pLoq@~n@oq@zrAu_@fx@qh@~aBsOlz@i]xo@_i@r_EoPls@mGr~@kjA|cDo_@l{AokAtvC}P`q@uEp_BqWncAeJlmByS`tA}Opa@wRXuGeCYsGjXsQaAiSdJot@dIaKzA}^q\\zAoFhG{Gbk@_PoC_ZfVcAyQoIzDwArXwP{LoKlB|A`XiI|RlPjYn\\_SjBfIpMkBeDzSe|A_@ipAhTs|BvyAoq@nq@quA`XcbAv_@gbCfp@ck@~WmQ`J{gAbO}{@bu@qc@~Js|@n~@m~BvlEg~@tvAi}AphDglAxwAcpAdkAuiBlmCip@zKci@r|A{eAxEwYtRwKfRox@dc@ot@zdAaKzHwSlBeWq\\gAwdAlDcLyc@kfAaRu[i{AipAiC}QnT|H`KvOnHcHaIkMCyQ`Y_NxH`@bJkNf[wNtiAgRpUgQd`Aw_@yB_NgJkBmTdJuIiFvJwPwAgPck@of@yTon@_o@|@wZhPsHiF{Xh[_LpBqKkj@qFeF{Xt@ea@ol@iNmF{H`A_EvM~L`VgEj]qU|g@lFfj@|c@l{@w@nd@{UzG_PyAEmOo^{X{[U~c@sQbAsYgR~Ci]yF{Vta@sFlk@eInQ}g@jGuBb[|Rnc@|YgBmBuGcQ|@zAyMda@_FpSmT|j@_AfLbGtAfTvUxWdDzUqG~OkIrBmMmBcFe\\iU|Ca^uUyFfDiGlYhNjc@}PjQwY_BwCd^jOn_@hKfCx`@gL|`BmeA|Le@`FxGuD~ZuJrMut@j[c_@v\\}b@tQsDzLg_@hm@oOxq@a_BrzAk]ze@eaArfDmf@|hEiPnMyg@R_JbHgd@l@kTxKea@hxAkKa@}U~Jic@mS_fAleAc\\`dAeZdQoe@rdAwm@jNuXdUesA|]yc@je@ef@|eA_@vfGoG|i@gP``@ol@t_@k`A_uBal@iQm\\Bse@vLa|@re@eKdO~AnMdJVpC|KyCtJqg@uKaw@~NkiAiC_o@rXu_BsQmlAhQ{Np]rX`cA{FfHq_@e[}x@mUefCkxA}^{Bw`Blf@iiCttA}RhlAmGxIiHRo]e[`GcPwGiB{z@`]cV`VcHfS_Dro@~VfgB_LvE}FyRuFCwKpQq[}PcSe@yaAor@_i@mTa[pCg{Dmm@e_CzJin@nNsyBzeAk|@`U_pCqrFydAakWqwIsf`@}zBtd@uiAa@mdAyI}pAmo@wwDshE}`CuLq|@oWcq@sEqk@}p@uiBorCcjA}pAkvA_VqwCm|@ueBc^{tCijAuT_WrbG}xZsQqv@g}@aiAcViEcgAXwq@a}@ueBi^{l@ic@iu@w|AeKov@chBivAojAq|AsBwTvGygAzz@kgD_F_\\sZ}\\zAkXiJeb@JiTqXkn@x@ik@cIu\\gLsMfBqsAfiCutDmCuJtDqPoLqBaJiZ{`@qNrOso@v_@kz@vThBnb@~u@lVdJhmBlH`w@nOrSkOjcJuoRbkAdRli@yxBQ_w@eH{PeCif@vCcNkF_X|\\sdDvLgVps@oa@zjAayE{PagAzBiaAtNun@oOg{@xb@s`AoB{v@vfBcsLg{@agG|uHwbA}Ing@dE~@dJcKrDrK{QdaArChNyDhY~QdXlArj@|Qnr@vXfKjiBm|@l|@~Nvn@Chl@cUnMsNbN`UbRpdAtaA`u@`OuAd@l\\~PnS~@hLl_@v]vUy@eHc\\nNeCxKnOpGgCz@iL_HyLlRqYr[tMbDdIdLcGdUlJjYoE|C}KwH_Jvk@qSto@ee@zIiJzM_l@bjAmy@l@aXta@y[BcVxNo[qOuq@jN}[qEqh@~Mu{@oCeo@jPocApd@qHtqHjE`Ms`A|S}]dy@aJ|TyRpsDi`AzSz_Ar{A`mEhdGetFaAtgAMtrE~Dpq@nAhStCrh@eS~@ipBrDdHztDbEhqB|jCnyEjjD{hD|VsEhNic@pLoAg@uF|LeB{@mJuByUb[iEe@}Fs@wI_@}EaAgJdA}u@hO]fBE~Ws@jHOrUo@b\\o@j\\WfSE|@R~`@E?^~l@gEf\\sJrZ|{@tXvTro@sTaWuuA}@uG`\\uHbU}BjUcOtIpN~gAwm@cUum@|r@cSoAyw@lELpOk{@yV_A}cAiCnFwG~Cek@d]oJdA_YoIy@jHid@zF^|A{RdCo[fS~BvANbB}StMvAo@tHxCFzLNtAgWjIOvSQvHCPk`@xEAhORfGFbBBDkXtNEj]SWkK`YbGjDcgAAcOpXoPvr@ihAq_@ww@rmDwmE|[gx@v_@q`@wg@}]aLoTgHh@`C{f@xG_EfKwb@seCqaH}[}kGgr@vYy|BnsByp@lb@{z@~_AiY~Be{@ymLgx@hLoHuS{PwE__B`Zwu@jWsTy_@qXuJ{w@op@w{C`i@ueA|QwHsAuaBskAc]_NemAkfAabAkQmuKzqBsmA|g@gk@lg@}{@~W_{ChUccAd`@z@ex@uH}Ot^vMmAkSrJgA_BwNjQuDjOdXnHfB|G}RaKoQuNqHvJaR_AoFqGb@iCaHoMlIwHoOkI|G_@gImN_C_MrJPqKm]aGf\\}HfCiL`PSqByJ`b@tJYkg@lPrXpSxNdWdJfE_Dgc@{]dBmOuKnGMgGyPcHv@aXuJtFqCsGiEvHkKaAvCiLcQhDqHrCbFvN{_@lLj@uLzOaR}OmNhPsAtAcIkb@Ur@{Ms\\oGoLeZkScJaGc\\kNkNtB_HqTeS_UPsf@|Mug@uLm[rF{K_G_UbEwn@g@uOqQ}p@iY}^iJsAfEoHaJoJeu@qP{b@jFsENqZnX{UvJur@bSjAvZoq@bd@mYnh@rGx`@wNbTrGjcAuK`R}D`ByJdUwNv@aJdl@bMfYkh@`bAdV~c@rc@tjDueAgDo\\dH}aAtp@ij@lUmJpPjJv}@tPd|@uOrQg_@}MipCzfAqhApnC_zAzrAbx@lAddAf^}ApFdJrHgFn`@l@rNmJf~@lLpB_OtJiDtm@|Lrm@ta@hI`]nKzIy@b_@`KjOyLhIxErXoZvX_Ht\\nEhKhJbCzF{GvJvc@za@sBdHdUhGqb@`Sy\\dR{FvKzGni@ol@rg@vEfn@gr@xNlKqE~CrMnTvNsBjGrFnY_XdbDmRvbAo[jCwZ{Sca@~DcRrxC{vFoPchFjJuoAnUwi@h~C{d@fQnNlQnCvm@Czc@~lANdcAeM`w@lDtKtZlAbR~ZnP`b@_@b_@xTti@vGfdAiBp{@zTrr@sA|f@jPng@bHdk@bA`\\sOfjAbNz_@pe@|]r^xv@hTrfAj\\pq@FvsG}p@vk@yn@x`PtXh}CzzAh|Fj{DpdBzLtqAbUhh@nC`r@dmFqhBbMf}@|P~c@|SjjBxAh_AoDx[tYbm@|Q~DlZuN~_@qGz\\oo@j_@UrTsl@dzAo}@|r@}n@p{@iiAb`@_Tdj@_l@~[mOpTEnT~HjRnJdy@|z@jbCbz@xj@z]hhBtdBb^fP~f@bGp^vU`xAvk@dv@bFpdA_Ujn@seAliDorEdtHi\\~nDgjGvv@eHvNfHzm@xE~y@l_ExpB|dDwE~]aS~ZbA|MvWxRsCth@eSneAfMtfAyUj`AbWhxA_CpJjF`k@eDj`@`]vpAsu@psKbz@niHjl@yHzX{OjvElc@gAtf@eMlWdIzd@Thl@n^xS~a@vFlp@iFtj@j[zi@hBntBqMxg@fBvk@rZdl@~JbpAnE`JdKjFfJyCxzA`P`Ppw@l]`Frh@{f@xbAaA`P|Hx]v]vl@xd@v_@jId@pLf`AjPhh@tp@dgAf\\tz@`M|dBdSzb@dc@ze@oGrWsoBqJlfAdjGbaBhZrIql@rvBl`D~HyDvf@tCbMvsAdi@pYvUfw@~M|Ohv@fVheCxkD`|ClcA"
                        ]
                    ]
                ]
            }
        },
        {
            "entidad": "26",
            "distrito_l": "12",
            "location": {
                "type": "MultiPolygon",
                "coordinates": [
                    [
                        [
                            "gy|oDbzycTp_@vw@wr@hhAqXnP@bOkDbgAaYcGVjKk]RuNDEjXcBCgGGiOSyE@Qj`@wHBwSPkINuAfW{LOyCGn@uHuMwAcB|SwAOgS_CeCn[}AzR{F_@kHhd@gWsCkKwA{KgA{s@wHkEi@}RwBsEg@aLkAwRaBsRfAah@jDj@pZoNv@gPfAkA{UmSfCmIpAkZfDyJcEeAo[s@}Ue]fBy_@|B@iFmX@_l@@?}HcUOcBvFqKM{BjEaLwA_m@yKnDeV{V_F{_@dc@_f@{]wc@zCisAtD`AugAidGdtFs{AamE{S{_AqsDh`A}TxRey@`J}S|]aMr`AuqHkEqd@pHee@oEoGsiMmb@coF}SiBgZsQej@{f@jAeI}x@sd@xKuU{D_Jkv@ca@lb@}aBlEg|Alr@wAzUk]wBySoGwEdAqRgGaAaGpIsCcFp[wTbAmMfG~@z@{M|Kcf@w@yQj\\zNpFiHyA{F}LkEhK{TrJ{@c@dKlF|DfFo@nByQ`IIoB_SvLyMqQyC|@eT`J~Dh`CwTHyO{Zok@oC_UfMqEpYkd@bcAe`@~zCiU|{@_Xfk@mg@rmA}g@luK{qB`bAjQdmAjfAb]~MtaBrkAvHrAteA}Qv{Cai@zw@np@pXtJrTx_@vu@kW~~AaZzPvEnHtSfx@iLd{@xmLhY_Czz@_`Axp@mb@x|BosBfr@wY|[|kGreCpaHgKvb@yG~DaCzf@fHi@`LnTvg@|]w_@p`@}[fx@smDvmE"
                        ]
                    ]
                ]
            }
        },
        {
            "entidad": "26",
            "distrito_l": "13",
            "location": {
                "type": "MultiPolygon",
                "coordinates": [
                    [
                        [
                            "i_hiDfjycTSHS@LSXF"
                        ]
                    ],
                    [
                        [
                            "kaiiD~uxcTRGAVQO"
                        ]
                    ],
                    [
                        [
                            "arqiDjiydTUhCm@fCZiDf@gB"
                        ]
                    ],
                    [
                        [
                            "ahdiDtuucT~Q{FaHkKLcPnMSxIx^l\\gEl[dLAxe@vE`IbSdEtc@sXfUhAbSj`@tr@jKhJrJaP~d@ca@gOcb@lKwUba@~@`h@mMtJ}KlDyf@sJeDlK|LbLwUhu@pQrXsBdLyWdSed@mDgU~k@a@dLr`Ave@fGdr@uSrJom@mGkYpGsa@sJeE~LrBpQq^|h@eSzIq`@UeDdL}LvFgFsJlEqb@qIePaTmQsKeg@iT{Gs`@~C{^jPoCpInCvCoH}DhCnHnHj_@g@`DeGdfAeFpNm[vMuc@z^m[|Byg@yI}KcS_NzBdDqN{w@iKud@iA{Xda@xHpNhg@bZ|LcWrP_MnOcByGvb@xWcP`AzIeUda@sPzv@cMngBj@du@fKfs@`TnXbAhi@rCpDxNuChDpIrJh@sEdPfJb\\x_@pDj\\mJkL`IhBb[zX~OeWrEgKeEaCnGcJfAgM}GJiHT?\\g@c@CPiGm@yCn@kEoE@yBjYqMhR}S~GpBxQdFdCbkA}CfDeHoCsEb[mJ|DgQjBjLlJoGhDfE{FjLwe@fKuDbNvQdAgLdJx@zOjd@ty@kRbi@pJrK_O_D{GtNOzIbRxIdDhOqA|a@mKlKgWcE{IvFkKsJsAig@yH_Fur@fIuc@tQiHlKqB`s@dSnf@yWlAkJgVqOlKaPjAgh@~o@a@v[fTlU{IzPyX{EyGtC}MvTsCdh@jIx^qP~LgGzPpOfVcRvCwHxl@eTjAtDrm@yxA|w@cpAp]qR~ZcDl`@o^|e@oNxMwv@xXaPnRk^jgAeHf|AeTrGq@_F}MyBkKnRhGjY~N|LqCn\\iI|I}ZiR_No@mMj]aPkDiJxMaP`FiIdZew@~eAqP|B}KsQeGfa@aQdPebApOoPrNso@wEiJlYcRm@ue@|[if@eAuFtQkK|BaAbIzI|EsBjHsSdI{]dhAoNBiGwMiJp@cRlV_@zI}\\rRgZrx@iHsCapAnPer@{Hca@dF_^wBwWlHcSdPmNt\\qPsCwVlHgXrg@aCfZ}]jS}Pd@a|CmcAieCykDiv@gV_N}OwUgw@ei@qYcMwsAwf@uC_IxDsvBm`DsIpl@caBiZmfAejGroBpJnGsWec@{e@eS{b@aM}dBg\\uz@up@egAkPih@qLg`AkIe@yd@w_@w]wl@}Hy]`AaPzf@ybAaFsh@qw@m]aPaPxCyzAkFgJaJeKcpAoEel@_Kwk@sZyg@gBotBpM{i@iBuj@k[mp@hF_b@wFo^ySUil@eI{d@dMmWfAuf@kvEmc@{XzOkl@xHcz@oiHru@qsKa]wpAdDk`@kFak@~BqJcWixAxUk`AgMufAdSoeArCuh@wWyRcA}M`S_[vE_^ypB}dD_z@m_Ej]wK|\\ixA|s@m|@d]wo@ybBwrDlu@mgAteAuxB|g@kCgQeqKzXsH`y@BbNvIta@qEbObH~a@ozB|Q_g@}FaWrp@eTdeA}jAdqBki@~m@qd@`QkAp`@y_@xWsGzXoDztBpJd~BuKrkCnCxGvJ?|WpMhl@fiBt{D|IvXcBvJzH~EbReBrCkO`PdWmNzTbB|PvUpUp@|IwG`MrQxMr@nRhWpGfFhHdCx_@hWrChG|P}LzTxG~EpOmHlJ~e@n\\bIf_AbzAjXzPrhApqAjg@h]xv@iIb_AhKje@fZuEha@|Aj_CnpS|hBb`Hxh@iMh|AqOh]cd@xi@~^yMp[vp@xdApQzd@rm@cCrXoPpc@wWt_@~ItzAoAdo@hTpc@~yAjGjY{IjL}P~i@rJvWkHdDiHxWcBz`Cva@fT~LvsA{M|dB~Pha@cBvo@aCzp@fG_Yvg@c|AvvAtd@q@hXvMuRjn@bCtb@`Pca@jJhAvU}ZbCtT~N_FlJsQjJbByFxs@~q@{q@wPgb@nBwHnEvDbe@ob@dX~c@dLbVrOfI|HaAQuMxDOxNhn@vGvAhHaa@jF_CjBnHcPxU`FzGlIaOvQjK~UfCrTiEsGtGpBxViGtP`aAeLY`k@jDp@qVmBoHfCjB`GqWrHaAxKnCpJtRvO}VLwAtD~BjM`KvD|@`NlHlGnHkAtQcBrLMx[bTlSrGcEfHgDgB`@vT|FXfPoGz@~NvItFjIhBhL|YrZ`AIs@hBmTcHuPqLaBwBaOfPnFpAcOmOcISBBScG}MsAwE{@kBoCyDqIhGoCjMcC}JoCoErFqOmIqD_EpCoF}GfK|AhBuDp@DPF?Uh@_IeHyI`MiO|FfGqIzXjKjCrHzCjGkCpBqNAc@BYDYC[YId@OJm@?YFWF[CWEUAWG]Ba@?_@Gg@E]O[Um@G_@Im@Si@Qe@Wa@YUIOIe@Sq@Q[S_@WWKc@Ig@OUQ]KQK[G[KQIWIg@MYB]MWGSCq@Iw@H_@Nc@Lm@He@?y@Ma@Y_@U_@Oe@Ma@Go@Cc@As@Ms@Sc@a@OU?SKQQKUA[ISOQe@]YQ_@Mc@GWKWSSUKQISIUS[UUKUIWI_@K_@S[Yg@K]IWH[H_@\\MTIVUXMPUKcBwJqKRsHtKk]|LiH~MtTIlc@jKgYeMyZ`^`Oll@pt@j[fH"
                        ]
                    ],
                    [
                        [
                            "ygmiDzgedTPHVBDTb@NFX[Ke@Kg@a@LS"
                        ]
                    ]
                ]
            }
        },
        {
            "entidad": "26",
            "distrito_l": "14",
            "location": {
                "type": "MultiPolygon",
                "coordinates": [
                    [
                        [
                            "g{oiDt_kcTcbA|Y}Nj[eF|Fmu@tEw]tD}En@{p@gGwo@`Cia@bB}dB_QwsAzMgT_M{`Cwa@yWbBeDhHwWjH_j@sJkL|PkYzI_zAkGiTqc@nAeo@_JuzAvWu_@nPqc@bCsX{d@sm@ydAqQq[wp@__@xMbd@yi@pOi]hMi|Ac`Hyh@opS}hB}Ak_CtEia@ke@gZc_AiKyv@hIkg@i]shAqqAkX{Pg_AczAo\\cImJ_f@qOlHyG_F|L{TiG}PiWsCeCy_@gFiHiWqGs@oRsQyMvGaMq@}IwUqUcB}PlN{TaPeWsCjOcRdB{H_FbBwJ}IwXgiBu{DqMil@?}WyGwJskCoCe~BtK{tBqJ{XnDyWrGq`@x_@aQjA_n@pd@eqBji@eeA|jAsp@dT{j@w`Cmd@{|D{b@ykB{KwiAsK}a@q_@_hAih@k_AcYq[_e@eYAgLhIqKcNcS~@aMlR_g@{MgdAnHafAkFuX_kAct@{\\kcAiz@ol@ud@{}@{Es\\jEkoAtYos@zk@op@aKeoGccBqcGeeAsxCiQolA|Agl@uQqJqCcpBbFmh@bRuNpMlGft@q^_d@mmKfUebE|NjFzj@~w@brAdcArY|o@|JvFnl@ag@~O_h@{XeoCuAm{@~xC`BfxEccEt^jpA`p@uCwGdIjXny@|LwQ|M_FkKuJpSk}@zjC_{@p_AgLjj@jOpa@mYriBrqBn{@jo@bAfLfV`TsCbIzH~e@p^}BpOhh@lLjAbOv_@zJ?vFvFtBpu@xV`M`p@gLnQs\\|L}Bdu@on@xm@iDn}Azg@hpEf]jfA_Pta@St~A}]d_Aal@nl@nAdhDex@rzCiM`_@yPvo@ww@vr@qf@jx@vGxqAws@vQmg@|tAwo@vFcBrCdP~@lKlL`FvVfI`PjObSdIxWyBfUcEtSoGdF|PxJjd@~DhNlBxGHZhHjOpHKd@Ad@?jACd@AbAAn@AhAq@hAWpNkDjJcPrPyI|LbBjKvJrDtQ`^~XdvAhv@bnCni@vzB|{@vkAtCl^oSzNkZxlA}v@jgFaqBtaCvKbyC}k@jiFqw@zoEzpAnqAlK|`BoAxpAeLvgC}iAlVohClqAdEba@}J~i@vAfQlQ|J[hYsRnTm]vUsKp\\h@|`@c_@je@c@`o@gQrWnAx`Alb@~[mExc@|@`\\hG~XxOnuAyFfpAeOfoAovAnMl@pXtSvr@eG`~@rq@`q@g@lhBSnl@c@z~BYlgAZtb@LgCz|N|uBU~jBcAhsBIjvIkAvmBrAj{Ij@jsBe@`oItAd{BtCzd@mEdjHj@t[ph@rh@fQp[cF~LxBvo@gW~dCwFvQjN|oAqSjb@_@n}AmCqBdV}KvMqQ~n@_TfzAYr`AaWncBgFgAdHgq@uAkU{Roe@sOsFgCaLp]_[tDkR{EgREyfAaM}HaEj~@{Zxo@@bL|JeBrBjD}MhVpK`g@qDjf@lJ`BbQkOzGxB_E~bA~KrMBtWoThsA{I~Mkg@rgEs\\fzAeL_l@dSmZlDaj@{GlCmGhb@_RjPsYyRIaIpd@mi@hJ_t@~K{AdA~VfKiQuBoXwGoAqTvNgJhQgJfs@sMjCIyIwLpLgTb@oEpMtSnBf@~O_GdKe_@\\}Upc@wMtj@`@|x@mb@wSkHzApVvm@zTjWe@tcAl`@no@EtF{J_@wj@cSgTw\\gBbEjKnc@~QrHk@hRrKgGdNxQdVtHvJsSzGcAhO{i@rF`F{NvoAdBrv@zI{\\KbVcXnj@uA|`@eQt~@{GfDfAqJgv@cMqKeWtP{_@}KqA`PuYdBec@mBqGgSb@iJdUvHpDFpQmf@p[aXlg@|MfFfWeT{CnJnM`@|WtYdTjFlDfLcGlTiKwGsKzK}A`S{Hh@eIwJDqJpR_Uk@{I}NgFyClG_Zi@u@fHfOjSvAdViDhDfHxCg]~I|\\hGF~OsRgCgQdb@uGcFdAyd@wQvAeGpWoIxHrV`KqBl[wY|o@`UyNv\\ek@p\\y[rk@{`@pI_j@f^}FeGrZgp@rwAii@tr@ujBxnAkeAlsAcjBvmBw{EfsEytAfnByo@|dBii@jsCcUtzCuI|zCsq@lQsR_f@tKssDlYodBoEsNmO_G~CwStK_OoAugAiIoAuPe[o@se@iSxDaHuQcYdMfNfPgJnv@kLkBmG`EbFjHyBpJkHtBpEri@y@dq@eLbK_CqGc[fFdHuu@cF{FeNje@cQy_@_XcXjAaSkSjFu@pJj]bm@iFdc@nDtJwSd@oIzHzI\\xLrKoUvKqa@wLxIsZwImHwIvVmKqAmCwMkFrFaEaFsNjCuSqEcYkTqFgLnK{AtAad@_IuXcHtSgG|{@pU~Qwv@dm@aDyFrFiUuEeB~RwRkVlBvRgb@mHkO}G~\\_SlPnAvF}H~DiJ}FtFcYgc@n\\hJjEwVbXmToS{BlNpGjO|Lx@t@zZu[pj@aH}P_OvYoN{CcFaF`DgYgTKyKgIwNrLj^fNrMhZe^bCq^eDsV|Qb^y@zY~GxPiJ~MOh@nNwOxK}Xb@}CrMp_@nFtXfs@tQe@tVfl@fJ|FpDzh@jKjE@r[aOf@eIiLzDej@yZ`QoJa[sWrO|@oXs[xGWkt@eLaQwm@}]sRyf@iI~\\{IEgKqKmKPrM~Wba@hGpFfLxGSmDdOzGeAvL|M}Kn^{IEcY_R}Jab@gU{@cGaMkIPeLnMfUfCyXjZth@mKw@xIig@xWbi@iHnPjImRbNsj@lDuN~GrDvCty@kCbZeJrFdIjUyDxKzJg@zL{XaDgYrRva@RaEhUqJdKaCvZpNOo@b]zWje@xEn\\g`@cbA{FzEaHmO{CwTfC{g@}LkBUzk@qEuJwDvBuDh\\yIoAHgV}S|N|AeVqU}QY}LkXiCmFnJrh@j~@fCpXeTwDc\\nEByh@gHiEwJvVwA{ZyHoAlEoJ}FqU~IiGm@cIgG[iOdN{BrMrFvl@u`@aA`F|IzaA`f@zAvMtPaAtWxKgMlMey@gZsRmBqXhFjBhOsLpI_EpTyVyD}H`E_E~RxSoBfNxQ}DlQwb@{AwOoVeK`O_PyGgLgP`RgXkLeF~BuWvM{KpOFbJwLaNGkC{PLk\\vJgUiH]jGcg@kLuGyFxfA}ItBeGiEpA_a@qDmHtJ_Oc[}\\yHmAxHnc@yAlNiN}M_WjIja@rWGvo@lKhcAaF`VqKhGv@{L_LbAoHdKoMiBsJcTiDpJjDrQePfGcF}Iv@ul@mE_TqKfDsAlhA}MhXtEi\\kNkLoMNtDgc@yIiBaK`HcGpTvAxWkJh_@xa@~\\lMzC~JmC`u@{g@no@gO|NnEkB`SyZrR`NaAxAlRt`@`AsIns@dKiNzQbQv`@_@j`@lTmlAbJqfCkUovD{E}tBnLsb@sIxw@{OjB_Pp|@iX|^kSnFcOm}@fNyVsEsTnBs`@bTaO}Eic@dFvT{W~_@{z@}Y~B{Zr\\{Yzl@iKbv@`@bLrOhK`l@iPbBrJgTnK}pBb]yVgDs_@dWup@fTdF_Mdq@yf@sNyh@wEaBaQt_@xFvPkYpKcCrQiV|FqNgAuS`MqNZcDpGfF|EaAvF}MnRidApr@wDuFhWa[{s@_AmK`FaBlDfSfR`Lts@}KsC_[`JqZwh@yUoJcB|IkJyBqAzI}K`FeBkYgEsCuEp@sClR_MdIyUeH}w@dQo@zPze@rBfF`Bq@bI}oBdAsgA_UbDkHdQvBp_@md@~M[pAkKsOmUuDfLqiA`Kua@dMsBtJsPgAyEgVbCmDxd@eF|h@_Ub_@}FlMy[eOof@xGcIkIyIkIU^wM`Qy[kWfBqPtQaOwBcAiOqMwPyUkGkR_cBcOkKkg@bQtEiViGaBwTnD{YxXrA`Pwf@dz@rBnGvTTxSxZcEj`@s_@fWdQfH|h@}C`x@pIjqAyAjGvWo@lRgTUem@qPwp@Hq_CoUehB~DjKqNpAeSa@wMyR}d@id@mQiUxJiIp@s@eEhXkk@gC}h@vc@sR`Quf@eRoCgE}L{e@uPtEwMcBiHmX}]qOjVkg@tKfDlc@mKxFsByBeU~h@`Nt[dRmHjHrJ~i@nMOrJgGWbOrb@yGdIdB`WgFfEyTw^_MzMyHiH}L|^gUzMNeLwE@kZvf@vEnGzXkLzt@mB@fLkItCnKzZ_]xJsPSwR{L}YyEwUhScDlYgTlOmeA`KoMcEqWmwAai@k_@yEoUpBiVhGgEiFuToY}OaOdBcPgOyXt\\~L|LBfy@}KXkc@y]yd@`CaPvJxRnt@yHfScfA}bAa@wF`^oHpA}IiSof@go@qe@{s@|JeCyl@tZotB_MaPa\\kGyFu[|Lo`@qJcrAsy@m[{HsJuDiHbFsh@yWsJyX~S}Kq@cB~L`z@``BeF`s@oo@tiAecAfv@_s@hqBe[zrBgGxjBzIz}@bQ~r@aA`Pm\\fcAcb@tCye@iOcS~d@pAf]wGzPb`@|SeD|ZnMvF~MiHbScuAxg@uTvUi|@fVi`@~NkArR}SpPom@ba@eE~[qm@`PXa@rQqPpf@}fC`aDwv@`cByJvz@~Mpm@csAjuDuWfjAqQ~gAsm@pkG_DvgBpFjuDjH~k@|d@psAwKniAuT~EiFqX|Mye@Lk`@wS}ZeM{|AkYyW^eLyG{ImLWoNzIcp@tJcR~L"
                        ]
                    ]
                ]
            }
        },
        {
            "entidad": "26",
            "distrito_l": "15",
            "location": {
                "type": "MultiPolygon",
                "coordinates": [
                    [
                        [
                            "ivmfDlf~}SmIDoIA}FD}NCwF@}DBuTGyP?uQ?{K?iMAc@?}G?qRBAdLmLBBjQEv]aL?_B?eE@mE?sEAwH?yN@qEyB?wMIg]mI@sBA}QA@iLEgf@wI?iR?aI@iB@iLFDuE}KAKkWCyFqXQ@uo@{YKuf@@wVj@_EuMyOlEuQFCq{AHgg@q@um@qQyDuP{ScLv`@{VhU_k@cAu@i|CikCygF~TmwBbHq\\vf@w`@nNknAxx@{g@bm@uHvLw_@nKbExa@pkAsRfPiM`[eAj|@hN`a@bwBlb@rk@|@dPfK`f@{o@fm@_aAiDkRnC}SlTiv@mJmiAb^_@xz@vU|JAvGeIxuArXv^fNtWfj@hIsGe@kRkQm_@c[oTlAsQ~WvLvGaF~@aPiSoC|MsNa@qG`l@iF{Rk\\hXkLgBoNbP{FjRap@l_@g^\\qNxIyMbPgB{EqJfGyMhXyJiFoGzLkOs@cIqOk@wBsJvb@aGaYkQfFyFfS|Ah|@tRdcApYzwAhVcj@h~CiCfkDpKjrAhb@fUvvIr_B|mAgFls@fGffAecAxCeLlZyPlJcId@{L`Qrr@`YnT~C|O`[tZrf@lCd^fUzRjXbZ`O~_@R|\\rk@|QxLdt@bPvg@nRrM|c@bVbHra@{O`u@hb@rj@dp@pg@`\\n~Az_@hWlUrn@zW`~@nt@QljKdkADBxkApuBH{@x{Exl@hYpMp`@nd@nT|BvIiBxPsDd@oc@uN`_@pFIwPkIwIy`@zKsHh^kIjApFtKuFrOLcQ_VyLeByNuZsM|AnNzQtDrAfH|SjNxJhh@_HxPoFaNcY_GcNq[_WoCbA`NxNzQlBnQpHrCjAnLpA}LxZkHHbL|KxGrM`d@p\\pc@}cAiE}C{LcDbGeBwIyOgHaJ|B_AjKuLmBsBtCpUhZzb@yHnNbE{S~L~LxLmFfEo@`N~HsJdClB[gTlGqQnGJtB~H_Dbi@k^n\\}f@hLtTg@nNdHHbQuOdSdDfCxJmKdQul@p\\mWtFu`Adj@jQz@tFcX`m@xHgCjNi[xHq@jPx]|C{BjC|EjAxNrCiMvNTzNbb@DsOwEoG`CaSh]lxAji@jLjKwMeGvW_l@bh@usArnBc]leAo}AlCkb@^}oApSwQkN_eCvFwo@fW_MyBq[bFsh@gQu[qh@ejHk@{d@lEe{BuCaoIuAksBd@k{Ik@|DsyFdiBBb@}|N\\i_C`@ebCccFe@{eDJwA?"
                        ]
                    ]
                ]
            }
        },
        {
            "entidad": "26",
            "distrito_l": "16",
            "location": {
                "type": "MultiPolygon",
                "coordinates": [
                    [
                        [
                            "q_vfDjt~}SlIAHf]?vMpExBkC?A`OBh`@?jOib@IiVDgD@A~JyNhZcG~G?qEaP?EvEiLF}F?sCgFIwSgIAoP@}RC`@mLcZ_MaMsDmIcCiO~EFx@`P|h@oMzJxBhQgRjRuBvfAuIxPxJrSrEl_@mZ~h@fTrYsHzRmO~LkF`w@mgA[{~BXol@b@mhBRaq@f@a~@sq@wr@dGqXuSoMm@goAnvAgpAdOouAxF_YyOa\\iGyc@}@_\\lEy`Amb@sWoAao@fQke@b@}`@b_@q\\i@wUrKoTl]iYrR}JZgQmQ_j@wAca@|JmqAeEmVnhCwgC|iAypAdL}`BnAoqAmK{oE{pAkiFpw@cyC|k@uaCwKkgF`qBylA|v@{NjZm^nSwkAuCwzB}{@cnCoi@evAiv@a^_YsDuQkKwJ}LcBsPxIkJbPqNjDiAViAp@o@@cA@e@@kABe@?e@@qHJiHkOI[mByG_EiNyJkd@eF}PuSnGgUbEyWxBcSeIaPkOwVgImLaF_AmKsCePwFbB}tAvo@wQlg@yqAvs@kx@wGwr@pf@wo@vw@a_@xPszChMehDdx@ol@oAe_A`l@u~A|]ua@RkfA~OipEg]o}A{g@ym@hDiDghAnSg}AzMab@vgAi}@zJuQLmk@x\\g}AkI{IeUuC~a@k`BcAgZtEyTjl@cs@ll@qc@fWga@dFcWiHaMq~@uc@~@a~@heDhBxXoG|LgZq^ee@yWsNaP}Wn@m`Al`@euDhH{Whi@eh@qAgScQwJkZ_iAgUe^q`@cTrCcWa_BsgBoNqGiXTwe@oy@oNoDwVuj@{I{[vFo|@vEwFbSlVtTaB_N{b@mNwQ`AkOyX}i@bD{WkZqKmLbPoNs@{Jp\\cD}P}LhA_m@c{@``@sm@pO}s@yH}I_NhVeEgL`OcWgF}Iym@aaGiWTq@gE`OcaAqBuCkJnG{Ij]wTdSzI}^wHsNeS[wG}Pa`@fHkIlKsxA}iFceA_gBpNum@aRu\\dCo`@o]nCgg@cFcEce@rRef@P{]f\\wu@eCe`AjQoh@vZk]vZaPjdARbFsFrk@hHzTmEff@jyAt]pUd}@fE~]}Pb]gl@xs@}Qdm@vArk@vVz}@?tsAfk@nZl@~v@vBni@hiApoAfcAe@`[}YtUpOthAxRvSdVhGrm@hCpsAoSfXdH``@pu@lUqArIgKnKMtt@vLld@}A}Xwp@v@{^{Ok{@eWkG_T~FtEaSn_@mKp[_Xrm@rZxiCji@`x@jYjOvH~O~\\zf@zCnVlQxx@{Fb_@bBpd@xf@vx@ti@j\\`I`hAvGlv@iP`dA{o@ri@wo@fY}MlwBgl@|o@yu@iQag@zGoXnNcUzZcMv|@wTvZq`@~Xu@fNuHz{@oDdn@iO`pAg]t\\}BhL}N}T_h@vTeTu^mcAxs@vEhg@aOll@cx@t`Asw@vRzcAvZwJnl@bGj}@pUf`@xTvDeA|Du^oCe^tFgRdx@}BpRfGk@nN|e@pn@lG``Ahk@n~B]xTgHvQdPhKhp@pBlXyCj^em@jVjGhl@pb@n_@pw@zEzWvQ|LnHfVzMd}@oBxTmd@xjAiSfeAwHbM{h@dX|uAtu@yKrUuTbQeJbb@zbAmQhEdLbOvIcDvJii@z\\_AnRv_@vEzIiEdBtJ`\\rBxaBcl@~[y@hEtJrg@fUziCxy@v~@zfAfw@b\\~I~Ok@nYpLvIhHgEnLvBf]dYlLiEjS|OjJs@nHmr@|g@iF~a@wn@dSyC~t@dC`bArVju@d{@|`AfFjXeFpN`Ezy@cn@r`B~ShCtToC`T~V~RjHduAhCdSzHbEvrBjG|t@_Hxn@fQxuBcCp`@lw@|d@kaAnL[dPlwAru@`wAnwAjn@_UlwBhkCxgFt@h|C~j@bAzViUbLw`@tPzSpQxDp@tm@Ifg@Bp{AtQGxOmE~DtMvVk@tf@AzYJAto@pXPBxFJjW|K@EtEhLGhBA`IAhR?vI?Dff@AhL|Q@rB@"
                        ]
                    ]
                ]
            }
        },
        {
            "entidad": "26",
            "distrito_l": "17",
            "location": {
                "type": "MultiPolygon",
                "coordinates": [
                    [
                        [
                            "siafDljb~S]h_Cc@||NeiBC}DryFwmBsAkvIjAisBH_kBbA}uBTfC{|Nub@MjFaw@lO_MrH{RgTsYlZ_i@sEm_@yJsStIyPtBwfAfRkRyBiQnM{JaP}h@Gy@hO_FlIbC`MrDbZ~La@lL|RBnPAfI@HvSrCfF|F?hLGDwE`P??pEbG_HxNiZ@_KfDAhVEhb@H?kOCi`@@aOjC?xNAvH?rE@lE?dEA~A?`L?Dw]CkQlLC@eLpRC|G?b@?hM@zK?tQ?xP?tTF|DCvFA|NB|FEnI@lIEvA?zeDKbcFd@a@dbC"
                        ]
                    ]
                ]
            }
        },
        {
            "entidad": "26",
            "distrito_l": "18",
            "location": {
                "type": "MultiPolygon",
                "coordinates": [
                    [
                        [
                            "cdlmDtv~vS`OdPdq@pYh}AwQpOaM|XsCtE~lAwRrgAnM~EdD|I{e@|BgFrNmZhAiq@f^_k@uCagAjs@{JjOiFja@tDdWkJn}@kf@|Bks@lsD~LnRNnd@dn@n@xd@bb@ox@|mCeEx_@bRhSd}@p\\xs@_JlYfErAvXeSf^a@vj@{Jfw@~Kd^vEhz@}M`qCuo@la@mM|ToNtu@kXjs@qCtuAiJtu@pMhlA_Pvj@qChwAvT|ElY{F~l@qv@n[yJtRxFfEv_@wVfp@eS~B{Yd[id@tNwTnVeFbThp@|l@p@nKeUv|@q_AhfCss@pzA|h@xIzVwCfc@fOrOYnO}M|JV`Mjh@tk@hk@sSzq@mKhLwd@hPoNpRyGfWm@r`@mLlVcQpKkLlZYfwAfxAtcBzMzn@kNhzArV|y@lLjEjrAsFbj@yd@rn@aG}IfZzsA`NdUdQqYti@pB~Prq@be@sQbAuAnR~L~Ftq@lCxJpVqL|^wR~]~@`Xh[~u@y_@rbAqi@f\\}Pz{BnDr}@wEnd@w^`uARrNrQtWaHjLxFfOsOfTld@zNHd^pIvb@_\\h{@aH~w@mh@zh@uUvgApUnFm@jHdIvB`[K_T|c@`BzBuLtGiC|TsHzFmCrNrHdh@{h@rwAuErg@jq@pd@bJ~d@kBnlLoZhCyxA_DgNzq@fq@zbAhB~SyIxc@jU~PlEdj@pLzZwDja@zNdLvAnR`Oy@nWpPpObo@|I|HjVfu@xTdKz|@hY~rA`Nz^mQ`GeTba@wEdRtEp^vk@lXvHnJ`L|rJu`C~mCbs@fg@bFn]oCeCn`@`Rt\\qNtm@beA~fBrxA|iFjImK``@gHvG|PdSZvHrN{I|^vTeSzIk]jJoGpBtCaObaAp@fEhWUxm@`aGfF|IaObWdEfL~MiVxH|IqO|s@a`@rm@~l@b{@|LiAbD|PzJq\\nNr@lLcPjZpKcDzWxX|i@aAjOlNvQ~Mzb@uT`BcSmVwEvFwFn|@zIz[vVtj@nNnDve@ny@hXUnNpG`_BrgBsCbWp`@bTfUd^jZ~hAbQvJpAfSii@dh@iHzWm`@duDo@l`A`P|WxWrNp^de@}LfZyXnGieDiB_A`~@p~@tc@hH`MeFbWgWfa@ml@pc@kl@bs@uExTbAfZ_b@j`BdUtCjIzIy\\f}AMlk@{JtQwgAh}@{M`b@oSf}AhDfhAeu@nn@}L|BoQr\\ap@fLyVaMuBqu@wFwF{J?cOw_@mLkAqOih@q^|B{H_f@rCcIgVaTcAgLo{@ko@siBsqBqa@lYkj@kOq_AfL{jC~z@qSj}@jKtJ}M~E}LvQkXoy@vGeIap@tCu^kpAgxEbcE_yCaBtAl{@zXdoC_P~g@ol@`g@}JwFsY}o@crAecA{j@_x@}NkFgUdbE~c@lmKgt@p^qMmGcRtNcFlh@pCbpBtQpJ}Afl@hQnlAdeArxCbcBpcG`KdoG{k@np@uYns@kEjoAzEr\\td@z}@hz@nl@z\\jcA~jAbt@jFtXoH`fAzMfdAmR~f@_A`MbNbSiIpK@fL~d@dYbYp[hh@j_Ap_@~gArK|a@zKviAzb@xkBld@z|Dzj@v`C|F`W}Q~f@_b@nzBcOcHua@pEcNwIay@C{XrHfQdqK}g@jCueAtxBmu@lgAxbBvrDe]vo@}s@l|@}\\hxAk]vK{m@yEwNgHwv@dH_oDfjGetHh\\miDnrEkn@reAqdA~Tev@cFaxAwk@q^wU_g@cGc^gPihBudByj@{]kbCcz@ey@}z@kRoJoT_IqTD_\\lOej@~k@c`@~Sq{@hiA}r@|n@ezAn}@sTrl@k_@T{\\no@_`@pGmZtN}Q_EuYcm@nDy[yAi_A}SkjB}P_d@cMg}@emFphBoCar@cUih@{LuqAk{DqdB{zAi|FuXi}Cxn@y`P|p@wk@GwsGk\\qq@iTsfAs^yv@qe@}]cN{_@rOgjAcAa\\cHek@kPog@rA}f@{Tsr@hBq{@wGgdAyTui@^c_@oPab@cR_[uZmAmDuKdMaw@OecA{c@_mAwm@BmQoCgQoNi~Czd@oUvi@kJtoAnPbhFsxCzvF_EbRzSba@kCvZwbAn[ebDlRoY~WkGsFwNrBsMoTpE_DyNmKgn@fr@sg@wEoi@nl@wK{GeRzFaSx\\iGpb@eHeU{a@rBwJwc@{FzGiJcCoEiK~Gu\\nZwXyEsXxLiIaKkOx@c_@oK{IiIa]sm@ua@um@}LuJhDqB~Ng~@mLsNlJo`@m@sHfFqFeJg^|AmAedA{rAcx@qnC~yA{fAphA|MhpCsQf_@e|@tOw}@uPqPkJmUlJup@hj@eH|aAfDn\\ujDteA_d@sc@abAeVgYjh@el@cMw@`JeUvNaBxJaR|DkcAtKcTsGy`@vNoh@sGcd@lYwZnq@cSkAwJtr@oXzUOpZkFrEpPzb@nJdu@nH`JrAgE|^hJ|p@hYtOpQvn@f@~TcEzK~Fl[sFtg@tLrf@}M~TQpTdSuB~GjNjN`Gb\\jSbJnLdZr\\nGs@zMjb@TuAbIiPrA|OlN{O`Rk@tLz_@mLcFwNpHsCbQiDwChLjK`AhEwHpCrGtJuFw@`XxPbHLfGtKoGeBlOfc@z]gE~CeWeJqSyNmPsXXjg@ab@uJpBxJaPRgChLg\\|Hl]`GQpK~LsJlN~B^fIjI}GvHnOnMmIhC`HpGc@~@nFwJ`RtNpH`KnQ}G|RoHgBkOeXkQtD~AvNsJfAlAjSu^wMtH|O{@dx@qYjd@gMpEnC~TzZnk@IxOi`CvTaJ_E}@dTpQxCwLxMnB~RaIHoBxQgFn@mF}Db@eKsJz@iKzT|LjExAzFqFhHk\\{Nv@xQ}Kbf@{@zMgG_AcAlMq[vTrCbF`GqIfG`AeApRnGvEvBxS{Uj]mr@vAmEf|Amb@|aBjv@ba@zD~IyKtU|x@rd@kAdIdj@zf@fZrQ|ShBlb@boFnGriMde@nEkPncAnCdo@_Nt{@pEph@kN|[pOtq@yNn[CbVua@x[m@`XcjAly@{M~k@{IhJuo@de@wk@pSvH~I}C|KkYnEeUmJeLbGcDeIs[uMmRpY~GxL{@hLqGfCyKoOoNdCdHb\\wUx@m_@w]_AiL_QoSe@m\\aOtAuaAau@cRqdAcNaUoMrNil@bUwn@Bm|@_OkiBl|@wXgK}Qor@mAsj@_ReXxDiYsCiNzQeaAsDsKeJbKeE_A|Iog@}uHvbAf{@`gGwfBbsLnBzv@yb@r`AnOf{@uNtn@{BhaAzP`gA{jA`yEqs@na@wLfV}\\rdDjF~WwCbNdChf@dHzPP~v@mi@xxBckAeRkcJtoRsSjOaw@oOimBmHmVeJob@_v@wTiBw_@jz@sOro@z`@pN`JhZnLpBuDpPlCtJgiCttDgBpsAfLrMbIt\\y@hk@pXjn@KhThJdb@{AjXrZ|\\~E~[{z@jgDwGxgA{rB_CaAqh@iJ}T{eDmi@cxAe}Ge`@_{EwfA_\\}m@ew@kn@uQmA}HsOeKy{De`@_b@`sBqJeCqXiO}\\whAwTiG_bDqjC_}@rO_QgEaHvF{`CkMkw@yS}~@{c@eKhl@]ffAoK`dA_k@~OwtJz`Iue@fB}JpZsl@tm@cDaAsN}EumAoeA{DeXnGeZiUoz@tQiaAmPka@c\\_]_Asq@uGkOq_@eXaCwN|AaVp\\u}@Jeh@`f@sjByGvCgU}BidA{e@waBlIo^da@tB|`AeDp_@_P~YazBjUqn@fa@eTeB{JuKi_Ba~B}KgY_m@yRkWy^yXoL{xAz~Ca`@z^ge@{R}eAicAifB|cCeaAaq@mwAca@}h@il@kw@ea@ws@pXge@}FgUoPwGbJrCzVeEdJyf@X}k@vKoMr@ydA_VgUiMisAofBuoAuCc~@qo@gGwKQgUiH_Kuc@uK}i@g]sa@Yur@ro@qOdB_]cFmk@~Fqm@{V}ZkEe}CnAcyB_uI_O{r@iHkdAeWw_AuXab@aj@pYuq@kGcj@kTyeAty@ydCyyCeg@nvBiaDfsFyd@}Gik@OuY{@_N{Mi`@qEcn@qWq|C|qFoz@eYkIrlCuqGndK_dAgl@sOmXqeAyaAgRga@yNuyBePow@{Vg]a\\cR{c@wf@eRu[yDkx@{IuSkd@yn@en@kd@`V}lCgOuuC{W{ZpBcR}KuSorA}eAoh@itA~]_|HzGeD`CuS~OoLjClErG_A\\cRtEdHhPoJzd@sGnd@zEdAcLdUZnOgSfv@aa@t\\fP|UlAni@q_B{VeVcEwQ}d@e\\dAubAdF{R~g@qx@~Kqa@|e@q}Arl@mpAfFy^Gqs@fV{e@xd@j@bRuMb|@aIf`@iRvF_^rLre@hd@mh@zfDkyDheC_`GnjE{qCbkFv]dSqr@lKiw@pOeSff@uP|D_TSaTqOcXMasB{GwaA~n@inFsLq`E{TfZoz@pa@udAVit@vK{CeLdAiKdGaDkBkGfNmJrIqU}Imd@ma@m@yO_OuU}A{QgTeRrMyd@aByJrKym@~L{PpOaGs@wLgk@dA{Lc|A}|Bwr@aToKd[}Q|OxEby@q`@zqA{s@wf@kAg]{PmK_Ok[{d@{Wg`BbVwjB|{@{[ed@sAo\\c`@sd@_SaKqnCnhCixAkRiVgTb@oNiOgLuOfAgMrKgFmA|FaN}Vye@qYwDkHlXiP~IgBnPiKzHeBlf@_IzH|@pNmNnc@xEf`Eg_BxaCjGz^oVfsFpg@bbCwd@|cFc^|{D}N~pAm_Br[rGb`@mLrWhJpZgUtt@rGfa@}BdHyVfEo]cEsJ_MeUTsi@dQai@~p@khAzI{OrUwn@jB_RuDsUr]vGpPaAz`@mLeLo~@y\\aF{d@kQeXyKbDcP`Tsr@_DkXrKuWoK{UseA`Vyn@jCaZqQeh@y_@mY_NoB_NuQ}qAih@iSnKy^eUe]eCcMhFqWsOCj]maAvqA{OhX_Ntj@_QhT_gAa\\aSnM{YkJ{LzA}z@xc@vFhs@wY~Iwi@ai@e\\sIwXEer@bZsrCfQedBy]Mmg@cHwKgKbS{pBfhAkW|[fAqaCezAefHhRmnBgt@esGzc@ofCc@ul@kIkYjL}_Ao[er@uPyw@`dAcxAgUq\\{Igr@a@s\\xJ}o@gSyo@fYknAcBomAeRsp@hj@_dAfVmQcBsXs_Bo|@iGinAsPkUmUyMiY_mAz@ul@qHmu@`F{g@iF_Wrl@m{Ac@__@vHoIlq@eiEeLk}@`Vmz@fw@wi@ua@yFbbEs~B}Vo\\eSaBQyGgUiM{GkQ{W{NgEwGvHuLaBqDuRzGaPo@`ByG_McJkEaw@jJjAnM{GqMeFhXiVo\\v@_OnIsKgjAfHgBxTbRnNuDj\\kf@{V}NdUiR^sPmWcn@wC_c@cx@ybAwCme@n\\}Hjk@{l@fv@kf@~YaEhZtM}ZzaA`PvlAh^ve@~m@n[vArl@|NpMiBv_@ty@qQzO_j@vh@gc@vNg]r[aQt^_EdmA`KhmAx{@n^bLx^k[nIgQnyCo@jWiHf{Cbg@hlBljAlJgElRca@xEklAzFaNhk@eg@f|Dd`AdiAeqApcEc}C`_@jCna@mf@hTqGnh@{cAwf@sVqi@`HiEuw@sPa{@~B_r@mMwHuLgb@MwKtWeh@u[{gBj@sg@nMm_AXia@jd@ifAvAuOiMerAnI_RjUgL~SgXnDmd@kDie@iIiJuSuAsh@~Swq@aFs^pBeVoiAyt@k_Cck@mo@cKgf@DqPzFgIdh@q]vBiMoFaWlHsOzFmHhUiDv@oP|RuZcSgK_BcuBdrCqlByCaqCpgBheB`aAhWbq@{Cld@bGhOsQtNwd@uHq_@a@_r@dCii@rF{KpRcLpP{@pt@pSbc@eMjOgOzc@vHnQuIh\\{Ud`@ck@zEmb@vZyQtYwhApp@jd@v`CkTfiC_Cp~Bg`@t]ch@zL_HaI}UdvAioAlJcaBdw@wbFPkp@yP_QkV_E~Zes@{Ae]da@or@lc@mc@ruA_e@peAjO|ZsB|`@sVjOcSnE}Zl_@_UgA{Ns{@spBoFiXnHcf@ph@yi@bH{SbKmwA_G}Y}i@gq@Kee@rMwk@~Oc`C~EeZ|^wQze@pAlUag@|[kGvh@}qCit@esBtK_[pNkBsBcyHmk@pKa{@wC}WsF}|@id@_DjQ{Xb@i`@jr@aj@pn@ssBht@sWd_@yXjCqZyIyKhNug@v|AeZ~[om@rOs\\}PmG_NfSyMbVsz@|n@sy@tSkoAra@smA~Vo_@lCkp@nqC{|F~jAacRyv@cM{t@adAb@iIs^c@eGmIkWpC_KxJ_R{Os\\zIcR_@qe@mb@qBeJjO}i@D{^dXsf@j@em@tNkT~D}m@lH{JhAm`@hNci@IiUulAs@jVemEla@c`@c@qvBwTe~@io@dOiWGw[g[sbAgYssAy~AywAn_@_F_[\\ss@|Puf@}@qPdJee@qJyg@_RkNcqBlVi[inA}nAdYwDvCChQka@vQw`AfBaqA{_@wAwg@kSqe@qMolBuFgFkD_c@lQ{e@`@a~@pk@kqBlAaf@nIsOkAqTrIg]mMiF{U`Iej@{]wb@pBk^kWocAbNwZj_@y`@nVwFoAWcb@cPpGwp@vDs}@kAk_@kWkkA{[q_@o_@xw@szBot@quAdAoLvR{Mm@wK_Xk^wAyf@jHyJn[gLlk@{w@c`@ou@_gBk^}\\as@mD}qAiMaSkqBsqFdMgoA{Tw`@Wm\\~Mwy@eJuLr]}cA`Ewf@}AkQ}b@}TlYyx@gKaOkLkBi@oTrRiDx]{`@|DmXaNki@_EyOijAuHaw@mPcY{PoLkm@k_Ak|@{[qq@oDyObZinAorBwz@q^dDiTfL_fAgRq|AkeCdJq_@yp@{tBdgBmpAeg@yoCcn@`KacB_Fww@xj@yWtB{^lb@ipA|Tci@|WmHcjAbWic@|CaZgrDkmAyg@qxEt|Aqa@pMyJh\\}aAlYuJn{AaIdz@aw@lf@}TdtAoCrc@`E~PlJnmCjB~@efAu`@sv@Ia[zMyz@~KgMj\\sfAvSipAdi@bMr~TvaB`RczHxi@pVvzAfLtn@iO~U_e@xj@iIvgBbV|s@pDxuB}Cr`@tLfQvZtg@d`Br[r\\b]l~@rYdrBbw@`tA|XtN|wAsU|iAsrDwEuf@d[a]ve@IlNaKxP}f@`_@a]t|A_bHfEyd@gPmjAlPodBxY{t@mDun@uNu\\VmdBzg@yjArPsrA|nAymGf}@hr@bjAhh@|x@e[pS}XvYudAf[}`@dR{d@~P_O`c@cO~nAkIpm@vB~j@rRhy@jn@uBvb@zFvVkOprAp^~mBzl@frAdqMilGnS_g@lFiw@aZqzAlLilChS}v@zRa_@|Cmc@fS}r@vs@_yAvGseAra@}h@~A_Rc]gi@_AsLvh@cIx]{Ppk@`KjkA_DfOrVbSh@z^}LpfAv]zB|]fd@|}@`NhH~GhXhUlGxX_AzcAlW`b@yExIlr@rNfLfb@tfAjJrCbQP~QkJbOug@bk@kTjMgNfaAnK`Fjg@eHdNsB`|@aKfe@mf@jj@Ht^`Xp]ha@wd@p~@~EvFuDl{@u@nHhqA`QIjM{Gnm@UbXwX~r@qSnXwg@jF}e@hqArMdd@cAfOh[jb@jYwLdsAeQdq@lTrUtSxEz{@ln@rL|TxAvVxTmE`y@eV`x@ps@|P{A|nAaj@bXbH~MvLvYtBbJeEzAyNeLogAb[kNlKyYzM{IvQlJ~SJ~NeLpd@cy@nQmCzKmSpLwbBhb@cGrXrF|MtTg@lLbOdKXbNhRxHdlBzHlFgEyWe[h]mYp]ii@mr@sPpE{NkD{UhMcVtKcq@|NnLjl@d@zJpRt[hNju@{AzJrPjp@~Kra@ga@lh@sCvP{b@l[oAkHm^fJuh@lnAiuAr\\kKrqBlv@tc@|a@x^rcAhEpkBnKzkAzE|zCnHjd@vZ|o@{lAoMuGvb@s]~j@oGnr@xEp\\|gBvv@j^pGhQdd@f{AqoBhHHHyZpHqFdZrEr^l^ze@aCrUq[j`@`Eta@}OoAge@a[i}@pDuJ|LPd@oDiNeh@~XmSxGcPkXgq@dEmOt`@{@ti@eYhy@yKvg@bRti@~Frc@c^`Tk\\d`@xM}DoYnFoV`Rn@xFlNtNbIpd@`FlIqBrSmo@lXyBxGlNbVzC|ByYrJoFnMG~H|H`ZgDde@|QfZ`DjXS`n@ePb\\zHzVcQ|LN~O{^j]oJjIoa@vuArAnn@yM`oA|Dl[h`@x{@{E`Ait@xm@~OnQdb@`zB_EtBwTvv@~E~FnTlv@o[hViAt~@rQp_Bl|@x\\n@ziAy[mFo{@`bAgL~PwK|p@vExQ~ItGdSnJiChSuu@~c@}i@|G{c@xV{Qlk@y_Abu@iJhsAebApMqAzx@bQpj@oSpCxhFj{@xt@lnAhg@bKnkA|Q|U~e@~XfB~zHtzDagC|fArM~\\s`@fiAbc@dfA_JlZdR|hCrw@fZnBdg@uA|tC{b@dpArqLtEpRhZhJ}G|HyCn`@zq@p[vj@pvA|_@_Lbg@zw@|nBbl@zhAi@dl@oOfbA}I`l@mUtpAnCbf@|Qh}@tGrwCiUdbBus@rWMzy@w`Arn@e]jvCgS~f@wP~Cnb@rq@r_@fBvRbR|Zle@xRdw@pJx]ji@liA}StJlIpJfk@~MKfXgQ`Wyh@dYaN@a\\~IwEzd@bUfa@oD|TeJ~Gia@tb@sY?mZzK{Stp@s[va@`r@bb@mV`KbRV|M|p@qIrNdR_A`Xjt@y]lQlJjX|WnLjXjCxNgK`i@`EpHxj@qQb[y@dGv`@gEjShe@nD~i@dTxItNbBhWbiAcf@|K{MrAmOwGuNea@VmKyFlJiLhf@mDje@`FvVnOnZwJt`@WjX`FzJ~IxG{MlK|Bpy@}b@tb@la@lZdBhG_QiXef@bAoKlZkHpPla@nNpKbQjA~Xcf@fp@{f@nM@jJdP_Z`_@nMvCt_@_Q|ZiAdFje@~L?bQrR~C~_BvEpKpPjHrvAoY_@ip@hq@ie@drC}w@pOkHxTqYlh@W|YiHhGmOpNkH~v@}Pdn@uu@_EcbCvL_r@zc@c~@lPseA`h@wd@n}AeNva@aUwEcvGlSq^h[{TzsAuRt}B~~A|XeeA~SfBb`@a[zKrAfMn\\fJzA`H_Hfx@~T`d@oKrVtKzSwPfDiQzKaKz}@kKzUzUb[jD|KlJbDhh@dInGvxBnDfWqCpj@fR`e@jk@xN|c@jX|SrpAqg@jfBr}A``@zf@n^b{@pOrG`eBub@jWp@pP|IbDvQq@z[gQzi@^nRs_@bPib@fa@hWb[`AtJ}d@tx@b`@kDjIpGgExF{t@vMcPtQA`m@{GnRtRz[Cpn@|JpRhXjOtF`t@pQdw@ua@aM}KlDuBja@wElKoMtCwEjObDtj@{p@nyC}t@ld@qN?eSsNuSzBgr@{M_LrG_Mha@ye@cIn@pg@eCtJkXzTaNp`AuPp`@uRnKo\\fEcQyFc^tj@"
                        ]
                    ]
                ]
            }
        },
        {
            "entidad": "26",
            "distrito_l": "19",
            "location": {
                "type": "MultiPolygon",
                "coordinates": [
                    [
                        [
                            "atkdDh`xySlqH_\\tm@~uAvArWpj@nv@Kv]c_@pr@nFlNtUcBzQvPzMn@tRqCdXrCbRoGl[aj@lg@qTjsAsbAjMy]kMwg@l[gp@hHV|]b`@rUrCdCra@v_@iUll@mGxAfRcKjJsg@tjAuI~a@lD`YgB~]`Oth@yEtF@ra@eLnTvGph@oVfz@yPjXVpT{QhUxAhUrItP_DbfBwi@hqAkRrW[lX_Ork@ga@ny@kLff@sj@dYva@jXeK|Y|K`_DkxD`a@mpAZd@vLtGGH~Q}HRBtHji@}@KrrAW`eA_s@l@cqAiCwGlCmFlVvUc@{@jj@wT`n@}VgNeDaHyC~Gw]hLkFjAu[aCgm@r^uc@kb@w\\eHex@ii@bSml@`BawBug@|@eg@jv@}_DznEcxAyj@gn@mJs\\{VuiBZ{a@uIml@hHa_BkXc{Cv@o}@lKedCz|@cj@et@cX_IeNcVeEsqEnu@{]~AqvBkMq@}jAwoAjlBcfDkEoXs_@~IkyBlQme@mQ~M_MfYgr@hXyTmCkbAay@fFub@dWa\\SsQtQ}Z|IaMeHum@QeVl`@cAsQaWql@kc@{OwO{Zji@_p@fu@qn@NgHhW_[qe@ql@ra@a[vVea@jh@e^tFy^|bAtEzn@~c@~Pae@n@qXaLcSfe@eo@n]mYdFeSji@m@p\\sMbLiRfb@uPbOqo@t]nQtm@cVbb@uFtIikCbuA`c@jg@_aCti@mxEbYi_BfGzOdNzd@db@`ZbI`n@vJlGti@y`@`S`BjK`d@k@hz@vUzbAxBr|@tfCnUvo@bvA~^nb@b{@`pB~_@y\\vUsCx_EqsA~Pn@"
                        ]
                    ]
                ]
            }
        },
        {
            "entidad": "26",
            "distrito_l": "20",
            "location": {
                "type": "MultiPolygon",
                "coordinates": [
                    [
                        [
                            "ok_cD~fe|SV|yAlY|AxDf~DrBxrBod@p]uPeXqWmE_JgOa[}Haa@xG~TfY{PpYaC~dAd_@~KBjHuRm@hBnU]xMyd@fp@lLvs@un@sE{Ep|Mk@l{Bqx@v|Ae`AzfAfD|_Cgg@hLu`FbdD_[rVcv@jbAyiBbwAo`AhCeBcTfJ}QhSsGlX{Urm@}Ob_Bu`AjO{NQqJvWgGhNcb@`Ru@dHiMvYeNfSmZrd@oHvI{NjSnCbUyKmL{OvAqJ`RyFd]fBvQuJy@qC}MvAmKmJ{d@`@eA_XnOj@aHkLu\\uGrI`LeGtRdB`Q_IlIyA|OhDzTyOcCi@gKqXaC{@kN_W_@fAmNuUqAk@~^aTdQgBbVqHrEsJiI|@yXnQiOVmL_TKuQrMuI~RrBzLsC_DwDhPwGm_@mDVbXgKeMiAhHkDkJ}BjCiFmEKkCiRgMcGdMhWiHvPpAfHwEhA{CwKaOTkXqVbI_IgMn@qHoGNfW`P`U}IhZxBhMbWgFjJtMaHzEahAxCfEsMsCcLnEuFsA}EyHjDmDoGeClBsIlLrBlN}Ozv@gBtr@}h@yFiJ{S`WyLlXq^yBySdK{QkLc]vFuKkKHwFeOyGrC|Gln@sGvu@qFvIcQ_FgMbJ_GoLeKjIwFqVsR{XeS`LsBpEjJbG_KzVcPdHspByBik@dHkBsEfFsMj^sPd^oe@}DiW~DgMwEq@gG~CmUjx@yc@dWiFn]kqAjYo[zJgYhZyMhf@eXhf@oa@xb@ylBrpCeR|CYxd@sQn@qNxIbD~O}K|JwCnb@_[z`@sI{BsIpEz@y{EquBICykAekAEPmjKa~@ot@sn@{WiWmUo~A{_@qg@a\\sj@ep@au@ib@sa@zOcVcHsM}c@wg@oRet@cP}QyL}\\sk@_`@ScZaO{RkXe^gUsf@mCa[uZ_D}OaYoTaQsr@e@zLmJbImZxPyCdLgfAdcAms@gG}mAfFwvIs_Bib@gUqKkrAhCgkDbj@i~CkRaVcKo_@|PgZnKwhAnMu@hy@b_@fRj@dDuoAbGw[{E{L|R{s@oAy}@`DeS`g@ocATyv@fPueAp|@ulBln@su@e@yWehA}}DxBcy@da@iI`@yuAtHub@ld@{oAdSgpBlRoq@{Pak@hh@yf@fGiOuOcOoYoJoZfBs\\_E{UuPyDcLhX}^hX_Q`kAac@noApOp[CrQaMsKwWcJop@nAyWj\\_i@eQeHiDqQxH{PuBgOqWwa@_IaZbEu[vx@my@|jAvoAjMp@_BpvBou@z]dErqEdNbVbX~Hbj@dt@ddC{|@n}@mKb{Cw@`_BjXll@iHza@tItiB[r\\zVfn@lJbxAxj@|_D{nEdg@kv@tg@}@aB`wBcSll@dx@hi@v\\dHtc@jb@fm@s^t[`CjFkAv]iLxC_HdD`H|VfNvTan@z@kj@wUb@lFmVvGmCbqAhC~r@m@VaeAJsrAki@|@CuH|HSI_RuGFe@wLlpA[jxDaa@}Ka_DdK}Ywa@kXrj@eYjLgf@fa@oy@~Nsk@ZmXjRsWvi@iqA~CcfBsIuPyAiUzQiUWqTxPkXnVgz@wGqh@dLoTAsa@xEuFaOuh@fB_^mDaYtI_b@rg@ujAbKkJyAgRf`@cw@|rAmnBpc@yhAhaAkaBl~BqeFlfEsnAjb@_VjYyBzf@qMhKbBbPbYfA`Vjg@zVhExVvd@vZrwAdc@n~@iGQsa@lt@jKx\\nh@dG|c@hRdRb_ArTlIpW`TdEhNxm@zm@bkA~T|ObYwiBtQcp@jCou@eKqtB_Iqx@}sA{~FrBamCaF_tCgPwq@`D_RPcq@wP_t@xCuFz|BrwAxThUlQ|E`kAbsBvwBt~Bn^v~@ly@ly@pn@bVvOlQnVvIl\\iD`d@k^|cApGtkBk@rJ}Rr`A}o@lOxBbHpJn]rHx_Bjs@fr@pJ|`B~`Bnk@z@~YtInaAcIhmAekAfv@yt@k^wrCbtHcpDnfBnjCi~RdjPp`@bU{pAzgA}eArz@}iN|_LgnGreFewA|lAcxDtbD}jCrjAeqEhzBt@`eCnEl`Q?ldBAj`I_|@dC{EhtP?jFcjCaA"
                        ]
                    ]
                ]
            }
        },
        {
            "entidad": "26",
            "distrito_l": "21",
            "location": {
                "type": "MultiPolygon",
                "coordinates": [
                    [
                        [
                            "qn|aDtf{{S_MbuFkGkKK{h@qHh]b]~hCoAhcA}b@db@kYxCnEguAmFmUkIcEuNlbBdM`ZhUbEfU]la@sYfFdy@nVjUhJ_C_KiKnAeLcQg|@`D_Fz[jm@lbAxK\\lq@sPvkBuXfrAkeBvnFwdAt{Bi]rmAme@zf@}o@pnAeEo@yBgOqPpDZ|a@gTho@mf@hl@etAhmAol@ry@ybBtw@ah@hb@_eBvp@itEho@mKZpAgEfy@eUlj@kFf[sRyFsCyXlEdHoKiEyI{LhLyd@g@_TjSgSaE}LpD{Jo@l@uJ_JiKaFbPh@z^uRgDaGbWqOnAxCbL|LmAxp@yg@`QgBzFjDirA`v@kuArJo~AvTmmAhYqTtNyg@lIchA|d@_l@d@yD_YgD}_Cd`A{fApx@w|Aj@m{BzEq|Mtn@rEmLws@xd@gp@\\yMiBoUtRl@CkHe_@_L`C_eAzPqY_UgY`a@yG`[|H~IfOpWlEtPdXnd@q]sByrByDg~DmY}AW}yAbjC`A?kFzEitP~{@eC@k`I?mdBoEm`Qu@aeCdqEizB|jCsjAbxDubDdwA}lAfnGseF|iN}_L|eAsz@zpA{gAq`@cUh~RejPofBojCctHbpDj^vrCgv@xt@imAdkAoaAbI_ZuIok@{@}`B_aBgr@qJy_Bks@o]sHcHqJmOyBs`A|o@sJ|RukBj@}cAqGad@j^m\\hDoVwIwOmQqn@cVmy@my@o^w~@wwBu~BakAcsBmQ}EyTiU{|BswAyCtFvP~s@Qbq@aD~QfPvq@`F~sCsB`mC|sAz~F~Hpx@dKptBkCnu@uQbp@cYviB_U}O{m@ckAiNym@aTeEmIqWc_AsTiReReG}c@y\\oh@mt@kKPra@o~@hGswAec@wd@wZiEyVkg@{VgAaVcPcYiKcB{f@pMkYxBkb@~UmfErnAm~BpeFiaAjaBqc@xhA}rAlnBg`@bw@ml@lGw_@hUeCsa@sUsC}]c`@iHWm[fp@jMvg@kMx]ksArbAmg@pTm[`j@cRnGeXsCuRpC{Mo@{QwPuUbBoFmNb_@qr@Jw]qj@ov@wAsWum@_vAmqH~[_Qo@y_EpsAwUrC_`@x\\c{@apB__@ob@wo@cvAufCoUyBs|@wU{bAj@iz@kKad@aSaBui@x`@wJmGcIan@eb@aZeN{d@gG{OcYh_Bui@lxEkg@~`CcuAac@uIhkCcb@tFum@bVu]oQcOpo@gb@tPcLhRq\\rMki@l@eFdSo]lYge@do@`LbSo@pX_Q`e@{n@_d@}bAuEuFx^kh@d^wVda@sa@`[pe@pl@iW~ZOfHgu@pn@ki@~o@vOzZjc@zO`Wpl@bArQdVm`@tm@P`MdH|Z}IrQuQ`\\Rtb@eW`y@gFlCjbAiXxTgYfr@_N~Lle@lQjyBmQr_@_JjEnXklBbfDwx@ly@cEt[~H`ZpWva@tBfOyHzPhDpQdQdHk\\~h@oAxWbJnp@rKvWsQ`Mq[BooAqOakA`c@iX~PiX|^xDbLzUtPr\\~DnZgBnYnJtObOgGhOih@xf@zP`k@mRnq@eSfpBmd@zoAuHtb@a@xuAea@hIyBby@dhA|}Dd@xWmn@ru@q|@tlBgPteAUxv@ag@ncAaDdSnAx}@}Rzs@zEzLcGv[eDtoAgRk@iy@c_@oMt@oKvhA}PfZbKn_@jR`V{wAiVecAqYi|@uRgS}AgFxF`YjQwb@`GvBrJpOj@r@bI{LjOhFnGiXxJgGxMzEpJcPfByIxM]pNm_@f^kR`p@cPzFfBnNiXjLzRj\\al@hF`@pG}MrNhSnC_A`PwG`F_XwLmArQb[nTjQl_@d@jRiIrGuWgj@w^gNyuAsXwGdI}J@yz@wUc^^lJliAmThv@oC|ShDjRgm@~`Aaf@zo@ePgKsk@}@cwBmb@iNaa@dAk|@hMa[rRgPya@qkAoKcEwLv_@cm@tHyx@zg@oNjnAwf@v`@cHp\\owAkn@su@awAePmwAoLZ}d@jaAq`@mw@yuBbCyn@gQ}t@~GwrBkG{HcEiCeSkHeuA_W_SnCaTiCuTs`B_T{y@bn@qNaEkXdF}`AgFku@e{@abAsV_u@eCeSxC_b@vn@}g@hFoHlr@kJr@kS}OmLhEg]eYoLwBiHfEqLwIj@oY_J_Pgw@c\\w~@{fA{iCyy@sg@gUiEuJ_\\x@yaBbl@a\\sBeBuJ{IhEw_@wE~@oRhi@{\\bDwJcOwIiEeL{bAlQdJcb@tTcQxKsU}uAuu@zh@eXvHcMhSgeAld@yjAnByT{Me}@oHgVwQ}L{E{Wo_@qw@il@qb@kVkGk^dm@mXxCip@qBePiKfHwQ\\yTik@o~BmGa`A}e@qn@j@oNqRgGex@|BuFfRnCd^}Dt^wDdAg`@yTk}@qUol@cGwZvJwR{cAu`Arw@ml@bx@ig@`Oys@wEt^lcAwTdT|T~g@iL|Nu\\|BapAf]en@hO{{@nDgNtH_Yt@wZp`@w|@vT{ZbMoNbU{GnXhQ`g@}o@xu@mwBfl@gY|Msi@vo@adAzo@mv@hPahAwGk\\aIwx@ui@qd@yf@c_@cByx@zFoVmQ{f@{C_P_]kOwHax@kYyiCki@sm@sZq[~Wo_@lKuE`S~S_GdWjGzOj{@w@z^|Xvp@md@|Aut@wLoKLsIfKmUpAa`@qu@gXeHqsAnSsm@iCeViGyRwSqOuhA|YuUd@a[qoAgcAoi@iiA_w@wBoZm@usAgk@{}@?sk@wVem@wAys@|Qc]fl@_^|Pe}@gEu]qUgf@kyA{TlEsk@iHcFrFkdASwZ`PwZj]kQnh@dCd`Ag\\vu@Qz]sRdf@bEbe@_nCcs@}rJt`CoJaLmXwHq^wk@eRuEca@vEaGdT{^lQ_sAaN{|@iYyTeKkVgu@}I}HqOco@oWqPaOx@wAoR{NeLvDka@qL{ZmEej@kU_QxIyc@iB_Tgq@{bAfN{q@xxA~CnZiCjBolLcJ_e@kq@qd@tEsg@zh@swAsHeh@lCsNrH{FhC}TtLuGaB{B~S}c@a[JeIwBl@kHqUoFtUwgAlh@{h@`H_x@~[i{@qIwb@Ie^md@{NrOgTyFgO`HkLsQuWSsNv^auAvEod@oDs}@|P{{Bpi@g\\x_@sbAi[_v@_AaXvR_^pL}^yJqVuq@mC_M_GtAoRrQcAsq@ce@qB_QpYui@eUeQ{sAaN|IgZsn@`Gcj@xd@krArFmLkEsV}y@jNizA{M{n@gxAucBXgwAjLmZbQqKlLmVl@s`@xGgWnNqRvd@iPlKiLrS{q@uk@ik@aMkh@}JWoO|MsOXgc@gO{VvC}h@yIrs@qzAp_AifCdUw|@q@oKip@}l@dFcTvToVhd@uNzYe[dS_CvVgp@gEw_@uRyFo[xJ_m@pv@mYzFwT}EpCiwA~Owj@qMilAhJuu@pCuuAjXks@nNuu@lM}Tto@ma@|MaqCwEiz@_Le^zJgw@`@wj@dSg^sAwXmYgEys@~Ie}@q\\cRiSdEy_@nx@}mCyd@cb@en@o@Ood@_MoRjs@msDjf@}BjJo}@uDeWhFka@zJkO`gAks@~j@tChq@g^lZiAfFsNze@}BeD}IoM_FvRsgAuE_mA}XrCqO`Mi}AvQeq@qYaOePb^uj@bQxFn\\gEtRoKtPq`@`Nq`AjX{TdCuJo@qg@xe@bI~Lia@~KsGfr@zMtS{BdSrNpN?|t@md@zp@oyCcDuj@vEkOnMuCvEmKtBka@|KmDta@`MqQew@uFat@iXkO}JqRBqn@uR{[zGoR@am@bPuQzt@wMfEyFkIqGc`@jD|d@ux@aAuJiWc[hb@ga@r_@cP_@oRfQ{i@p@{[cDwQqP}IkWq@aeBtb@qOsGo^c{@a`@{f@kfBs}Abt@i~An`@jVrfBed@jOlFpX~[|tAjx@jIxVf@na@|ExH`YnHnOyH~_AkaCn|@gf@|Jii@Ss]tL{@ne@eb@r|@mLdFcI\\gWwEsXdZgHhf@agAf[cFd[fQ|TX|NgFvaAT|wBu_B`LsAn]~OzTd@fVyLrHiT~vAwViZ~kBtk@bOdKbm@jhAjj@|`@dl@oC|TuU|QiLr]fRf{Akf@tH_Sl^}GjvEjXcCxm@`ZrTdw@yQxr@RbTrJ`[r]dHzj@rm@fk@fY`U`i@teBtC`W~Zhn@lXdXpc@vm@xOgMtlBmKgAwHnOyRiO}JBeMa[s[eOiC{T{HkDkKbFyTaEcEjSa`@pLkc@{H{@vUwR_Bik@|d@yL~To[x@cC`F`Uvf@`d@~]@dIyJnOwEUcYq\\iAt`@qKrJA~c@tOdLfAhSdFsGfUcC~J`ItEgI_Dqk@zWj@h_@ij@fXyRlK_Ctm@zDtYcg@jVvItScJdRCpNhD~I~Lb\\fsAiPpxDxa@tEbLdWyWhBiAxc@{JfIfAlVqEzQuy@gJqc@bY{W`@}]hXwLv`@uFvCeo@bD~Zh@|VhKhV{C|XvEhf@cGxS`Eph@}v@|JjDfMn`@pEnk@rLpNd@nR|HpGb@`MlUlNoRdXcHr]}l@vSka@tl@o]vElx@rqA~i@jc@l^vAtw@bs@bGpKhBbb@kCpUnCrNeVqAaNbHaf@gNwRlQ_E|r@fBrdAsTpm@oEtH}g@zDoRvRwa@b@_QpHyFzu@hBlVkh@`eAlDv_@gOjb@jGvF~Cdb@ph@jMgJ|Q{KxC~Jf{BhUbAjLwGzPc\\xGmAlp@nWfDxBaYpi@i@~Wxg@~g@jr@vD|HxIoJ|j@nKxI~EnYzc@pIzEfHqAtGab@lMkPh[se@pT{Rzg@cXpWwi@r[ka@u@jj@~fAl@bm@jg@bk@jr@hIpQuKnh@pEhFjDkBjZ`w@dFrVf]Nfp@vDxBzLwGdK}XhIoAbGsRbc@oMwCoGvGsDHaTfGsDx`@fNlgA_JNxq@dHxCrX`@l_@}Rbn@gDjMaJj}@xcAzfAmaA|ZsEnaAmd@fu@wfAhUim@~Pvb@`RdaBzOn\\|Kvt@pKvIdh@gY|YmBnp@mUdYyYn_@qP`HaXpqBgr@xOzSvc@JjF|E|MqH`H}T`p@mUfs@_Exa@fCvGqDyCsJr[xHdGcFyCsQxGReAsJ~Zc@vIgInTu]rf@{]tP{j@zZ{NjIhDlExTvDgWxRcEz@kK`l@qu@tYrAlRoZnFiWrTkP~JpCxAtXhRhRbj@fJtXp[|f@nBrDuGxUEfHqDtKu`@hIyCfa@lFda@yDnByF{Icz@xY{NTcb@_`@ij@vIyJfa@zDbXtWnRfd@|UbOn_AfWvS_@FoY{[}k@m]q~Aoi@yy@sl@kwBzZ_Knb@w]n[iFdLo]hXoEh\\gk@pl@vIbc@sq@gKck@tv@kC|XoQnHbHvGuYvZxQp[bF~\\gVdSfC~Tzc@vZl_@p\\rQlpAja@p|@he@pgDeh@lMqZjr@wd@hDgl@xW{VpKmaAnKoSrZyL`b@kA`Z}OlJrB`Vxj@li@j\\zfAnmA`_@bBtZwI~CnBxo@wt@`h@kU|TktA_\\ut@aB{e@jkAuEoLcPoZaMP{PeRyTxE}Zsx@{X{IcPqA}SpZyByH{^rNkK|Hub@~XaS`AeLkIqGf@{kAl_CirAlIsJzRi_Avw@wy@t[cr@|e@gDfj@cu@fm@O|}@}q@zc@rDld@uIdj@yk@NiH`p@te@fTfCnr@vZbRNbbAnd@|uDwjEbeA{}AiAaSrP}b@fS_lAxe@qe@pI}WEyPzPqOdPo]rAah@}D_SiPsSxEsf@d~AjKlGjNeE~tAxBlNdOnPda@lExPpSjf@hE~t@bVff@gA~lAoh@vf@mp@zAsz@gU_}AoA{d@lcA{Xba@rDpU}QdTwf@jEs_@yBgRm]sc@lGc^fy@yMloBk|@xLv]bRtzAeIlx@eg@rbBcDpp@|Fty@l[lEdsF{lBvf@SxUpE|vAbr@}j@ejCpiAbz@vdAc@zUqL`f@iLt|AcpAxOpUjOn\\vc@zFfShOrQjg@zHtClZyBhe@uPr^xMhWoJpNX~h@hcA`y@be@`|ClaD|YjNj_GeR|h@u`A~Oay@bb@Q`L{Vx|@lBvk@}Uzd@jLvz@_AjJvF{B_j@lL_[h_B}`@pqAfBhjAdp@n_@dv@`o@pH~_@rVdfAx_@jMdD`_@}W~[}Jd{@ayAhd@ki@Jcj@nD_H|OyF`RmX~FyDxYlEe@{I~EsEbJ|GpJmBk@}E~Yx@pZu\\uZy[mAiaAyMmu@oWij@kSkvBnsDhqA|K_vB}Kiq@p@_y@yUmeAbAqQxVcHpOjAlYgKtRnDbwAanDyZ_vC`}GrzD|zCx^r_CxsFdEjXyIjX|l@p^vE|YhYbLfG~RnM`LtUmG`P{Y?z`@hHVlNgUjJyBnm@vPzYo@xH~Hp`@cEzj@lNl]r@vV_I~EmLdLwDjHlY|Zba@tu@|KbQjQzMmH`[wl@bKq`A`PkKpNRhk@`ZzKha@|e@hA|e@aLpi@kk@rEnBnm@ldBjpAj_LziA|YnOk[tE?ji@tPxXsCbs@lD~N_L`_@Xl|AtZbs@cR|KmQj[dEqApWhGje@aChy@vFf_@wFpWxTpeAsf@lkCaRhN`uEb_Fvr@lj@jpAlGrf@vLrgAaJ~xAMfbA~I}b@tcJxaBbo@`dA}k@xiBiT`^uZfNjRdA~b@mSvjAaF~sAaXlkAfjDrwCha@x}Amo@`rAsp@ff@}Bx}@fcPjaAtVpWtNl]zOh{@dThe@bQxxAfZfp@jRlR~~AfqGlc@zr@jGvWgHvFvAjc@~X~g@nf@t^hP|n@~[`InKlNOhHjTd]hDnXfRzS|oAvr@ha@j\\d{@vZ|d@~`@vjAbb@hp@vf@lH`S_IbmA|VlUjK}LlYnQhEfOo`@hYjGfrB_a@za@e_BvQkJeEnEue@{G_PpCiR}HoNsQcE{h@jHeF`Ip]tpBeGxI{YjAcm@wIuCkD`O`B~A}LqMgOif@`FwXfV`Yr[zZyF`Kb]uElKkYWagAiUiw@dP_b@ve@sKhx@yf@vCuV|SDr[}R`o@}\\pNwk@dk@fFnGzHzB~NiHhLoUrp@{Fv\\gu@jpAegA`cAlp@``@eIjJ`B|G`P_RpXyXrQqTv^ap@|Pib@h_A{z@j]mOjYoIvv@yYfAcA`M}NdL}XwImk@jOeSaBmNfL{e@yBwrArKcgAsa@}XqC\\aPkJX}Sri@asAbs@}Bp_@rBnGtQbEjy@sNq@eEl`@}a@zHbEdBxPbOfHbRmDoJcLnMeBxUnGxXeIjGdLvd@mAxX}Ir}@nCr~@yJt~@pFzzDbClf@bOhkBdNji@qDrl@tP`_@yFdQtFhStWap@fS_pFgu@agBiJidAhBsuB}GkiGdVkpFxr@}kB|i@yh@dPw{DptB{cAhgAij@nYgZlYuyBj~CwgAzuBuhA`m@}sAfaAst@jZ{|BzkCudA`hBin@zwDqR~wCaWfa@sJrf@{JxFqFch@hBin@dc@qmA|@iOqIg]nY}v@zK}kAiUaLkWgAolA`Ng@xl@iYhEc[}Vcm@wEeTnDwW`vAjEf_ByA`e@cFrJuh@r`@o]lHkh@\\_^fIqS~PfYvo@lEdZt~A`{@vD`Ii{EdXnDfd@iOl`@[~S~IjRpOl@|q@f\\rgA`tAvx@ne@`j@lJvf@aQ|OeP|Uqj@tPut@yGyB_OvJoK}LzD}h@{KnDeBmD|P}W|LoDgAww@rNmA|K_AbNfPnAnd@kLjHlLj_AsUzoA}@|ShEjKvFq@iCyWfEdEpDgLiFaItRaaAfGfAhKlq@|LiE|k@qoCrSuGjQea@rRsiAsGin@pNn@dQhKwKd|Aae@zdB}s@hsDwYdoE"
                        ]
                    ]
                ]
            }
        }
    ],
    "parametros": {
        "e": "26",
        "dl": "0",
        "df": "0",
        "m": "0",
        "s": "0",
        "l": "0",
        "mz": "0",
        "layer": "dl",
        "db": "proceso",
        "schema": "suavecito,public",
        "geom": null,
        "padron": null
    }
}