{
    "status": {
        "key": "ok",
        "msg": "",
        "kex": ""
    },
    "distrito_l": [
        {
            "entidad": "8",
            "distrito_l": "1",
            "location": {
                "type": "MultiPolygon",
                "coordinates": [
                    [
                        [
                            "sqoqDhupoSb~AnkChv@|p@rHfTcOrrAdbAfjBdNlpB_KhIzChb@reA`BfYvKre@bDt`@mJj`AfS`rA~_A`bAdbAtj@lXbq@`w@fc@rIc{B~zC~MroAY`c@|b@r`AiBdf@{gBiq@{^x@uGhEcg@ji@y]lP}jCbF_U~Qcj@zwA{LfIk_@bCoh@jX_q@gKuQmReUaIslArMsYbUr`@h{@n[z[~eAj`Ar_Apf@jlAbYvzAjPxeB`r@tkC|SfmA`@zJvFrfBdTnOmAr~Ad|@}e@f}Aeb@}Zsb@kNceBy\\cTzlO|Ut_@{l@dv@}e@nuAl}AdpE|Q{JjKay@tGcFnQiBjh@hYvZoEtj@eaAlaAoy@dPqa@fP}}Ad]qtAvCvQnyAzkBzz@~Ubg@wDv]cNfbAepAfXvBtr@|Y|]jG~QwGxf@_h@`WuKlgCi|@bh@uHncAnEt`Are@`gBrN|KnGvClKoa@yAmS~TqKle@w^bNtU`bAg]lPkTvY_MgHaJ|_@uEWdLjh@nYxWoDhtAh[dz@iAxXlFl]xx@bhCvTfOzPxi@tD|xBy|@biBhAfWh_DlZdr@tZx_@ti@~kAla@|GlRjA~^ocAhlBsPff@vGhs@gDxj@zL~s@pv@{Ah`@sLxNgMbAcm@dg@vA`Z}Uj[vE|Thd@pN~HzMyCby@ky@jh@u^|NmAkEdtAbKfa@fk@vo@dMl`@x@~WiIhp@zChZvPpXtx@zu@s}@viC}PvLy^bq@su@pXcN~YM~cAbHt`AfMdVdm@xWbQdR{Irt@`Kl}@ic@`\\mFd\\rQ~d@dDxBrYaI`Fvj@lInJjUlB|e@tQpI~OqFrl@nFzPdnAtcAsRxp@Sle@xn@jzApOnM~N_H|]wg@|rBeeArhAec@tKgUnQ{HzyCcHv`@e[jW\\paAlZk\\t`AAxQ~]nDpCfSuI|}@`DlRg^~|A]zj@eJpi@fIhg@xU|o@pDleBhSttAgJnPap@nX_^b^fCr\\v`@vd@fq@xV|Hpu@o_@rd@}Afm@wKpPqp@bd@\\rVtSre@nAty@pOzKx]{Bzs@fFtgAs^nIvb@h\\hP_Bhi@hPrWtc@tF~U{LnQveA{sAtRi[zTmSp^vEbvGwa@`Uo}AdNah@vd@mPreA{c@b~@wL~q@~DbbCen@tu@_w@|PqNjHiGlO}YhHmh@VyTpYqOjHerC|w@iq@he@^hp@svAnYqPkHwEqK_D_`BcQsR_M?eFke@}ZhAu_@~PoMwC~Ya_@kJePoMAgp@zf@_Ybf@cQkAoNqKqPma@mZjHcAnKhXdf@iG~PmZeBub@ma@qy@|b@mK}ByGzM{J_JkXaFu`@VoZvJwVoOke@aFif@lDmJhLlKxFda@WvGtNsAlO}KzMciAbf@cBiWyIuN_j@eTie@oDfEkSeGw`@c[x@yj@pQaEqHfKai@kCyNoLkXkX}WmQmJkt@x]~@aXsNeR}p@pIW}MaKcRcb@lVwa@ar@up@r[{KzS?lZub@rY_Hha@}TdJga@nD{d@cU_JvEA`\\eY`NaWxh@gXfQ_NJqJgk@uJmImiA|Sy]ki@ew@qJme@yRcR}ZgBwRsq@s_@_Dob@_g@vPkvCfSsn@d]{y@v`AsWLebBts@swChUi}@uGcf@}QupAoCal@lUgbA|Iel@nO{hAh@}nBcl@cg@{w@}_@~Kwj@qvA{q@q[xCo`@|G}HiZiJuEqRepAsqL}tCzb@eg@tAgZoB}hCsw@mZeRefA~IgiAcc@_]r`@}fAsMuzD`gCgB_{H_f@_Y}Q}UcKokAmnAig@k{@yt@qCyhFqj@nS{x@cQqMpAisAdbAcu@hJmk@x_AyVzQ}Gzc@_d@|i@iStu@oJhCuGeSyQ_J}p@wE_QvKabAfLlFn{@{iAx[y\\o@q_Bm|@u~@sQiVhAmv@n[_GoTwv@_FuBvTazB~DoQeb@ym@_PaAht@y{@zEm[i`@aoA}Don@xMwuAsAkIna@k]nJ_Pz^}LO{VbQc\\{Han@dPkXRgZaDee@}QaZfD_I}HoMFsJnF}BxYcV{CyGmNmXxBsSlo@mIpBqd@aFuNcIyFmNaRo@oFnV|DnYe`@yMaTj\\sc@b^ui@_Gwg@cRiy@xKui@dYu`@z@eElOjXfq@yGbP_YlShNdh@e@nD}LQqDtJ`[h}@nAfe@ua@|Ok`@aEsUp[{e@`Cs^m^eZsEqHpFIxZiHIg{ApoBiQed@k^qG}gBwv@yEq\\nGor@r]_k@tGwb@zlAnMwZ}o@oHkd@{E}zCoK{kAiEqkBy^scAuc@}a@sqBmv@s\\jKmnAhuAgJth@jHl^m[nAwPzb@mh@rCsa@fa@kp@_L{JsPku@zAu[iN{JqRkl@e@}NoLuKbq@iMbVjDzUqEzNlr@rPq]hi@i]lYxWd[mFfEelB{HiRyHYcNcOeKf@mL}MuTsXsFib@bGqLvbB{KlSoQlCqd@by@_OdL_TKwQmJ{MzImKxYc[jNdLngA{AxNcJdEwYuB_NwLcXcH}nA`j@}PzAax@qs@ay@dVyTlEyAwVsL}T{{@mn@uSyEmTsUdQeq@vLesAkb@kYgOi[ed@bAiqAsMkF|e@oXvg@_s@pScXvXom@TkMzGaQHoHiqAm{@t@wFtDq~@_Fia@vd@aXq]Iu^lf@kj@`Kge@rBa|@dHeNaFkg@gaAoKkMfNck@jTcOtg@_RjJcQQkJsCgb@ufAsNgLyImr@ab@xE{cAmWyX~@iUmG_HiXaNiHgd@}}@{B}]qfAw]{^|LcSi@gOsVkkA~Cqk@aKy]zPwh@bI~@rLb]fi@_B~Qsa@|h@wGreAws@~xAgS|r@}Clc@{R`_@iS|v@mLhlC`ZpzAmFhw@oS~f@eqMhlG{l@grAq^_nBjOqrA{FwVtBwb@iy@kn@_k@sRqm@wB_oAjIac@bO_Q~NeRzd@g[|`@wYtdAqS|X}x@d[cjAih@g}@ir@}nAxmGsPrrA{g@xjAWldBtNt\\lDtn@yYzt@mPndBfPljAgExd@u|A~aHa_@`]yP|f@mN`Kwe@He[`]vEtf@}iArrD}wArU}XuNcw@atAsYerBc]m~@s[s\\ug@e`BgQwZs`@uLyuB|C}s@qDwgBcVyj@hI_V~d@un@hOwzAgLyi@qVaRbzHs~TwaBei@cMwShpAk\\rfA_LfM{Mxz@H`[t`@rv@_AdfAomCkB_QmJsc@aEetAnCmf@|Tez@`w@o{A`ImYtJi\\|aAqMxJu|Apa@oeLk{Ewa@o|Co`@fI_l@jYoXdc@pE|PiJ`i@qSdMsKbc@qXd]`G|l@sK`_@ac@hKw\\uF_p@lGwKbU}j@qBiD}Nk[w@ab@uTyGsEac@pa@aF`^uQ|EwLp[w[sJoLrCmGlPu\\vUaHfYyQtNup@zKeHkJ}K`BsJdYqNvBoGtWwgEihCiYb`CeiAgKst@je@}lAzAa]jGcMvNgYqB}A{KpOqs@ha@{PrW_]r^kOl@w_@f]waAdu@qtAriAgdE`Y}TlPq_@hQaQrc@eoAvLkdA}N_p@y@sx@vRaq@bEod@iaIxy@acF{jJwnE{x@oWdx@{l@dwCvNno@?jx@zIfh@}Vhl@a\\dFcJmdq@gAkzbAmyu@rOmxXcGstEbAiJ_ikB_B}jALuh@RchArGe`aBdFkll@lnBy}Ctt@jNrRa@tj@_VfXyvA`pH_o@`WrHxvBpiDp_AdtDzI`HdxI`oBec@{_h@jwCtxCju@lj@zh@vQzM_LdUj@d[kg@~e@gd@r[ks@z[qFlKnLqFne@pSzzAnKt[b{@|w@dS|Ihy@|GtUsAfJ}KdiAoMt_Bu}@rgIufHrx@nmApaPhqq@t`Ast@ta@qr@zRmj@lc@yUtH}OzsAah@teCiqCjO}D~aA}_AvWsP`cBkf@n_@yWhj@iJj[kQno@aGdgAcWzk@sXx{A{cAdf@_s@fg@ef@z|@m]xfAwrB`o@zhCh{AnqKroFqo@dx@fz@`bG`sLxZnrAhAtlBqTzlD~pE@xyAagBre@_[|n@{WvyBeg@x[mUpgBs{B|\\fYtc@fMfdAdhAzy@|e@zYjd@vfBxi@ll@fAvg@gFvFzZ}@fxAfrBnwIwJ~kG}Vl[uI~p@~^|u@`s@r[b[`x@ztFxt@up@t_BeS~xAnGph@u|@bjAht@dyAx_@`^xd@|Uhu@pG~sAp`AnkA|VgfBpxDbAjj@tSjbAunGrdG|iA~eEbp@rGpt@la@ljBruAvX~y@b@|oDhKnb@pj@no@f[|u@de@fiM`rMasC|CsdAji@waAteAmbApqA{v@~s@smBeQadAd\\sUhe@tk@lEEt`BsbC`bBsEzRgc@~uAl^xHld@``@xg@de@ySn{@sBfF~cBr\\vy@h{EmuDbkFpiCfiArf@j_@`Dla@wM~cCqkB~_Bek@`k@uq@jZim@h[uAxhAfpA|v@hWn|CrNjo@j_@psAjf@~nAxDlf@ne@zZze@laCtjAte@\\lqAo~@btAtBrk@}S~o@s{@vfPbL|lOzLqUf[gYjbBrRnkAly@jpA~XjeAiB|uApvAlPpmFxo@zcAm^ve@zAdeBgg@r|@tp@~iDhwGrWkXnc@{Odk@mk@zMyGhVzX}Bzh@nIdr@tVoAvxAt^roAry@~j@nh@vWbElp@uAlYa}Avo@m~@sOs]kv@saAuP_d@yVu}DdKmj@v`AaoAfLmn@bWo[jo@ySrl@~HlyHbeBuOcbLpQeF`QrNnr@mM`RfAxnAei@xYjDhJjHl^eJbfAvApw@wm@~dA_b@z}@gCxJcUx}A}Hfk@u^vKkj@h\\ch@lNqOx}@wb@pc@l@tx@qIvWkEfGsK`t@~D|_AwSpRvJxZeJpPlD`d@}Nf{A|@jI|XjK_CnNdIhk@xEhYnKjXvr@{G}y@xJiPfYwK`@zQ_RnWfU~[qCpp@xWjZrTmAx^_w@tVoWhZgM~_@jK|_A{@b|@tm@cDpjBjC~Xlo@jlDp{ArgEti@f`CqGd}Ah`@nXfXhFx^pTvO`]jCz\\tb@fo@|Dx`@hc@be@fn@v[`oAoKx`@aZxm@`L~c@vStu@dAlk@cGh_BzRxg@{Dxs@_RdjAcj@faBgVnVc^re@ieBvP{Wdy@_k@r@i_AtIwj@xLnfA`f@tjAp_@nTbkAnX|Apu@bn@|_BeHbm@~RpLpFlS`SzGjZ{Av[fUj[yA|h@mMha@w^x`@bo@"
                        ]
                    ]
                ]
            }
        },
        {
            "entidad": "8",
            "distrito_l": "2",
            "location": {
                "type": "MultiPolygon",
                "coordinates": [
                    [
                        [
                            "ats_Eb}xhSnk@{Q~mCq{@n|@aY~z@kXxxBj|N|{JrmV|\\pjHsgItfHu_Bt}@eiAnMgJ|KuUrAiy@}GeS}Ic{@}w@oKu[qS{zApFoe@mKoL{[pFs[js@_f@fd@e[jg@eUk@{M~K{h@wQku@mj@kwCuxCdc@z_h@exIaoB{IaHq_AetDyvBqiDaWsHapH~n@gXxvAuj@~UsR`@ut@kNmnBx}C_Oqws@_VslIjD{TlLqu@j_@mbCrb@sv@fMoXvIgYhWeFj]}HVhEDTxGh]hGlOxBpEbIlJ_BnZb@fSxAjWnTj@nTnRvGjLrKnk@xGV~k@wDoCs[dg@~Z~KrHv\\cDhl@oo@zF|AfMs]fMs]|JwXvSuk@nCaRQkJcAwZDiBPeLeCgMgA{K~B{HhXsMj@{FhEm_@rBaK`@mBXgGmF{CjA_MjYiFvA_@hZaG|GsA|VwEfVsEf@MbXyElI{ArNmCrGqAC_VxQd@rIYhRrAhBHtBme@pLXjMAnNC\\}Gt@oInG@z@oK^oS|IM~@oAwHaL}FsIuBoFnGcH^b@|DuOtHxAfHfAlOrBhTtDpjBdX~JmQjj@nJzgA{F|BgDdp@_n@|]xKnIvJ`HyNpLbNj|CriB"
                        ]
                    ]
                ]
            }
        },
        {
            "entidad": "8",
            "distrito_l": "3",
            "location": {
                "type": "MultiPolygon",
                "coordinates": [
                    [
                        [
                            "{wp`Elz_iSzb@dMdCfMQdLEhBbAvZPjJoC`RwStk@}JvXgMr]gMr]{F}Ail@no@w\\bD_LsHeg@_[nCr[_l@vDyGWsKok@wGkLoToRoTk@yAkWc@gS~AoZcImJyBqEiGmOyGi]EUWiE~AeSbRmWfJsM~\\mi@rEiG|D{HbEcLpHJnHzBs@nDvNnEhNdEXuA`KvCXyA|JxC|J~C|NfExNnElBiJ|R~FtS|F~e@~NnVfH"
                        ]
                    ]
                ]
            }
        },
        {
            "entidad": "8",
            "distrito_l": "4",
            "location": {
                "type": "MultiPolygon",
                "coordinates": [
                    [
                        [
                            "omp`Et`qhS`WEvCSwOlm@}E|Q}ArEgChHLpEGjW|HFh@tG}@`OIvOmRxObh@|]lAt@x]|_@wHhKnMnO|MxNeHtJtRbUmAhl@wA^kYhFkA~LlFzCYfGa@lBsB`KiEl_@k@zFiXrM_CzHfAzK{b@eMoVgH_f@_OuS}F}R_GmBhJyNoE}NgE}J_D}JyCYxAaKwCYtAiNeEwNoEr@oDoH{BqHKq@qd@uF}NeGog@ki@gXk_@}`@yG{p@`Key@tm@qmAtE_d@tSmJt}@yIxDYjQc@tUP|QFfRJdNFlT@xZ@ld@E"
                        ]
                    ]
                ]
            }
        },
        {
            "entidad": "8",
            "distrito_l": "5",
            "location": {
                "type": "MultiPolygon",
                "coordinates": [
                    [
                        [
                            "ozh`Erc`hSzr@cVdRaTfOxe@vOfSddAte@mVlm@eB~KpFlAeElYwFh]q@bEkEbXoChQm@zD_B`KsNvz@cDbAmAiFiB~J{NaAoJx\\uIfIaF|G}AbCmH~RClFNp]B|EyJgD}BpS_D`PsGcCqDzXXvPuAfKj@hJoHfYuJmB{O@msAUsLF{N?UB}`A?wCRaWDmd@DyZAmTAeNGgRK}QGuUQkQb@yDXu}@xIuSlJpHyy@rRuh@xUai@|GuOnLaXlTue@vMs\\vO_]`SwWjg@oNdv@eOjViUrkAuqB|PeRxxAyg@p}@yZ"
                        ]
                    ]
                ]
            }
        },
        {
            "entidad": "8",
            "distrito_l": "6",
            "location": {
                "type": "MultiPolygon",
                "coordinates": [
                    [
                        [
                            "{xe`E~ruhSvKxA^H}DtO_@c@oGbHtBnF|FrIvH`L_AnA}IL_@nS{@nKoGAu@nI]|GoNBkM@qLYuBle@iBIiRsAsIXyQe@B~UsGpAsNlCmIzAcXxEg@LgVrE}VvE}GrAiZ`GlAil@uRcUdHuJ}MyNoMoOvHiKy]}_@mAu@ch@}]lRyOHwO|@aOi@uG}HGFkWMqEfCiH|AsE|E}QvOmm@|`A?TCzN?rLGlsATzOAtJlBb@HhRbDfQtDvDd@xOpEtGnAvH~AbLpBqJ|pA`TxDV~PAfAInF"
                        ]
                    ]
                ]
            }
        },
        {
            "entidad": "8",
            "distrito_l": "7",
            "location": {
                "type": "MultiPolygon",
                "coordinates": [
                    [
                        [
                            "qz_`EnulhSvMxFQxOlJdHjGdF|IkNbSdOnEeKd@\\bCn@|XuChTd@]fb@o@bu@y@ruAyBheBxBf@}BfD{gAzFkj@oJ_KlQqjBeXiTuDmOsBgHgAuHyA_@IwKyAHoF@gAW_QaTyDpJ}pAcLqBwH_BuGoAyOqEwDe@gQuDiRcDc@InHgYk@iJtAgKYwPpD{XrGbC~CaP|BqSxJfDC}EOq]BmFlH_S|AcC`F}GtIgInJy\\zN`AnFn@bPnBhZvDj\\tE~K~AxIx@pIlA`LjByCdr@Ej@`HdAzSbC|ZlDlHfB"
                        ]
                    ]
                ]
            }
        },
        {
            "entidad": "8",
            "distrito_l": "8",
            "location": {
                "type": "MultiPolygon",
                "coordinates": [
                    [
                        [
                            "gnx_E~fbhSpCvNcJtI{E`FhBpJeM|OiKtMuKnMUXeWuSsOgPuA}A}IrOyFkFgCfEiNoMiFlCsJhGyDrF_HqI}NjNaV`V}KdK_M`LuJrIyQ|QsMvMyJfOmCxe@eApQqBjVaLkBqImAyIy@_L_Bk\\uEiZwDcPoBoFo@hB_KlAhFbDcArNwz@~AaKl@{DnCiQjEcXp@cEvFi]dEmYqFmAdB_LlVmm@df@s~@pToG`\\{EtKqIrTyY|GmJ~]ad@dt@{d@pWsNjGwErQqL|Di@fPrVrG`KjJtNyFfDdP~`@~DzJbCdGvWvo@gUbXlPvcAMN"
                        ]
                    ]
                ]
            }
        },
        {
            "entidad": "8",
            "distrito_l": "9",
            "location": {
                "type": "MultiPolygon",
                "coordinates": [
                    [
                        [
                            "ehy_EfafhSjReUlKhKnSv`@nR_SjS~s@m]v_@im@r{@lArAiAf`@gN~@u@p^_@hOgPmQ_MjSuIgK_FzF{CcD}Pn@EbL}JgAiTe@}XtCcCo@e@]oEdKcSeO}IjNkGeFmJeHPyOwMyFmHgB}ZmD{ScCaHeADk@xCer@pBkVdAqQlCye@xJgOrMwMxQ}QtJsI~LaL|KeK`VaV|NkN~GpIxDsFrJiGhFmChNnMfCgExFjF|IsOtA|ArOfPdWtSTYzE`LjMzNbAbA"
                        ]
                    ]
                ]
            }
        },
        {
            "entidad": "8",
            "distrito_l": "10",
            "location": {
                "type": "MultiPolygon",
                "coordinates": [
                    [
                        [
                            "sav_ErotgSbv@aGjd@aQb}@mnCrOmVjq@yi@bsCyo@jW}Kdz@ur@pg@ExToIvx@aHxUqIf_@_Tdl@}l@b^qv@`PmsA~Y_aAtRs]|Y_X`]_Kyj@h~B_Cdw@`GxN|gAbc@htAzdAffDxfDn|FwuC~@~`@d`@bn@lb@bxAhFxh@|q@~eAlAb[r\\l^d}@ka@jbAyl@deAyb@h}@hSfv@pq@hc@~Ix^bf@cDb_AdKtZh_@bBphEihBtHt^l@|bAeIdcAyv@lfBA|v@r^`zAntOrG}i@ny@{sBpcBsNz`G`b@xr@vRxtA[|rAlMxz@fC|bAqhBnsGbt@rt@hu@p^hh@v@jv@mIve@vNhyAhR`eAx{Nc_@fOsTbm@qq@dcDqpF|tBbUx^|[tpAjFxlCl\\prC_P`wC|TrhD|Vr`Bd`ArkDyfAvrB{|@l]gg@df@ef@~r@y{AzcA{k@rXegAbWoo@`Gk[jQij@hJo_@xWacBjf@wWrP_bA|_AkO|DueChqC{sA`h@uH|Omc@xU{Rlj@ua@pr@u`Art@qaPiqq@sx@omA}\\qjH}{JsmVyxBk|N_{@jXo|@`Y_nCp{@ok@zQk|CsiBqLcNaHxNoIwJ}]yKep@~m@yBg@xBieBx@suAn@cu@\\gb@|JfADcL|Po@zCbD~E{FtIfK~LkSfPlQ^iOt@q^fN_AhAg`@mAsAhm@s{@l]w_@kS_t@oR~RoSw`@mKiKkRdUcAcAkM{N{EaLtKoMhKuMdM}OiBqJzEaFbJuIqCwNLOmPwcAfUcXwWwo@cCeG_E{JeP_a@xFgDkJuNsGaKgPsV}Dh@sQpLkGvEqWrNet@zd@_^`d@}GlJsTxYuKpIa\\zEqTnGef@r~@edAue@wOgSgOye@vr@q]fgB}rAvp@ue@dp@kV`v@Gdo@o\\nxAcsA~e@oVbj@{L"
                        ]
                    ]
                ]
            }
        },
        {
            "entidad": "8",
            "distrito_l": "11",
            "location": {
                "type": "MultiPolygon",
                "coordinates": [
                    [
                        [
                            "wnsnDx|kvRhtH~iElHaTjBym@fr@k@b]uTrc@bXll@fMde@~[xg@bJ~j@mGrj@iR`L}^ls@s[|dC|Obc@rRv\\|t@jYlAbStN`_@Bfe@hPrSbMpUhe@pd@tg@dFhLfBhhAvi@pr@zP`f@iBfrGdcB|rAnLjd@sDlV|J`~@mO`XqCld@yYrDyYxNcGvfAk^v`@dDbPtTfOaBjOuWbXm_Azd@mo@xRqa@{Aud@aSgFzFvc@ti@ji@l_@~LzWvf@r[rP`^|LjD{oBdhF}rCh_Au_CtyGml@wZii@bGgfAwK{n@lT}^xYiUx^hJliAuLbqAa[dqApBndCaHh~@m{A`_CgLfb@ln@|@bgBw\\drCcaBrp@~Nrt@lBag@xd@mQfb@fXfdC|h@h|Cx@z{@eWnScY`g@sx@pm@_h@jx@kl@bDeElHtN`e@_Rh[_\\|uAujAloCicBbgD|Ht_@g`@~n@qGlh@lMjdBpMzWKvQpOhR}Upl@gGhE{c@gn@{kBueBs`@}Kmm@xAyCuc@kc@fn@wXjM}d@rp@yo@xe@_Flh@x[doAw@|t@~K|LnPmEhLeM~^hCvKoZlMoAfTnJzQbs@~MbLxi@gG|lAnGbg@gNxV~K`[`a@sGhWlH~Zpg@pw@i@vj@rNzS|Fn`@zWjU~Fhh@lzA|OmRd_@c`Ax_A|pE}F|I`PxLjy@ph@pl@yZzKqVlWK~WgIf[kAnRaYz`@fCbPxSbZhF~aBvQt[jzA`oAbn@nZxr@ywBta@dNlW~Y|k@bCrMjYvt@|MxVhNdRpMfOxe@tQzHrMxWqxDn|O}Ztz@mw@fe@uKeh@}|CuoC{IdqEchCg}B{Ehp@i[piAuNvkBvBhzA}^IwaCzn@slAs[m_@xA{XuEujA~Q}Ulpg@zn@vj@~cBqKbwFoKzf@~MhJqApLkbBl}@wr@xdBjOp|@pQteBkAzn@v_Bx}@h`BaFhwBnc@r}AjSrWzc@tYfd@x|@r`Bp|@xoAwWfu@tFlfBe[hPyRuD}uBvlBwEb~@jxBjp@wQv`@nSddBbErQfGtZv]ft@jKj`@fb@rVbg@|InCxuAjLvZ}KhYg@b}BhTvj@_Ff_@tRrb@dF|uAu[po@p@dh@wFnm@fEnb@oJlm@aBpVcKd_@e`@~Kqk@|Yl`L`L~K}V~\\kAnRlFtTd_@dMr|@hfA|r@ybAt]{VbeAiCvYgGdoEkaC|zBmbAqKrj@nDnj@mE~a@{ZhIkv@zfAdJv}AvfAb~AbE~k@kCjd@hQxpAei@r_@m{@pr@}_@tk@qiC`jBwUt_@}CfU{IAs{@zj@`AvQgFvT`H`m@gU~cBeK`RzAn[_F`I{B~~@~L`v@~b@tn@lo@pf@bXx_@|i@tvJcCzKuZlKaCzyA{Y`p@jAf\\qGzKmD`DuRuEeMlDyrA~fAmRxBoNnYiA|YwOzb@tBhh@qV~^mFnYa`@fz@eNr|@Hp`@yPv_@vEfLExf@}l@rzAiZxfAqg@de@lt@pr@bfAwV]bk@vO~|HnxAxmA_NdIqTb`AwM`D_u@`k@s_@xFah@tc@~Hn{@|Orc@hUpBdt@rl@vMhCnKj_@vMuCtuAtx@tPre@bVtLhOVzHnK{JnOqF~a@mc@pMea@t[aAl[aNtMiW~k@lDpeCgZf~@lBhgB`g@mU|d@dUra@{J`p@bAlPqYheAb@i@|q@nl@`DtBx~Cxi@\\zIHxP|^_BzbAnt@_B{Bl[tErEaHnUoF~@wn@mHi|@nnAzIrb@k@fYnSxg@x[fNzLxPoOxoB}y@`_AvWx`@edA`eAecBpbBey@vr@wHrSR|j@qoBh_Ayx@rt@qAvk@dDpHig@vj@u@lJ{sBfgAkz@`|@ytAtZycAz_@_Q|IcNnWiUwg@mb@to@_bBrlBWqxA}P_b@s@o\\kQ_[fAuf@{HmPiY_OdGq\\u_@_OmEwTWud@tJkc@oLei@rL}Ne`@_[k]id@i`@mK}BaYwNk\\mKiEuZeq@_WcUqOgC^eNiH_QwZsYuGmHg`@sEsImRrJcd@iHiHSmy@uQuwAqMi]az@{aAaCuOkmCm@o`@f[uuFdoEyIzTdDde@lJjV{Kfe@eEzp@tPpc@hWvTht@tIjWzLzWvTbP~a@ju@j\\py@dgAkZ`XRbeAtOjy@sC|^ha@rbAxRjgA_lAfq@rfGpeItn@ndFzkAgi@|@f~@sId[tG`l@T|kCwLlZuHdaCao@tsBuBhv@sVtOsb@tz@}MrK{s@wJwx@uf@gWmm@}Gnd@rXf\\zAjd@cVzcAm}@pgAwj@vWgu@jDzO`a@lhB|~AlEdZrLrMc^vo@_TnhAcc@rw@}pClfBe{AlR{wCle@hYerBco@~FvNi_@{yDj|@oLjkAioAeNeTdPim@lNuMzCcAsGyO}bA_jCezA_iAqo@a`BxKmnEf\\iKdsDqEjK_}@zsBsDpIi~AxrDgsFhlMcyBuWq{Ajy@_mBbl@}R|P_Xkj@s_EhuAhCfLycB|fAer@cB}RzOgk@gU@n}@ge@tlAyIlqAgIv]fE`L}K~Dib@|u@oPfbAiIjHmLr`@qr@pz@sa@Bkg@o`@gF}P^uYs@{w@}Ye^kIci@an@wfA\\sg@kYkVes@oNiXfP}N~i@gHls@mgBzGoOtNzHlv@qiLz|EaNqvAyc@amAiv@{EsQ}ImKkVa@}x@wa@kaA}Wa`D}Jw\\}[wMwsAtDyg@qCmhAy[{K}PuBuUfHolApa@qpBzZ}_@lKsYQwn@dEyQsa@}t@_MauAwt@eLky@v`@_|@jE}\\qYa}@mRes@sr@{J~[cb@bj@qa@ptBig@`rAoOtNs`@{IgU_XsQcf@uDef@tCaMa^gLqa@b_@_]o@oNyF_]s`@yf@yNmyA{a@}y@ohAky@yXkx@_MiIhE`Adf@`_@jw@Nnh@mMx\\ud@fTwUxdAupChJgf@lp@a_@pOkj@nH}}@oVor@|Ds^oHw[{UeEa_@{WmIqIsM_t@ixBxIwa@rA{}@dS}ZCyg@m_@o|AhCuVm]a`@aBc_@jZs}@bDua@~_@ydApGoLlo@sb@bVci@fb@cTp_@q]rGyh@_I{LmOnB_g@vo@ah@lLcs@ba@ox@|OmU~Og~@jKgl@|k@ez@~Duq@uE}m@cA{dB|PaJmNcgA|B_UtIsMhUqb@tCyd@hTqPMmIkGrG_l@ud@WyVwe@}TmQg{As[a_B|WcPuEaVuWwh@B_c@hEuJ`KyQpsAuNhU|H~H{@zJxQnMVvNcFdFefAiA}_Afb@aMeDuKiV}TsPiVqEizAf@ax@hKei@lf@aTrBmI~Yme@nm@gc@kgAck@{u@[sVsNaHmEaMt@yYmZig@gZk}@uDSoh@lPi{B~eCoHnP_YzToPzcAmBpm@iaDwWva@|nAhh@fj@}P`|@{j@k`@g_@{FqqABu|@pdDdmB|}Hid@ft@e@dr@bHfn@}Ghp@uaA|nCw}A~zGcdBpiSxn@jZjWwV`g@rNvi@~u@v{@`h@fQ~}@frI~ZacAdfAilBhlAxzAtrJ_H|FeInb@nEtPwhDjbBrh@rgAjyA~]hxAjcAz{AfL`b@bj@nRdj@jy@neAd]`iBvW`r@gNjj@qdEhyDgEn^vItmAlQveA_Rjt@pjCdVjuRa_VbUhgF~EtxDwApjDsTtqGuE`jEnKzr@`pB~gEt[~aBoBni@{Onb@yS|qBvEpVnk@db@p^bInaAuLfUtJta@bjA_TvHcc@yIkdAj{AqC``@qV~g@uCvdC{YtzBkArw@tBzQv^rz@r_@`_@b~@vf@p]b[fQji@`F|oAeOngA[ra@hM|vAfDxUjXpNtUgFdR`XjIjoBbT|aBoy@o\\ea@q`@kY{E_OfBk`@f`@{JdBcXn[}@jWo_@dCnGnp@e]t_DvBdTd\\lw@`MjzBkFd}@lTvr@`DlnAejA_fAeb@eHoPpH_[qUiYDyPte@_Fjf@pJ`g@h@lt@{NtOUzOqTbSsJcAoB`UzHldBv_@tc@jaAjr@rCoyAhd@{{@bNtUjCvo@fMlp@zlA~}CjGfaBgCzqBpwAfnBcErd@cZ|fA|Fp^m@|_@yUnv@wA|`AhDv]sDhi@ou@p}BxC``@nqB|Bn|@gEnPvD|BpOeY|e@vW~o@|B`U_I||@{t@fwBrArl@mH~cAfFhaBgQnaCrDbwCc|@um@}_Az@_`@kKiZfMuVnWy^~v@sTlAyWkZpCqp@gU_\\~QoWa@{QgYvKyJhPzG|y@kXwr@iYoKik@yEoNeIkK~BkI}Xg{A}@ad@|NqPmDyZdJqRwJ}_AvSat@_EgGrKwWjEux@pIqc@m@y}@vb@mNpOi\\bh@wKjj@gk@t^y}A|HyJbU{}@fC_eA~a@qw@vm@cfAwAm^dJiJkHyYkDynAdi@aRgAor@lMaQsNqQdFtObbLmyHceBsl@_Iko@xScWn[gLln@w`A`oAeKlj@xVt}DtP~c@jv@raArOr]wo@l~@mY`}Amp@tAwWcE_k@oh@soAsy@wxAu^uVnAoIer@|B{h@iV{X{MxGek@lk@oc@zOsWjX_jDiwGs|@up@eeBfg@we@{A{cAl^qmFyo@qvAmPhB}uA_YkeAmy@kpAsRokAfYkbBpUg[}lO{LwfPcL_p@r{@sk@|SctAuBmqAn~@ue@]maCujA{Z{e@mf@oe@_oAyDqsAkf@ko@k_@o|CsN}v@iWyhAgpAi[tAkZhm@ak@tq@_`Bdk@_dCpkBma@vMk_@aDgiAsf@ckFqiCi{EluDs\\wy@gF_dBo{@rBee@xSa`@yg@yHmd@_vAm^{Rfc@abBrEu`BrbCmEDie@uk@e\\rUdQ`dA_t@rmBqqAzv@ueAlbAki@vaA}CrdAarM`sCee@giMg[}u@qj@oo@iKob@c@}oDwX_z@mjBsuAqt@ma@cp@sG}iA_fEtnGsdGuSkbAcAkj@ffBqxDokA}V_tAq`Aiu@qGyd@}Uy_@a^it@eyAt|@cjAoGqh@dS_yAtp@u_B{tFyt@c[ax@as@s[__@}u@tI_q@|Vm[vJ_lGgrBowI|@gxAwF{Zwg@fFml@gAwfByi@{Ykd@{y@}e@gdAehAuc@gM}\\gYqgBr{By[lUwyBdg@}n@zWse@~ZyyA`gB_qEApT{lDiAulByZorAabGasLex@gz@soFpo@i{AoqKao@{hCe`AskD}Vs`B}TshD~OawCm\\qrCkFylC}[upAcUy^ppF}tBpq@ecDrTcm@b_@gOaeAy{NiyAiRwe@wNkv@lIih@w@iu@q^ct@st@phBosGgC}bAmMyz@Z}rAwRytAab@yr@rN{`GzsBqcB|i@oy@otOsGs^azA@}v@xv@mfBdIecAm@}bAuHu^qhEhhBi_@cBeKuZbDc_Ay^cf@ic@_Jgv@qq@i}@iSeeAxb@kbAxl@e}@ja@s\\m^mAc[}q@_fAiFyh@mb@cxAe`@cn@_A_a@o|FvuCgfDyfDitA{dA}gAcc@aGyN~Bew@xj@i~B~s@qjAncAucC|@a^p`@_b@d]{eBtkByoBrRoq@vQq_BMc}C`VsiAa_@s|Bxf@cw@vpBakC`GwWj@__AlBmQ|LcLh_Amj@xjAjNtaCu|@x_@o\\`HcTW_eCjh@md@tyA}i@`Go`@qGm{A~Kcd@ztAmgAnUu[|j@mRfaB_qAzxBy|BvhBg_Ap{A{vAh_AitA|fBc]|c@wY~i@sgEpUkg@duAsxAdp@}aAdYms@fwAevGbeB}`Ang@o{BzVkg@n_AanAnf@u]hn@{WzhAiz@|fB{b@b~@eBrf@uSxc@sg@h\\oSp`@j@jWmGdWkSrw@yyAj\\eeB|Qg[z_A_z@~OacAvl@ui@|o@{CtVgu@r]mUh]kk@rQeo@pa@oQlWcwAld@h@tM_w@l\\oKnL_m@~u@oyBxk@sUjUey@du@`@hTeg@|]oCjz@|C~\\jT~YmCn@uhAhTcm@mAqnAlKa_@rYia@zPeKzMag@gBwn@rOeMnG}d@~^oMrL_g@G{ThWkI~]n@rTgSdE_UpTeWs_@i^ck@eRuZij@lFaSxa@oChYeu@rf@oYxH}f@nTe]ro@q]gb@y}BfGyz@wKixApn@sMnZj`@rt@sg@Owf@{`@iXqQof@zYiQlTcc@dv@wUrZay@}n@eRz`@agAj`@mO`o@bZbd@mU}Ion@lHwfAf[wpBtTeQnTcc@dp@fLpG}d@zpAys@jU{dA`{@qo@v\\pDmHs`@pL{p@la@ga@xn@fFxC{ZjScWvC{^u`@mNmDwXp`@wjB~BkbBrL{p@li@oIjXac@fr@m_@pn@qKjpBkLzk@mSpi@oCja@ee@f]}~@zDur@`W_g@Vsp@vZ}v@oHqn@tf@gYxo@oQzv@aoA~k@mMlw@m]xs@sCla@ca@zeAyEpk@a{@|a@nLnRrPpa@gYxLyf@fyAaB|bAmg@ziA~Ifr@gc@ruAvWxRs`@jNiIt\\wCrm@vCdRkMta@yIbp@eBpSoGvh@ss@bs@nSdiBfHtOkGla@s[|`@mu@|Jwz@k@inAtKeM`bAsJhjA~Npx@cd@|]uEbYc{@|QgYds@{o@zd@mu@vXqGzg@u]`Tau@~p@_X|s@eFx\\dDlm@aHfF{\\dNeSt`@dBzVgg@xJsbAbIaO~{AmtAzh@oo@nSkIdk@xKjiAkh@|ToAbE}R~]uCp`Cm_AbeC}WdeAbQbRgQnRlFvZ|a@zSjJ|XjBpWQ|b@uQdc@YfEaKlWmIfUhNhT~e@pg@kq@dg@~An\\oMpWSzv@nMrr@|fAz`@~M`k@|AheAcp@tWjDjs@fg@nj@u]|h@mm@haAbU|PgI`We_@z`@~KtPcW`]`RlTaa@d`@oY``AdUpk@ok@~H}RxxAl`@`nA~FvOkCnp@pUr_@}~@xUe[pNr@aJcl@vCyVdRgKdj@p[`QkAaBq\\pF_Kz}Aot@b|@sy@hz@eLzKgCtp@om@tc@cu@d`@kYx\\h@dT~_@~H{T|YmM~Kt@p_AguAo@wNnTa]zPeOjc@~ItG{Tlj@oa@j[oGvzAyuAp`@uEjl@zE`f@|M`t@_oA~Myb@~Tl@fY`X~t@{UnRlHx|Amj@pm@a@~_@ce@hOyb@fk@tQhPb`@v}@wg@pBwTt}DagCcBid@pY_e@rLsh@vYc[~Isf@|g@ia@pUwn@pSiEdWcYjKqf@x\\fBr[dLtSkClKw^~\\bNtOgEhAuTiQkLrHmn@fMIvRk~@vP}XjNcIhUm`AkB_v@`\\wp@f[kMt\\oCxTgKnGqd@jNeGtTyAhL~DfIaElHc~@z_@wt@sMg\\bAmb@vKaKrSiCnRlFzLyX~Dq`@vb@ca@Zo^yw@krAnKu^lNgEtK{RpHgv@vOqeBvy@owCzeBqlCviA_VgResAfOqh@v\\oC~w@vG|mANhd@mM|_B_gB~g@e_@jS{Zj~AkVvYyb@fRgGvk@_k@rGq^~d@q~@~g@ac@sImRGsRxI}cA|m@mhAlZ}qAbwB}vB~YeMjYg~@xCm`@hSw^|cAwjAhf@kdAlcAwcFdv@}xCyDww@fF_~CnQwoAty@knAdCiyAhP{eAy@}q@nJmhCdPqwAf\\on@~@{y@b_@wtAsEe_@lJy\\|cAc[hG{Qqd@m{@m@mi@hr@w\\~fAoR~\\~Blj@pVpiA}PtCuCuFgPo}@}n@uGe_@`\\_\\|ZcBr_@|F{BotAzIoDlx@Zxb@}PhVgPhS{_@xTcM|IwQzaA{f@_@uNuU{QI_r@rAiL~g@u\\Iay@rXqaAvUe}BzHgPlcAo`@tBwJsUmi@bIwy@wWyU{BydAsGy\\rAqR``AmlAxRgb@nDoeAuZ{y@{Cq~@oRa\\_AkSbOcTnM{Btc@fMzWeEoH}|@zv@ygBt`@}Er_AdJVkp@vMaq@v@cj@pLmKzm@z`@|HoKyKe_@bA}IlIaMlmA{w@xP_c@|VyTbNqY`MoK~l@`GtU|M~ZmGpI}f@gGwJ}\\aNeAkbAli@}AnLwFrYuc@dLqk@tQiS~e@iVdWrV~Ia_@eEYaC{Mt@aXnJoRdRiAvCgL_Gau@fDeIje@_PvC}I_QwYmBoVjTeWhu@eDgJyQ~c@qaCmAeTmaAgr@ojAqIyZyNcDqKhQu\\|Dqk@~H_Xxa@oNzX\\tWlWzF~x@vFnD`\\{PnXcWzD{ToDqd@cm@sbAoFme@zVqJvUdFbz@fy@z_@ai@mQgn@duW`tNp~RjcL"
                        ]
                    ]
                ]
            }
        },
        {
            "entidad": "8",
            "distrito_l": "12",
            "location": {
                "type": "MultiPolygon",
                "coordinates": [
                    [
                        [
                            "sujnD``sfSxBhReFlZfI_DdGhVtAjDjCxNdDw@tE}AfJsEnM_FpAvEvlAce@rI~XbGaCmAkEb_@}NbO{FjDsAdG_CjNoFtIgDtAe@jDwA~Hn[xNyKjQ~CnD}ApCjJwAzG`DpWgGzBRt@|CbM_PbGzB|IdCnJxDtNjAxEqDtA}PtGyDzArA~FkQ_DmQeDqF}@kGoAuLRCvLmDjO|CjJmGzHiEnEsJ`KoVrWcMpJuQjQiMoQcMlLsDcGsPkBkHyFyIzIiKaUsOhHwLxIuPjPqKlK_j@te@zSpaAf@t`@GpGrLtDxRvXhQxj@`]`uBmM~Mjk@~eAtjAqjBf_@|^|Gb[bCpeBn`@jaAqQpVigAnx@iW|FoO~MaE~[zEr`@pW~e@uUrVeRgAaQtGfGj`EzZpvAd`BlgCnFbm@|XnGfx@fk@vKvu@vj@da@de@b~@bEtkA`Jja@g_@b`A}vAjY_z@rxAa\\gDkXhIyMtY_G`n@fB~jBeElpA~HxX}CbrB}LfI_h@iGaq@b]{f@zG`M`IhMtn@y]fc@qOvG}KaB}\\jTcQ\\iaAc]q\\dAwXiM}w@aO{K~Ckn@wB{g@kOew@wAaqCj]oB|f@hBbIlRbKhChh@wKjMe]w@y[rQyVjCwh@iH{^~SsMg@i_AcUea@rCgEy[in@k@ub@bIsg@o@mp@xYuj@l{@|@rr@qVjr@coAfx@_b@no@`@x|@gIdJ_MOk}@sZ_\\nC_s@h\\kW~a@m_@jOoDlLfOdd@fOh{CoFdQkK|Ckp@g@wCdoCea@~b@uP}@iD}EyCc_A}NyScDwXsQoTg\\iIsMg]kGa_AbJ_o@_G_f@dDo^cT{RyRoB_Lr^_WpXyXlG}a@_C_w@bDq`@`Mkq@z@wJ|hAlGzb@aHhMqPdG{P}KaEuQVuk@oSsi@aO{w@uDiw@fLwl@_CuU{j@_IeShCqk@re@sjA|MyQ{DqYy]cSwSsEkVdJiMzVmCzE}r@rIuO_Km`@xPwSzUi@sk@ov@iX_s@ay@ir@oc@uaAgEy_@_NqXk[bL{p@~`@cP|]cb@fL_FdQmRbOeO_AvGtu@mp@n[oyEbTubAyd@}TyDai@~Bs|@_OkZeUaV}GzRhd@jChi@vKxLdx@p_@dPvAjKbWyRpu@fVhr@aGfQys@nI{]dPa@l^o^neAl@pV{JrXwmCs}BgSos@yFwr@kXsk@we@mVgUuU_^sCca@c[oNcB{LjLuE~TmL@q_@_Qk}@|k@klAvKwxAt{@{{@tOeUvNae@p{@crBgKuRoa@ub@mViVsz@}KcIk\\rl@k\\nSwXt]sd@~\\ik@vR{YxC_m@ml@m[{Mgu@wMuUUgwA~Uk[yBkg@c_@ap@_M}M~BoeBmkCkx@{u@}[eIgg@~FkZsCspB{b@{Hi[c~BqbBea@iq@sc@sNud@o@o~@bYyI~McUigFkuR`_VqjCeV~Qkt@mQweAwIumAfEo^pdEiyDfNkj@wWar@e]aiBky@oeAoRej@ab@cj@{{AgLixAkcAkyA_^sh@sgAvhDkbBoEuPdIob@~G}FyzAurJhlBilA`cAefAgrI_[gQ_~@w{@ah@wi@_v@ag@sNkWvVyn@kZbdBqiSv}A_{GtaA}nC|Gip@cHgn@d@er@hd@gt@emB}}Ht|@qdDpqACf_@zFzj@j`@|Pa|@ih@gj@wa@}nAhaDvWlBqm@nP{cA~X{TnHoPh{B_fCnh@mPtDRfZj}@lZhg@u@xYlE`MrN`HZrVbk@zu@fc@jgAle@om@lI_Z`TsBdi@mf@`x@iKhzAg@hVpE|TrPtKhV`MdD|_Agb@dfAhAbFeFWwNyQoMz@{J}H_ItNiUxQqsAtJaK~b@iEvh@C`VtWbPtE`_B}Wf{Ar[|TlQxVve@td@VsG~k@lIjGpPLxd@iTpb@uCrMiU~TuIbgA}B`JlNzdB}P|m@bAtq@tEdz@_Efl@}k@f~@kKlU_Pnx@}Obs@ca@`h@mL~f@wo@lOoB~HzLsGxh@q_@p]gb@bTcVbi@mo@rb@qGnL_`@xdAcDta@kZr}@`Bb_@l]``@iCtVl_@n|ABxg@eS|ZsAz}@yIva@~s@hxBpIrMzWlIdE`_@v[zUr^nHnr@}D|}@nVjj@oH`_@qOff@mp@tpCiJvUydAtd@gTlMy\\Ooh@a_@kw@aAef@hIiEjx@~Ljy@xX|y@nhAlyAza@xf@xN~\\r`@nNxF~\\n@pa@c_@`^fLuC`MtDdf@rQbf@fU~Wr`@zInOuNhg@arApa@qtBbb@cj@zJ_\\ds@rr@`}@lR|\\pY~{@kEjy@w`@vt@dL~L`uAra@|t@eExQPvn@mKrY{Z|_@qa@ppBgHnlAtBtUzK|PlhAx[xg@pCvsAuD|[vM|Jv\\|W``Dva@jaA`@|x@lKjVrQ|Ihv@zExc@`mA`NpvApiL{|E{Hmv@nOuNlgB{GfHms@|N_j@hXgPds@nNjYjV]rg@`n@vfAjIbi@|Yd^r@zw@_@tYfF|Pjg@n`@ra@Cpr@qz@lLs`@hIkHnPgbAhb@}u@|K_EgEaLfIw]xImqAfe@ulAAo}@fk@fU|R{Odr@bBxcB}fAiCgLr_EiuA~Wjj@|R}P~lBcl@p{Aky@byBtWfsFilM`CfqCxHfR|Kpr@mYnqAkWnm@|S~fBlEhHjO{CpBtTzWfBla@rW`r@_Q`m@oApA~RfHd{@aW|I"
                        ]
                    ]
                ]
            }
        },
        {
            "entidad": "8",
            "distrito_l": "13",
            "location": {
                "type": "MultiPolygon",
                "coordinates": [
                    [
                        [
                            "}nzcDr~stSfb@rYeFlNoZzPwNbx@l\\tu@iGfiBvFdYtT~YO~HnOnGl{@qFji@mo@xZ~uCcwA`nDuRoDmYfKqOkAyVbHcApQxUleAq@~x@|Khq@}K~uBosDiqAjSjvBnWhj@xMlu@lAhaAtZx[qZt\\_Zy@j@|EqJlBcJ}G_FrEd@zIyYmE_GxDaRlX}OxFoD~GKbj@id@ji@e{@`yA_\\|Ja_@|WkMeDefAy_@_`@sVao@qHo_@ev@ijAep@qqAgBi_B|`@mL~ZzB~i@kJwFwz@~@{d@kLwk@|Uy|@mBaLzVcb@P_P`y@}h@t`Ak_GdR}YkNa|CmaDay@ce@_i@icAqNYiWnJs^yMie@tPmZxB{HuCsQkg@gSiOwc@{FkOo\\yOqUu|AbpAaf@hL{UpLwdAb@qiAcz@|j@djC}vAcr@yUqEwf@ResFzlBm[mE}Fuy@bDqp@dg@sbBdImx@cRuzAyLw]moBj|@gy@xMmGb^l]rc@xBfRkEr_@eTvf@qU|Qca@sDmcAzXnAzd@fU~|A{Arz@wf@lp@_mAnh@gf@fA_u@cVkf@iEyPqSea@mEeOoPyBmNdE_uAmGkNe~AkKyErf@hPrS|D~RsA`h@ePn]{PpODxPqI|Wye@pe@gS~kAsP|b@hA`SceAz}A}uDvjEcbAod@cROor@wZgTgCap@ue@OhHej@xk@md@tI{c@sD}}@|q@gm@Ngj@bu@}e@fDu[br@ww@vy@{Rh_AmIrJm_ChrAg@zkAjIpGaAdL_Y`S}Htb@sNjKxHz^qZxBpA|SzIbPrx@zXyE|ZdRxTQzPnZ`MnLbPkkAtE`Bze@~[tt@}TjtAah@jUyo@vt@_DoBuZvIa_@cB{fAomAmi@k\\aVyj@mJsBaZ|Oab@jAsZxLoKnSqKlaAyWzViDfl@kr@vd@mMpZqgDdh@q|@ie@mpAka@q\\sQwZm_@_U{c@eSgC_]fVq[cFwZyQwGtYoHcH}XnQuv@jCfKbk@cc@rq@ql@wIi\\fk@iXnEeLn]o[hFob@v]{Z~Jrl@jwBni@xy@l]p~Az[|k@GnYwS^o_AgW}UcOoRgd@cXuWga@{DwIxJ~_@hj@Ubb@yYzNzIbz@oBxFea@xDga@mFiIxCuKt`@gHpDyUDsDtG}f@oBuXq[cj@gJiRiRyAuX_KqCsTjPoFhWmRnZuYsAal@pu@{@jKyRbEwDfWmEyTkIiD{ZzNuPzj@sf@z]oTt]wIfI_[b@dArJyGSxCrQeGbFs[yHxCrJwGpDya@gCgs@~Dap@lUaH|T}MpHkF}Ewc@KyO{SqqBfr@aH`Xo_@pPeYxYop@lU}YlBeh@fYqKwI}Kwt@{Oo\\aReaB_Qwb@iUhm@gu@vfAoaAld@}ZrE{fAlaAk}@ycAkM`Jcn@fDm_@|RsXa@eHyCOyq@mgA~Iy`@gNgGrDI`TwGrDvCnGcc@nMcGrRiInAeK|X{LvGwDyBOgp@sVg]aw@eFjBkZiFkDoh@qEqQtKkr@iIkg@ck@m@cm@kj@_gAja@t@vi@s[bXqWzR{g@re@qTjPi[`b@mMpAuG{EgH{c@qI_FoYoKyInJ}j@}HyIkr@wDyg@_h@h@_X`Yqi@gDyBmp@oWyGlA{Pb\\kLvGiUcA_Kg{BzKyCfJ}Qqh@kM_Deb@kGwFfOkb@mDw_@jh@aeAiBmVxF{u@~PqHva@c@nRwR|g@{DnEuHrTqm@gBsdA~D}r@vRmQ`f@fN`NcHdVpAoCsNjCqUiBcb@cGqKuw@cs@m^wA_j@kc@mx@sqAn]wEja@ul@|l@wSbHs]nReXmUmNc@aM}HqGe@oRsLqNqEok@gMo`@}JkDqh@|v@ySaEif@bG}XwEiVzC}ViK_[i@do@cDtFwCvLw`@|]iXzWa@pc@cYty@fJpE{QgAmVzJgIhAyc@xWiBcLeWya@uEhPqxDc\\gsA_J_MqNiDeRBuSbJkVwIuYbg@um@{DmK~BgXxRi_@hj@{Wk@~Cpk@uEfI_KaIgUbCeFrGgAiSuOeL@_d@pKsJhAu`@bYp\\vETxJoOAeIad@_^aUwf@bCaFn[y@xL_Uhk@}d@vR~Az@wUjc@zH``@qLbEkSxT`EjKcFzHjDhCzTr[dOdM`[|JCxRhOvHoOlKfAfMulBwm@yOeXqc@in@mXaW_[ueBuCaUai@gk@gY{j@sm@s]eHsJa[ScTxQyr@sTew@ym@aZkXbC|GkvE~Rm^jf@uHgRg{AhLs]tU}QnC}T}`@el@khAkj@eKcm@uk@cOhZ_lB_wAvVsHhTgVxL{Te@o]_PaLrA}wBt_BwaAU}NfF}TYe[gQg[bFif@`gAeZfHvErX]fWeFbIs|@lLoe@db@uLz@Rr]}Jhi@o|@ff@_`AjaCoOxHaYoH}EyHg@oa@kIyV}tAkx@qX_\\kOmFsfBdd@o`@kVct@h~AspApg@kX}SyN}c@ae@kk@qj@gRgWpCwxBoDeIoGcDih@}KmJc[kD{U{U{}@jK{K`KgDhQ{SvPsVuKad@nKgx@_UaH~GgJ{AgMo\\{KsAc`@`[_TgB}XdeAu}B__BoQweA_VzLuc@uFiPsW~Aii@i\\iPoIwb@ugAr^{s@gFy]zBqO{KoAuy@uSse@]sVpp@cd@vKqP|Agm@n_@sd@}Hqu@gq@yVw`@wd@gCs\\~]c^`p@oXfJoPiSutAqDmeByU}o@gIig@dJqi@\\{j@f^_}AaDmRtI}}@qCgS_^oD@yQj\\u`AqaAmZkW]w`@d[{yCbHoQzHuKfUshAdc@}rBdeA}]vg@_O~GqOoMyn@kzARme@rRyp@enAucAoF{PpFsl@qI_P}e@uQkUmBmIoJaFwj@sY`IeDyBsQ_e@lFe\\hc@a\\aKm}@zIst@cQeRem@yWgMeVcHu`AL_dAbN_Zru@qXx^cq@|PwLr}@wiCux@{u@wPqX{CiZhIip@y@_XeMm`@gk@wo@cKga@jEetA}NlAkh@t^cy@jy@{MxCqN_I}Tid@k[wEaZ|Ueg@wAcAbm@yNfMi`@rLqv@zA{L_t@fDyj@wGis@rPgf@ncAilBkA__@}GmR_lAma@y_@ui@er@uZi_DmZiAgWx|@ciBuD}xB{Pyi@wTgOyx@chCmFm]hAyXi[ez@nDitAoYyWeLkh@tEV`J}_@~LfHjTwYf]mPuUabAv^cNpKme@lS_Una@xAwCmK}KoGagBsNu`Ase@ocAoEch@tHmgCh|@aWtKyf@~g@_RvG}]kGur@}YgXwBgbAdpAw]bNcg@vD{z@_VoyA{kBwCwQe]ptAgP|}AePpa@maAny@uj@daAwZnEkh@iYoQhBuGbFkK`y@}QzJm}AepE|e@ouAzl@ev@}Uu_@bT{lObeBx\\rb@jNdb@|Z|e@g}As~Ae|@oOlAsfBeT{JwFgmAa@ukC}SyeBar@wzAkPklAcYs_Aqf@_fAk`Ao[{[s`@i{@rYcUrlAsMdU`ItQlR~p@fKnh@kXj_@cCzLgIbj@{wA~T_R|jCcFx]mPbg@ki@tGiEz^y@zgBhq@hBef@}b@s`AXac@_NsoAb{B_{Cgc@sIcq@aw@uj@mXabAebAarA_`Ak`AgSu`@lJse@cDgYwKseAaB{Cib@~JiIeNmpBebAgjBbOsrAsHgTiv@}p@c~AokCy`@co@ia@v^}h@lMk[xAw[gUkZzAaS{GqFmS_SqLdHcm@cn@}_B}Aqu@ckAoXq_@oTaf@ujAyLofAuIvj@s@h_Aey@~j@wPzWse@heBoVb^gaBfVejAbj@ys@~Qyg@zDi_B{Rmk@bGuu@eA_d@wSym@aLy`@`ZaoAnKgn@w[ic@ce@}Dy`@ub@go@kC{\\wOa]y^qTgXiFi`@oXpGe}Aui@g`Cq{AsgEmo@klDkC_YbDqjBsDcwCfQoaCgFiaBlH_dAsAsl@zt@gwB~H}|@}BaUwW_p@dY}e@}BqOoPwDo|@fEoqB}ByCa`@nu@q}BrDii@iDw]vA}`AxUov@l@}_@}Fq^bZ}fAbEsd@qwAgnBfC{qBkGgaB{lA_~CgMmp@kCwo@cNuUid@z{@sCnyAkaAkr@w_@uc@{HmdBnBaUrJbApTcST{OzNuOi@mt@qJag@~Ekf@xPue@hYE~ZpUnPqHdb@dHdjA~eAaDmnAmTwr@jFe}@aMkzBe\\mw@wBeTd]u_DoGop@n_@eC|@kWbXo[zJeBj`@g`@~NgBjYzEda@p`@ny@n\\cT}aBkIkoBeRaXuUfFkXqNgDyUiM}vAZsa@dOogAaF}oAgQki@q]c[c~@wf@s_@a_@w^sz@uB{QjAsw@zYuzBtCwdCpV_h@pCa`@jdAk{Abc@xI~SwHua@cjAgUuJoaAtLq^cIok@eb@wEqVxS}qBzOob@nBoi@u[_bBapB_hEoK{r@tEajErTuqGvAqjD_FuxDxI_Nn~@cYtd@n@rc@rNda@hq@b~BpbBzHh[rpBzb@jZrCfg@_G|[dIjx@zu@neBlkC|M_C`p@~Ljg@b_@j[xBfwA_VtUTfu@vMl[zM~l@ll@zYyChk@wRrd@_]vXu]j\\oSj\\sl@|KbIhVrz@tb@lVtRna@brBfK`e@q{@dUwNz{@uOvxAu{@jlAwKj}@}k@p_@~PlLAtE_UzLkLnNbBba@b[~]rCfUtUve@lVjXrk@xFvr@fSns@vmCr}BtBrR_gAdbCqhCffBjvAfyBlGpw@ei@qAan@wTcq@cb@qBjSxF~[pA|fBmxDxe@ra@hHpj@~fAxSpo@_@jS}g@pnBbBxQxGtCpQsKfJ{QrPpGzBbkFrrGk@jx@zLxUhZK~{DtCpGn[zf@n{@|V|Uj~@|k@Pff@|Lze@xb@dUu@ju@inFzAyy@rd@c}@nRfL|W|t@tp@|e@xiAeGhV{IrUzH`l@dZzI~WpFpsAv]pdAhnAl`BtLpv@wIv`@wY~XwnB|p@eVnSaVvd@eLrz@f^`_AqDpRoa@nPji@lJ|Y~SlK`}B}Pbc@uYbUzGzTT~b@}eAj}@oKltAqQtKuiA`ScYzk@|YjRu\\tl@{}Al{Bsi@dd@f@llF{KjE_[eEqF}d@ij@RiChRkZhE__A}DmeAzEti@hN|[bAhe@xWdk@`w@h~@x~@rYxm@dLno@hwBhDle@of@`SuKdWg@xw@qAdb@vIpk@fYpZxb@f\\hz@tj@px@aCreB}w@|s@_E|n@uM|SxA|TjUn[lFnZwPp|@ol@ps@cgAx^jS~Uv\\lQl\\|h@yAdWa[|KxNdQ`SdCdN`YaUtb@xA~[hQqXbj@gXjeBsKh\\fGdu@tn@bXtLhhBmAx\\|K|TlT`QwGzh@~Lji@rXxWbBl~Beu@`B}Imh@wt@pDil@nr@sy@vXaXfx@oVhlAq}@vg@kLdd@hHvu@eBhX_C|j@lRlm@s@nNwQpCsUh[a_@z\\}p@l^iS`RqY|Pa{@~a@afAvIabAx[ym@`cAy_AjlAil@tlAq\\rpAcMnwBsKn}@fHvU~LzkDneFdu@wJxeAbE|x@j`AjgBd]jZlD{@|aAzQfRlv@Lr^xd@tCl`@ldCly@~mBgKdSvEx\\gQnPyGzw@t|@|WbOhr@jLppBjeBlLDftDgMjuBt@|XsJdx@kw@gB{Puw@mh@kZeu@wQySalAm|@_G_[rD_JvpAtMhg@Obd@_Htz@{^jk@kJx_@~\\~[~GlVqh@gDubAlEcb@~vAu_DjNaXtoAwx@hxAutAtf@mLjg@`EtmA{u@hpBuo@|x@h@|jAdOh}A~J~UidB|PcTtd@u@jRv[p`CxDv~BsPrWcT{FoIhHqG|L}PvcAuXpLqwC~x@ktCnlAmu@jZyFpm@eh@dbBwp@``@w[fe@Wdt@yWuE_MpNqj@zGcaAyKgZ_`@q\\yYio@ug@}l@oDuiAba@as@}~@epG_}FeRbGarCqAkOmqBodAyz@i^hGcWvs@u[~Zas@b@q\\bPqUrAqU}LVwT`Prt@mbCsEsj@}r@}w@eJ{~@k`@w_AgXoRyzA{UsCuJeGwJdk@{eBmw@ynF?}nAvYw\\nZqA~n@sV`a@B|hAeRvWtGjm@hW|nAraAhIwZtPzcBaoDljCfXhEhl@he@|LyBvb@ca@n|@yLtJ`~@iFlRoCvjGhnDmoAvDmYw\\{w@fS}ZxVeLpQlAjw@i`@vT_Bt^}v@eG}WgzB_k@uTaMrYyhA_Fsq@rOy^`Lmn@bIahAhT}h@|g@e]rQgA~ApUlPvQnNr@xHjHvTkRvVkDbh@zt@lP`b@tUhE|[gAhV{SbM}v@n_@bFzKfS`p@}Avl@|p@|LnD~NkDdPub@hC}a@yCiuAzTgr@kQou@gEmfBkLoKPiOhwAuv@tc@o\\zJiV~MkKvUqpAfFs{@bbAkDfcDiKrBrXkIju@zY|}@o]~mBaAhVjKvFtc@_e@tTdSfHsJlKueArQ}LlM?xg@lDhh@zWrc@b}@p@|L_Or_@Q`e@lk@pf@NrXgVfk@jJhsClLjKpnA`^`PjR`RhAne@fjA_\\ZukE|gHk^`m@lIt\\bUjJztAc@n~@`r@n`@|k@nd@~Sm|@|`AtBbmBkNf[bBrf@nL`_@uI`Y~RrLtEhk@aBjlA`Ot`@eC~j@r{@zoB~`@vqCxD|{@xjAlaBteAtlCfGvi@uEzpA~n@pkAcHbQoOlEoqC|nBqz@q\\arAiGuRoMf@bvA}NzkAm_@tAyLrKqWtYsJ~WdA`P`Grb@lq@zp@lqApBdb@pLoNv{@kSh^}Hng@zSlxCeJfPwt@xh@~Czh@kLnAyi@~sBu{ChuCcgCtbC}V|w@vs@h_AtRdHtZrb@`qAtr@bgB`qB`Oxj@Udh@vN`ZnvAxRfh@`@h^lVdP~`@jHpm@ns@kZx_@yXvc@|ArWkVjTuf@j[oA}BtQ|FvWsPdv@da@hDfy@kP~IfOtM`ZfGf|@sKj]d@xPkO|Pp\\xgAcIzWi`@`b@Hr_@_I`e@rYt^TnN{NxMtAjKuF|IqRrG_BhHtZ|]{Cr_@xWxy@lCl\\vN`ZleAziAe@ba@uGbIwWbFaN|\\y@po@zG~|@yV~o@eq@jl@_eAvhC{OnRdEvl@cIjVfFdr@mFda@mWrc@gGlg@vKlIn_@fF|nAmi@hi@bo@n`A|DnRqEhnBiiCvJaJnQkBbNnMtj@fqAtQdGpTiFbQma@v@u[eVu{AhbBwwCvJwGdTzDjo@~d@rUqEjQoLfd@orApc@so@tVun@u]{XnNio@hWjFzMaCrIyQ}@}d@eOiQ}e@_X{[wD_b@dDj@sJ~Kih@fi@}n@dYwKhYkl@nl@wc@dFqBzj@hEtHcFrS}p@hGkn@dNkZ|lCuqAlp@gAhcAhXbeBpGzg@hLdXwDfm@tb@`IFr^}Bjd@}YdVes@`e@kz@`JykA`WuRl@uJfXc@bH}IUuTfa@k[bMo`@tHsGvw@tFfdA~uB|jA|hAfi@}A_DxMdVbp@qAzr@znBxB`]oa@zOc}@hMmOng@kQ~\\bJzBdVwLvQRbLxQdUoItb@nQrk@cy@v}@V`SlTr]~ZbaA|Q{JjHzHpTcJz~Bo{Bt\\sF`uAnBsOfv@~@vZhU~h@vtBkIts@mR_BjUnMjDh[wCtTnJaD`Io^gD}N~E]b]uWvMcEfPrSli@zYzEcBz]o@xZ}L|Vo^jKq_@b]jJ`d@~^n@NlXrQxSgGzn@zJfHcr@dBaa@r[NdYxGjK|MAtDtMgv@xWgH~~AoN`Aon@`ZsSjAm{@l\\gGrJiIhAwe@iNeUnGaAzSwu@eAcd@|]__@hHkYrQiJbn@ue@h`@eEfYrBzLnM|EzJ`S_@zSwF~Yyi@t}@aCpl@{\\~_AaAva@jJzL~]xLzIfYl[dRzeAxlA~^dRbBrToRtqAiZ`k@eUjHgWuPgf@aEgx@rkAeH|]nNta@~k@fUo_@ba@hGzL~^oD`Pj_@cEz]vT`n@n]tIdUkRbSoDaAjUrOlXgGt^fD~YpOjNdDjUve@fUhVf\\~jA~l@ta@hz@bYlQ`r@xoAbq@t]`j@daAnm@~Nxj@lh@h`@bc@~IdeAluAroAp[fz@xe@b\\bq@lW|v@l|@`b@u@rBiHzJYzh@vOr_@l^zKwFp[bhAmc@zOyiB~yAuc@cDac@fIgv@pvAwZxTsd@nHma@fZqk@hu@}pA|RwX~IeRmJo_@F_QzFoQ~LoCb]eKxWcT~LqF`Z_QrGop@xDqg@ze@`Fzq@sFvW`Hxg@fj@j|@rLle@|e@r`@rJ~[jZdIpsAc`A`nAmO`y@bAvHbEvDrTm@re@kz@vnApPf\\h[bO{Qdn@}@hc@}f@n\\{b@|d@{g@zcAsXpNqUo@qSbIeJpXxH`SmGhMjn@xRdb@fJbE}Btj@xi@rb@jFiApe@iQza@og@~^_R`wAuLn_@{NjO`oAjnCtT`Hrc@kIha@c[lm@_dAvXaJl[bDtWwGnZ|NzNifH~qBgP`M|RjB|c@bXpn@rS_@lnA}hAxCtPk|@zkAgl@nVd@vZ`c@vz@`Fjl@yLbPzBff@f`@pVlCzj@dh@wKca@l{@kq@~[aIxZoiAvn@zWxkAjfCam@psC}kAlPqNzBmXbWqU~b@oL~aBoKz`AgXpa@yB`_@xFzj@e@~MxHjV|N`g@rm@lFvVpBr_AvNv`@l{AthApc@lBxs@nEpCwF|]{@dl@c[vUP|tB|a@fOd_@zErvAdVt}B`n@vmAdItj@_DjUdLfb@eJlUqd@tKgM|SeX~IoS~S`KzRn]jF`Zb[p\\zNjfA_g@pc@{G|WjMbKhWr]f[jY`KloDzr@zUtOjZrEx[kLli@al@|Dw]jQoUhn@qVbHwPrwAyM`WwTdM{]F{c@sXwi@hQ}]r~@}i@~pAkmAmF_VuS_He@mQdJ{SiEqPtYePbGcL}XgTnnAfAfcBpSvWeFd[oRhXiBzOrOdh@aZ`c@uJhY~DbPzRjx@hZjlAtAdr@pOxy@jFr@pWqa@hEgNjy@rNr~DpZx`A`eA`mBtq@hZzZ|Dxr@zr@}@jh@b]fh@cEzYv`@rp@bf@zjBrH|FpH~Fl\\lCdTfQbh@hhAnQpQrTtv@nv@rl@vLvh@mSnhAqj@~g@|UiA`X|EvYpb@c^lUo]xh@cv@bZa^l\\yW|d@gSdL`JpQvUxPhi@jHlL~HfWj\\~Opy@sBlG_|@fb@ap@dKmJ|w@kYvq@pA|OhL`Dvg@bx@rb@y`@`P_BjZpGfWhR`q@zlApBxq@ff@tJxWwS|CfF"
                        ]
                    ]
                ]
            }
        },
        {
            "entidad": "8",
            "distrito_l": "14",
            "location": {
                "type": "MultiPolygon",
                "coordinates": [
                    [
                        [
                            "}iqkDx_|kStE~Let@xWge@Va`@v[ebBvp@qm@dh@kZxFolAlu@_y@jtCqLpwCwcAtX}L|PiHpGzFnIsWbTw~BrPq`CyDkRw[ud@t@}PbT_VhdBi}A_K}jAeO}x@i@ipBto@umAzu@kg@aEuf@lLixAttAuoAvx@kN`X_wAt_DmEbb@fDtbAmVph@_\\_Hy_@_]kk@jJuz@z^cd@~Gig@NwpAuMsD~I~F~Z`lAl|@vQxSjZdu@tw@lh@fBzPex@jw@}XrJkuBu@gtDfMmLEqpBkeBir@kL}WcO{w@u|@oPxGy\\fQeSwE_nBfKmdCmy@uCm`@s^yd@mv@M{QgRz@}aAkZmDkgBe]}x@k`AyeAcEeu@vJ{kDoeFwU_Mo}@gHowBrKspAbMulAp\\klAhl@acAx_Ay[xm@wI`bA_b@`fA}P`{@aRpYm^hS{\\|p@i[`_@qCrUoNvQmm@r@}j@mRiX~Bwu@dBed@iHwg@jLilAp}@gx@nVwX`Xor@ry@qDhl@lh@vt@aB|Im~Bdu@yWcBki@sX{h@_MaQvG}TmTy\\}KihBlAcXuLeu@un@i\\gGkeBrKcj@fXiQpXyA_\\`Uub@eNaYaSeCyNeQ`[}KxAeWm\\}h@w\\mQkS_VbgAy^nl@qs@vPq|@mFoZkUo[yA}TtM}S~D}n@|w@}s@`CseBuj@qx@g\\iz@qZyb@qk@gYeb@wIyw@pAeWf@aStKme@nf@iwBiDeLoo@sYym@i~@y~@ek@aw@ie@yW}[cAui@iNleA{E~~@|DjZiEhCiRhj@SpF|d@~ZdEzKkEg@mlFri@ed@z}Am{Bt\\ul@}YkRbY{k@tiAaSpQuKnKmtA|eAk}@U_c@{G{TtYcU|Pcc@mKa}B}Y_Tki@mJna@oPpDqRg^a_AdLsz@`Vwd@dVoSvnB}p@vY_YvIw`@uLqv@inAm`Bw]qdAqFqsA{I_Xal@eZsU{HiVzIyiAdGup@}e@}W}t@oRgLsd@b}@{Axy@ku@hnFeUt@{e@yb@gf@}L}k@Q}Uk~@o{@}Vo[{f@uCqGJ_|DyUiZkx@{LsrGj@{BckFsPqGgJzQqQrKyGuCcByQ|g@qnB^kSySqo@qj@_gAsa@iHlxDye@qA}fByF_\\pBkSbq@bb@`n@vTdi@pAmGqw@kvAgyBphCgfB~fAebCuBsRzJsXm@qVn^oeA`@m^z]ePxs@oI`GgQgVir@xRqu@kKcWePwAex@q_@wKyLkCii@{Rid@`V|GjZdUr|@~N`i@_C|TxDtbAxd@nyEcTlp@o[wGuu@dO~@lRcO~EeQbb@gLbP}]zp@_a@j[cL~MpXfEx_@nc@taA`y@hr@hX~r@rk@nv@{Uh@yPvS~Jl`@sItO{E|r@{VlCeJhMrEjVbSvSpYx]xQzDrjA}Mpk@se@dSiCzj@~H~BtUgLvl@tDhw@`Ozw@nSri@Wtk@`EtQzP|KpPeG`HiMmG{b@vJ}hAjq@{@p`@aM~v@cD|a@~BxXmG~VqX~Ks^xRnBbTzReDn^~F~e@cJ~n@jG`_ArMf]f\\hIrQnTbDvX|NxSxCb_AhD|EtP|@da@_c@vCeoCjp@f@jK}CnFeQgOi{CgOed@nDmLl_@kOjW_b@~r@i\\~[oCj}@rZ~LNfIeJa@y|@~a@oo@boAgx@pVkr@}@sr@tj@m{@lp@yYrg@n@tb@cIhn@j@fEx[da@sCh_AbUrMf@z^_Tvh@hHxVkCx[sQd]v@vKkMiCih@mRcKiBcInB}f@`qCk]dw@vAzg@jOjn@vBzK_D|w@`OvXhMp\\eAhaAb]bQ]|\\kT|K`BpOwGx]gc@iMun@aMaIzf@{G`q@c]~g@hG|LgI|CcrB_IyXdEmpAgB_kB~Fan@xMuYjXiI`\\fD~y@sxA|vAkYf_@c`AaJka@cEukAlKmApi@~OnNgI{E_XnEac@uOkVySwMiZm}@iScPqh@kNa{@mrA{GsNrJ}q@_JkVaYs\\nNyJho@vW`fAlF~MiEU}TzImHxSlKfS`P|Rtc@~h@rMf`A~oAhN~p@pEfbAbNbP|hAqf@nk@wDfUcFjLsKpT{c@dHq]eBaMtTiPvKu`@~q@}y@fk@e`AtScFx\\oe@tDkAnb@fh@d`@jK~k@uO|JhA|HfL}N|TdAtUrj@lUlt@~K`I|^fQrUd{@bK`\\bLza@fVrMfSiq@rRiNxK}CzM}{@fj@QlkA{IrkA}d@tQtR`yBrKtP~XxKpHvPbRL{BhSjGdH`k@hHvi@j]vx@p[pWpSzaAlPxgAbf@fg@v_@tTjf@|b@mRfXkCbq@j@dP|KnO{@zPcNfWpa@tN|r@`@jd@`M|k@aBdlAc@zeBlm@gBtbAsb@bLbOvVOhQpPnK`h@wZhVgLjX}vA`r@nH|a@dZbQ~IpSSfZZbPzHnGuXtUcJx]_b@fu@ks@bo@`ClYtDhArnAkOsSznAaP~e@vY|VvRzv@`H~E}]t@{x@nWzW|VRht@bg@dMb@xKi\\tPnw@uA}Xlt@e^xh@qFr\\|{@u_@fO[_Fx[`[eFvJiJmAlRvDxD~lAhKtr@uTd^iB~PeKxCsLnP_ChL~OmNhh@dCvM?|nAlw@xnFek@zeBdGvJrCtJxzAzUfXnRj`@v_AdJz~@|r@|w@rErj@st@lbCvTaP|LWsApUcPpUc@p\\_[`s@ws@t[iGbWxz@h^lqBndApAjOcG`rC~|FdR|~@dpGca@`s@nDtiAtg@|l@xYho@~_@p\\xKfZ{GbaAqNpj@"
                        ]
                    ]
                ]
            }
        },
        {
            "entidad": "8",
            "distrito_l": "15",
            "location": {
                "type": "MultiPolygon",
                "coordinates": [
                    [
                        [
                            "qzknD~r`gSFqGg@u`@{SqaA~i@ue@pKmKtPkPvLyIrOiHhK`UxI{IjHxFrPjBrDbGbMmLhMnQtQkQbMqJnVsWrJaKhEoElG{H}CkJlDkOBwLtLSjGnApF|@lQdDjQ~CsA_GxD{A|PuGpDuAkAyEyDuNeCoJ{B}I~OcG}CcMSu@fG{BaDqWvA{GqCkJvOkQjJsLp@{@|EeGvDgEdOiQvGeIlQmTzTeXzF`TxApFlDbNlD`NlD`NdSmHFXdb@ePt@SdXrChOjBpGx@|AP~DhAhCZhUeKnAu@xVkDfBLpN`AvMhA`_@`Dph@rZtc@vQvDuErFrChMvj@nOx@|GqF_AbHpQeA~JvM|SnPnJ{DnOfJrStdAnIjK^}OtGu@lGiMxJxHnQTdh@jbAuDdCzEtPig@|lAbZ`J{`@pVvCnWrEjA~pBsx@aAeEhKsNnaE~uD`zB`k@lhCl^j|@dh@|h@iBju@{NnqAbVn_EflDen@rhBwc@`nBcIjs@sRnOmiAfc@mq@`kA_r@nw@oFtn@~k@luAbOvMIja@sa@jPue@v`@up@|Nk[zQuEfPVtc@wGtNo\\k@}p@w^s_@rDsqBiPsMgS{a@gVa\\cLe{@cKgQsUaI}^mt@_Lsj@mUeAuU|N}T}HgL}JiA_l@tOe`@kKob@gh@uDjAy\\ne@uSbFgk@d`A_r@|y@wKt`@uThPdB`MeHp]qTzc@kLrKgUbFok@vD}hApf@cNcPqEgbAiN_q@g`A_pA_i@sM}Ruc@gSaPySmK{IlHT|T_NhEafAmFio@wWoNxJ`Yr\\~IjVsJ|q@zGrN`{@lrAph@jNhSbPhZl}@xSvMtOjVoE`c@zE~WoNfIqi@_PmKlAee@c~@wj@ea@wKwu@gx@gk@}XoGoFcm@e`BmgC{ZqvAgGk`E`QuGdRfAtUsVqW_f@{Es`@`E_\\nO_NhW}FhgAox@pQqVo`@kaAcCqeB}Gc[g_@}^ujApjBkk@_fAlM_Na]auBiQyj@yRwXsLuD"
                        ]
                    ]
                ]
            }
        },
        {
            "entidad": "8",
            "distrito_l": "16",
            "location": {
                "type": "MultiPolygon",
                "coordinates": [
                    [
                        [
                            "{_smDbzlfSpJhGcJbRvD`CcM~WxDdCwHdPuB}DuTbNeGuByC}@oJ}CcLtP{HzJ_BBeBaDcF`@M~Qw^qCyAzWqNaAgBMyVjDoAt@iUdKiC[_EiA}AQqGy@iOkBeXsCu@Reb@dPGYeSlHmDaNmDaNmDcNyAqF{FaTjO_RyIw\\{GyV{DgOhGcBfCuJrRwa@oB{BvO}PzAaOpE_s@tA]nUyc@GaDjMaBdFsNbDrBp@}B`Es_@dMge@xBoFnHeR`KwClTxCv{@fa@nZa\\pIkC_@nFnFx@hKhAj^~EvZbEtDLfDJdHVdBEpAdFjI|TrPIxExDrHdG{RfSrBxOxEza@dA|k@uGxj@mJo@aKxOwMrXuI|Q"
                        ]
                    ]
                ]
            }
        },
        {
            "entidad": "8",
            "distrito_l": "17",
            "location": {
                "type": "MultiPolygon",
                "coordinates": [
                    [
                        [
                            "}i`nD|trfSq@z@kJrLwOjQoD|AkQ_DyNxK_Io[kDvAuAd@uIfDkNnFeG~BkDrAcOzFc_@|NlAjEcG`CsI_YwlAbe@qAwEoM~EgJrEuE|AeDv@kCyNuAkDeGiVgI~CdFmZyBiR`W}IgHe{@qA_Sam@nAar@~Pma@sW{WgBqBuTkOzCmEiH}S_gBjWom@lYoqA}Kqr@yHgRaCgqCh~AyrDrDqI~|@{sBpEkKhKesDlnEg\\``ByK~hApo@~iCdzAxO|bAbArGtM{C|oAzU`c@wCk@t_@jVoGyZlrCwT~ZfMhPwClW_JpJrAfGhMrUz[hWmHlUtNhHSzAiEne@gAhJaBrQiKiAoFy@^oFqIjCoZ`\\w{@ga@mTyCaKvCoHdRyBnFeMfe@aEr_@q@|BcDsBeFrNkM`BF`DoUxc@uA\\qE~r@{A`OwO|PnBzBsRva@gCtJiGbBzDfOzGxVxIv\\kO~Q{TdXmQlTwGdIeOhQwDfE}EdG"
                        ]
                    ]
                ]
            }
        },
        {
            "entidad": "8",
            "distrito_l": "18",
            "location": {
                "type": "MultiPolygon",
                "coordinates": [
                    [
                        [
                            "uvpjDxadgSQtiAnc@tnA}UvZyDjRvH~I`e@rLnRvmAoJpXgj@dt@myBzuCyM~e@}M~P_~@fm@JsUcX}v@uIqx@nEsq@nf@atA}Rgv@gx@n`DoCdl@|Cjr@{\\lh@cq@xUq\\}Auk@}VwSdBqi@cO{GqNyv@l^cO{Ee@e^|o@_|@jL{[T}~@hk@qcD_[gHeT|FuPyBwR}LcH|e@wUfPmYfBmKkKoGkd@g^wb@w@kd@nQ}i@ub@`Qcl@oCgUbFoZiD_^bMsxAbKw`@{E_|@~Xe_@gH}h@tKqN{Bji@xsAybCtPoqIvj@{jCzEcSnVqiGiqCo_EglDoqAcVku@zN}h@hBk|@eh@mhCm^azBak@oaE_vDiKrN`AdE_qBrx@sEkAwCoWz`@qVcZaJhg@}lA{EuPtDeCeh@kbAoQUyJyHmGhMuGt@_@|OoIkKsSudAoOgJoJzD}SoP_KwMqQdA~@cH}GpFoOy@iMwj@sFsCwDtEuc@wQqh@sZa_@aDwMiAxA{Wv^pCL_RbFa@dB`D~ACzH{JbLuPnJ|CxC|@dGtBtTcNtB|DvHePyDeCbM_XwDaCbJcRqJiGtI}QvMsX`KyOlJn@tGyj@eA}k@yE{a@sByOzRgSsHeGyEyDsPHkI}TqAeFeBDeHWgDKuDMwZcEk^_F`BsQfAiJhEoe@R{AuNiHlHmU{[iWiMsUsAgG~IqJvCmWgMiPvT_[xZmrCkVnGj@u_@ac@vC}oA{Uhm@mNdTePhoAdNnLkkAzyDk|@wNh_@bo@_GiYdrBzwCme@d{AmR|pCmfBbc@sw@~SohAb^wo@sLsMmEeZmhB}~A{Oaa@fu@kDvj@wWl}@qgAbV{cA{Akd@sXg\\|God@fWlm@vx@tf@zs@vJ|MsKrb@uz@rVuOtBiv@`o@usBtHeaCvLmZU}kCuGal@rIe[}@g~@dxGqyCfkAleAniAfJ|yCzrAhd@fYfRzZ~JxWlYrT`uBx[hf@w@tEeBpA{Wpx@s|B~~Eob@mMjVqCfa@sw@ziBuX~hAcUja@bf@npGvPjj@jFrf@pMzSvBl`@d_@zk@bl@p^nO_X{SdqGcNveEjXfDvVaQ~Qq`@dT]jq@jb@~w@nZp^tBr]`OvbA_En_BrbAhVdHpDnqE`~ExAr@u~E``BxaAlr@js@f^lp@pj@zYfDpJwYdi@aCdSzDt[}O|e@rI`}@qUzi@cLl|@{[v\\|IxI|bAb[pyAlKswBpxA_QlVdBxP~MfM|Jdp@tMlWta@js@prA~bAhP|sAlZ|q@a|@dkA~EhZt`@ro@zH|p@ySftAtRlnBl_@`jAzAx[}R`d@"
                        ]
                    ]
                ]
            }
        },
        {
            "entidad": "8",
            "distrito_l": "19",
            "location": {
                "type": "MultiPolygon",
                "coordinates": [
                    [
                        [
                            "axsjDhoabS|gEMrdClBIzKhQ|ZwZdb@fI|l@k~@rJqMl]zEnw@`IjMbq@bMhW{HrK|^~v@`f@tMlWvg@jc@YxOsu@|h@k@`jEKn|@l[dAz@mTdMpSlMJzeAx@t@v{@lRbyAjs@k@t\\jWzo@jvAap@lEbG|m@bj@~_BeNb_AjGbKha@a^`@n_B|hFxzEkvIdlIthAtHdO|KfXhBv{@d|AsDv^|LhsBtKj]`Q~sAn\\n|@lbB`hBlLlA|`EvzBr|@vyAxv@tb@`o@bnA~VtVtW~Cbn@ldLmjAbq@gnAb\\gLvZgo@{Zk]{Dk^pd@gBr~@aMpM}\\HrC~o@la@naAsPpz@q^fw@i^t`@_u@dZwj@~e@wMz]cvBdpC{qAtV{w@rbAyHiv@gKaQmOaCwAgh@eUqr@{KiB}{@`Buh@ja@kbAd]kwAvD_gAfY_XvVoAftCfLrRj`@rSvh@tIcNtI}_@vn@{EvhAyFbEse@kJya@dXqgAfxAqWtyAgRhNij@}H}iBgn@oQyG_UkW_NgMeByP~PmVrwBqxAqyAmK}bAc[}IyIz[w\\bLm|@pU{i@sIa}@|O}e@{Du[`CeSvYei@gDqJqj@{Yg^mp@mr@ks@a`ByaAs@t~Ea~EyAqDoqEiVeHo_BsbAwbA~Ds]aOq^uB_x@oZkq@kb@eT\\_Rp`@wV`QkXgDbNweEzSeqGoO~Wcl@q^e_@{k@wBm`@qM{SkFsf@wPkj@cf@opGbUka@tX_iArw@{iBpCga@lMkV__Fnb@qx@r|BqAzWuEdBif@v@auBy[mYsT_KyWgR{Zid@gY}yC{rAoiAgJgkAmeAexGpyC{kAfi@un@odFsfGqeI~kAgq@yRkgAia@sbArC}^uOky@SceAjZaXqy@egAku@k\\cP_b@{WwTkW{Lit@uIiWwTuPqc@dE{p@zKge@mJkVeDee@xI{TtuFeoEn`@g[jmCl@`CtO`z@zaApMh]tQtwARly@hHhHsJbd@rIlRf`@rEtGlHvZrYhH~P_@dNpOfC~VbUtZdq@lKhEvNj\\|B`Yh`@lKj]hd@d`@~ZsL|NnLdi@uJjc@Vtd@lEvTt_@~NeGp\\hY~NzHlPgAtf@jQ~Zr@n\\|P~a@VpxA~aBslBlb@uo@hUvg@bNoW~P}IxcA{_@xtAuZjz@a|@zsBggAt@mJhg@wj@eDqHpAwk@xx@st@poBi_AS}j@vHsSdy@wr@dcBqbBddAaeAwWy`@|y@a_AnOyoB{LyPy[gNoSyg@j@gY{Isb@h|@onAvn@lHnF_A`HoUuEsEzBm[ot@~A~A{bAyP}^{IIyi@]uBy~Col@aDh@}q@ieAc@mPpYap@cAsa@zJ}d@eUag@lUmBigBfZg~@mDqeChW_l@`NuM`Am[da@u[lc@qMpF_b@zJoO|N_]{Mic@fI}^hs@n@lXnRlSmTjQJqHvO`G~NaCtJ~FjHvLJiQdN~a@~UaHvH`_@f|@~Bde@_OlTjGjQ`HrEth@VjZlb@`a@aDlEgNd[qGHtQ|JbB`PuSp_@{I@dNxNlKnQdg@`{@YdbBg@hA}IwKeU|BkMbe@oTrKsU`H{BiBbWxHxiAdc@a@|^_@|^]ncAPznCI`j@CnTA"
                        ]
                    ]
                ]
            }
        },
        {
            "entidad": "8",
            "distrito_l": "20",
            "location": {
                "type": "MultiPolygon",
                "coordinates": [
                    [
                        [
                            "itbbDb~{wR}kFp|c@iy@phRphAplCxtAhfIpr@|o@khBjuCgFp\\`eAxeQscArkAu`@pIeeAho@gr@b}A_o@lZcx@lz@iuB|o@m~@vQ`Gb`@no@tnApYxbApS`XreAtmDj^qa@|b@sAp_@cS`o@gIgh@}q@@}z@z_@q_@l_@om@he@eUdu@{DpzCqbAdc@hoEfN`\\xh@v^~Xr]xa@bVhY{QdOzKhaCpt@|_CzlA`i@rjAtdBxiGfNr[|g@bf@uf@bmBzNhCdP}Epf@c`@j\\t_@dTt`Azb@`u@lhCxyA~SpY~g@nQzFyIbGmnAvOpe@dp@ts@~fDnv@hvB|_AjuAz]xZ|Q`Bt]bd@lWdnAtXrqAj{@jq@lIlq@gCfdBk]n~@aA~k@lKheDlaDlvFjbGoBtz@{Hlf@cr@lUcUns@ipBhPjEjSbu@|e@|GjOk@jdAyM`\\}\\vNoUvt@ea@|UoVv^_JbaAqdB~k@cZhh@uLbHyWz@oNtQ}a@pSa^vj@ouA~cAi{@zjA}s@t\\ua@vx@_c@pW}SlXif@`zCww@sGe}@pCemBln@yPvtA{uBdiCri@|sC|zCvfEdk@tHaBdwAcBbh@gkDxsC_dBtvCvyDhwIqhAnzChwDrkFhcCetAfcAjdC|u@n`AaMdJ|n@rqAbiDd_Dew@`]m`Azm@_`A`Z_y@ve@q@zE~o@peDaBxf@hfCrkGwFpMsXfXuT~Eww@nHkk@{Daa@vCr^jt@m@`_@fSvl@hXvElHbb@bSiHbRlPsDnJ{J@qd@td@aVrt@}NjNnJrp@cGb_@eVrJ__@wHo_AlOu[~tArCrc@jd@fGeEh[vCvLzWpIjI~KrP_FtAtVrOxRwHz\\fEpPlu@zDwAlU{d@vqAuX|YmQd_@{ZhErPjJxGfQ}PbYm^nNab@i@u_Aag@kY_HwY~Oca@cDaD~Kac@vWpNtfGqy@fwGkYuEkX}TqO}Agm@va@}LUaEj[kKm@kG{U}ZwHaNgQlAk^wPoj@zMuP_o@z@os@`TsD`OwUkCcYfi@_CxYuEXeo@sb@{j@iFCmT}\\hBpBwI{HaMwDyThNib@iWwHkQgeA{HmJAaOyt@m\\}_@tW}MB_[yX_kAoXoOuBm^zF\\iKgd@}TqNkWwOix@nPygAlW{bC_Jwi@q]iWaaAsAyj@jEg[zm@sV`PsEtS_`@jRgx@dC}oAfTesCyKaPyE}]rDqn@mIgV{Kuq@i]_MwOqG_ZqOHmB{Usf@~K}UhSo`@`HiUz{@eEt@s\\dx@yCxVyVj`@cXvKeS}@mUiL}a@lManBlCcDbBxBvLqSvDee@sZmxAab@wA~UaJzPaBhe@nGbo@}A`LkZ~a@wBxVxBrnA|Q`TxD`i@kBxm@fM|Tg@`O|WriAf@nMaa@~Aik@xI_a@~e@jf@`eCuHlCy{Bfx@`A`MoiEzeFqAkNa_@_j@aQud@_OaLmMok@cb@}^qp@wl@kz@{V__@iAiw@zp@xIt|Akk@zIyv@G}LrMkj@`E}jApbA{Jq@iHyBqAo^uUme@q@uP{Ykb@us@~`AihAxaAsBaBmlA{|AgW_~@cSq^aa@ii@kYeOgf@`Bq_Alr@gg@xBeTrP_Og\\iX_IwVeYgHhAa`@is@o_@wFuS{LtSmGdd@ef@`_@asBqAc\\ud@eLmm@wx@uTcBcs@{]}Kq@yX`LkKeEiIoG_NxBqa@}OyXkA_]|HwfA~Ayg@nWoM?eEwIyHq@iXhNgW}Ecc@|H{J{B_o@{{@_@s_AeU{]slAwQux@`]spBt`@aQfU}k@rFsRqJeE_Il\\_S~Ly`@iIqy@qvA}jDuEc`@wW}VqOtGwHfV{BjaAsKt`AdGn~A_J|iAdKny@iNzu@iWdC_LgDuEhHr@`LqPdPux@k\\gUbCol@nZ{t@bHqNk@oa@e|@wF?{SdUgd@uZ{JrGcEpQ}LpDel@}PcGlf@gIhYuD@cZa_@u^_KoIm[mu@mA{Ta\\o[z@ej@u_@{v@nT_i@xAeCgHbH}d@gDkN_z@~Rq[qLmYwAwQ}KJ{]wEgAkf@~@if@nSmJcHlAm_@yFeHmNnRoK}Hq{@n[wRcKcUt_@{YxGPbL_Svi@e^uH}YjBa\\{NaPlOyVrA@rMf}@~EfRlTcEnN}ZdCql@lTcQD_J}R{YdMcB{ElPid@yR{Ro[iCq@dEkXlBgHpG_ZaDss@rr@fBp[wF`FaG|d@xSnWMtMmOp\\MfOkM~S_]~T_NnAoKyEm@nN_YyR}K`CxSxRwFnDoYuH`EfJpc@dDfDnFmUp]aI`C|IzHqApGme@kItC|EoBhRwSFoOvGOvFb_@e@lHbOgCrPag@hf@gOpt@jCbn@}Cpi@yTl}As\\t_AyAjt@mXjtAFzk@qq@`g@ag@po@kTpeAi{@j{@cRzCeMy`@wRsBm[`Nsk@wJkJrGmQ`b@}i@fD_OhS|Eh\\uIrXy\\}b@qg@cTkGgKw@mf@yM{j@oKuI}Xb@wfAif@sMoMwBuWmVsLsGpUc_@fJ`L~p@jOzRoTzh@lBvWf\\dYiGdHiHziA{Pjl@d@nNaMfPwG`@oHkH}a@vReZ~wAwM^u@hWs`@jt@kt@xmBhjBxgBlb@l\\fs@f{DsRzc@wShUw}@zFqAyDmh@wF_}ArMyJoDa`A|FuN}DkbAti@}Ltp@{EvcAbMz}Ayg@fq@lnAp{Dbd@`}Def@vj@gb@jYsTuGci@`P{zCq]eNayC}[xCaTcFcVuSik@u{@}f@uF{~@av@uHoZkAmc@_^a[mKw`@uY}YcQcc@eq@yKcU_Q}LrFg`@}CafAkXml@bGeUmC_\\kSqKsw@eZcTsj@?fFzh@vMhb@kQfDuHyKyHOuu@re@um@pEyv@ub@s|@wyA}`EwzBmLmAmbBahBo\\o|@aQ_tAuKk]}LisBrDw^w{@e|AgXiBeO}KuhAuHjvIelI}hFyzEa@o_Bia@`^kGcKdNc_Acj@_`BcG}m@`p@mE{o@kvAu\\kWks@j@mRcyAu@w{@{eAy@mMKeMqS{@lTm[eAJo|@j@ajEru@}h@XyOwg@kc@uMmW_w@af@sK}^iWzHcq@cMaIkM{Eow@pMm]j~@sJgI}l@vZeb@iQ}ZH{KsdCmB}gELoT@aj@B{nCHocAQ}^\\}^^ec@`@yHyiAhBcWaHzBsKrUce@nT}BjMvKdUiA|IebBf@a{@XoQeg@yNmKAeNq_@zIaPtS}JcBIuQe[pGmEfNaa@`DkZmb@uh@WaHsEkGkQ~NmT_Cee@a_@g|@`HwH_b@_VhQeNwLK_GkH`CuJaG_OpHwOkQKmSlTmXoRis@o@gI|^zMhc@}N~\\{HoKiOWcVuLuPse@uuAux@wMtCoKk_@wMiCet@sl@iUqB}Osc@_Io{@`h@uc@r_@yF~t@ak@vMaDpTc`A~MeIoxAymAwO_}H\\ck@cfAvVmt@qr@pg@ee@hZyfA|l@szADyf@wEgLxPw_@Iq`@dNs|@``@gz@lFoYpV__@uBih@vO{b@hA}YnNoYlRyBxrA_gAdMmDtRtElDaDpG{KkAg\\zYap@`C{yAtZmKbC{K}i@uvJcXy_@mo@qf@_c@un@_Mav@zB__A~EaI{Ao[dKaRfU_dBaHam@fFwTaAwQr{@{j@zI@|CgUvUu_@piCajB|_@uk@l{@qr@di@s_@iQypAjCkd@cE_l@wfAc~AeJw}Ajv@{fAzZiIlE_b@oDoj@pKsj@}zBlbAeoEjaCwYfGceAhCu]zV}r@xbAs|@ifAe_@eMmFuTjAoR|V_]aL_L}Ym`L_Lpk@e_@d`@qVbKmm@`Bob@nJom@gEeh@vFqo@q@}uAt[sb@eFg_@uRwj@~Ec}BiTiYf@wZ|KyuAkL}IoCsVcg@k`@gb@gt@kKuZw]sQgGedBcEw`@oSkp@vQc~@kxBwlBvEtD|uBiPxRmfBd[gu@uFyoAvWs`Bq|@gd@y|@{c@uYkSsWoc@s}A`FiwBy}@i`B{n@w_BueBjAq|@qQydBkOm}@vr@qLjbBiJpA{f@_NcwFnK_dBpK{n@wj@|Umpg@tjA_RzXtEl_@yArlAr[vaC{n@|^HwBizAtNwkBh[qiAzEip@bhCf}BzIeqE||CtoCtKdh@lw@ge@|Zuz@pxDo|OsMyWuQ{HgOye@eRqMyViNwt@}MsMkY}k@cCmW_Zua@eNyr@xwBcn@oZkzAaoAwQu[iF_bByScZgCcP`Y{`@jAoRfIg[J_XpVmWxZ{Kqh@ql@yLky@}IaP}pE|Fb`Ay_AlRe_@mzA}O_Gih@{WkU}Fo`@sN{Sh@wj@qg@qw@mH_[rGiWa[aa@yV_Lcg@fN}lAoGyi@fG_NcL{Qcs@gToJmMnAwKnZ__@iCiLdMoPlE_L}Lv@}t@y[eoA~Emh@xo@ye@|d@sp@vXkMjc@gn@xCtc@lm@yAr`@|KzkBteBzc@fn@fGiE|Uql@qOiRJwQqM{WmMkdBpGmh@f`@_o@}Hu_@hcBcgDtjAmoC~[}uA~Qi[uNae@dEmHjl@cD~g@kx@rx@qm@bYag@dWoSy@{{@}h@i|CgXgdClQgb@`g@yd@st@mBsp@_OerCbaBcgBv\\mn@}@fLgb@l{Aa_C`Hi~@qBodC`[eqAtLcqAiJmiAhUy^|^yYzn@mTffAvKhi@cGll@vZt_CuyG|rCi_AzoBehF}LkDsPa^wf@s[_M{Wki@m_@wc@ui@fF{Ftd@`Spa@zAlo@yRl_A{d@tWcX`BkOuTgOeDcPj^w`@bGwfAxYyNxYsDpCmd@lOaX}Ja~@rDmVoLkd@lhB|q@~mG|dD|W|T~qQrcKj`NfhId{PvfJ|fJdlDpXfWnYxKvaVxjIblAjk@bmFlfBxlMl|EpjFjbB~jEnvB~gAp_@tNpMhkTa{N`j_@etDn}V}xCxv_@suEzcDsI|pHaaApxE{`AroOmvB~uMopAjlAci@thJ{sAb~NkoBp`ZsmD"
                        ]
                    ]
                ]
            }
        },
        {
            "entidad": "8",
            "distrito_l": "21",
            "location": {
                "type": "MultiPolygon",
                "coordinates": [
                    [
                        [
                            "w`fbDdpceS}BtZlEfXr[tUfUzDu~BvmDyHn[qd@l~D{PeGcDzBv@hpA_QzFiMxPgWao@{_@sb@yUuHye@{@ql@xl@qc@vKqF`Vi}@pWeHpGqH`]|FpPw^x^sGpQ}OtJnIrSlYhFnI~Na]np@o{@`p@jDfUqEtPzEdKjf@fINzp@bSh@nc@sR`MfGb@fKaL~c@k_AxkAmQvbAoj@do@hmCfhAunC|pElNnu@mYn^_H`[}d@p^lTbj@sE`KjLlZ_E|AQ|Op^d]eDxLgt@fs@ie@pJyf@zY{Ud@kNgCc_@rn@kId\\wd@xj@so@|EyHrCiHfRgUpMgVp@aArCpQzONbc@pNrPmJtZfEhXuRtoArCje@mMpJdEbOlMfKP`LqOjo@oMnQyHtFye@|EaQeRq|@`]}k@bBa^vPaQ`VyGh_@}LvIa^bByX|OiVtCyX|YcQ~f@wd@tZoxCvzAy{B~oCyjC|{CmjArQ}i@t@u_A{f@}@bHmJxlAbPveAoOh_@r@ne@iWlN}i@vCgH~Ra_@tWrPjb@_Aj`AiJph@Rh{AcTdm@`kChaHc`AvJwkJr`@_MnTgT`E{HxLyHsC{w@nP{d@b\\_PcLaa@uJs`Aw@eRpMeBhUeRvSu@jb@dSxeCkh@`_Du@bj@`JzyArRrJ~w@jpBcZ|uAbuA~q@hLxg@z[`ZhKne@oK|c@bJjgAs@rk@~[gUbPi_@`PcE|Nji@eAz`@sBlG{IVbGfkA~`@dj@rSrMtFhK`Bj_@eq@|RkW|\\o@wSyH{Lm^q[m\\kK}@wx@iK{VkKY{HdOsQAuRjNApTcRlQfJlb@rSdOjKn[iXY{GxSkKlGrErW}JjNfF`IsAlGsPvSNzV}ZpTwDdHfFnGoMvIkIhUhKne@iW`LxKb`@cBz`@{YjDeDxIh\\xq@eS~ReDlNdDhKvw@hf@bEra@bb@`Sdf@`q@`AbLuPdm@Ntd@q]hUgFrMcBlb@rEx]{IxVa@ll@wb@ne@{FtSwXra@uvAyIiYtFkp@t~DyHiA{Iem@m]cj@eTcV{z@sa@nOc`@{JeO`A_ScR_Ssu@|aAqBvZmLvSqBll@y{@js@yIll@oO}EsRy]kKp@wGtFrBb`@m]pJcTnQmn@`B}lAoQ_OwIaPg\\sSoGaRiAkZnGiKrMqA`g@~^bj@~M`Ba@lNdSpJna@q@~Lne@pb@{Bhy@|OxWfR~^hKtCrh@cf@hdAiJzLyH?mM`g@qb@fRuVjAeUjNlAh_@mc@{EwGdE{[uFo_@rTwXjDo_@lXqSp[y{@`S_P|`@uVbLo`@zg@}o@fYoz@y{Bqr@rTaa@p@mp@nNqQhKwWX{Xmb@hI}VwS{q@Le~@wF{]yfAwx@gZhf@fFhm@oPfRPfYk\\dO}_@zn@_PpJap@{Vqr@mG{h@if@}]}OugAfj@wXbBk\\~Y{[pGgYbg@sdBaEuFnQcd@j\\gHaBuyB|u@}nAxFk}@uL{i@{pAnFyMkh@{n@cEsa@oQ}_@gZu_@qm@qMiCgt@sIuSyAqv@ma@fDgVoEyKk[t@aZtuCszAvVq]p^mbBmJoo@bZyKzD_TIq}@asAiH_Tg[uk@`IcZhJyk@zd@i_@no@cj@|n@de@atCt^ct@rcAedA`^gaArj@{n@v^eyAei@A}YcJkp@xFkk@oGcQam@osByG}LeDoOsd@_RfCoWjPgZpBm~@oIcVvAsYzNyKx@cp@eOqRgb@}j@oNmMFx@|n@qcAuCuRqFui@fJu\\zb@il@lFk^fM}aB`rAow@``@w_A~Y}wAqe@aYp`@}Cza@lcAl{@pVhp@`j@~l@YtfBii@aGgXnEau@lkAk{@bfAmRbMhFzL_Vd^mOvGeOk_@qf@nPki@vx@mD|a@{MhLkA|SwZ~MqQFea@iTycB_c@sx@_z@qRodAyU_Omq@_w@qQgDgk@pIm`A`qA{v@`d@oDh]}OfIyd@dm@eL~Z{N`J{q@on@eh@pIuNua@sO_LwlAnKi_@rVqTfFoT|T_[sSy]lIqCxM{M~IgNpYodA`Ief@{@gk@fNmp@|AaGp\\grArc@cm@|`@aq@lw@ma@nIuXcRys@xA_o@qkAtE{pAgGwi@ueAulCyjAmaByD}{@_a@wqCs{@{oBdC_k@aOu`@`BklAuEik@_SsLtIaYoLa_@cBsf@jNg[uBcmBl|@}`Aod@_To`@}k@o~@ar@{tAb@cUkJmIu\\j^am@tkE}gH~[[oe@gjAaRiAaPkRqnAa^mLkKkJisCfVgk@OsXmk@qf@Pae@~Ns_@q@}Lsc@c}@ih@{Wyg@mDmM?sQ|LmKteAgHrJuTeSuc@~d@kKwF`AiVn]_nB{Y}}@jIku@sBsXgcDhKcbAjDgFr{@wUppA_NjK{JhVuc@n\\iwAtv@QhOjLnKfElfBjQnu@{Tfr@xChuAiC|a@ePtb@_OjD}LoDwl@}p@ap@|A{KgSo_@cFcM|v@iVzS}[fAuUiEmPab@ch@{t@wVjDwTjRyHkHoNs@mPwQ_BqUsQfA}g@d]iT|h@cI`hAaLln@sOx^~Erq@sYxhAtT`MfzB~j@dG|Wu^|v@wT~Akw@h`@qQmAyVdLgS|Zv\\zw@wDlYinDloAnCwjGhFmRuJa~@o|@xLwb@ba@}LxBil@ie@gXiE`oDmjCuP{cBiIvZ}nAsaAkm@iWwWuG}hAdRaa@C_o@rVoZpAwYv\\eCwMlNih@iL_PoP~ByCrL_QdKe^hBur@tT_mAiKwDyDlAmRwJhJa[dF~Ey[gOZ}{@t_@pFs\\d^yh@|Xmt@ow@tAh\\uPc@yKcg@eMSit@{W}Vzx@oW|]u@aH_FwR{v@wY}V`P_f@rS{nAsnAjOuDiAaCmYjs@co@~a@gu@bJy]tXuU{HoG[cPRgZ_JqSeZcQoH}a@|vAar@fLkXvZiVoKah@iQqPwVNcLcOubArb@mm@fBb@{eB`BelAaM}k@a@kd@uN}r@gWqa@{PbNoOz@eP}Kcq@k@gXjC}b@lRuTkf@gg@w_@ygAcf@{aAmPqWqSwx@q[wi@k]ak@iHkGeHzBiScRMqHwP_YyKsKuPuRayB|d@uQzIskAPmkA|{@gj@|C{MhNyKhq@sRrqBhPr_@sD|p@v^n\\j@vGuNWuc@tEgPj[{Qtp@}Nte@w`@ra@kPHka@cOwM_l@muAnFun@~q@ow@lq@akAliAgc@rRoObIks@vc@anBdn@shBpiGhqCbSoVzjC{EnqIwj@xbCuPki@ysApNzB|h@uKd_@fH~{@_Yv`@zErxAcK~]cMnZhDfUcFbl@nCtb@aQoQ|i@v@jd@f^vb@nGjd@lKjKlYgBvUgPbH}e@vR|LtPxBdT}F~ZfHik@pcDU|~@kLz[}o@~{@d@d^bOzExv@m^zGpNpi@bOvSeBtk@|Vp\\|Abq@yUz\\mh@}Ckr@nCel@fx@o`D|Rfv@of@`tAoErq@tIpx@bX|v@KrU~}@gm@|M_QxM_f@lyB{uCfj@et@nJqXoRwmAae@sLwH_JxDkR|UwZoc@unAPuiA|Rad@{Ay[m_@ajAuRmnBxSgtA{H}p@u`@so@_FiZ`|@ekAmZ}q@iP}sAqrA_cAua@ks@uMmW}Jep@~TjWnQxG|iBfn@hj@|HfRiNpWuyApgAgxAxa@eXre@jJxFcEzEwhA|_@wn@bNuIwh@uIk`@sSgLsRnAgtC~WwV~fAgYjwAwDjbAe]th@ka@|{@aBzKhBdUpr@vAfh@lO`CfK`QxHhv@zw@sbAzqAuVbvBepCvM{]vj@_f@~t@eZh^u`@p^gw@rPqz@ma@oaAsC_p@|\\I`MqMfBs~@j^qd@j]zDfo@zZfLwZfnAc\\ljAcq@cn@mdLuW_D_WuVao@cnAtm@qEtu@se@xHNtHxKjQgDwMib@gF{h@rj@?dZbTpKrw@~[jSdUlCll@cG`fAjXf`@|C|LsFbU~Pdq@xKbQbc@tY|YlKv`@~]`[jAlc@tHnZz~@`v@|f@tFhk@t{@bVtS`TbF|[yCdN`yCzzCp]bi@aPrTtGfb@kYdf@wj@cd@a}DmnAq{Dxg@gq@cM{}AzEwcA|Lup@jbAui@tN|D``A}FxJnD~|AsMlh@vFpAxDv}@{FvSiUrR{c@gs@g{Dmb@m\\ijBygBjt@ymBr`@kt@t@iWvM_@dZ_xA|a@wRnHjHvGa@`MgPe@oNzPkl@hH{iAhGeHg\\eYmBwWnT{h@kO{RaL_q@b_@gJrGqUlVrLvBtWrMnMvfAhf@|Xc@nKtIxMzj@v@lf@jGfKpg@bTx\\|b@tIsX}Ei\\~NiS|i@gDlQab@jJsGrk@vJl[aNvRrBdMx`@bR{Ch{@k{@jTqeA`g@qo@pq@ag@G{k@lXktAxAkt@r\\u_AxTm}A|Cqi@kCcn@fOqt@`g@if@fCsPmHcOc_@d@NwFnOwGvSGnBiRuC}Ele@jIpAqG}I{H`IaClUq]gDoFqc@eDaEgJnYtHvFoDySyR|KaC~XxRl@oNnKxE~MoA~\\_UjM_TLgOlOq\\LuMySoW`G}d@vFaFgBq[rs@sr@~Y`DfHqGjXmBp@eEn[hCxRzRmPhd@bBzEzYeM~I|RbQEpl@mT|ZeCbEoNgRmTg}@_FAsMxVsA`PmO`\\zN|YkBd^tH~Rwi@QcLzYyGbUu_@vRbKp{@o[nK|HlNoRxFdHmAl_@lJbHhf@oSjf@_AvEfAKz]vQ|KlYvAp[pL~y@_SfDjNcH|d@dCfH~h@yAzv@oTdj@t_@n[{@zT`\\lu@lAnIl[t^~JbZ`_@tDAfIiYbGmf@dl@|P|LqDbEqQzJsGfd@tZzSeUvF?na@d|@pNj@zt@cHnl@oZfUcCtx@j\\pPePs@aLtEiH~KfDhWeChN{u@eKoy@~I}iAeGo~ArKu`AzBkaAvHgVpOuGvW|VtEb`@pvA|jDhIpy@_Mx`@m\\~RdE~HrRpJ|k@sF`QgUrpBu`@tx@a]rlAvQdUz]^r_A~n@z{@zJzBbc@}HfW|EhXiNxHp@dEvInM?xg@oWvfA_B~\\}HxXjApa@|O~MyBhInGjKdExXaL|Kp@bs@z]tTbBlm@vx@td@dLpAb\\a_@`sBed@df@uSlGtSzLn_@vF``@hs@fHiAvVdYhX~H~Nf\\dTsPfg@yBp_Amr@ff@aBjYdO`a@hi@bSp^fW~}@llAz|ArB`BhhAyaAts@_aAzYjb@p@tPtUle@pAn^hHxBzJp@|jAqbAjj@aE|LsMxv@Fjk@{IyIu|Ahw@{p@~^hAjz@zVpp@vl@bb@|^lMnk@~N`L`Qtd@`_@~i@pAjNniE{eFaAaMx{Bgx@tHmCkf@aeC~`@_f@hk@yI`a@_Bg@oM}WsiAf@aOgM}TjBym@yDai@}QaTyBsnAvByVjZ_b@|AaLoGco@`Bie@`J{PvA_VlxA`b@de@rZpSwDyBwLbDcB`nBmC|a@mMlUhLdS|@bXwKxVk`@xCyVr\\ex@dEu@hU{{@n`@aH|UiSrf@_LlBzUpOIpG~Y~LvOtq@h]fVzKpn@lI|]sD`PxEdsCxK|oAgTfx@eC~_@kRrEuSrVaPf[{m@xj@kE`aArAp]hW~Ivi@mWzbCoPxgAvOhx@pNjWfd@|T]hKl^{FnOtB~jAnX~ZxX|MC|_@uWxt@l\\@`OzHlJjQfeAhWvHiNhb@vDxTzH`MqBvI|\\iBBlTzj@hFdo@rb@tEY~ByYbYgi@vUjCrDaOns@aT~n@{@{MtPvPnj@mAj^`NfQ|ZvHjGzUjKl@`Ek[|LTfm@wa@pO|AjX|TjYtEiIxi@r_@va@n_BfkBa}@f`@se@zqAisAnlCkUjrEwe@tT{zChvAlYnvCkyF_Syl@v[m[aAzNrcApOCuUvfGsp@yN}c@lcAkKdE}kCr|MciAzcD}L|oDoAv^c}DteK{Erd@aWbZkNnNqb@~Mq[qOikAxSc]gMcb@uA"
                        ]
                    ]
                ]
            }
        },
        {
            "entidad": "8",
            "distrito_l": "22",
            "location": {
                "type": "MultiPolygon",
                "coordinates": [
                    [
                        [
                            "gcf|CfyaiS`SgJdSzUpN[`L|JdMne@ps@|g@`QrEnJh^pKwF~PdHrh@dEr|@eYzg@hCjpAgFn\\o`BtmBzp@hTdx@r\\xxBfOnCxn@dn@xUhn@jZnl@vu@x{@jaCtmB~DzQncAn^nKhWtv@nFv_@mC|Y|Hf@hLaKdTk@j_@|lAtxAfv@`IlNhe@{FxYye@f[tMvs@gQ`t@}hApd@}k@xAm[hP`DrYnSvb@j@zn@c]fv@m]CcArI~q@z_@jMhQbE~Tx[vY~@nS~Rnc@LfQ_`@wFg_@nhAaOtRkl@{LgTjc@u_@cBvJnh@`MvU~r@|f@fs@tCp_@|Mhs@zBhOdJxU`_@jJr[sAtSiUfK{ExOsUhSiEjZia@xt@_SvBcHlItPvw@uCbQaJjB_y@rIoo@tSgi@jk@mzDzsGqk@ttAiGfg@lPbn@uCrLvHl]gErLtE|HuEjMkEreAyg@fZcBdNvXt\\cAxXfIve@mD~_@_b@S{b@nc@s]_Cmr@xIwCfEaq@wLsWnS_b@wDiFpGw@~v@ea@na@k~Ad_@eAbLvShe@|n@hUhFfm@l_@hIgxDlkAy_@jfAwSbPcT{AgWc\\ep@__@gJ_g@qNsKyhA__@yi@w@a^~Zak@nKgs@zAaKlJpAtXqQzUyb@xYiYhm@aXpCw|@~FmRzQot@~~Awf@{Ike@d\\iCddAePr_BsJdd@ep@vx@sMvx@dAdPnHtP`XbDrc@im@l{@mVx\\t@nx@`oBkBpw@vC~FeZdXwi@uH_UhE{EtXkIzEca@v@_UrS}[aLyi@tXsd@kAoa@wYoTsl@iUly@ub@zTa_@fj@mKvEm_@mDed@x[qPtBoMfT_PvBiHbKaMr\\?tOj`@ha@n@hWxIjDyFnSmz@|p@aRhDwi@iKiGvBcAhTtWrVG~zAgs@hv@ub@|w@ue@hMkF~w@`Fdq@`SjWrEbXfYdKsAdNgh@x[aP`\\ea@xXcKP}XuPspA{VqjB_DcFtExJpUyXxXkH`UbEvb@iHzHac@cRgIuLo@wRif@v{@qt@oGqSkj@sS|NyHq@aRAcBjZcQxh@pUlm@gElJet@`q@sUaBoMzHiHbKrBfQsk@bgCyIdKiWfTyZnC}_AyLsu@l@cClJrEri@tEpC~Ajj@kI`u@nBto@yXr\\kBdOmCtXgGjGuy@jEidBngE{w@pbC|e@`{D`d@fq@`@~Ncb@ft@j\\`UxZfn@f}A`h@fj@jg@l]cXvDmpAjKWre@v_@lObXbBrYfYt_@rD~Q|MzEtDrIhJbh@gy@zk@ii@py@?|H|LpCvh@eH|MxB`c@hTnLjYgT|\\_ObHNns@qQl]}NxEar@wBoa@rVdFjcB{m@v\\tVj]NtIyI~Nqb@|KkLbXyH|[aSlMfG`e@{K|[k\\zHwEiDcDuLzK}^aA}KwGxBsS|KsC~QfHrYuEdHmp@xRgXzUhIzXeEpSm`AvLuf@`b@qc@uOeEbHdDbXreAvx@N`UyHrVcVvLsRqCwh@rCgX}N_a@id@wX`OaBri@{KhTk\\bByYkGwHjWbCvLh@bIw\\|c@o@pMvm@n\\pL~Qb@rSwNxm@qXzLqPzf@aLxHgWdj@ql@`j@w}@ryB`DtLeMlYtT~QkZ`w@jE~s@q}@zQcMrLav@oMgb@qVc]cHazAwqAmHm|@wPfAgl@fiAcw@jeAnDppEsLj`CapHxtCsSxt@r]~iBzKjWpB|D}IpFgw@hDcNzHio@vgAodA|z@oxAA{hBdd@au@q@oh@gWyQpIkc@iDy_@o@}]js@_d@hGmFl`@e[rIuMfTuPpCc\\sFwOxUkIiDgHwR{z@VmUhGaOyH}GrLkb@bH_KaBqb@o_Aib@qC}nAgd@kGp@uMhZ{Azn@{H`EsMxBme@{Ecg@rF{oAlc@ah@_BsItTx`@`zI}}Ag\\{zBRiiCmH{HrFim@gPoNjJc]rm@}G`f@{Vja@so@vUcc@{PwRrV}Gpn@s`@hJ{Wp`@lMjKChb@eR~X{Ft`@rSpQ~@rPiW`HcRoGoNl@yc@dh@mMA_Rsa@sH}dAiNii@op@ya@oaCqu@fLc_CcQ}Kmi@et@yqBgg@}pBUy^hT_Lp@c\\uIo\\aXsl@|d@gr@nJk}GbtBot@joA{fFdnCg`E{lComB{\\}LxE_Zzf@|Pdt@ySvc@uA``@|O`d@fYva@l^pb@bDyB~M`InN|vDvu@hvDcj@vgD~TvXQlQ{JxLq}A~Ps@lQ~NvFtE`Su`@jh@dArJe]vp@`BpE{qBzlB`AbJgJ`LcSnDyJ|Ok\\rJqaA}CaS`IoPfReg@x@eTqFoLuLaNkT_Kai@kvA|yA{YqIcFxVfAvc@yJrWvC~XwNtt@sVzS}i@{Qub@{[kOsnAqr@b@ub@sO{n@~S}[aHcUzIsR}Ach@ihAeTgQm\\mCqH_GsH}Fcf@{jBw`@sp@bE{Yc]gh@|@kh@yr@{r@{Z}Duq@iZaeAamBqZy`AsNs~DfNky@pa@iEs@qWyy@kFer@qOklAuAkx@iZcP{RiY_Eac@tJeh@`Z{OsOiXhBe[nRwWdFgcBqSonAgA|XfTcGbLuYdPhEpPeJzSd@lQtS~GlF~U_qAjmAs~@|i@iQ|]rXvi@Gzc@eMz]aWvTswAxMcHvPin@pVkQnU}Dv]mi@`l@y[jLkZsE{UuOmoD{r@kYaKs]g[cKiW}WkMqc@zGkfA~f@q\\{NaZc[o]kFaK{RnS_TdX_JfM}Spd@uKdJmUeLgb@~CkUeIuj@an@wmAeVu}B{EsvAgOe_@}tB}a@wUQel@b[}]z@qCvFys@oEqc@mBm{AuhAwNw`@qBs_AmFwVag@sm@kV}N_NyH{j@d@a_@yFqa@xB{`AfX_bBnK_c@nLcWpU{BlXmPpNqsC|kAkfC`m@{WykAniAwn@`IyZjq@_\\ba@m{@eh@vKmC{j@g`@qV{Bgf@xLcPaFkl@ac@wz@e@wZfl@oVj|@{kAyCuPmnA|hAsS^cXqn@kB}c@aM}R_rBfP{NhfHoZ}NuWvGm[cDwX`Jmm@~cAia@b[sc@jIuTaHaoAknCzNkOtLo_@~QawAng@__@hQ{a@hAqe@sb@kFuj@yi@cE|Beb@gJkn@yRlGiMyHaSdJqXpScIpUn@rXqNzg@{cAzb@}d@|f@o\\|@ic@zQen@i[cOqPg\\jz@wnAl@se@wDsTwHcEay@cAanAlOqsAb`AkZeIsJ_\\}e@s`@sLme@gj@k|@aHyg@rFwWaF{q@pg@{e@np@yD~PsGpFaZbT_MdKyWnCc]nQ_M~P{Fn_@GdRlJvX_J|pA}Rpk@iu@la@gZrd@oHvZyTfv@qvA`c@gItc@bDxiB_zAlc@{Oq[chA{KvFs_@m^{h@wO{JXsBhHab@t@}v@m|@cq@mWye@c\\q[gz@muAsoA_JeeAi`@cc@yj@mh@om@_Oaj@eaAcq@u]ar@yoAcYmQua@iz@_kA_m@iVg\\we@gUeDkUqOkNgD_ZfGu^sOmX`AkUcSnDeUjRo]uIwTan@bE{]aPk_@__@nDiG{Ln_@ca@_l@gUoNua@dH}]fx@skAff@`EfWtPdUkHhZak@nRuqAcBsT__@eR{eAylAm[eR{IgY_^yLkJ{L`Awa@z\\_`A`Cql@xi@u}@vF_Z^{S{JaSoM}EsB{LdEgYte@i`@hJcn@jYsQ~^iHbd@}]vu@dA`A{SdUoGve@hNhIiAfGsJl{@m\\rSkAnn@aZnNaAfH__Bfv@yWuDuM}M@yGkKOeY`a@s[br@eB{JgHfG{n@sQySOmX__@o@kJad@p_@c]n^kK|L}Vn@yZbB{]{Y{EsSmi@bEgPtWwM\\c]|N_Fn^fD`DaIuToJi[vCoMkD~AkUus@lRwtBjIiU_i@_AwZrOgv@auAoBu\\rF{~Bn{BqTbJkH{H}QzJ_[caAmTs]WaSby@w}@oQsk@nIub@yQeUScLvLwQ{BeV_]cJog@jQiMlO{Ob}@a]na@{nByBpA{r@eVcp@~CyMgi@|A}jA}hAgdA_vBww@uFuHrGcMn`@ga@j[TtTcH|IgXb@m@tJaWtRaJxkAae@jz@eVds@kd@|Ys^|BaIGgm@ub@eXvD{g@iLceBqGicAiXmp@fA}lCtqAeNjZiGjn@sS|p@uHbF{j@iEeFpBol@vc@iYjl@eYvKgi@|n@_Lhh@k@rJ~a@eDz[vD|e@~WdOhQ|@|d@sIxQ{M`CiWkFoNho@t]zXuVtn@qc@ro@gd@nrAkQnLsUpEko@_e@eT{DwJvGibBvwCdVt{Aw@t[cQla@qThFuQeGuj@gqAcNoMoQjBwJ`JinBhiCoRpEo`A}Dii@co@}nAli@o_@gFwKmIfGmg@lWsc@lFea@gFer@bIkVeEwl@zOoR~dAwhCdq@kl@xV_p@{G_}@x@qo@`N}\\vWcFtGcId@ca@meA{iAwNaZmCm\\yWyy@zCs_@uZ}]~AiHpRsGtF}IuAkKzNyMUoNsYu^~Hae@Is_@h`@ab@bI{Wq\\ygAjO}Pe@yPrKk]gGg|@uMaZ_JgOgy@jPea@iDrPev@}FwW|BuQk[nAkTtf@sWjVwc@}Ay_@xXos@jZkHqm@eP_a@i^mVgh@a@ovAyRwNaZTeh@aOyj@cgBaqBaqAur@uZsb@uReHws@i_A|V}w@bgCubCt{CiuCxi@_tBjLoA_D{h@vt@yh@dJgP{SmxC|Hog@jSi^nNw{@eb@qLmqAqBmq@{p@aGsb@eAaPrJ_XpWuYxLsKl_@uA|N{kAg@cvAtRnM`rAhGpz@p\\nqC}nBnOmEbHcQxs@yAtXbRla@oI`q@mw@bm@}`@frAsc@`Gq\\lp@}Afk@gNdf@z@ndAaIfNqYzM_JpCyMx]mI~ZrSnT}TpTgFh_@sVvlAoKrO~KtNta@dh@qIzq@nn@zNaJdL_[xd@em@|OgInDi]zv@ad@l`AaqAfk@qIpQfDlq@~v@xU~NpRndArx@~y@xcB~b@da@hTpQGvZ_NjA}SzMiLlD}a@ji@wx@pf@oPdOj_@lOwG~Ue^iF{LlRcMj{@cfA`u@mkAfXoEhi@`GXufBaj@_m@qVip@mcAm{@|C{a@`Yq`@|wApe@v_A_Znw@a`@|aBarAj^gMhl@mFt\\{b@ti@gJtRpFpcAtCy@}n@lMG|j@nNpRfb@bp@dOxKy@rY{NbVwAl~@nIfZqBnWkP~QgCnOrd@|LdDnsBxGbQ`m@jk@nGjp@yF|YbJdi@@w^dyAsj@zn@a^faAscAddAu^bt@ee@`tCbj@}n@h_@oo@xk@{d@bZiJtk@aI~Sf[`sAhHHp}@{D~ScZxKlJno@q^lbBwVp]uuCrzAu@`ZxKj[fVnEla@gDxApv@rItShCft@pm@pMfZt_@nQ|_@bEra@jh@zn@oFxMzi@zpAj}@tL|nAyFtyB}u@fH`Bbd@k\\tFoQrdB`EfYcg@z[qGj\\_ZvXcBtgAgj@|]|Ozh@hf@pr@lG`p@zV~OqJ|_@{n@j\\eOQgYnPgRgFim@fZif@xfAvx@vFz]Md~@vSzq@iI|VzXlb@vWYpQiKlp@oN`a@q@pr@sTnz@x{B|o@gYn`@{g@tVcL~O}`@x{@aSpSq[n_@mXvXkDn_@sTz[tFvGeElc@zEmAi_@dUkNtVkApb@gRlMag@xH?hJ{Lbf@idAuCsh@__@iKyWgRiy@}Oqb@zB_Moe@oa@p@eSqJ`@mN_NaB__@cj@pAag@hKsMjZoG`RhArSnG`Pf\\~NvI|lAnQln@aBbToQl]qJsBc`@vGuFjKq@rRx]nO|ExIml@x{@ks@pBml@lLwSpBwZru@}aAbR~RaA~RzJdOoOb`@zz@ra@dTbVl]bj@zIdm@xHhAjp@u~DhYuFtvAxIvXsa@zFuSvb@oe@`@ml@zIyVsEy]bBmb@fFsMp]iUOud@tPem@aAcLef@aq@cb@aScEsa@ww@if@eDiKdDmNdS_Si\\yq@dDyIzYkDbB{`@yKc`@hWaLiKoe@jIiUnMwIgFoGvDeH|ZqTO{VrPwSrAmGgFaI|JkNsEsWjKmGzGyShXXkKo[sSeOgJmb@bRmQ@qTtRkNrQ@zHeOjKXhKzV|@vx@l\\jKl^p[xHzLn@vSjW}\\dq@}RaBk_@uFiKsSsM_a@ej@cGgkAzIWrBmGdA{`@}Nki@aPbEcPh_@_\\fUr@sk@cJkgAnK}c@iKoe@{[aZiLyg@cuA_r@bZ}uA_x@kpBsRsJaJ{yAt@cj@jh@a_DeSyeCt@kb@dRwSdBiUdRqMr`Av@`a@tJ~ObLzd@c\\zw@oPxHrCzHyLfTaE~LoTvkJs`@b`AwJakCiaHbTem@Si{AhJqh@~@k`AsPkb@`_@uWfH_S|i@wChWmNs@oe@nOi_@cPweAlJylA|@cHt_Azf@|i@u@ljAsQxjC}{Cx{B_pCnxCwzAvd@uZbQ_g@xX}YhVuCxX}O`^cB|LwIxGi_@`QaV`^wP|k@cBp|@a]`QdRxe@}ExHuFnMoQpOko@QaLmMgKeEcOlMqJsCke@tRuoAgEiXlJuZqNsPOcc@qQ{O`AsCfVq@fUqMhHgRxHsCro@}Evd@yj@jIe\\b_@sn@jNfCzUe@xf@{Yhe@qJft@gs@dDyLq^e]P}O~D}AkLmZrEaKmTcj@|d@q^~Ga[lYo^mNou@tnC}pEtvGf}Cs`@p[wHjcA{v@vk@sBxI`@dRnZj^b@nu@jWvw@o@rMtQzRxGzYtBb\\iW|`@aDnh@jIxY_@xVzVnMbB|\\xVgYhXgEfs@mi@nk@w@lj@qXtQYb`@jJvb@bXd~@_@tBc|Hzg@|AxWmNxU|AzHtg@oOtPsA|O~L~Aa@kN|JzOwV~\\o]pQ{Jx`@zGzf@pO~KpMnWaPdOiIbYvEpWtg@bf@`Bpq@tCbOfGn@hv@yVtS`HbMxYdc@eLjIbEdBpMqq@j_@b@bO`^wCdCdHsDlQmMhKtAxLlJ`Ern@uJrU``Abi@|Xdd@eLza@`UjWl@tTsM|KYfPz_@`]wCnu@lPze@rBnJnJ`@nJlLwFzHpCnJpPqCrP`x@|DlNyI|Y}B~X|Ks@kNxIgKfp@rBpReOtw@r\\n^cLle@rL`P_Fjf@C~I|U`N~AxD|Kb}@ffGhRm_ApsAdbBlt@myEni@gGvs@a[h\\o@hKzJfb@j@`s@gf@t{EaS`LzRmNzOgJv`@}NxLjG`OkB|l@eQaEsCjD|Fr`@i@hh@thCabAhrAfh@pFxj@tNtVtA|ZnYh_@{HzKjFnEOvRzMvFCfLfKbOxaAuNvn@}`@tJ}MxAwm@pN{PnDmWjm@sqAzWu_@fgAlo@p^|eAhb@`NvKpc@Gb_A{GtTwwAfeAtsBhfBfgB~hCj|DnjCnxD|~BhKgKd]hJ|j@iOhTxHhMjq@kJjDnKbHaEzRmL~HbKbXyPbv@yKjQtAlJ}tAtyAap@nXkOhXqa@|Ywm@rcEk@l]uEdHfEhDvHcHpBy\\~n@w`AhKy_@p_@|ArB{HxXqMrSy\\l]oJvv@wc@``AaY`PiA~]tIn^}RjYpCrr@}Ete@qj@`Aw\\nNwLhh@gHtn@n@x\\cOnq@}h@d^h@zTpRzl@fRlXUhb@x_@vYkO~a@zHdPwEhB_e@x{@y^zoCrlExhAnApl@k\\~f@}J|S{Xb^oIpRjP{Oxw@|^_Ex_@`Fvl@r^nMJvj@}Wjg@~B`aAtr@|J`]pz@`Ht\\zd@nKeBfKx_@dLmLnRiz@pe@iv@~UlFbDhNlNjArIvi@ls@`p@xwAaF~QzOrHrc@vDzuAhMf[d\\nt@l^`Fdm@rw@n^sBtf@lKrD|Hvg@bIzL`O|LbBhv@q[xWZh~@p[vu@e@d\\pm@td@yArVfUno@hB|Eck@_Cw_@eXuV{K[k`@wf@hAck@xs@wd@xTi`@zi@cGde@jHlMoC|Wq_@Iea@nMqInNeAx[hHr{@v}@rs@lH|OrPdTmCjLrCrh@na@|Q|e@jLbBxe@gM|~@zMjv@k_@"
                        ]
                    ]
                ]
            }
        }
    ],
    "parametros": {
        "e": "8",
        "dl": "0",
        "df": "0",
        "m": "0",
        "s": "0",
        "l": "0",
        "mz": "0",
        "layer": "dl",
        "db": "proceso",
        "schema": "suavecito,public",
        "geom": null,
        "padron": null
    }
}