{
    "status": {
        "key": "ok",
        "msg": "",
        "kex": ""
    },
    "entidad": [
        {
            "entidad": "1",
            "nombre": "AGUASCALIENTES",
            "location": {
                "type": "MultiPolygon",
                "coordinates": [
                    [
                        [
                            "a|ycC|rtqR~WgGnc@tEfAfOjM`Qd_@nDrMd`@zZhXzShABxp@ne@k@|Y~Fhq@}Hjj@tf@~_@~k@s\\|c@ab@vJr@fVnJfP`Qb@t@db@o@jKuWna@yClv@c}@ts@DpPsLgBaOjNaVxo@{Yd^zVfVadAtm@iQHmJn^}d@hZsi@vxAiCwBaDvf@sS|UxLtKtV~i@qO`JcAhLm_@aIeV`BpCjXsDzQiMxGgKyEsMrEyO|k@jTfh@aF~G{b@}Ye[bLaQTuDxLyV{AkZzAgSiI{EvEwOiQwAjGyP{Oko@yK_SfUeRyNa`@c@s@`cAiv@d]w^ry@wQxHvRr{@sI`EtC|PsIz[{Cgo@sm@yx@MwK}I}DsAmUmPeZky@wKcJqJqOF_O`DcGsV__@sBaDcFsIr@gTaMqGbBqJeFaByNgVs@yv@iS}OkUiDeVoFt^sI`B{OcKi[}FkW`Bak@mWiFnBad@aJa@{Z}l@uUil@ih@a\\_GkOrBax@rc@e_@Ewt@a[iTac@_m@uOu@{S`[e_@w{DahC_iEgrCotCs}AerA_yDyk@mbANgM}Pqe@gHmAuBsL{S_Pcm@GwOjMea@tUsQjA_]sQc^ub@QyP{NkEs[m]sZcHbMeUkzA}j@uMtHa}AuEetE{tBa{AspAiqB`nEgpH{BwRcvHzOmL~EaF~N`BjSks@oKspAlKwKz@eRrP}IiAs]dNoNhC_[}U_l@~Eog@uHcOfC{LkTih@}Euz@tJ}P{Fc`@_SsO`Qua@a_AkhAiXct@dEyI{CaQlHgBkAi[bIeEw@g^}kDah@cLwmAgc@Oe{AiL}I}eAaf@c{Coh@glFrGyd@sZay@em@uM}_@fIc`@yV`ReJnFiSk\\i_@y@kVyRyGaF{MxJ}`@yTiLoNmXsBuRvK}X_PcFdGo_@iPsVcHgd@g`CcDacCis@ojAiBoZ`S_RoiBvcAoMzpDw`@t[{NaAiUzP{SuLog@pNaQ|a@wg@vFjMth@cSzCgRpSeEnV_ZlVqB{CcN|NsTnc@dG~HpVbNmAhIisAoWkL|Y_A{A_hAzj@uqAb[DrDeeFleAqGzLm\\ta@m@l]orAtfDGaFuYnPquAuJwNdCqSlj@gN|l@{C|YaOrSQdNaKdQ_yCy[y}@i|BqgB}f@slAvNon@`LkWxn@}e@hVu\\dw@MlPwHrWzGxUeIuH_Vnl@uO~@u{@dj@h]~@lN|z@qG`G?pw@cZnWNxAitBFkJfXeHhuAQfnB_DgA~I`wBGvmAC`PnIfe@vIcIznChoAvc@MufB|sC~s@`Rix@d^}_BlGcwAdSe[~T_aA~p@icAv]sh@fUil@fjAsiB`pDmrG~GqLnUi\\rgAabCqJyRjLtCfc@`j@dDL[eNzd@xDhQH`IwLjsFnbAne@~|BggAd`@wd@b|AaH~@kMhUh}@_YdZ_q@uQ_BzQwRfNzHf`@qLlPbC~|@aJf]rIlt@wp@pmBwXqUkReH~Qac@_c@yNon@~Fka@cMqGbW}p@}@mmAzf@dTpJppAyLlv@dHvHdJmChLgUpm@mAhDvUkI|q@j^aAmBz\\`Kv@pPpItNoGrLhAvQj{@rO~Jd`BplHlN{CltA~sFvb@fgB`rCye@a@`ZsIjEhJfi@y_@xgBcMjgBzl@~@jJrRtKTr`@}^xLDtFpKrl@f@|AfPlKaAxNtShRjHtNzd@iFdQbp@dNbAoH~FlBcFrUhs@~k@dZ{Jxq@vUv\\|RyNfh@n[wNrbA|q@`HuAbd@kKdEdUlYrIqT|]lKlJAj]}JtKnLrE|WaObg@jy@kDdLlTjDpIja@bMjE|AtPfGjE`TwLnQzI|\\lDxMw]pPjAyJzh@vg@fOlFzGpJdYm@|Rdo@pUrRjDlD}Eb_@nr@qBpc@|g@bh@lTly@rNxi@}B|e@jExf@oXx[{SxaCbp@eGzOp^rR`MdRqRx^hQhCgE~cAv^jb@ru@bDddGtApd@~QtDlv@tyAkGlKx_@vg@kIti@nOp@|r@r]ln@ji@kVlw@aHj@wbAbeCmVhcAaq@jT{Jp~@vEjA_CpY_GcBkn@neDxAp|ARlWmF|iBkd@dKwCoRu[uF{C|F`Czy@gW~c@aVbBeKyP}MeFyCuOsKoAq@}UqJoLqm@gE_Efs@iIdj@`[loAab@QkrBz`HyO`@cPcGuMmt@uW|m@ml@pKoXsCeC`g@aNdRx@vWgG`QrIr~AvCx]~h@x[aD`f@}_@mF}C|LwJvErDdQnKdElAnG}FhUhEpL{H`zAca@`PoK_KF`OmSv@sDtGy@h^ePn_@gAhw@qGh[uLJqC`WgG]sAfl@_NJcCmNqHpKrYr]`Kr`@eIxa@yKrHjKfNkA`S|KjKkIbyA"
                        ]
                    ]
                ]
            }
        }
    ],
    "parametros": {
        "e": "1",
        "dl": "0",
        "df": "0",
        "m": "0",
        "s": "0",
        "l": "0",
        "mz": "0",
        "layer": "e",
        "db": "proceso",
        "schema": "suavecito,public",
        "geom": null,
        "padron": null
    }
}