{
    "status": {
        "key": "ok",
        "msg": "",
        "kex": ""
    },
    "entidad": [
        {
            "entidad": "10",
            "nombre": "DURANGO",
            "location": {
                "type": "MultiPolygon",
                "coordinates": [
                    [
                        [
                            "ux_jCpjc{RjJbI~f@oK|bBjp@fN`YjOhhAbO~Xhd@|_@xN|h@nMbRp\\rHh_AaAfJcHVwT~EwEvHpUp]rYtKY|LdJxWp]`VfHbo@bDjp@y[vXrEhWtUvTeCdSlr@xYrHld@y`@bZaMzEpB|Rjr@lu@zP~g@gHpKjBlHyElOvUvU`GrN_FpDmN~LmCpKiOfAg\\gMuRvOy^~UiAxv@sc@f_@EldAs`@yJ~e@`I`T~SbOlFrP~d@mAl]dYpnAvg@`i@hBi^jeB`^p_@`eAb_@nPpWvd@pZrUuOpcB|a@phG{`@~yCeL~LRjKzHwGlKdC`IhNjH`ZZ`@pMa}@ndBmq@hv@cHnSfLrG|V~~Azg@b_B_Jfd@pAx~@lXhX`[piBzd@~~@pNvv@rc@~rAvp@deAfz@rwBhf@pl@vwAPy@iLoc@gXmO{SvKoLrYkHxW`Nvf@tl@vJ_D~FeWp`@kDrJjHrStf@zFyDv@aPre@iXzF}f@lOtFXrKcNdI^hf@~Pxh@xLlG~@~i@an@j`@}FdLw_@hMdAf[wG~]iOnSyG|c@kc@~Mqc@vy@cgApRlGbVpHtT}g@xBe@tp@qU||@{e@|g@gTzCsKjNmWfHqBb^mh@|GaCwEub@lAsd@rWm\\OmRdWoc@dSaTuUm`BjKccAbg@}VbWkkAp{Csu@|r@u_AwBup@tHqd@xg@ml@bNa}@fBq|A`v@ax@bDtBpZp`@ds@pCvr@~XjrAdCxe@aVzi@ge@pVslAhQyQrKwHrOej@iGkQ`J{@~Kmh@qA_LiN_^aN{g@_Ecn@tLyt@xBm{@bq@}Xj@f@dLka@d|@_Bd^pEtNqE`aAjo@nw@zBxV{FpHo[hBuHx^sUb]hBzSiEhI{Ab~@nOdEpLuG~OtCtRde@dXxFN|DaIdRiVjBm@l]`EvHoGvPsCxg@cXdW}C|UePrJoNmAwKhZfZpMdRoB|RlMvd@~@b}@r`@jRpUl~@vNvTcCtFzp@vR~_@xEcDlOdEbXlPlXqDlBbMjSzT`a@bFnSjPlB|Mn[qDll@rBj}@dPmB|[pYbWtNt]fTmBnMao@dl@mOeIn_@zNlu@{@hfAlPrLj[z@lt@n{Fg{CfyFik@fCaJlJg_@vKaKtOau@f^{HzQol@eBij@sR_r@bDinBad@oEbH_SnEyLr[kDnOtCtm@gJh\\ovC~_BqpBvOyz@qd@cN}_@o`@oZcNwt@~DsJqNif@wMqNwXCwE_[{\\kh@|Gaw@aWsE_g@uXYoWzRe_@cAiOqRa`@qy@c{@{LkE^eP_c@ms@ci@uq@a^sKwDaOhr@odAcIqt@nPsVeBkMwLkTmSeMmb@hNu_@~\\_o@tM{s@eNwaBUmZyGgj@pLwVw@mFwByDkVqRcLkGx@{RvYib@yNoiAr}@a`@jx@iLtd@e@nFrz@|_@vE~HuWbx@dEfNde@bh@{JrXyWbXeEjSkZ~LwIt`@kd@hUqVhg@iW~Cob@yHw]|Ii|A}Iyq@lFgh@wGyk@~A}QxG{I`d@gm@n\\ua@x`@kDwCxBeXwDuHo`Avm@md@fPyz@q[qo@wE}NqOm^gGgKcIm_@c@ya@lO{Mf\\vZft@nF~w@aT|\\pNzHyC`QxHrNe[jj@aBbm@jLlk@_Gxv@}W`jAlOjj@JnQox@hlDjLxIjZlDnTnQdFhg@qTfb@tWfh@wj@br@yQuFir@hLI`_@gNjHsRh@zP|K}BvHy[pCmJlPuZsK}HjPeZgGu`@tUye@dt@mMrDsMpi@xSrAzAhF~WvFt@jFsCnU~G|IgIzW`G|LeQ\\XvFcOtGsOi@gDfHtN|p@~`@|i@lYZpAnSmSb^jCpKxChFdl@tIxDjZlRbN`g@m_@bvAxg@tEdRkGrR_\\eDrCzj@hRrFt@tEkAfG_RnE}Ije@nJt[dNvInA|g@aH~HxFrV|Kz@xWbViNbFS~g@b[|GrVlO|Rhy@zVdYbBvVpT~P~CpKhZli@qGlGuA|PqRpBoEf\\qy@wGdD|UuLrJoPtAlBrKmMvUsJqJbCwTiDaDu_@jMi[cPcP|O}MmS}K{@q\\~P_HmHMsQwIhBe^la@ov@dJgGtJgReLqPpa@_V|O_E~N_`@uGkRpDid@eK_w@`_@}\\wXcRMwy@dAoJx[iX|J_a@l@kHla@|@jXuMvX~iBdsCfrBhyFqf@oZw`C}y@qq@tN}TyAoO}JmUzKwi@sQwd@yE}j@jKm\\iB}StU_]tQtEvEkEpd@~I|UcDvKkIlFsQ}AgFr]pA|StRrQwEdPrBhbA{XtxAcL_Fad@hNot@rcAnfAv`AtoAhcDnqAtl@L|i@eJjVbd@~HrC`T_u@bmAkFpWPpExI\\vH~Ve@tGiEHiNoHaB|\\kOt]fPnc@aApn@}ShSQnOuU~\\aKmLaK~AsIb~@oPOlI|p@ejAf{@a_@|y@c{@zLa`@ww@q`AdH}c@i_@__@`IaOdOq[|IyKkB}MkUaq@uAaa@}[u[jCkm@t[{Wkb@yq@tHcx@}BaIjKoJ|~@oLmR_NeGkJfAo^vc@s`@fMyWp@aVsBeNsRm^`I{XuHwLxFgDlLqPvYiGvb@i[r`@vBrJfSiFhGvGiD|ShB~_@aUvWtA`d@{FhUso@dViWTaRdQsGkBsOo`@kNEtGto@sNjd@oMq@cEma@if@RuStKuQr`@}YyEmZbPiIYgg@al@vIvi@yF|MkZtBkXbMwCtf@yFtHa`@iPaPdAeTiG{IvEsA|PoZzYib@hbAkJnF}LaHeEwNpLck@wF_QkWb\\uc@s@sb@af@cDgVmZYkLgMwUqCsO|Gwv@ss@}LqCeSdDeRdSqKjqArCvQ}Id_@}ItNcRlFwc@Ake@hs@aQlCuAcYaW}h@yb@_MoJ_R{c@vJ{V_E_XqOin@jc@kQ`s@_I|JgQxDyWvg@ul@lA_SfnA_NlFa_@l@mMaNgr@{EmgAxPu`@|b@a^zJu{@nCmgDvgDai@tzG`BhV|[pbA~n@rqAgT|YsBfPhXhSbc@xsAwvDnzBq_@yKyWvBgFq^grAbJiIos@yIaQ{IoCqvAlvCs}ARmrC`PeN_MqhDqd@sb@}OmsMgqB}hCzhA{EhBiYyI_Ii_@ob@rIuSuPiSkCgx@caAyYnBu@t[wLbIkNtEm_@uFaYx\\kRuPuLKye@|t@qRjHil@vAuIjSsH}OyUgJbKuPmQsYcGvI_]}F__@g^ySpNa|Bpv@eHpLmTiBgIfR}MhFm{@if@oTkc@m]g\\ca@oD{`@xVqNnh@_WhHaVdW_eA`UsZs@apAbu@_LiJhCik@aDes@_}@md@m^pGgv@gPsi@Wua@fGc|At`Huh@|UkiBjhAuJZe`AzCu`AbOsvBfpAqp@t`@cr@vI{k@jZusBhfAu}FvzCir@jEkk@sMmx@aEsZoZuOcd@qtAt{AkmAyLkiAnk@}OrWs_@df@eOfo@{TlLyE|]u_@p[fEpgAuGjc@t@tlA|Ixp@c{AfpB}l@eLsq@z@oHfRiT|kBy_AnmAkFfPoXjRwEjReqApf@koDjzCnUzO~Oje@bYpWcQpj@oApVnId\\_]b`AlCvWzRdf@te@dh@zc@zfAbJlGiyDljAxF~nDxyEjwF`]`w@f`@jUprDhc@|jAvfArsBxaMxkBgi@lEjfD_|CtoLrBp[iGtv@wF`WoMhPub@zEgs@lYeSbWgThvA`@tqA{eA~HorI|s@c|E{@{[{PahBowAq\\m`EyqHrlIit@zxA{nA{rByhDxcJayB`lAsgK`jD}aFua@c`DpcDia@bgG{XlM}M~WmKWaPtIgXbm@aPzHqO@eQsa@}K@sHbTqYvLep@{Mcc@zg@_]dH{Jn\\eT}D}KhDkK|TwDfkFyVUaPfQuSrCo{@pDwDoFmKXqQbKwt@hm@cfAjtBq_@j]uTbEmYkC_\\}Mup@F{ZtFyFaHiIzEeGbs@oPvU`[`bA`R~jBkLv`@ypJhuEizBjoAxb@raG_hBylBcjDt_GiuAblCs{DtxAa|IldD_i@~qIcdIad@wcCeU}_L_vA_zCc^kiFfmAapKtrEs}@lIu\\``@s@~c@bMjp@cZD}`@fTdi@nv@lCvQuFpOcy@jCmDpWd@zs@b`@ts@gCxMut@rUcDpKeMfDqOk[sZmHkc@nf@cu@w`@nJmRwCaHi]gOkU~A{QjM{Msa@yF}BbFfb@mNfD{i@u_@c\\nZ}p@nHsItXmK|Eyo@cKgt@wd@w]wVy[nEq^mL{`AhFuJ{BeKuUgb@`N{p@eh@kt@nDw`@uVyaAvA_\\_UqEoKu@s}@mPkWuV_@oi@fWyo@_N{FsPiFQqZxCa[kC}GdHom@vJiz@_n@tYaZyKmkBkQgWxVeaAt@m^uy@mfAqKegBkRiWdBmWyGm[_Zsb@uQkIuFaSsZqQgZ}zAzG}q@_BoQqJnAc{@uP}uAfOiYcJ`@wa@oLc_@uR_UbH_[qBm_@o_@qf@hEgg@}Dcs@zYud@kp@ktF{bA~yD_kAuvAmB}q@lD_`@gIwe@bAyXwXu\\bBeNxg@gZjEseAtEkMuE}HfEsLwHm]tCsLmPcn@hGgg@pk@utAlzD{sGfi@kk@no@uS~x@sI`JkBtCcQuPww@bHmI~RwBha@yt@hEkZrUiSzEyOhUgKrAuSkJs[yUa_@iOeJis@{Bq_@}Mgs@uC_s@}f@aMwUwJoh@t_@bBfTkc@jl@zL`OuRf_@ohA~_@vFMgQ_Soc@_AoSy[wYcE_UkMiQ_r@{_@bAsIl]Bb]gv@k@{n@oSwb@aDsYl[iP|k@yA|hAqd@fQat@uMws@xe@g[zFyYmNie@gv@aI}lAuxAj@k_@`KeTg@iL}Y}Hw_@lCuv@oFoKiWocAo^_E{QkaCumBwu@y{@kZol@yUin@yn@en@gOoCs\\yxBiTex@umB{p@o\\n`BkpAfF{g@iCs|@dYsh@eE_QeHqKvFoJi^aQsEqs@}g@eMoe@aL}JqNZeS{UaSfJkv@j_@}~@{Mye@fMkLcB}Q}e@sh@oa@kLsCeTlC}OsPss@mHs{@w}@y[iHoNdAoMpIHda@}Wp_@mMnCee@kH{i@bGyTh`@ys@vd@iAbk@j`@vf@zKZdXtV~Bv_@}Ebk@oo@iBsVgUud@xAe\\qm@wu@d@i~@q[yW[iv@p[}LcB{LaOwg@cIsD}Huf@mKo^rBem@sw@m^aFe\\ot@iMg[wD{uAsHsc@_R{OywA`Fms@ap@sIwi@mNkAcDiN_VmFqe@hv@oRhz@eLlLgKy_@oKdBu\\{d@qz@aH}Ja]aaAur@kg@_Cwj@|WoMKwl@s^y_@aF}^~DzOyw@qRkPc^nI}SzX_g@|Jql@j\\yhAoA{oCslEy{@x^iB~d@ePvE_b@{HwYjOib@y_@mXT{l@gR{TqRe^i@oq@|h@y\\bOun@o@ih@fHoNvLaAv\\ue@pj@sr@|EkYqCo^|R_^uIaPhAa`A`Ywv@vc@m]nJsSx\\yXpMsBzHq_@}AiKx_@_o@v`AqBx\\wHbHgEiDtEeHj@m]vm@scEpa@}YjOiX`p@oX|tAuyAuAmJxKkQxPcv@cKcXlL_I`E{RoKcHjJkDiMkq@iTyH}j@hOe]iJiKfKoxD}~Bk|DojCggB_iCusBifBvwAgeAzGuTFc_AwKqc@ib@aNq^}eAggAmo@{Wt_@km@rqAoDlWqNzPyAvm@uJ|Mwn@|`@yaAtNgKcOBgL{MwFNwRkFoEzH{KoYi_@uA}ZuNuVqFyj@irAgh@uhC`bAh@ih@}Fs`@rCkDdQ`EjB}l@kGaO|NyLfJw`@lN{OaL{Ru{E`Sas@ff@gb@k@iK{Ji\\n@ws@`[oi@fGmt@lyEqsAebBiRl_Ac}@gfGyD}KaN_B_J}Ukf@BaP~Eme@sLo^bLuw@s\\qRdOgp@sByIfKr@jN_Y}K}Y|BmNxIax@}DpCsPoJqP{HqCmLvFa@oJoJoJ{e@sBou@mPa]vCgP{_@}KXuTrMkWm@{a@aUed@dLci@}XsUa`Asn@tJmJaEuAyLlMiKrDmQeCeHa^vCc@cOpq@k_@eBqMkIcEec@dLcMyYuSaHiv@xVgGo@uCcOaBqq@ug@cf@wEqWhIcY`PeOqMoWqO_L{G{f@zJy`@n]qQvV_]}J{O`@jN_M_BrA}OnOuP{Hug@yU}AyWlN{g@}AuBb|He~@^wb@cXc`@kJuQXmj@pXok@v@gs@li@iXfEyVfYcB}\\{VoM^yVkIyY`Doh@hW}`@uBc\\yG{YuQ{Rn@sMkWww@c@ou@oZk^a@eRrByIzv@wk@vHkcAr`@q[uvGg}CimCghAnj@eo@lQwbAj_AykA`L_d@c@gKaMgGoc@rRcSi@O{p@kf@gI{EeKpEuPkDgUn{@ap@`]op@oI_OmYiFoIsS|OuJrGqQv^y^}FqPpHa]dHqGh}@qWpFaVpc@wKpl@yl@xe@z@xUtHz_@rb@fW`o@hMyP~P{Fw@ipAbD{BzPdGpd@m~DxHo[t~BwmDgU{Ds[uUmEgX|BuZbb@tAb]fMhkAySp[pOpb@_NjNoN`WcZzEsd@b}DueKnAw^|L}oDbiA{cD|kCs|MjKeE|c@mcArp@xNtUwfGqOB{NscAl[`Axl@w[jyF~RmYovCzzCivAve@uTjUkrEhsAolCre@{qA`}@g`@o_BgkBs_@wa@hIyi@py@gwGqNufG`c@wW`D_Lba@bDvY_PjY~Gt_A`g@`b@h@l^oN|PcYyGgQsPkJzZiElQe_@tX}Yzd@wqAvAmUmu@{DgEqPvH{\\sOyRuAuVsP~EkI_L{WqIwCwLdEi[kd@gGsCsc@t[_uAn_AmO~^vHdVsJbGc_@oJsp@|NkN`Vst@pd@ud@zJArDoJcRmPcShHmHcb@iXwEgSwl@l@a_@s^kt@`a@wCjk@zDvw@oHtT_FrXgXvFqMifCskG`Byf@_p@qeDp@{E~x@we@~_AaZl`A{m@dw@a]ciDe_D}n@sqA`MeJ}u@o`AgcAkdCicCdtAiwDskFphAozCwyDiwI~cBuvCfkDysCbBch@`BewAek@uH}zCwfEsi@}sCzuBeiCxPwtAdmBmn@d}@qCvw@rGhf@azC|SmX~b@qWta@wx@|s@u\\h{@{jAnuA_dA`^wj@|a@qSnNuQxW{@tLcHbZih@pdB_l@~IcaAnVw^da@}UnUwt@|\\wNxMa\\j@kdA}GkOcu@}e@kEkShpBiPbUos@br@mUzHmf@nBuz@mvFkbGieDmaD_l@mKo~@`AgdBj]mq@fCkq@mIsqAk{@enAuXcd@mWaBu]yZ}QkuA{]ivB}_A_gDov@ep@us@wOqe@cGlnA{FxI_h@oQ_TqYmhCyyA{b@au@eTu`Ak\\u_@qf@b`@eP|E{NiCtf@cmB}g@cf@gNs[udByiGai@sjA}_C{lAiaCqt@eO{KiYzQya@cV_Ys]yh@w^gNa\\ec@ioEqzCpbAeu@zDie@dUm_@nm@{_@p_@A|z@fh@|q@ao@fIq_@bS}b@rAk^pa@seAumDqSaXqYybAoo@unAaGc`@l~@wQhuB}o@bx@mz@~n@mZfr@c}AdeAio@t`@qIrcAskAaeAyeQfFq\\jhBkuCqr@}o@ytAifIqhAqlChy@qhR|kFq|c@p~Dg|G`zB}`Fsd@ok@`tHgsUjXck@hjH{bU|pY{fAnw@o}Ad|KooFpeOqoGvpTzrJltBnFtiEpaAncFhN`}Dzv@fyCxYpqDhc@bqEry@hqAlTtlElTndCqqA|DmNjOTzDsPt]eKpv@afAlp@kyAtm@WmHnjBry@kJ~OxRxWrFzU_Bvj@si@`}A{n@pIg^hS_Rlw@mJxCwJng@{Cto@jDn^fKtFxV|hAm@wB~h@nYkHfA}Xfd@dEfJrd@ze@|q@`g@mwAlj@xRnfCjk@mGbMpd@pYfQro@hUxSri@ooAjS}H|Nl\\`Mj}@bVfVdd@nMbjAhUpRVtJ`FjAyJhNkDnN`o@iBxP~MsC~GrNxQ`G~V~_@lOuJ~[b]jVlGpQiLBfNnPmBdFhQeC~RePfSeGx^`Fhi@xKvPbLcCzRdGnMmAhl@o_@pJpExGgEjKhg@_Erm@cGhDxAfWrGdJdYzJzOsGpUkm@`I`BfNlv@l_@|F``@zRxHlTqAxb@|QiCxb@s]dShA|MhZvH~p@`\\~e@~X{ChT}BzBgFre@b@bNzJ~IpGv@gChGrHlFpG`DrT`C|AfKlPrQdX|JdTzEbIfBvMvLpNqDtAfAxXNx@rB~LjJsIdJtO|LoB|@wPtMiF~BrGlIb^rHoBvFoC_AcPQkRkBmTyJkLaHmE_ByMZeNtKpBvObS`JjG~OYdL~LdB}HfJhEkAiL|JMAmD{O}CdGqDqQoCaFs@gPy@kHyIlM~BnNyEkK}KiK}WkFpBiHqFbDgSrJyK~Hq@`C{FrIc@hBjm@tKHpEaTfOmLw@}UgMk^rEcKfa@vNtGaTdQ}VzSgBv[iVvVaUia@_n@l`@u^~QiUlb@sZlKu\\rBgbBd@qZ^oWpd@vNrH`Ns@zWjPrMwKvCeKzWtHtl@bf@ql@pn@mZj`AmB|l@hHlXac@zfIqzIb}ACtS|IU|ObHvRi]t}@iw@pNgo@tj@wL~v@nRnPaTrgAmW|ZjGl|@oVbp@h_@~^fN|d@e@|QrRlS~K|f@`JnIvO|jAfRfT~At[|_@f}@dYqFvr@nUl[nHjIlRj~@~Ohq@tf@|QhWHx^tV~H~g@ap@v~@vf@b_@v{@r[aGpc@~MhM|N{@jp@fg@jDxs@yLjEj_@pN|G~EyHfEot@ls@ma@hjAiY~IcXbFgl@`Hiz@fg@cQnIkRnFpCbJmElHcYbTgLn\\u{@xh@nBlKc@dN{KlUy@vz@kt@|L}CAaPbOu]aN{^`BkGrJIlPg_@|TkEpQaTjaA_}@hDu_@zGmBhk@cCtM_JlSnBfGyEpNgPtw@e^pLmXnc@kSjWy_@loEwwBfC_{@eG{h@oc@kz@r{@qUtJ_g@lp@if@rXr@di@wQ|MmsAlKaVviAqd@n^gy@n\\weB`UiKh\\pg@tSnMbe@eEzOjDzHfOjO`Idb@w^nk@hRje@wGtZga@db@s`A|m@mu@bW}F|Y|@nMqJlTxDzNoEzb@te@zb@`AfL~d@rMzEbNh^`VqFpb@ha@`f@e[pp@_`A~`Ko~KbvG}lHij@co@sk@e|AvWiu@{E_t@|OaVbBoZjHiJ_B}jAjGug@hk@m~Ah@eXgG_HtEgUiEcaArPkJvHuXdP{KpJwS}Dqd@pWyYnMkv@aGcRcSlBjQw_Azb@_o@zoBn]wGcQmCas@hEqOhUp@pMgPyDce@fZsFfRcSlXon@nBoX`Tyk@xEmXkJyGm@mt@aH}UdI_KfTkCpD{KoEyWdDuLx^cf@nR{JrBuv@hOcL|Vmg@tMu@~MgOt[ej@vk@wpCx]oAhPmf@dBmZexAio@unBoAw_AjA}dGqtAwnDilBoyH}yDalGctCsvBiaAwgCbdIacKm}Cbb@}lDfIkpB}z@w|AwiEotDr@aPvXec@ji@eZkAgj@dYmlA`u@apBwRwsAhd@}KrdAbOlr@te@zmC`Mx[~TvHdT~OxB`hAdcAj|FavPf}GzFjl@r@neAtVvOud@xt@e{@lyCciAtvM_{@jpAlZl|AvwBbY`j@t`Bp_@bd@sMx~HhkDh[kVfgDqjEhrAmwAiIeBaFot@_BwmDluPsXps@QnNmIxQm`A`Qe@ptBvUzcMh}@j`EjcH_^tvHkQzkFqn@xgRqR`~Fal@peHcv@`tG{`BvwKqg@dnEqXfnAb~BvsAhYzSy}@zlBhiAh}@lwA`t@hQz[|BhR@d_A{Ep^_~@`|Gm^lfFaeBf}CY`e@zHl~LxkClvd@nQ~Fvm@`v@tL`EdLkHxQhDfM_EbCzCdCrCjK_Jpi@{AtIqL`J?rKbNlRqOjRgAnc@v[jIiGzjAjRfYpW~U{LmAhK`YlDrb@b^xW``@r]~Edj@j}@xd@vWjDvRyF`h@bE~h@`Ej@nLnZf_@~J~SgIvSfExYkCnLn]dQtuA`ZbHnHxJdHvFCjoA{^`aAoB~`@tQlfCvTr{@`h@jLz}@oFri@wL|BcK`b@yBjQuJ`e@}Ex^gMpj@xUzVh@fI_Mv_Ch\\lnAea@nQ_DdR`Cri@xe@rO|^n_@dhB~TvOdq@lsAdp@j]tRpAhIoFraAv_@jz@ngBd}@lxAnHl{F`FduDhcI~iKjSh_@baI`}Nvl@bbCty@qq@hn@e~@l^mPv[seA~OqUvh@eKdEiM|NqINwNzLiMvGiVj@waAyGgSub@cSn@w]vuCdT~z@vk@~~@nN~h@nn@z{@vZnrE|eBpmA}V|nAkjBh\\lBj{CaMd{@sPb|@u`@lj@uMdWvDvRjx@nSr`@ra@~`@``@dRrMbVx[jQvMjU~oCyYhfAr_@~dDyuAzjBvU|J|SrQTzSuhB{Ee_HhsH|pAlcA|`CksAznB`NzSvCzq@p_@xJn]hUpMhs@|ZbVhXzM|O~@pMjNxb@hKjAfGl\\jSepAdaBkq@z[hiDrq@hcB`hAlX`OxYdGdj@hk@rGd[bZ`j@xx@b`AlFp`@jy@pz@hG|RaFvFfd@viAhOfMzQ|f@z`@de@lHvS~Gzy@kMnh@?rZ|pBbo@pk@hl@fd@{GbK~DtzAlwD|jN~rCxwLr|DnoB|BhgIpaAp_I`\\xqIveGlbQoJ`mHt\\dl@|p@mC_h@lj@uf@lMyCq@iXj`@il@pk@dRho@jBdoAyJlM`JjK_FzXws@hOyP`PlItTz@rg@oWfOgXeEcWrBoPx^cd@zIVnGpJ~[wSjYmFrB{q@oTaf@~L_Yjh@rWxPiBxe@{WvUq[|LmCf]|J~[uLtr@tGb`@{Jp^_@cDln@rPpKx^{Bj^me@hhAw]`[lTv\\zHxNq@hb@mRpZx^vFkBzDiXmCaCpLoZpCa\\bLwLhP~BdPhYtJnDvn@gV_D}K~FqMnVkEdKvChDfJxKDtUoSnCmc@`c@_^`\\tVvOjm@dJtHjAt[iX~_@_H_@cIpJqBfRzCtT`PpPdG~s@sL~y@iXnt@xAhKtWzTw@tR|[|aAzBr~@kEnO`Ib^Nx]s^`f@sIc@cV|L}IpTcVxTiYpdApG|_@kGbe@pF`Z"
                        ]
                    ]
                ]
            }
        }
    ],
    "parametros": {
        "e": "10",
        "dl": "0",
        "df": "0",
        "m": "0",
        "s": "0",
        "l": "0",
        "mz": "0",
        "layer": "e",
        "db": "proceso",
        "schema": "suavecito,public",
        "geom": null,
        "padron": null
    }
}