{
    "status": {
        "key": "ok",
        "msg": "",
        "kex": ""
    },
    "entidad": [
        {
            "entidad": "12",
            "nombre": "GUERRERO",
            "location": {
                "type": "MultiPolygon",
                "coordinates": [
                    [
                        [
                            "_n}eBhp~`R?[^@_@X"
                        ]
                    ],
                    [
                        [
                            "y{{eBnu{`RBSRHWH"
                        ]
                    ],
                    [
                        [
                            "sqyeB`_{`RJi@TBa@d@"
                        ]
                    ],
                    [
                        [
                            "avydBdn}~QwCdo@mO~m@cDnu@iRd~A{h@bkBgBph@}gAtoDyj@fvA{}@||B_zA~|CmnAxhBee@|l@gfAtqAk~@z~Amb@~x@aLxs@t[~I\\hOfNlEjC|RsJzAaElQ~E|\\aNqDcd@vL}BlO|EdIaGdf@wLxJcTee@A}Uj`@_v@kSaPmj@_DeLlKeOxMiMfa@~DhSlWhDbBhHaHto@iMtL{DnSrFtDtAeElDhAaA|Omc@rq@aIuAiPse@wGyA{F`GkCuEiH|AqTaJ}BlEeLsS{_@yPeCoXlD}PgFuWe^kGwV|C{a@pUa_@di@k@fZ{Ntk@cJ`{@|Mhf@zOxl@xO~UbO]jB~Fh@kFt@|e@vIlFtLqDpGfXbGJ`AkBdToOvCcLdCyLyPgMcGa[tRs]z]tOzL|O]fT|D~BgKdNdNvNdHrUEja@iIaFcAtKua@|TkPaP}LvMyIuVuGlKqPyPn@xD}CrAzAjLyGdHcExJjDl@}HhBNJQAOCHTzFjC{GdJgB{McHzFqCeDqGmGa@bA_BbNcIqCb@jHwDsC{OqHgEhBlCbKwC`IQJTFeEjDzR~EwJpTsOLuUzLrFdFkCvCgSjDpArMfEAwGhEkFyMeFr@wFrDhBzPeNlLsBo@iKzIsFaCo@nOzF[mG`OcIrCBdA{B`F|EjCyJJUtEBTSGmMtRBaE}G\\sF}AqJI]~EyByAaCt@kCdAIPqAvAs@FgFrA_Af@{Tzd@cBxEaV`i@q]b`A_QlrAuPp\\oUbrAqyAz`Ge`@f}AkXljBySh`AiM`eBwYruAa[rq@ql@jmBubAzvCwn@r`Cqt@rcDexAvlEsxGvmWeaDheNkHvl@mo@zcDkV~w@kvCdfLwz@l`EyH~m@{m@dhCkVxuCoYv_Bmw@|wCo`AjhDyv@xyB}wAvkF}jBxvGyrAn~Fst@hyEm[hbBsoBnlGo_AtjDwOprApIjVoKri@oMbAyNjRgn@r}AeQ|h@eUdByAcJmIpl@|KsZvUk@cG`t@`QxNcJxJ}BlSnFhLlU|FYfL{IdBsCnJyf@xFsRqPfScb@{IoE{RbA}TgPaQbAmd@uQe\\Aub@rLgj@x]kX`]eCvSei@pUkf@hr@{PrLxFkMiAuCaGlEuZxa@sApKeSjl@cgDj|Eyo@hsAgMpl@oe@dp@_l@h|AxAxPiQnDmCmNuLzAe\\lNoGtV_q@`Dm`@n]wf@l_Aum@z}@}gAleCy{A|dEooCdfJqm@duCm{CjtJarBxqHcDnYzLjNVjMcUiBsMjH`AfKi[dImS_c@vLugA{a@gYa{@mByfAfVsoAjx@}dBjgBsrAlbBkzAvgC{IdY[pTwGfKnHhVwF|Fd_@~^uKxEy@fGfZhhAmKnJre@~z@cY`NnOlNwn@WiBkM`HcJkJod@oJuHw`@jA_R`LaBbN{ZhCE`]vBpIrTfFfIeMjGpCkDnFxB~DzBvIxOoEzDfKuHxSgUrEgJ`SkT`DoB}C}DzA^jPpBry@{IlWdWvw@i@zJwM~G}ClJeFmE}S~C}UsG}SnSm]AeSnSgOl_@cAfz@eK~^{G`FdElIqG~ZkKzAzLtc@cKdYhClWzJ~BiA`NuUyIwF{Tqe@Aof@fPsj@cAon@xL{j@xFqqAbn@sk@|a@cJ_DeVhLenCjuBuv@niAwWli@XpKyPlMeExWyHVav@fnAyjAfiCaL~DaL}Jqg@hZgNsPqVzEmp@rd@os@~`AkU``@iMpGqLgJmUd@e@wWsMgJdJdRYjMkd@?_jAn}@ia@pKs]nWgoAprAkvAzuBqz@lpBeq@pbC}Ed`@lBhR_KbGwZsX~Tp_@ag@hY}s@boB{[vk@qArYu^fFpXIqo@fvAe`@bqAaWlOua@|{@yOwB`NdIg}@jtCiRhDfBtMbEhMaZtpB`E`NqE`WqGhE_@|SeWp^iA|S}Db@aCz[oQx]pAnOqMvJdDfC{X`dBcAdj@xDbjA}Czd@~YhtBzNbuAp\\|`@zoAfr@txAlxAhVtCdL|VwEvOu]ho@q\\nQsOaByj@qb@mb@PaQrMc^|qAeHpQma@hYkSle@~@hWqPlFcJjPkx@bk@sMrAahB~Jy\\iCoNcPgHzKoI`@yq@iMqu@nNuZqBqx@rJsn@gTef@gM{q@IkqD_]_w@fUqf@}M}u@yr@m}@m\\a~ABuPcD_QuQlAa[eOyR{hAcZqa@oWuGmRoBog@bO_k@z@cc@eRch@ag@ylC~F}fAgDmhC}^_{@mm@om@Ms`A`_@ugAcNom@fJkx@uX}uC}MwOyN}DwoAxWuRgAcQ}MoHmZpAuO`_@ofBwKqp@oPae@dC{{@or@ch@oNgfAyOsT_d@mJ__AzO_|@ok@i[cIaSkThXoSl[x@vq@yw@|Mwr@eD}gAiPsBaLtEcM~UiWzgAa[~WeUWoHuN_O{fAuVy`@qHyB_RpGeTtXq`AbJoSoEcIuEwIiq@uKeQmWbDii@rw@g`@vSqNmCao@oe@w{@mHyi@rMwm@xk@ey@|Z{MbR_BvUwRrXg{B~O_^kEej@sU}aBag@_`B}_Aoe@aJu^rEkcCvmB{\\xLac@vG_{Af@_nAeKo`AeOebAif@quAqpAgk@wk@it@uZo^_d@wQe_@sh@qqB_x@wyAkH}Yuz@{mAwW_x@wPa`CPsgAnJs`Apz@}qAxRuj@lFsg@yEctA~Cys@uk@ilC\\gm@hKul@oOih@oc@cn@i@sJrI_O~Kc`AjZwS|x@wF|e@}_A`\\_\\viAgJxh@eSt\\{@rXwLrNi^pNuMzs@eDpa@DxZcItc@olAr{@kbAuJmcAnDuOty@u_@`Q}T`SsdA{Gw[Rot@~x@wr@bG_`@mBuKcNob@dBee@aLg_A|U_v@`A{_@wIkNyj@mNuJ{TrDuSvi@}h@|Eya@iHySuh@wM_c@_XpGi_@pZ}U~DqZgImOmZmWe|@qFuHiZ|BgJj`@i^fGeb@_Ik_@mWyNrDiu@pIgQ|b@wMzXi\\aLy\\uUo@kvA`JkKwHaO{_@?}m@}Kct@oWcy@}Cue@zBwf@wP}`@cIoNNejA}Kia@{[oh@e_@sXpJcg@jSaPrT{EfGkTsByVoPuTaIua@dM}y@vX_n@{CmbBkKyrA|_Am}Avg@kK|DeFh@wf@oG}JaAgm@eEk]rAa|@nNog@zl@kcAkDa^ib@o_@eFeNzCgS`b@sWpPgd@x@a^eFs\\fDoeArSgbAcL_]oj@eq@iOoqBai@{vAuJm_@i@qe@`]ojAw`@c]iDkNhBoHlR_I|d@yEl|BmCr`@eH~MkRmHot@~E{l@feA}wAp_@eh@zj@wUhZ`@~p@vYzd@vDpHuC`Qwf@Hoc@q}@ws@aEqRhXg{@ln@k]hAq_@cSq[wWgJ}n@yMmu@bNm_@gQcAuOxHeUvq@iw@l@s`@cRuWagAmb@yp@kMwi@e^}FwYtKqWhOqF|BtFnHAhLiH|e@yx@dIqW}@_j@zFwj@tJaZS}f@h@sUmPuy@fDih@ga@w{@lCwSxf@}\\lgCghAd|@s@nTeRJsNpSglAdGiTbh@y[rIsPlBw]qTsW|AcVv{@}f@zYoF`RfD`b@{YxVih@fCu\\mNsVqw@rBgVmJ{IwNkGci@nCs\\pHyM|`@}]n\\uMzj@yFtkAcIhDua@`TsWh{@lK`PyHrSc_@rQ_QhJcN~JePxAg_@vEcCjx@{u@xI{A~DR~@}OwSuQmhAqDiTkRySee@sWwMcNmR}J{pAgDqSmr@qTwHzD{Vib@gVk@ic@k_@eU_R_Mq`@eKaFuWdEeN|Km@z[ig@`|B{[p`CuSlrAsdB}U}gA`Xq`@rBavB`~Emm@lbAbAbM~d@hv@wBtkBaDpfAu|A`j@_VvBs`@qIi}@~MeJuAo`@bL_LxHocDx`Bes@xFgvAuc@oyAtNuPxAwfBoW}dDogD}y@zuDyw@xAgm@xVy`@YwUgNud@~CgUei@gH`FyXnA_nAjx@wUhGemAuc@{p@`^gy@bb@c~@nTynCxv@qbI`XmbAlLutAzQc}Aqe@uQyk@{Dcc@aX_e@gTqwBvJuLle@rFxOiGcRm{@|KwLd]lP~V{I|B_gAtU_]ra@aMOiSdEqFh`@kY|k@tShIuCHet@lT}WxPfF|Tfc@nOhF`o@qSf_@xHvMnDhJsBuFuHpM}k@y@qHoOsKaYgKyZs@rAkEzPeA`A}CsLeCwA}G~GmC`D{Ne^eAyEwDEiN{R_Li[fNqEiBaBoJpGcJaTg|@sEhD{AbUkf@pBsDyQy]wOEkh@kYmQoFoWcB}KkQtPaRPoNsUzAqU{JmQqYVya@dLsHu[yYXqG{OsC}h@`@yXdJoNgEkN_D}CsY|EiNeSy^j@wGoSq`@oHkIyQ~MoNrz@eQdC}ZoEkS|d@iZbHb@dC}HdLnDFoGxPoQpRqG|JiVxAmW~v@emA{DcG`Oq[u^mq@fTg]`XqdAreEmkH~oAsh@tRe]zIojAaLsPj@iZfVBnInF~HuM~H`AxQaJ`h@pDlAaU}RKmGkMlMuBtDwZjNmFvAoOuWfBgNqd@~PeCjAgEw]ic@xp@|Q|GSdDmIj`Aj[jQ{Bx_@~F|`@mJa@nRrGVlgCp|@bkGvvB|@l`AbeA`Jb[|Pfa@nIvQmHhNgVbUmEbYdCzPed@~w@bk@t@dh@v]yRjLa]db@qUzm@q_@qAgc@q[e`@sCob@fH}d@rKuJxMcd@bmA_W`fA}^|IbUrQjBzDdOnQlGl@bN|VsG`EfGry@cDrFpGiCnD|PxGpBaCnB`MhRdMfVgCdn@kIprBkn@brCev@ak@e}BbH{HxKev@yAoGrXgf@hJ|LbGwKlVeF{QkTl@{_@oT_n@l\\`Mz^kL`Yqr@n_ClThhAxlAbqBjvBn|CodA~uAwgFxFkSvk@itBh_@{Uf`C}}AxRwLiJgMlHgIeQcHkFkMvF_FeTeI_@gXe[uFeKrB`GyQq@qShNwHiAqOgNkKxNuUWko@yZmEoj@gn@eQeGccAf@chAoLcNiPkE{RbS{l@f@yl@mSeVyEcSmJ_AmFmAiQvLke@sDeB_QeSXe@gToHvAyVeLEmU{[}EyGi[wOsSbAyHvn@tGw@iH_MkKcP}BaViZ_M}NwQbJcFkKhHyKqIyGpIuMd@}h@iRbQaEqGhHwMmOmN_ZkM_NzNgTw`AsYNo^hMeGy@p@uD|CaG}Q_L|FoC|QtD`BuRyRLyDyOkJfNuH{@vD}RsLmHtMaEkQkHbIwKgSmIqDnHnIdPkJj@yEoGxDkh@zQuCyI_Z|JkIi_@z@iHoEaGjGiMqBsH_NsQ_CjFeN_YcRuDwJjb@cM{KaLpBgP{`@jA}@iMlN}Ru@uPiGgFaMfVeL}@rIiIx@u@aAqNea@sHil@_k@cH{WwNsOyWeImEwJQcMj\\g]kG{PsW{Oe_AdF}OyEs[cTaUac@mVbWnHna@sS}RoXlQei@yj@{WoOoXkB{_Ay}AywAne@sP{iEzLyr@vQ}kAiBmj@jd@cYHaLfQ_XnFUj]y`@xFz@|ClNj\\{A`HzErCcOp^c\\zDaIaB}KdOiP{Dib@|QaDbBaF~UdSdIuCpCie@wJiXrQuXy^BuJyJaLvJaQeVmMu@aDiWoJ~EsZ_VeB_LyMfI}C_MaJ{E}CdEoIaJmIX}Ac[l@qGcMwJrDoM}LgKkHwl@aWs_@~Ae`@{DuLkQkl@i[sG{Zsw@oq@mp@fi@ytCtRkEkCe[vOwf@bEs]cEsE_N@gWxN{a@k@{{C}tA~aAm_Bjb@_q@mJgLqAuObL{r@}EaSod@u`@`Cc[oZzC_SaZuIfHyf@rB_TkHs@uNm^vSeWt@s\\eP{EsPms@s`@cHaDyd@_LyPf@s`@qf@c]iNyUkg@uDeBkOnQeIkEeMfFmLwAsAoAqOSa^cTaDqOoS_JySgb@]oGqM}GbBiIkUtKkP{C{@}FwRy@_KyDbEkhAnRmk@uDop@lFg\\]_HrUg`@jIkHfLx@jLoN~LeC~KaPdAuW`N_[ri@}]{FoC{B{[aIeIcItH{q@z]eJ`Qy[fM}CdHyNeKcEhMim@`b@c^tQmLzQiRdKgk@lOy]kLaQCgo@bXku@ym@rJa[hLcBuEiKxOg`@sCcHxH_Yu@cQdUgh@v\\}n@t^}H~f@mVvf@qZdYsNl_@}CdPgJxM{Va@}Swq@mQxPiPbWar@bImbAeOqn@lGu^E{aAdSi`AzXXpD|E`a@|CtZaBfUcXmKeSfOjGzRs@fHoVzZ_Kf[cm@p@}R`SoWlEe`@uA{_@lM_K|Dch@G_TqHAeJeUes@a]}Ew|@aQyp@e}@slAlz@yUp{@cOfKgTn\\{LtW_BbTqPdrAsUbz@iMdg@{UfwAu_@lQwErNgBvS}QjbCsZtTuP`OqEbPrKqQqjArpBgrBpm@nkAxGpFj\\vAxg@pJ~OgCrXul@lQg_Ar_@es@hG{_@jId@j|Ak~@p{Aol@aEiY~g@}HcBm[|eA~Wh\\aJ`vAwKdh@}[fDsJlV}c@~Gya@wh@uc@pw@gxA~Im|A`uBzBjc@{wBse@gOxLy_BeF_UbLk]wBuX`TfC`TehEe_@eBKixE?}h@rfB}aCuhAyISed@}v@iAmOq[yk@{f@i@oL_GoE`CiJoNgNoDgQu@wYbM{McJ{HnHuI_AwFiSs@}GcIt@qJfJqCzWnFnf@__@jq@|KjOwOfMmCfV{QwF{VtDgF`a@~B~Xr_@p]{Kfs@o|AeCcPrRyMrb@uCjAcG`w@al@sEcHKaThCoRfKuIxt@o`@f[e`@|sAtO`BiLu[{a@dn@gQnBgQpJ_Iro@j@zBjFuFfN|DzFrs@kGri@xd@pU}Ax^cUnMql@td@nZbo@kR}GwS~]{Mnh@~R~PaJvIoS|n@`Czh@mt@nn@nn@dwB{fH`E}OeIwjAn]~B~b@ex@lk@zLni@rAve@oRhAkLnIrE~nAa}@zb@u~@h@xR~l@]|KwAz@qFaLsW`A_b@{IgRgZiZyq@kWcVwW}N{C}v@e`A|HwKaFeCvYyMbOai@zJ]tQ}Vla@gX|IylAdZsi@`_@cgAtIeGcB_PlYuXnM[fa@q\\tDsP}HiF~@uFnMbAbGim@fGqEl@mb@vPme@mBc_@|FyUmOmg@cDwhAdKkCxWnOxe@iAdq@fIvTrP`YoYp_@oLfIaLcCgFxTim@lUiWxAg[f_@uWvAaY`ReZv@yZhImHrIdFdLo@`Si[~F}Wzb@iMfNaCfZjR~Al]dKvM~p@fEvd@lu@boA`Z}Ndf@r@zNxbAjv@jHlQnMYjOfLhXmCxErGuDtO`Kb_@yF~l@rD`Zvm@~Ixm@}M|QbAp`Ar|@jQkLlSsi@|WkXd`AfJnUa@fQyXvHaTpAio@jb@wRcS}m@u^oXdU{LnR_WxLoYuBoWf\\ub@tGkj@bHdCxBgX~NePoHgu@`GgNi@aRjMgHlC{NfRkIs@yEgG|@dAe[pPmw@_ByJlQ}a@bXy`@xKs_@lk@ySkXkI|j@cSmO}XhBiKtJiBzDaL_D}WdLaTPqBkAuUld@wTLyVre@gr@p[~GpJgDmAa[uIwFHsKh[kp@vWsUtAyMxN~AiDg^zIsMuAwd@eKfGuk@wc@oJuh@jA}GfErDn@cRbFj@oEwI}i@ov@om@}OcDyS{YiMuA{ObA}e@bUN{OeOaVrHo_@mm@mDz@uGDwR_Yi^g_EagAwe@yIciAgLgK\\_h@vJqvAaYcWlRyb@{FwUtSy|D`jCwaBm_@_mC`f@dHtj@aCb_@kVxGeMhs@uR~u@~CtbBb`@zkApVhtBgd@|~@iHfRqJhmA`GlaC}ZvoGnrAhp@hzF`rAb{ChrB_Nbl@_SzWiHfi@eLzb@_a@vPkc@vIiD`\\hCbLz\\`QjSrWd@hUyBpqBru@h_@t`@pDfMqMbf@pYbr@d_@hWdXub@u@c]aLa_@f@}j@eFyIrAsKt[gWdNexBvJoIjTzObKOhaAkk@jMpAtJdJvYgCvEdD|MyZBaL_GiAvGaUqHkPfA{Knc@_|@l`@i`@`l@daBrSenAcC{InMyR^sl@bTmDvGmFzOhEfR{K|Sgn@|CgGtt@eXmC_XnKkV{M{kDXmN{IwjAsKkNbCoIoFm[~RkGpHwM|ZYvNmRfg@hUeAfMtObHdQt`@hX{AmBu]rEcFnSmAkMmKbMwB}Ri[jMeDtJdJhCy[jx@gDpf@fGzOcFnj@pEtIgChByJ|f@{JtUsg@`^oa@bLuAdA{LrUmQfCkM~X_EpOfXpnFbq@hv@~F~uFjVdaBglE|^|HxOtMp_@hArYbQfW{JjXms@~Ewa@pT{EvW`UpHrNvPrH|KwB|Zg_@jZX~NyHnX\\vIsHtc@kCtQ|Izg@}Bnd@jI|f@uZdIdEeGnb@nH~PqPfe@tAjHtd@rJhSaDfz@hJzPtp@p`@`Ohf@y@b`@f[zGyFz`@wC~VbC|XbZVbZ~Yue@h|DolEtUeQh_AoaB`JjKzf@zOnj@zo@pTrCv]oCnY{If~@bFfWyRfhAkOpk@fCzC_CqEyT{TsGiWyk@AcEvNL}EkIym@cXaAwHsa@lEcx@}g@q^bKcb@yI_k@q~@u[sPrYaNbTiVxVkDpH}K~dAuN`JeKvTmExPca@`JeBeIgHTiHtJ_Ez^jJbHkE|PnHt]`An[|HxDvHzXiFfCxIfi@nFbDvQ~BkIpJ`CdZkUnKjGlQsDjOvGbU{Ij^tEvLyBbQ|NzP{DoNqg@jLoEp@eK~N~B|DgGpAep@wGoObTkWaHqYuL{JzQ{YyGaRm@qYjSjFtQqTlYcNtPs^hUn@oFgUgOuQwTueAx`@yEnF_e@rRs_@jSi`AhHn@bR_MvEkNtLaIf_@cKc]qz@nNmqAfwAexAlf@y`@b}CiuAxu@bAxX~UJh_@|o@js@`Evr@vg@nO`HvJsKrVtKV~KpO|\\zRjR}By@rZv\\lWsCsRl[gRlFpKA`ShI~B`d@kb@lFzFtd@QrHwNnUsHbByJdUxNnWBg@oJvGeBd\\xDvMgCtE~CgNvDpAhH~V}Chx@jGzAmId@kRfKiJnW{@ffAsXvg@ec@`a@oQdSx@rk@uUhw@wF`NkJto@nBnP_DYy`@t`@sLfa@dPv[sGvY`Ida@aDpb@hMno@ng@rk@_M`c@|U`VdBbW~LrWaDx@uD`NbAdFjc@jNbCrWuHdm@bl@|f@cJvYfZjWtMxx@Hll@|Qze@JnMjDaBb]nEbFnLiCiAdHq@|PtOzYsI|LiQ~CqNr\\bM~P|DdUhp@gDe@gx@xGTzSxRxf@kOnHnJ`BvS~OlIrSfZ~^]vOtMjEz^oDhe@sIjSvWhQpIhVwKlb@|Mj\\lG|ZdVpJfOp^tTcAxRhQ{Hxl@`IjIrb@bDvI|UuBdh@qiAwZwNHmDxThJ`NrDlgAj_@gDV}UbQHhEjH~GgNlI|Jr^}HbN~Jfp@wN~OxB~`A}J|v@rd@pl@da@bNfIrKoEhVvBtHqEpg@um@`DyPnQ_L~KylAja@jh@|GfR`EoOhN`AnMz]}AhR~O~TnwCpXhC}G{K{Rrw@sApK|iAeCvxCrV`y@rJFsBlKdNpBxDb]gUzW~C`aAdTryBdLle@nIdlAgBboDyNlvAbLxbGdxAmeAdcAa}@niEkBzf@cUjk@ih@aAo^hHmAje@jS|J{B|DwXiOed@vE{_@na@eM`W~a@h]cFtf@jRdYoLbl@pd@jWVdR~Hhx@goCfLrBxc@jl@~LvDzbAuO~Hz`@yQf]zIjOcJb]`MvUWpd@mYtIoKtPtH`K_AvNpOzNiP|SlDnFq@jNwNhT_QluAn@rCvTmAjDkI`f@d@vClc@zIbFxGfVrd@ta@rB`Th]nZlQ|e@lfB~UrOdVpA|j@fEzKhNvE~Slh@l_@tCp]nZvSrBbBtIlR|LmKjD|Wb}@{An_@jOvXsCf\\~Et]{BzbA~CpcAdYxKnLbTfMpG_B~SfeA`jA`q@vm@bPxE~D`^pG`ENl@{Ptg@}D`@_EoPwM{Kem@`Eua@xT}qAroA_oC``DwrDdgDksCbqC}gAhlByuBrxCs_Br~@m`@vSglBf{AqNJ{Wb`@ey@d\\ibCfzBaR|Q}kAbo@gUdt@nEtdAaKvq@aHva@bCx[tThc@gDjt@tf@|gCxpAn~@|\\`DrF~G~@jIkQvp@u^v`DtFr`@sCnzA_m@frAs}C|`NmsAdzFil@fqCup@xlDsT~`C{zAtzGqMzjAcgAxdG{[`lBqB{QmFuBXr|Aar@|tD{l@~qEkIlQamC|tTiU|zByi@j`KoJlpCoGziBOzvDl\\d|E"
                        ]
                    ]
                ]
            }
        }
    ],
    "parametros": {
        "e": "12",
        "dl": "0",
        "df": "0",
        "m": "0",
        "s": "0",
        "l": "0",
        "mz": "0",
        "layer": "e",
        "db": "proceso",
        "schema": "suavecito,public",
        "geom": null,
        "padron": null
    }
}