{
    "status": {
        "key": "ok",
        "msg": "",
        "kex": ""
    },
    "entidad": [
        {
            "entidad": "18",
            "nombre": "NAYARIT",
            "location": {
                "type": "MultiPolygon",
                "coordinates": [
                    [
                        [
                            "kzbaCryugS~S_Nx\\hQiHNkBlHwLwImKzD}JkG"
                        ]
                    ],
                    [
                        [
                            "e`~`CpcrgS`H?g@dHyFeH"
                        ]
                    ],
                    [
                        [
                            "ei~`C~ksgSjCNXh@g@?cAMy@k@"
                        ]
                    ],
                    [
                        [
                            "}p~`CdusgS`Hx@rAdHuJ_J"
                        ]
                    ],
                    [
                        [
                            "os~`Cp|sgSb@g@`@DJ`@?x@[FYQ[S?["
                        ]
                    ],
                    [
                        [
                            "}kbaCxdsgSgM{Vy\\{Vum@q{@rJaJk@u|AvFwMi@eSeQeSjIgSfVqZdZxK|KeSvF?wFdS|BnDzdAA~TkFx\\nOpcAwBh@zKgl@l\\dDfSpd@rXfDbv@_Hl\\iVjQ}Tt{@ec@b`@kh@|VmEzKqNkQ}X_J"
                        ]
                    ],
                    [
                        [
                            "ge|cCxgbjSbM_WhkAkJnNyMpcAoH|f@{e@`H?zm@rfAdZfFg@|KhMjQun@pi@mpA~Z}n@{IqWrDoEiFxB_WcHiFulA}ReQ_Ji@kF"
                        ]
                    ],
                    [
                        [
                            "ojecCfvfiSzXwB|{@pXdy@oFbp@o^`QyXld@g`@`Zmi@tSmF`p@oi@nAcU|e@vc@nh@|T~j@t@xzAeWtAf^bHpOfc@pBbb@|w@dg@rXvr@{MjIjF_UpDyB|VbHl\\iIjFy\\mDy\\_Uay@lv@zFf^iVxMmSzqAc_A`nDal@beAkNfk@wXd`@zBdHal@r_A{XxBuJeH_k@D}j@vO{j@bb@kfBvi@aQ~Vih@|XiRjSaHy@}Og^kIoD{gBk@yXhHmm@`o@cZdJ}Og^vOuOuE{y@xKk^|CkaAxKsZgG_kCnWg`@fWwkBh_AyxBhNs}@rdAipA"
                        ]
                    ],
                    [
                        [
                            "slyaCvshhSfZrMr`@v@lRdHlRqDlEnDhDxy@_HrZsJzK}Gdk@jInO_UvMj@zKyOpD_UbUe@l\\cQ`UyKtp@tAl\\~KjQsJdHy\\rDaMdv@yXn\\?zKoNlQcIdaApA`JjIx@dDdHu\\|K`H~Igl@tO{a@j^mE`J|BzV_L_UyOoDoRk\\m_@iQqEwXgg@k}@}r@av@zGyqA_Ymr@xB{KxX{XfI_m@dMgSk@or@hd@}|AiDeaAhEcyAhIgSdMgHti@cJncAot@lRqDbo@hmBfMhQv_ArM"
                        ]
                    ],
                    [
                        [
                            "}aj}Bhug{Rjg@}NXcLjYnU`Fh]zIy@`Vdj@pOpD`f@a`@jJc\\jn@p@lWmNbXfAnYkCdPsIn]nCpTmGfOtLpFmCdLxFbd@n[rIVpVni@hk@~Dr`AsM~L`Nut@fn@aSrv@q]|AwK~Tie@hQq^_CaO~Ik}@mKi]fToU}EyHjCcHnOqUlKom@mVik@~TgFbOa^oD{QuNaP}A{IdIqLbb@wAbe@cM~_@iHdIge@lEe^|r@o\\rG{Fp^wTfNq@~IhLdRsAfIiHnHgU`AcCzDmGdm@iRnf@o[pX__@pBuDpEoIla@yXnEaNnPCtX|Qlj@cBzLcQvGwWsHol@dNoTxZaG{@kIlN{H|AwIyI_L~\\gTtJuQhYsa@bIyUd_@qNnH_Ytv@{XvOyEr[rXdh@eE`GcRoCeBjQ}M`D_j@fYaLlo@pSz]`CrSkTzm@mL|IeBdOwFbAyK_MaLbe@}J|LqNh\\c@`ReTq@AzRyUpXo^hCaPtJeCnV{WbWbDzOwDhTwMpJcB~EqVcGyF|Oaj@Hu\\`I}KxDpCpSoLxRaEY}Qo@}JlJwDhXyMpHmm@`N}JjJuSmJeGbD|R`y@wF~IkXrMo_@{Jm[|I}Hrf@qPjNmLq@yi@iO}ZjYe@|e@s_A`b@yD|e@o]hYbGz`@_\\dm@~B~b@uDfI`BpHpQtEnBnd@gEzOl^`f@zUnq@CrVObAeSrQzLlI~BzZoO~Umc@nVeCjNvBbOyM~k@vMz`@SnO{FtNqf@j\\{RiDuJtGfQbMhCzOyBt\\mHtJuEe@}F~Q`DtTuJzEa~@qU}CpE|Cpe@iOz_@c^`M`Fj\\{FdPaSnMaPf`@yPiDqF|E~Cf[}IxHid@vFoJxO{Cz^vKt[cBnDw[`B_A{K{YcIq]Xm\\cIuJfJyO}GoRtOqNlAu@`JdChVtSdMnKfv@iKjg@cXfSwAdP`M`z@Pnx@ci@bEaLvHu@nIoKvBiNd_@|K|Dn`@~d@xDzk@f`@lp@_GrRuI`FyBr}@iHfKeN[gEdEwGuAxD|OnU|JjDbKka@j[TnKt`@iAnm@|SzJxr@_C`RlFzGpLoP|DV`n@|t@cJbEyAxd@xwA`l@lDdl@zWr@fPdJ~Efm@b[|J`f@ru@~TbF~QsNr^}GbSxFrLdNa@nHnV~KEbZnSjs@fBvg@j]|d@s@vl@pN`OrUlaAz}@t}@rn@pTlHzKfB|JuEpJw`@xWY|LvI`Q_a@tPs@`NmUbc@dHhb@~l@tNdPzYo]gG_b@hLsHhJSzO~_@dXk@zSt]p\\vZdk@eMnf@gKfMad@dK_YmIue@jR~CzSwGxh@fGn`@wLlc@f^veB`FbU~MxJtN|RcClKvGlRvu@dx@bL`h@jUfO`q@|JhRtz@zq@do@|Ktn@vQrMli@`GqDnOlOfJrA`QxJ|G`lA`g@`r@QtU|c@xQtJx_@Mr[tNlHe@|ZkYxGH|PlV`u@v_@hJnq@|NhGfbAlf@f[|Jnr@\\}Svo@vPzLtc@eVfPkAbJtW|k@mCf_@nOfInRgGxZ`Gpe@pd@vk@~L|@tTcJbCrm@xv@`KrGlUsBj\\hTbAly@gSty@pq@bGlDf\\wAda@~s@tBtPdKnKnV`CrY_DjRlb@x[hRvIfk@~`@j_@nu@rNf\\yJnFhGeInXsm@hWcaAhn@s`Cfo@yf@`Vgz@j[_u@hj@ks@zv@qg@|HoUtVu}@hxAuRl{AhPjOlf@hIhNpXo[fJeFdNfFdO~\\d^df@rNrO~O~C~Ozf@lK|Obe@pM|N{Hd_@hElk@ciAzeC_F`v@t@zJo]~iAq@vMpE`EiOjUcAjp@fMfYoKpOZtScm@hy@u_@t|@v@tH{h@jSmUn[fI`j@pXxPhd@|u@|l@|ZzGhMo`@hVis@fF}_@oZcJhE`DuJ_JqLgRB}BgGcQ_AkD}JqPgCgHub@_J{KjNyH~JubAbZlBnIcDlBuJqDic@tAr\\}IzNmE_Yge@ow@wlAmy@es@c[cx@uQcP}Qmn@o\\kD~Cq]kRce@_LyNiHgo@uB}q@ob@oi@_DyNaIkg@cF{Ps[zMgVaQkcAoq@_o@ex@y_@sNMlAqHuKuIeb@}J_e@oYgRBm`@sZmlAca@kQck@nBuJ_SwGg@cXmi@wUyGgPz@yXsn@ke@wBuKgL_IxCaAqBqQk@yFsLqb@k`@{^wKdBo]sFwk@u^aRwDcAk]}_@ki@umAyj@w`@{_@w]uNilAuTg~@cFpIkd@tJgEnAgLcQlLRzJ}NjXe_@a@yEgMdK_v@pChDzJm[tl@}McMkMk@}m@{RyZ`Y}QhKuUs@uNcRa]ukAycAtAkEqM{S{PqSag@}g@ulByt@y]gDibAyXwpBaGxn@gLtBcOcMfPuLnD{m@AvJhEqrAzHkPdSiE``@ybAdDoWk]yOcIVsE{DfCy@bUw`@y@sCmOqUaJXcGkLcCgYoWaMMg`@tLmAjh@gNbEsW{JjBgFsG}E{XnK_BtJi\\~CsJwIkW_BsDsQ{G|@eUmTwTmCgRe]lEmEaCcPkPeI{R`BrPa\\e@kIcDlKwKtFe@|Rz@fDtN_@bOhN{kAkDmtFrW{g@xH{ZiGmIb@mRgWj@~R}F|C}aA|GwI~HjO{ErkA}CaT|G{xA~GweCd^ob@pAe}Bbe@q{Alk@uQaAvCsP~FrIwA}JsWgX{F~@pI|Hl@lq@q[oO|AyX_x@_FgMaIye@uDpHkEcK`C_HlSgGw@gFgPdSaj@od@yWqy@fKxH}[aAeXwm@eTum@`@wS|MqOoH{Ui@oLcUqOyG}Vsa@qNiIcQgF_ZzBqN_Mg]OuGmv@ou@gh@_qAkD_\\rCwtBnsAkVuJ_MeRmYlAy{AbqA}mBlpByVvv@vDvg@dRpBb]jQd`@oAzIzDqA|GfFbDgU`p@hUzi@_N`Bb@d^wf@nv@{k@z|@af@vD{Rxs@mYlUgGzg@g~AhdD_@hO{cBb_EieBh~E_k@l~@mYrFoMaJsO`Hyc@{Cq@jIxFjFlbA_Gyq@tUxGpKbO{Bn\\k^|Jq@p@bD{x@plBcn@fy@cDzMen@na@aOyA_~CpEmZxIee@rS_PxQupA|`@wHvKmLt@}hCrgA_~Cf~AioCpt@{hA`c@ctBzhAacB|~@qd@f`@uQvCm`Azk@cVhYyV`FegAnm@ev@|g@uGfMovFddDsdAnj@exEzcCugEprB_jBfk@ayBvg@k~BxYo|B~JewAZo`Kuc@cjCcCs`FjHyxEbNyyJfy@w|BmHsiDfa@y~GlnAcvIteCgaFdbByzAdl@ykBz`AikB~k@_sBzuAkh@|Oir@xEik@oEcJqZzCof@~e@cb@bIlCbIqCrd@mRzO}PzqCem@dxBgaA`iAexAnQsaBaDi`@uNwWwn@oZwa@yCyl@bGmd@hH}mCzaAcoAzQw|@dZ_f@l\\wk@e@wOwMy]oT}i@adA}o@qzAqj@em@zBgJgEaA`OsPv]cHvNg]vVymA}T_yAnl@se@FmIyK}NdUgRtHkYjSlKn[cVxRc_@~LdDrWuNtSzJbf@R~L}GhDmr@cHkOgTaM]}GnM{Y]sQlOuHzAuKyBoc@nLkOyBga@dIun@cHmi@|Os]pg@uN~h@ol@aIi~@~@qZx`@{v@xFku@`LkUbJsQn@cStV{Vd[_l@nG{KeQeYQqTsGqMgSsGaJgD`C}Vir@qYPgg@yL}]sRo@aS_Cae@m`@kx@qKk_@VqX|My_@eAcJdJoLfAgAoLuM`Luh@yNci@nHu_@mE_TpE_Yx_@_Z`y@}[|SkJK_j@m[qO_TwTiAa[~Jsa@M{NlEbE|OyAh^hK`f@Yn]iAvH}XrN}ZaAwe@sRwK_Okf@}BaDgf@wDyAwj@hFoDrJeX~AmTlt@kg@xOsN|c@aV|X}HuDcVi[sHlIzNni@kCtKcXnIaLbb@eb@p@iSpl@g`@{JwF|Dx]dv@kCtKaK~G}ZcJgb@nFiDb\\rd@pTOdMcKtQ|AdPiElIsWvEgSnRuG?eGuK{@c\\gb@fS{j@iOsWdSgEeD^mOgGeA{OdMqIcPce@iRcr@sHyBeJtGmUmNsKiQm@{PvHeT}GiQig@yQmCoKvEmNcGkOsTec@cJcVkUyB{_@qiBmLmJlF{J{SwFfD}IkCoGtI{JH_SoLwVApAmUkDwGkg@gBgOuIoThFiFoBaPui@ys@eXiQvGyIme@s[iIkDoH}NlBqG}Ic[yJ{aAghAcS_TgzChG}hAnzAklFk{@geOc}BgrBiyF_jBesCtMwX}@kXjHma@~`@m@hX}JnJy[vy@eAbRL|\\vX~v@a_@hd@dKjRqD~_@tG~D_O~U}OpPqa@fRdLfGuJnv@eJd^ma@vIiBLrQ~GlHp\\_Q|Kz@|MlSbP}Oh[bPt_@kMhD`DcCvTrJpJlMwUmBsKnPuAtLsJeD}Upy@vGnEg\\pRqBtA}PpGmGiZmi@_DqKqT_QcBwV{VeY}Riy@sVmOc[}GR_h@hNcFyWcV}K{@yFsV`H_IoA}g@eNwIoJu[|Ike@~QoEjAgGu@uEiRsFsC{j@~[dDjGsRuEeRcvAyg@ag@l_@mRcNyDkZel@uIyCiFkCqKlSc^qAoSmY[_a@}i@uN}p@fDgHrOh@bOuGYwFdQ]aG}LfI{W_H}IrCoUu@kF_XwF{AiFySsArMqi@lMsDxe@et@t`@uUdZfG|HkPtZrKlJmPx[qC|BwH{P}KrRi@fNkHHa_@hr@iLxQtFvj@cr@uWgh@pTgb@eFig@oToQkZmDkLyInx@ilDKoQmOkj@|WajA~Fyv@kLmk@`Bcm@d[kj@yHsNxCaQqN{H`T}\\oF_x@wZgt@zMg\\xa@mOl_@b@fKbIl^fG|NpOpo@vExz@p[ld@gPn`Awm@vDtHyBdXjDvCta@y`@fm@o\\zIad@|QyGxk@_Bfh@vGxq@mFh|A|Iv]}Inb@xHhW_DpVig@jd@iUvIu`@jZ_MdEkSxWcXzJsXee@ch@eEgNtWcx@wE_Isz@}_@d@oFhLud@``@kx@niAs}@hb@xNzRwYjGy@pRbLxDjVlFvBvVv@fj@qLlZxGvaBTzs@dN~n@uMt_@_]lb@iNlSdMvLjTdBjMoPrVbIpt@ir@ndAvD`O`^rKbi@tq@~b@ls@_@dPzLjEpy@b{@pR``@bAhO{Rd_@XnW~f@tX`WrE}G`w@z\\jh@vE~ZvXBvMpNpNhf@_ErJbNvt@n`@nZbN|_@xz@pd@ppBwOnvC_`BfJi\\uCum@jDoOxLs[~RoEnEcHhnB`d@~q@cDhj@rRnl@dBzH{Q`u@g^`KuOf_@wK`JmJhk@gCf{CgyFmt@o{Fk[{@mPsLz@ifA{Nmu@dIo_@el@lOoM`o@gTlBuNu]qYcWlB}[k}@ePml@sBo[pDmB}MoSkPaa@cFkS{TmBcMmXpDcXmPmOeEyEbDwR_`@uF{p@wTbCm~@wNkRqUc}@s`@wd@_A}RmMeRnBgZqMvKiZnNlAdPsJ|C}UbXeWrCyg@nGwPaEwHl@m]hVkB`IeRO}DeXyFuRee@_PuCqLtGoOeEzAc~@hEiIiB{SrUc]tHy^n[iBzFqH{ByVko@ow@pEaaAqEuN~Ae^ja@e|@g@eL|Xk@l{@cq@xt@yBbn@uLzg@~D~]`N~KhNlh@pAz@_LjQaJdj@hGvHsOxQsKrlAiQfe@qV`V{i@eCye@_YkrAqCwr@q`@es@uBqZ`x@cDp|Aav@`}@gBll@cNpd@yg@tp@uHt_AvBru@}r@jkAq{C|VcWbcAcg@l`BkK`TtUnc@eSlReWl\\Nrd@sWtb@mA`CvElh@}GpBc^lWgHrKkNfT{Cze@}g@pU}|@d@up@|g@yBqHuTmGcVbgAqRpc@wy@jc@_NxG}c@hOoSvG_^eAg[v_@iM|FeL`n@k`@_A_j@yLmG_Qyh@_@if@bNeIYsKmOuF{F|f@se@hXw@`P{FxDsSuf@sJkHq`@jD_GdWwJ~Cwf@ul@yWaNsYjHwKnLlOzSnc@fXx@hLwwAQif@ql@gz@swBwp@eeAsc@_sAqNwv@{d@__Aa[qiBmXiXqAy~@~Igd@{g@c_B}V__BgLsGbHoSlq@iv@`}@odBa@qMaZ[iNkHeCaIvGmKkK{H_MSho@ecBtUcShjAvaAzXd@dNiNxLrIbq@o\\|s@fSn|@g_@rVyW|a@sQ`EeUtNyIhjAnKbX{QzOcWfi@jIlWeHrDlc@kSvL}CtSdUKp}@g\\nn@p@_C|Xlb@}Phu@}@rYkMhYm[fm@eOrLlUnT~Kfc@iAnCvH|MnAva@jWbJ~PvHzBd@~UpN}@z`@zOdSn^x_@jQbBv\\zQrOvx@nl@`n@S|e@mIr\\hTrRhBxUgEvN~S}Fbi@xk@rK~L}@te@w\\tDo_@ft@ha@xc@yBrc@nb@Aff@vN`Q~v@kHrMfV|`@|Lxd@wEl\\nB|dA|WvM~Plx@uAny@dY`q@pFhKjGdTc@bUpGzRzQbf@aVvUa@rN{F|PtI~Y}B~a@aYrkBLjUwIbr@dg@zq@uMtYhKzVwCvMhMjSwIxKtCpM_f@|Kg@jE_Gp_@u@tI`KxYrD~XtUbt@fJr`@aBv^vRlYeBv^uVeKwVvIih@uLsoAc_@{j@_BaMfXyn@_CiL}QwKyXmAToQka@mX~@ik@uH{Miq@_]mWea@pFo\\nLmK{Huj@xDoKncAs_@bc@x@tOsPzQkYfGkv@`Y{Wd^eaAiOyVnAai@eVmt@oTeP_`@}x@oHmmAePyd@nE{W~I_SrIqD~]}z@v_@}[`j@Dfq@|Ptr@bBlOnNzd@_Axg@bg@hZjJjF`J|a@gGp^jNxSdg@rSvT~s@r@dc@nN@fKxL~EnNwNv{@uNzRsc@tf@_S|VlAdEiKvLuD~XbHbN~Rn^lKt^eL~u@aIbEa_@vLaEbJsWnlAyk@dLiW|t@w\\_Cie@tRaH`Dun@|YaN|Fu^|PoIj@y\\d]qU~TaZx@oiArPgs@_VaVlBa[wJcMF}R~IyO~_@~BaD{t@nUyZ_PPe\\uWo@uo@oT{SxCgy@sK_Yx]mhAgA_^`Oyn@Z_^|a@ikAmByz@cEmFvOeTqBqm@rh@a\\{BuSdNaOoDoQjHaD{@gO~LwAdAyJi@mQqSaK@_l@yS}a@xD_J{Jug@jEeOAsd@aL{[vK{]f_@_Nhd@oSly@aBt]xE_Gj~@nJb[tCc@bQ{ObXSfb@}[t\\{r@xN{AlKsLbOcYHwJlg@qPMwTdJ_JjYoEjVeSfVoAtJoHrnAgEf^jHdF`QzQqB~IhVj_@mHh`@dJvUlo@fScR~PtVvMk@zk@fXb`@oBv@rEeJfLlEbN|E~HtM@dNtLpSl^njAcd@jSkVtGi_@xXMfOeTxuAjf@xOhRp[nFp}@gMj^{~@d@iZtRkHlHuMeKme@zG{Vnm@`GfVwA~JcOtS}FrY_k@fFm@~Gqa@`MgToAkFiK{MvCgWeMiQfg@pFxFmJx[xLhXGhx@iRp[y]x^cSeEmCvDsPeFmF`Oc]fFm@uGyM~D{RaJwMbAsLxIdDhOmDh|@{f@m@ga@lPwXyA_FvGn@r@iMdTqSrMqa@jXkYoIyMyDiZsKkFaQj@lGqk@sJMfJoVjJmGoKa[`Ja_A{Bqk@tDcKdYuQdKje@rBwC|UfKjA}VrPyHhT}^~UwDdOdNnPnClRmRbSyA`^oSrc@[bI{Kx^{Fj_@zTvMwGbCjF~VyArL`MxIm@hAnGdMoAfEhe@tMnJxYD`F}H|NXr@iIp_@cIb]cs@dLaDzKfDdJuFq@wFbPqL~Mm`ApP}IbTco@zXmD|Jh\\_AxN~IdT`NqCrE|G`f@t~A|g@jX`SbPjIoHzf@{K|NjLpQr@dIjWzJpChH~AbBwJpOgCvFlCpIpj@`_@^hPdc@gDfIxJbMfXvHdJ`[c@lQbeA|TlSrg@pDtPuBnK|ZrfA|a@j`@zWkFrMrTsC~Mlu@pj@rgA}dAxEt]pKxWvLhJji@q\\jm@rJnR{F]`c@jNvh@xPxVlQfn@OxRm\\lj@kLrc@uAvc@pJ`Ie@nKhNpQ~EtZ_OdQ~CxMuInIZdKxO~YlClTd]lKpJz[sAv\\tV~f@X|SqK|b@{[xNgVqBkL}Jo_@zKp\\rWtJjSlHr}@eAh{@iYrOyJnPgSdCs^b`@hGnQeOpMmElV}HpIl@~a@l\\`KfOnw@fYhNrX~[zTv}@`QvKnf@hEvCzgAvMr@l]oN~PzIhS_HfQdMjV_E~IxMb@rPue@tFyDzHlHvPvRvRxa@fPc@uTfGuQrRt@zL|J|BnR}GjNym@xSh[vn@w[rZcC~WdF`Fpt@bBlCtW}]xJmFzSzO`WdNrGtVyM`VkAbDdGoApUuJ|Ex@fm@aOfB_HbK}z@hK{GpSlNxMbb@dBxHhIJzRwSzWaOnEL`JvZto@zk@xKeBbOe_@tk@qK~_@fWdJjM~ObJ|v@{IjNkEb]~e@vhALtM}V`h@jBf~@{Q`aA_MvXi@d~@pV~h@~^|XfW~DpNxTzXuD|ApNlMr@`FjLdSwD|]|HbOgIe@zG~_@tFnKl`@nP]dTvQ|JmKd^ojAhIK_CwUdZIjAcOtPyKxI|HxMuFpXhIbI}EtDlGnLwG~GxRlKaKzCfPre@}Brk@~e@|SUzGmNzHUdY`AlZcFlO~GrRlAb\\zVdQmHj^jJjHaDlCvP|RdScInYrPoEbKcRn]kB`KeOpe@|KbJ~Uq@vo@pJxVDp\\`LfIbTkP|F}OhWg@b^gNvJc`@riA_V`o@d@p}@vc@hr@iMrDhA|CtVtFvBtf@nDlIqFlA|Hzo@zTbq@_CdKpQ`\\p]bPqBnSpI~z@ri@~OBjLfGfMrQ|\\g@zM|Jrz@tUjISrM}LhKfGpKkNtL{BSnShh@tHbFlVlUzCxAlKfOrAxCbOvOfLfUcEdMjB|DmKnGbDja@_D~j@xc@xApLzKbDxBlNxXzTvH}CraA~CkIrQbG~[gF`KzDnHmD~IlXzZ|LrA\\tQ`JxGeCpTiNxOxAnO{Fx^iVhRdIxl@gK`SjDfPuD|IvQvQT`VrKbVjJuC|LpKvVcL|k@rCfUkK|\\jAjf@wZvD_UhUcWfY`M`PBbEbOnQnQ|\\aAtBeOeI_XfCuXzWqXgk@yf@vcAozF{Ayv@bbBjExAas@~OdDje@y_@|MfDd\\io@zK~AjLxJtJhb@l@~TwEbOlG`aArD~LxHXtEfI~Io^oBeWba@eQ||@usEfd@aAp]kVlTkC|j@l_@fUeG"
                        ]
                    ]
                ]
            }
        }
    ],
    "parametros": {
        "e": "18",
        "dl": "0",
        "df": "0",
        "m": "0",
        "s": "0",
        "l": "0",
        "mz": "0",
        "layer": "e",
        "db": "proceso",
        "schema": "suavecito,public",
        "geom": null,
        "padron": null
    }
}