{
	"poligono": {
		"weight": 1,
		"opacity": 0.95,
		"color": "#99DD99",
		"stroke": true,
		"fillOpacity": 0.85,
		"fill": true,
    "fillColor" : "#99DDAA"
	},
  "activo": {
    "weight": 1,
    "opacity": 0.95,
    "fillOpacity": 0.00
  },
  "inactivo": {
    "weight": 1,
    "opacity": 0.95,
    "fillOpacity": 0.85
  }
}
