{
    "status": {
        "key": "ok",
        "msg": "",
        "kex": ""
    },
    "municipio": [
        {
            "entidad": "18",
            "municipio": "1",
            "nombre": "ACAPONETA",
            "location": {
                "type": "MultiPolygon",
                "coordinates": [
                    [
                        [
                            "yychCxj`cSy@f[uI~ExBrYpo@jR_DzYsZvH{@|Gb^pVq_@xQyh@rg@{`@tI~QxKsGtF{\\bBiHrPgPvt@sI~EgZ~~@gTvPuNj_@fB|XqDlUzKdQ~Hfk@uUfUcGnX{v@~v@dKp[sBlRsh@xo@uf@vA_EjG|AnKrOdB`FtJ`Hfq@wA`_@q~A~lAe\\`Ho_BvE}|Bj~@}o@qzAqj@em@zBgJgEaA`OsPv]cHvNg]vVymA}T_yAnl@se@FmIyK}NdUgRtHkYjSlKn[cVxRc_@~LdDrWuNtSzJbf@R~L}GhDmr@cHkOgTaM]}GnM{Y]sQlOuHzAuKyBoc@nLkOyBga@dIun@cHmi@|Os]pg@uN~h@ol@aIi~@~@qZx`@{v@xFku@`LkUbJsQn@cStV{Vd[_l@nG{KeQeYQqTsGqMgSsGaJgD`C}Vir@qYPgg@yL}]sRo@aS_Cae@m`@kx@qKk_@VqX|My_@eAcJdJoLfAgAoLuM`Luh@yNci@nHu_@mE_TpE_Yx_@_Z`y@}[|SkJK_j@m[qO_TwTiAa[~Jsa@M{NlEbE|OyAh^hK`f@Yn]iAvH}XrN}ZaAwe@sRwK_Okf@}BaDgf@wDyAwj@hFm^\\}[sS|Jyf@}Omd@dTgRx{@iE`w@f`@bC_TmFuGDcM{FoBq@_Vhd@oMtOkN~[~CxM{Fb@~Xv^tGiFaXhEyNzOeFjRa^te@wUvFsRy@mt@wLgK{AgLfK_o@dQ_d@xJiBxM~b@nIrDfOmH~ZrBlDcHzLsAhHcTdG}Bv{@nMvZ{YlKb@dEoRpS{D|EaKtUXeHqPxEqOmJcC{AqKzHqrAiD{o@zG{NldAq_@nr@wEd^lHzOuG}DmHtCgSaIiHrKwR{JwLgX@iPw]z@uHgTkX?cj@gZ_PmWg[t@uNlFs`@|MwUKsNpJuLoMcWpKoM_c@wOsQEsx@ua@J_EbVcDp\\y|@i[gO|ViOlHeNxCgd@~G}KuIkb@lNmYlTqH{AqK`KmMwHaRrB{SqFcOpx@ou@rUsBvS}Rz@uEe[aMcOwZrPmh@z[aBxMeZuH_RjBa_@nb@pPsBuVqIcIn@kl@{k@mUab@c`Aq`@t@iYwV{^uMf@eMnMmS|MqdAub@afA|E{b@{ViDxEig@gM}NwTs@kNcQ}WgDyXoWGmIePeEoBwPeInDoIsGgWTmTyHsX|GmV_Hqj@qu@}_@{Rn_@gm@vSrCta@yQdE_WdI}EfL{]sKqJMyPqG{LdAmi@kf@{ZgZki@mMb@uNoG|By_@m[wV_MiBfJi\\uCum@jDoOxLs[~RoEnEcHhnB`d@~q@cDhj@rRnl@dBzH{Q`u@g^`KuOf_@wK`JmJhk@gCvw@fRdc@fZlc@eHtg@tOha@qLpc@oAjEoO~HjH|FsLp@qW`k@iNba@wTfP|HzIfWtChZxOdKlY|AzPsGxGaTvc@lB|n@qp@bg@tOzE~FsArTif@bbAAhRbQ~p@|\\tVr\\xGvG`l@l]lT~o@dShj@pcA|HtDpLeQsIkb@jDoLvz@ku@fHgBlb@jNjMkBxX_VvnAbJ~\\kUvl@}FpFs`@fKoDzK{@|G|FzGnp@bKvIpc@w@z\\fRk\\`u@jAhl@i@vb@rJf`@dNzRnFpb@aI~p@pZvIdTj|@cJnl@cY~n@BhO_ObN`JtP~WfNjObi@nLvAvFaEpYfKjWz@`^yLlU|T~Jh@bjA}N~V|QnM]bR}Kxm@fJxVkBdy@jFfPvRRjO|m@v\\lF|Rd[rXzEvMzy@nb@hBnWxNta@{Odb@tMxUev@jl@aBfG~JdLcSnuAkLpIrMbOgNbh@hCtVmQ~\\qFh^qBbjAmLnlArIbiAmsE||@{U~LAxPcL~KoA`aAwL`]}sBfmAsuAft@q`B`_As~@|e@rXl`@`@`~@vPlX~@~RbQ~Smu@tKmTht@zDzcAiXiRkSfIRkOyF_AmZrQmBnkB~\\|}@bFzj@kr@sc@kPvo@yg@|@{nB}RqKzi@au@iIcIvFmBxYuGaOuVmOqDcOwc@e@uP~kA|jCtqBua@de@wG^ub@gTur@zg@{GmBaPrg@tBbU~MrR{Ohn@aNnPi_@jGoXt_@pDdOvUjRiHrRxHvR}NlBeB|d@oQzUwPd`@zE`XwKhEgKrXcHcLqDjDpE|Le@bMuFnA"
                        ]
                    ]
                ]
            }
        },
        {
            "entidad": "18",
            "municipio": "2",
            "nombre": "AHUACATLAN",
            "location": {
                "type": "MultiPolygon",
                "coordinates": [
                    [
                        [
                            "_qu~Bnmp}RObAeSrQzLlI~BzZoO~Umc@nVeCjNvBbOyM~k@vMz`@SnO{FtNqf@j\\{RiDuJtGfQbMhCzOyBt\\mHtJuEe@}F~Q`DtTuJzEa~@qU}CpE|Cpe@iOz_@c^`M`Fj\\{FdPaSnMaPf`@yPiDqF|E~Cf[}IxHid@vFoJxO{Cz^vKt[cBnDw[`B_A{K{YcIq]Xm\\cIuJfJyO}GoRtOqNlAu@`JmDuPuOkG{FgZge@qT_S|AH`JqFfCwTWuOuh@kQqAeOgg@_Nu@pH_a@{PcL}FmXmZYsN`UwRsMm]wE{Ewf@sWiPyOcAch@ybAuYyQkF}d@{Qma@XaR|LaMwJwZNa]ac@yZ}^gz@}NwGk^[{Eue@qYeGcKwA{N~S{AvNgSvQuKqMyK~DgBwFuKZwJ}JyCjG_KwV{FhCzClCcMjEqJqU{IQaFqYe`@{Mm^dC}TxKs`@nj@wUlD_Vl@}d@yCeMlHgDuYzIyDzHgZh@gR~w@g^dScJzkBkRr|@}{@q\\m_@_KeXgo@k[}Qkk@g@sp@nI_HhZaSbS{Zj@kr@`Q_j@x]kbFf{@zShNYxInTbU}t@xKooAwb@w]bRiyA_L_K~Zqn@jDsg@fOqVbf@u_@zK}VbUsBpfAtVnEkl@}~@{o@qg@}SqK}T~BwDrTdHt}@LpMwB~T{Znm@eFdUhElkAsArg@hEdG_K|]eC|L}K`Fh@pIt]dLxMiLhb@`H|ChIi^fWme@|G_t@jKgGjGkSxj@qB~`@rJ~HoF|OnHbKaIb\\vShC|a@jKjSoFrYdIrh@xNxKtCpO~TUva@tcC}@~Fk\\vSfB`UpWx`@vQ`GpMiAb[kWrBwNfp@kLdLdMzn@xBfRpLho@bF`TfWrKrCaAhNrR~_@|h@rAk@tQ}SgA{Wx^mc@fHcOvQuwBcDqJaEwMs\\eq@oB{Q{S{Pb@aVfMcRl]l^dXzAbKzQfPrn@pR~DhLpe@t`@zFdd@oQ{HcFuSy_@uDwQnDk_@p]?f[vSlNbRrBpPdPsYvK@f[fOvOjBdOnYvI|I|Jh_@~Cba@_IvJpJxj@oAbPzL}KpKyK|eA|@jUwJtDvEzNgX`SgNnNmV~FEdHhInB}Kx\\eVzW}[vHcHpQsDpj@nJzXtIcBdWrf@zuBfr@`t@rCdVuFbmApt@"
                        ]
                    ]
                ]
            }
        },
        {
            "entidad": "18",
            "municipio": "3",
            "nombre": "AMATLAN DE CA\u00d1AS",
            "location": {
                "type": "MultiPolygon",
                "coordinates": [
                    [
                        [
                            "}aj}Bhug{Rjg@}NXcLjYnU`Fh]zIy@`Vdj@pOpD`f@a`@jJc\\jn@p@lWmNbXfAnYkCdPsIn]nCpTmGfOtLpFmCdLxFbd@n[rIVpVni@hk@~Dr`AsM~L`Nut@fn@aSrv@q]|AwK~Tie@hQq^_CaO~Ik}@mKi]fToU}EyHjCcHnOqUlKom@mVik@~TgFbOa^oD{QuNaP}A{IdIqLbb@wAbe@cM~_@iHdIge@lEe^|r@o\\rG{Fp^wTfNq@~IhLdRsAfIiHnHgU`AcCzDmGdm@iRnf@o[pX__@pBuDpEoIla@yXnEaNnPCtX|Qlj@cBzLcQvGwWsHol@dNoTxZaG{@kIlN{H|AwIyI_L~\\gTtJuQhYsa@bIyUd_@qNnH_Ytv@{XvOyEr[rXdh@eE`GcRoCeBjQ}M`D_j@fYaLlo@pSz]`CrSkTzm@mL|IeBdOwFbAyK_MaLbe@}J|LqNh\\c@`ReTq@AzRyUpXo^hCaPtJeCnV{WbWbDzOwDhTwMpJcB~EqVcGyF|Oaj@Hu\\`I}KxDpCpSoLxRaEY}Qo@}JlJwDhXyMpHmm@`N}JjJuSmJeGbD|R`y@wF~IkXrMo_@{Jm[|I}Hrf@qPjNmLq@yi@iO}ZjYe@|e@s_A`b@yD|e@o]hYbGz`@_\\dm@~B~b@uDfI`BpHpQtEnBnd@gEzOl^`f@zUnq@CrVcmAqt@eVtFat@sC{uBgr@eWsf@uIbBoJ{XrDqj@bHqQ|[wHdV{W|Ky\\iIoBDeHlV_GfNoNfXaSwE{NvJuD}@kUxK}eA|KqKcP{Lyj@nAwJqJca@~Hi_@_D}I}JoYwIkBeOgOwOAg[rYwKqPePcRsBwSmN?g[j_@q]vQoDx_@tDbFtSnQzH{Fed@qe@u`@_EiLsn@qR{QgP{AcKm^eXbRm]`VgMzPc@zQzSdq@nBvMr\\pJ`EtwBbDbOwQlc@gHzWy^|SfAj@uQ}h@sAsR_`@`AiNsKsCaTgWio@cFgRqL{n@yBeLeMgp@jLsBvNc[jWqMhAwQaGqWy`@gBaUj\\wS|@_Gwa@ucCtWjXvc@iKfMxSrg@`Qfb@|d@|IkC~Pso@lSuX|fBgLxLc`@ex@ubAjLmm@ag@obAoL_j@kRwYvX{h@eNe[@ew@_M_g@qVsQoCyMvU{n@sJ_VtHaf@tQuGdNcOzKcA~`@zHz_@pO~WnZf\\q[pNwDxf@ep@rTpFrJhRhUuDlXsJdbAcr@n[kHtX}e@z^_]dk@m[n^^f{@e^zNbMnTkYnGaXvH}CraA~CkIrQbG~[gF`KzDnHmD~IlXzZ|LrA\\tQ`JxGeCpTiNxOxAnO{Fx^iVhRdIxl@gK`SjDfPuD|IvQvQT`VrKbVjJuC|LpKvVcL|k@rCfUkK|\\jAjf@wZvD_UhUcWfY`M`PBbEbOnQnQ|\\aAtBeOeI_XfCuXzWqXgk@yf@vcAozF{Ayv@bbBjExAas@~OdDje@y_@|MfDd\\io@zK~AjLxJtJhb@l@~TwEbOlG`aArD~LxHXtEfI~Io^oBeWba@eQ||@usEfd@aAp]kVlTkC|j@l_@fUeG"
                        ]
                    ]
                ]
            }
        },
        {
            "entidad": "18",
            "municipio": "4",
            "nombre": "BAHIA DE BANDERAS",
            "location": {
                "type": "MultiPolygon",
                "coordinates": [
                    [
                        [
                            "}b_~B|}}`SfbAlf@f[|Jnr@\\}Svo@vPzLtc@eVfPkAbJtW|k@mCf_@nOfInRgGxZ`Gpe@pd@vk@~L|@tTcJbCrm@xv@`KrGlUsBj\\hTbAly@gSty@pq@bGlDf\\wAda@~s@tBtPdKnKnV`CrY_DjRlb@x[hRvIfk@~`@j_@nu@rNf\\yJnFhGeInXsm@hWcaAhn@s`Cfo@yf@`Vgz@j[_u@hj@ks@zv@qg@|HoUtVu}@hxAuRl{AhPjOlf@hIhNpXo[fJeFdNfFdO~\\d^df@rNrO~O~C~Ozf@lK|Obe@pM|N{Hd_@hElk@ciAzeC_F`v@t@zJo]~iAq@vMpE`EiOjUcAjp@fMfYoKpOZtScm@hy@u_@t|@v@tH{h@jSmUn[fI`j@pXxPhd@|u@|l@|ZzGhMo`@hVis@fF}_@oZcJhE`DuJ_JqLgRB}BgGcQ_AkD}JqPgCgHub@_J{KjNyH~JubAbZlBnIcDlBuJqDic@tAr\\}IzNmE_Yge@ow@wlAmy@es@c[cx@uQcP}Qmn@o\\kD~Cq]kRce@_LyNiHgo@uB}q@ob@oi@_DyNaIkg@cF{Ps[zMgVaQkcAoq@_o@ex@y_@sNMlAqHuKuIeb@}J_e@oYgRBm`@sZmlAca@kQck@nBuJ_SwGg@cXmi@wUyGgPz@yXsn@ke@wBuKgL_IxCaAqBqQk@yFsLqb@k`@{^bh@wi@dHqI`zBw~AfkJxmFvd@e\\jhBopAadCo{Eku@gyAkjDagCmTghC}dFwsAcGsAuj@olMo]{rIkG{|AiTcmFmpBwuCabB}HdJom@hWqgBltEo|@pzAoxFfjFbk@fB|JuEpJw`@xWY|LvI`Q_a@tPs@`NmUbc@dHhb@~l@tNdPzYo]gG_b@hLsHhJSzO~_@dXk@zSt]p\\vZdk@eMnf@gKfMad@dK_YmIue@jR~CzSwGxh@fGn`@wLlc@f^veB`FbU~MxJtN|RcClKvGlRvu@dx@bL`h@jUfO`q@|JhRtz@zq@do@|Ktn@vQrMli@`GqDnOlOfJrA`QxJ|G`lA`g@`r@QtU|c@xQtJx_@Mr[tNlHe@|ZkYxGH|PlV`u@v_@hJnq@|NhG"
                        ]
                    ]
                ]
            }
        },
        {
            "entidad": "18",
            "municipio": "5",
            "nombre": "COMPOSTELA",
            "location": {
                "type": "MultiPolygon",
                "coordinates": [
                    [
                        [
                            "}rr~Bfot_SgjFck@qzAnxFmtEn|@iWpgBeJnm@`bB|HlpBvuChTbmFjGz|An]zrItj@nlMbGrA|dFvsAlTfhCjjD`gCju@fyA`dCn{EkhBnpAwd@d\\gkJymFazBv~AeHpIch@vi@wKdBo]sFwk@u^aRwDcAk]}_@ki@umAyj@w`@{_@w]uNilAuTg~@cFpIkd@tJgEnAgLcQlLRzJ}NjXe_@a@yEgMdK_v@pChDzJm[tl@}McMkMk@}m@{RyZ`Y}QhKuUs@uNcRa]ukAycAtAkEqM{S{PqSag@}g@ulByt@y]gDibAyXwpBaGxn@gLtBcOcMfPuLnD{m@AvJhEqrAzHkPdSiE``@ybAdDoWk]yOcIVsE{DfCy@bUw`@y@sCmOqUaJXcGkLcCgYoWaMMg`@tLmAjh@gNbEsW{JjBgFsG}E{XnK_BtJi\\~CsJwIkW_BsDsQ{G|@eUmTwTmCgRe]lEmEaCcPkPeI{R`BrPa\\e@kIcDlKwKtFe@|Rz@fDtN_@bOhN{kAkDmtFrW{g@xH{ZiGmIb@mRgWj@~R}F|C}aA|GwI~HjO{ErkA}CaT|G{xA~GweCd^ob@pAe}Bbe@q{Alk@uQaAvCsP~FrIwA}JsWgX{F~@pI|Hl@lq@q[oO|AyX_x@_FgMaIye@uDpHkEcK`C_HlSgGw@gFgPdSaj@xHi\\wHep@eEeBhM}rAsHedAjIoMlN|CtToh@~j@bGlEwUbaAwm@mp@}zAlCgFqDeSzVq\\LuYfMoUz@ef@yLsUsYgJqLoMx_@yn@v]iNmEyHyWoCoS~Ds]wg@vM{SaL{O`BmIfGYlSqq@rVsWpFqe@s^sDmWuXuR}FmFq\\oKkQl@iOmI_JgB{XwRkN_Iw^tGoTrc@qX`DiR`e@ae@zIaBfEpHdQvDrA`Jnj@fEzFtPdEoC|C}o@td@kMae@oo@nRa\\eBkWnWwy@aLw[nCaa@{GwJ\\yM`b@wWji@gKtIkc@wAme@rQnBvBtSlLRi@u{@pPC|@uYrTg^xHoFnNRzLuNtAcJc`@qG`BuHlNoF~KhCqJmb@ePsPrFmZfFpElJgDpCcJcJkTjIiAzHlNhJkLiQmp@bHk`@eOqg@tIm`@}JoHed@rLwR}IdJgi@pSed@`CiOeDsEiDq\\kGyGyIlIoNyAjMaVcPeLeOm_@qP|M{ISc@}UyVbEsAuSeQyD_LiTs^sJePoVpB{JiFiIpByPkFcXbUse@nMs@pF_g@wDsHrIqy@aPyAwCgLjYcHpC{^gCkWoX}Ze{@}WfPyI|]tGh_@iJbh@om@xVoHdQ_ElGgMlIYn[dDpSzYdR|DrMoCjKdG|m@sRlKl@vVlU`DtQfUtEbb@`_@bm@jLds@ve@riAnQzz@~p@bOdAhRaHfHdGzkAvD~XqCBwHt`@jF\\fJfl@laAtI|Yj[bY`Ibh@vSbA`PlI|I~AjHyE|N}h@~J_ErxAr\\zCoRjHo@hAe\\jTqL`\\lClKlFS|M`RzMvIdVnJoChJdGtFzS~MtBjQgVmE{h@fCmIt]kApIgSvLa]peAlpAv^{Ed`@jFhEeJv\\yQxF|AdCgGhb@rB`BvHfRaEl_@gYYuZhRoLyIeJR_HjTwH\\lI~IwHlM|J~Qod@rXwNxFgA^tEhCmRhPwQhHVpIoOfAeVdQiAdNwK|KdG`KoLzIW`IoOzj@y]zZmd@fQoIvBgJlWq@lI_H`l@hU|NbS|g@zGf`@lp@_GrRuI`FyBr}@iHfKeN[gEdEwGuAxD|OnU|JjDbKka@j[TnKt`@iAnm@|SzJxr@_C`RlFzGpLoP|DV`n@|t@cJbEyAxd@xwA`l@lDdl@zWr@fPdJ~Efm@b[|J`f@ru@~TbF~QsNr^}GbSxFrLdNa@nHnV~KEbZnSjs@fBvg@j]|d@s@vl@pN`OrUlaAz}@t}@rn@pTlHzK"
                        ]
                    ]
                ]
            }
        },
        {
            "entidad": "18",
            "municipio": "9",
            "nombre": "DEL NAYAR",
            "location": {
                "type": "MultiPolygon",
                "coordinates": [
                    [
                        [
                            "goudCllh_Ssq@{u@aNi@o[~Hb@bJkIxE}Op`@gp@pEiZ|b@a^~N{IBiEwJ`BcPsJ_^~@sKcNaRnBiRzAon@jMcYLiOl_@eh@gDiIdF{MmIoKdHo]iCi`@}{@gc@gIrToJmNmzA}Kaf@s`@ek@aHwi@q`@_WkYaIg`@iHqBcLaXaNbB{q@}Jke@zFuc@dZkWlGgX~_@eSzHmPxe@qDnWkJhGfBlZaPfP{Ajf@oN~M_uA~_@}u@jeBuj@hhAaBzJlGbUua@vU_d@h|@_p@br@en@hFa^nPgHfJ{Vx|AeWhY_[~Hqo@x^un@`Jyd@`R{Tve@eg@gAoq@o]gTfBeFnItAxM`h@~MlH|OyIvNqOjGc_@|Cqd@~n@so@|Xog@eBmUoP{U{Cc|@dPo_AeRaPzHeXx`@gKp`@hCtYcZhy@yc@|FgVzTq]`ImWqJcl@bAuPsGakBkLiWlMsg@zr@wp@nNiUHaRpUccAiTo[rAmN~V{Alc@`Hvg@aEjX}gAfb@u~@GwIkb@{OwNsf@sMy`@k\\a|@yO{\\gRqc@v@cKwI{Gop@}G}F{Kz@gKnDqFr`@wl@|F_]jUwnAcJyX~UkMjBmb@kNgHfBwz@ju@kDnLrIjb@qLdQ}HuDij@qcA_p@eSm]mTwGal@s\\yG}\\uVcQ_q@@iRhf@cbArAsT{E_Gcg@uO}n@pp@wc@mByG`T{PrGmY}AyOeKuCiZ{IgWgP}Hca@vTak@hNq@pW}FrL_IkHkEnOqc@nAia@pLug@uOmc@dHec@gZww@gRf{CgyFmt@o{Fk[{@mPsLz@ifA{Nmu@dIo_@el@lOoM`o@gTlBuNu]qYcWlB}[k}@ePml@sBo[pDmB}MoSkPaa@cFkS{TmBcMmXpDcXmPmOeEyEbDwR_`@uF{p@wTbCm~@wNkRqUc}@s`@wd@_A}RmMeRnBgZqMvKiZnNlAdPsJ|C}UbXeWrCyg@nGwPaEwHl@m]hVkB`IeRO}DeXyFuRee@_PuCqLtGoOeEzAc~@hEiIiB{SrUc]tHy^n[iBzFqH{ByVko@ow@pEaaAqEuN~Ae^ja@e|@g@eL|Xk@l{@cq@xt@yBbn@uLzg@~D~]`N~KhNlh@pAz@_LjQaJdj@hGvHsOxQsKrlAiQfe@qV`V{i@eCye@_YkrAqCwr@q`@es@uBqZ`x@cDp|Aav@`}@gBll@cNpd@yg@tp@uHt_AvBru@}r@jkAq{C|VcWbcAcg@l`BkK`TtUnc@eSlReWl\\Nrd@sWtb@mA`CvElh@}GpBc^lWgHrKkNfT{Cze@}g@pU}|@d@up@|g@yBqHuTmGcVbgAqRpc@wy@jc@_NxG}c@hOoSvG_^eAg[v_@iM|FeL`n@k`@_A_j@yLmG_Qyh@_@if@bNeIYsKmOuF{F|f@se@hXw@`P{FxDsSuf@sJkHq`@jD_GdWwJ~Cwf@ul@yWaNsYjHwKnLlOzSnc@fXx@hLwwAQif@ql@gz@swBwp@eeAsc@_sAqNwv@{d@__Aa[qiBmXiXqAy~@~Igd@{g@c_B}V__BgLsGbHoSlq@iv@`}@odBa@qMaZ[iNkHeCaIvGmKkK{H_MSho@ecBtUcShjAvaAzXd@dNiNxLrIbq@o\\|s@fSn|@g_@rVyW|a@sQ`EeUtNyIhjAnKbX{QzOcWfi@jIlWeHrDlc@kSvL}CtSdUKp}@g\\nn@p@_C|Xlb@}Phu@}@rYkMhYm[fm@eOrLlUnT~Kfc@iAnCvH|MnAva@jWbJ~PvHzBd@~UpN}@z`@zOdSn^x_@jQbBv\\zQrOvx@nl@`n@S|e@mIr\\hTrRhBxUgEvN~S}Fbi@xk@rK~L}@te@w\\tDo_@ft@ha@xc@yBrc@nb@Aff@vN`Q~v@kHrMfV|`@|Lxd@wEl\\nB|dA|WvM~Plx@uAny@dY`q@pFhKjGdTc@bUpGzRzQbf@aVvUa@rN{F|PtI~Y}B~a@aYrkBLjUwIbr@dg@zq@uMtYhKzVwCvMhMjSwIxKtCpM_f@|Kg@jE_Gp_@u@tI`KxYrD~XtUbt@fJr`@aBv^vRlYeBv^uVrt@hHhn@jSdh@ffAb[rWrMpe@lPjOpPjq@ErYvQr_@b[zwA_A~oBdN|[`NgIzg@_IteAum@vs@sIz{@dC~f@oXxWaA|_AxLfLbPlD`[}A`l@fo@l[bSZ~t@q]d_@ajAbQeFlVuU`PqB`g@ka@dBaJrP}Fff@x@dJ`PpQnFd{@g^de@pAn]cFzLvEdRwD~u@fYtp@aN`QpCnUxVp]aLlNdJhl@~HnRzP`SvEjBjWjMdJ|GuM|L_D~E_[|ImKju@oOpb@bHpmBhq@~z@kGh[rFza@pWnp@fK|\\\\lW{Tp_@Fxc@ph@jAjWfPx^rRi@z`Au\\bSyA`w@d\\lRhUhZt@|NlIhZzBhtAfs@hPnWrRZjSd[hH~A`LgThInCdfBsl@cC~s@xPr\\`_@g@f`@qUvGfAl@rHzI@hR}TbUbBvjAud@xOoOpe@mdAdR_MkNuLom@{B}PeOgBkb@{HgLsQaGqMsPsQcD~^y^~NrBtT}R~\\`A~OiLxe@Clp@}w@fUrBtRjNvRz`@sHzq@hEjp@r]nd@ze@hQzE~OaMzHoR`h@gc@vLdNrZo@xJwGdAtDrEuGrd@fCfO}M|RfEdRqQxMsDtPskBwC{[xPwLrW[ng@~hA~m@|V~c@}GfT~@jQud@~RcPbb@kAbR~Ilt@_\\~z@lI~[GhL{F|FofBfu@uzAtAml@eJ_s@pMo]y`@eNpG_a@rs@}n@rMqIjj@ghBlf@sKhK{Jr[gj@g@id@kZkWk@s\\zMyl@fx@a[bP_[kCu\\rh@im@rn@yc@sBib@`EmqADkHnFwD~RfJz{@uOzMqOeAs_@kZePrNqLji@oL~AcPkIwVoh@{XaG{G|G{Exj@ke@fJa~@`jBmW~G_]gLmZmZmXkCkc@pZw`@fMlOvaAmJdMmYcD{V@sx@nOkE~r@cQ@sNlLwa@fGuOpWov@oBs\\dJcB`YwQhUgCbg@kHjOyTXmh@gLia@z\\gSfAmY_MmYhDs@hRya@p]uOv\\rSfiAgErQue@ne@_O|e@`@bMlMfRje@nNrCrKtWlbCrHfzBt`Ar{A|Kdu@rm@|f@vb@tMrCnZ`Oj]n[|Rfa@yEt_@k[lKAhGlFtDj]h^|i@{@zg@ta@x^vSzA}TnnBdEr|@wChRiUbY}e@dVeRxYkH~^pHrKeN`Hey@qKuEdMygB[iEaG`F{a@hK{VxToDnAmF^qKaMwGmq@kLov@l@yInL_j@dLi_@mMgP_UiTwLaf@iPmmAiK}IuMqt@cMcRpOs\\uIyUnA}M~PmSnz@qOpL"
                        ]
                    ]
                ]
            }
        },
        {
            "entidad": "18",
            "municipio": "6",
            "nombre": "HUAJICORI",
            "location": {
                "type": "MultiPolygon",
                "coordinates": [
                    [
                        [
                            "utuhCz`x`SoMlSg@dMz^tMhYvVp`@u@`b@b`Azk@lUo@jl@pIbIrBtVob@qPkB`_@tH~QyMdZ{[`BsPlh@bOvZd[`M{@tEwS|RsUrBqx@nu@pFbOsBzSvH`RaKlMzApKmTpHmNlYtIjb@_H|KyCfd@mHdN}VhOh[fOq\\x|@cVbDK~Drx@ta@rQD~b@vOqKnMnMbWqJtLJrN}MvUmFr`@u@tNlWf[fZ~O?bj@fTjX{@tHhPv]fXAzJvLsKvR`IhHuCfS|DlH{OtGe^mHor@vEmdAp_@{GzNhDzo@{HprAzApKlJbCyEpOdHpPuUY}E`KqSzDeEnRmKc@wZzYw{@oMeG|BiHbT{LrAmDbH_[sBgOlHoIsDyM_c@yJhBeQ~c@gK~n@zAfLvLfKx@lt@wFrRue@vUkR`^{OdFiExNhF`Xw^uGc@_YyMzF_\\_DuOjNid@nMp@~UzFnBEbMlFtGcC~Saw@g`@y{@hEeTfR|Old@}Jxf@|[rSl^]oDrJeX~AmTlt@kg@xOsN|c@aV|X}HuDcVi[sHlIzNni@kCtKcXnIaLbb@eb@p@iSpl@g`@{JwF|Dx]dv@kCtKaK~G}ZcJgb@nFiDb\\rd@pTOdMcKtQ|AdPiElIsWvEgSnRuG?eGuK{@c\\gb@fS{j@iOsWdSgEeD^mOgGeA{OdMqIcPce@iRcr@sHyBeJtGmUmNsKiQm@{PvHeT}GiQig@yQmCoKvEmNcGkOsTec@cJcVkUyB{_@qiBmLmJlF{J{SwFfD}IkCoGtI{JH_SoLwVApAmUkDwGkg@gBgOuIoThFiFoBaPui@ys@eXiQvGyIme@s[iIkDoH}NlBqG}Ic[yJ{aAghAcS_TgzChG}hAnzAklFk{@geOc}BgrBiyF_jBesCtMwX}@kXjHma@~`@m@hX}JnJy[vy@eAbRL|\\vX~v@a_@hd@dKjRqD~_@tG~D_O~U}OpPqa@fRdLfGuJnv@eJd^ma@vIiBLrQ~GlHp\\_Q|Kz@|MlSbP}Oh[bPt_@kMhD`DcCvTrJpJlMwUmBsKnPuAtLsJeD}Upy@vGnEg\\pRqBtA}PpGmGiZmi@_DqKqT_QcBwV{VeY}Riy@sVmOc[}GR_h@hNcFyWcV}K{@yFsV`H_IoA}g@eNwIoJu[|Ike@~QoEjAgGu@uEiRsFsC{j@~[dDjGsRuEeRcvAyg@ag@l_@mRcNyDkZel@uIyCiFkCqKlSc^qAoSmY[_a@}i@uN}p@fDgHrOh@bOuGYwFdQ]aG}LfI{W_H}IrCoUu@kF_XwF{AiFySsArMqi@lMsDxe@et@t`@uUdZfG|HkPtZrKlJmPx[qC|BwH{P}KrRi@fNkHHa_@hr@iLxQtFvj@cr@uWgh@pTgb@eFig@oToQkZmDkLyInx@ilDKoQmOkj@|WajA~Fyv@kLmk@`Bcm@d[kj@yHsNxCaQqN{H`T}\\oF_x@wZgt@zMg\\xa@mOl_@b@fKbIl^fG|NpOpo@vExz@p[ld@gPn`Awm@vDtHyBdXjDvCta@y`@fm@o\\zIad@|QyGxk@_Bfh@vGxq@mFh|A|Iv]}Inb@xHhW_DpVig@jd@iUvIu`@jZ_MdEkSxWcXzJsXee@ch@eEgNtWcx@wE_Isz@}_@d@oFhLud@``@kx@niAs}@hb@xNzRwYjGy@pRbLxDjVlFvBvVv@fj@qLlZxGvaBTzs@dN~n@uMt_@_]lb@iNlSdMvLjTdBjMoPrVbIpt@ir@ndAvD`O`^rKbi@tq@~b@ls@_@dPzLjEpy@b{@pR``@bAhO{Rd_@XnW~f@tX`WrE}G`w@z\\jh@vE~ZvXBvMpNpNhf@_ErJbNvt@n`@nZbN|_@xz@pd@ppBwOnvC_`B~LhBl[vV}Bx_@tNnGlMc@fZji@jf@zZeAli@pGzLLxPrKpJgLz]eI|EeE~Vua@xQwSsCo_@fm@|_@zRpj@pu@lV~GrX}GlTxHfWUnIrGdIoDnBvPdPdEFlIxXnW|WfDjNbQvTr@fM|NyEhg@zVhD}Ezb@tb@`fA}MpdA"
                        ]
                    ]
                ]
            }
        },
        {
            "entidad": "18",
            "municipio": "7",
            "nombre": "IXTLAN DEL RIO",
            "location": {
                "type": "MultiPolygon",
                "coordinates": [
                    [
                        [
                            "qtt_Chgb{RrRlAb\\zVdQmHj^jJjHaDlCvP|RdScInYrPoEbKcRn]kB`KeOpe@|KbJ~Uq@vo@pJxVDp\\`LfIbTkP|F}OhWg@b^gNvJc`@riA_V`o@d@p}@vc@hr@iMrDhA|CtVtFvBtf@nDlIqFlA|Hzo@zTbq@_CdKpQ`\\p]bPqBnSpI~z@ri@~OBjLfGfMrQ|\\g@zM|Jrz@tUjISrM}LhKfGpKkNtL{BSnShh@tHbFlVlUzCxAlKfOrAxCbOvOfLfUcEdMjB|DmKnGbDja@_D~j@xc@xApLzKbDxBlNxXzToG`XoTjY{NcMg{@d^o^_@ek@l[{^~\\uX|e@o[jHebAbr@mXrJiUtDsJiRsTqFyf@dp@qNvDg\\p[_XoZ{_@qO_a@{H{KbAeNbOuQtGuH`f@rJ~UwUzn@nCxMpVrQ~L~f@Adw@dNd[wXzh@jRvYnL~i@`g@nbAkLlm@dx@tbAyLb`@}fBfLmStX_Qro@}IjCgb@}d@sg@aQgMySwc@hKuWkX_UTuCqOyNyKeIsh@nFsYkKkSiC}a@c\\wScK`I}OoH_InF_a@sJyj@pBkGjSkKfG}G~s@gWle@iIh^aH}ChLib@eLyMqIu]aFi@}L|K}]dCeG~Jsg@iEmkArAeUiEfOot@nD{aAeE{n@~XyF}Nkv@lBmYjNwZy@qVrGeWwMeXwi@}Q`@{k@oXsb@mqArAgIkp@`w@izAzEiNmn@yOkSu\\eH{JiB{Uu[xNwRNc]tFeb@ym@sm@kg@cId~@aZ|o@cMbL_Z`CoPoLie@mBeQjE_KhC}c@lv@hMzPhAxU~TtQk`@|z@j@fOsJ~Now@dk@oSsQkCkWwf@_LgR{^XyXa\\yg@}a@wWyl@caAuWyKaNlBiZiMye@{aCxYklBnh@al@aDeGeRGke@ye@{j@iNoCaJxEck@qNei@zAcRlj@hHjJaDxYmg@fR}Inr@`IfZq^qKk`@fBqKh^sXtR_DtFfDzXuD|ApNlMr@`FjLdSwD|]|HbOgIe@zG~_@tFnKl`@nP]dTvQ|JmKd^ojAhIK_CwUdZIjAcOtPyKxI|HxMuFpXhIbI}EtDlGnLwG~GxRlKaKzCfPre@}Brk@~e@|SUzGmNzHUdY`AlZcFlO~G"
                        ]
                    ]
                ]
            }
        },
        {
            "entidad": "18",
            "municipio": "8",
            "nombre": "JALA",
            "location": {
                "type": "MultiPolygon",
                "coordinates": [
                    [
                        [
                            "s|w_Cbkt{RvROt[yNhBzUdHzJjSt\\ln@xO{EhNaw@hzAfIjp@lqAsAnXrb@a@zk@vi@|QvMdXsGdWx@pVkNvZmBlY|Njv@_YxFdEzn@oDzaAgOnt@om@dF_UzZqMvBu}@MsTeH_CvDpK|Tpg@|S|~@zo@oEjl@qfAuVcUrB{K|Vcf@t_@gOpVkDrg@_[pn@~K~JcRhyAvb@v]yKnoAcU|t@yIoTiNXg{@{Sy]jbFaQ~i@k@jr@cSzZiZ`SoI~GeNkn@a]ok@IaU_MfCkCyX_MPiDlKkSs_@qJua@kKiDsH`]oKpB{^cY__@_FcYxQuKvRcO~CwEai@kKgG}j@ba@lBjT_VlPqGlVox@hk@a^oDqJy^j@e]dJkYqHsYjJkg@dOiKeOic@w]__@xC_J[oNgHeGxBoKqTsQaNh@tAaG_RgMiQaa@aC}DjSos@wAkVwE{Li\\wQqOmAtCql@hRiKhIp@~Q_ZjPsUM{G}c@jJ_O{B_DgOsQsCmPmOlDkQsPcl@zDsPmQuNmIxAwNeXqEo{@aJ}XiJeJm\\mGiSca@iJqCk\\cx@aYg^TeOuOqb@cMpMiWwCaS}MgDvGin@fGuYwQqY~HsTyK}e@jGiE~FsPE_UzQyMrXyGiAw]jMaRbb@kTnJgTGk[uFuHcMoME_CyM}LqC_CiL{YuPfRgc@kNux@jB{Rtg@iUn[Kt]uIjOqXCm_@pe@gz@biAwAfXk[hWHjx@w[nm@jKxFyD`SvKj~@}Ir}@qd@`w@mm@cDmm@yRkjAsNca@jAqVhaAy|BfPyIdi@_u@lU{NxTcCdLav@iNyS`g@ar@fS{m@vbA{W{AbRpNdi@yEbk@nC`Jzj@hNje@xe@dRF`DdGoh@`l@yYjlBxe@zaChZhM`NmBtWxKxl@baA|a@vW`\\xg@YxXfRz^vf@~KjCjWnSrQnw@ek@rJ_Ok@gOj`@}z@_UuQiAyUiM{P|c@mv@~JiCdQkEhe@lBnPnL~YaCbMcL`Z}o@bIe~@rm@jg@db@xm@b]uF"
                        ]
                    ]
                ]
            }
        },
        {
            "entidad": "18",
            "municipio": "20",
            "nombre": "LA YESCA",
            "location": {
                "type": "MultiPolygon",
                "coordinates": [
                    [
                        [
                            "ygiaCzpe|ReIvMyQ~EwH|W{Wn]c@z_AsZhGadAvg@yh@}Gc~@w`@miBcLw\\|JcGnSvKji@}m@`OeTzY{Ixy@~j@r~@kCtMiUMkCbObDb^}E|I{Ju@cYoP{VlDsn@tXo`@oHg}Ab@ej@nH{m@xn@tEt{@cG~s@xa@pVdV|b@|]rJpSxe@mFlg@tL~Pc@lb@uYvm@kStI{f@o@g\\dPm\\_Dkp@yVkjAyhAcSiEwTpA_AkQ|GgT}V_d@_iA_n@Zog@vLsWz[yPrkBvCrDuPpQyMgEeR|M}RgCgOtGsd@uDsEvGeAn@yJeNsZfc@wLnRah@`M{H{E_P{e@iQs]od@iEkp@rH{q@wR{`@uRkNgUsBmp@|w@ye@B_PhL_]aAuT|R_OsB__@x^rQbDpMrPrQ`GzHfLfBjb@|PdOnm@zBjNtLeR~Lqe@ldAyOnOwjAtd@cUcBiR|T{IAm@sHwGgAg`@pUa_@f@yPs\\bC_t@efBrl@iIoCaLfTiH_BkSe[sR[iPoWitAgs@iZ{B}NmIiZu@mRiUaw@e\\cSxA{`At\\sRh@gPy^kAkWyc@qh@q_@GmWzT}\\]op@gK{a@qWi[sF_{@jGqmBiq@qb@cHku@nO}IlK_F~Z}L~C}GtMkMeJkBkWaSwEoR{Pil@_ImNeJq]`LoUyVaQqCup@`N_v@gYeRvD{LwEo]bFee@qAe{@f^qQoFeJaPgf@y@sP|FeB`Jag@ja@aPpBmVtUcQdFe_@`jA_u@p]cS[go@m[|Aal@mDa[gLcP}_AyLyW`A_g@nX{{@eCws@rIueAtm@{g@~HaNfIeN}[~@_pBc[{wAwQs_@DsYqPkq@mPkOsMqe@c[sWeh@gfAin@kSst@iHeKwVvIih@uLsoAc_@{j@_BaMfXyn@_CiL}QwKyXmAToQka@mX~@ik@uH{Miq@_]mWea@pFo\\nLmK{Huj@xDoKncAs_@bc@x@tOsPzQkYfGkv@`Y{Wd^eaAiOyVnAai@eVmt@oTeP_`@}x@oHmmAePyd@nE{W~I_SrIqD~]}z@v_@}[`j@Dfq@|Ptr@bBlOnNzd@_Axg@bg@hZjJjF`J|a@gGp^jNxSdg@rSvT~s@r@dc@nN@fKxL~EnNwNv{@uNzRsc@tf@_S|VlAdEiKvLuD~XbHbN~Rn^lKt^eL~u@aIbEa_@vLaEbJsWnlAyk@dLiW|t@w\\_Cie@tRaH`Dun@|YaN|Fu^|PoIj@y\\d]qU~TaZx@oiArPgs@_VaVlBa[wJcMF}R~IyO~_@~BaD{t@nUyZ_PPe\\uWo@uo@oT{SxCgy@sK_Yx]mhAgA_^`Oyn@Z_^|a@ikAmByz@cEmFvOeTqBqm@rh@a\\{BuSdNaOoDoQjHaD{@gO~LwAdAyJi@mQqSaK@_l@yS}a@xD_J{Jug@jEeOAsd@aL{[vK{]f_@_Nhd@oSly@aBt]xE_Gj~@nJb[tCc@bQ{ObXSfb@}[t\\{r@xN{AlKsLbOcYHwJlg@qPMwTdJ_JjYoEjVeSfVoAtJoHrnAgEf^jHdF`QzQqB~IhVj_@mHh`@dJvUlo@fScR~PtVvMk@zk@fXb`@oBv@rEeJfLlEbN|E~HtM@dNtLpSl^njAcd@jSkVtGi_@xXMfOeTxuAjf@xOhRp[nFp}@gMj^{~@d@iZtRkHlHuMeKme@zG{Vnm@`GfVwA~JcOtS}FrY_k@fFm@~Gqa@`MgToAkFiK{MvCgWeMiQfg@pFxFmJx[xLhXGhx@iRp[y]x^cSeEmCvDsPeFmF`Oc]fFm@uGyM~D{RaJwMbAsLxIdDhOmDh|@{f@m@ga@lPwXyA_FvGn@r@iMdTqSrMqa@jXkYoIyMyDiZsKkFaQj@lGqk@sJMfJoVjJmGoKa[`Ja_A{Bqk@tDcKdYuQdKje@rBwC|UfKjA}VrPyHhT}^~UwDdOdNnPnClRmRbSyA`^oSrc@[bI{Kx^{Fj_@zTvMwGbCjF~VyArL`MxIm@hAnGdMoAfEhe@tMnJxYD`F}H|NXr@iIp_@cIb]cs@dLaDzKfDdJuFq@wFbPqL~Mm`ApP}IbTco@zXmD|Jh\\_AxN~IdT`NqCrE|G`f@t~A|g@jX`SbPjIoHzf@{K|NjLpQr@dIjWzJpChH~AbBwJpOgCvFlCpIpj@`_@^hPdc@gDfIxJbMfXvHdJ`[c@lQbeA|TlSrg@pDtPuBnK|ZrfA|a@j`@zWkFrMrTsC~Mlu@pj@rgA}dAxEt]pKxWvLhJji@q\\jm@rJnR{F]`c@jNvh@xPxVlQfn@OxRm\\lj@kLrc@uAvc@pJ`Ie@nKhNpQ~EtZ_OdQ~CxMuInIZdKxO~YlClTd]lKpJz[sAv\\tV~f@X|SqK|b@{[xNgVqBkL}Jo_@zKp\\rWtJjSlHr}@eAh{@iYrOyJnPgSdCs^b`@hGnQeOpMmElV}HpIl@~a@l\\`KfOnw@fYhNrX~[zTv}@`QvKnf@hEvCzgAvMr@l]oN~PzIhS_HfQdMjV_E~IxMb@rPue@tFyDzHlHvPvRvRxa@fPc@uTfGuQrRt@zL|J|BnR}GjNym@xSh[vn@w[rZcC~WdF`Fpt@bBlCtW}]xJmFzSzO`WdNrGtVyM`VkAbDdGoApUuJ|Ex@fm@aOfB_HbK}z@hK{GpSlNxMbb@dBxHhIJzRwSzWaOnEL`JvZto@zk@xKeBbOe_@tk@qK~_@fWdJjM~ObJ|v@{IjNkEb]~e@vhALtM}V`h@jBf~@{Q`aA_MvXi@d~@pV~h@~^|XfW~DpNxTuFgDuR~Ci^rXgBpKpKj`@gZp^or@aIgR|IyYlg@kJ`Dmj@iHwbAzWgSzm@ag@`r@hNxSeL`v@yTbCmUzNei@~t@gPxIiaAx|BkApVrNba@xRjjAbDlm@aw@lm@s}@pd@k~@|IaSwKyFxDom@kKkx@v[iWIgXj[ciAvAqe@fz@Bl_@kOpXu]tIo[Jug@hUkBzRjNtx@gRfc@"
                        ]
                    ]
                ]
            }
        },
        {
            "entidad": "18",
            "municipio": "10",
            "nombre": "ROSAMORADA",
            "location": {
                "type": "MultiPolygon",
                "coordinates": [
                    [
                        [
                            "ab}dChptaS_FzI_InKwS~b@GRaExNggBzgAqVna@aqA|vBs]Go_@xUiVxCyMb\\lHhkAYtVtJxm@zAp]aHzy@jE`Wdn@}ApKjUt@~R_Vfb@dAnQfB`Jfb@aA|ErSwH`K{h@dU|@xd@y`@kGue@`^aUxZqG`\\qd@va@cK~g@kj@~UxCfLhJaHdFhn@gj@`g@sjArPuZpa@ko@|g@akAvXmbAxz@wRsA_d@`s@uAl_@qVpd@vB`zBmfAxfAwK|VmGve@_Xtl@kfD~z@qN|T_fJhjDcn@nIu[qOqNv@qaA{_A{@kc@bQat@}Kgt@wPaIs^xA{^wTm^sqA~AmLse@ySpCuNcJaXjAkRj]_[|s@f@{E_JrNgs@_{@m\\eAyJ}\\{e@vd@oNzMkPtV`P`RnCvWgThXaIh`@sp@bF_KsMcLcE}i@cZeKkGmK`NLnC{PpSuOnwAd[~IlHjV`@tIuTat@mbA}VgHgDyGrF}MgCyJpQuOfB{g@{QsoAsNOcSfHeh@iU{XxIyPuUjMkP{DoK|Yy`AjHqz@_V_OcJqYaj@?mL|EiRyIe^{bA{Z{h@}w@kk@o^yk@fj@{a@dI{YgAaSyEqBz^}c@`Xoj@`o@oZ{@gfBmQq{AcJ_^hNeb@{As_@y`@whAu\\sOrEoIg@uYs^{B}bCuLyHylAsIciAlLolApBcjApFi^lQ_]iCuVfNch@sMcOjLqIbSouA_KeL`BgGdv@kl@uMyUzOeb@yNua@iBoW{y@ob@{EwMe[sXmF}R}m@w\\SkOgPwRey@kFyVjBym@gJcR|KoM\\_W}QcjA|N_Ki@mU}Ta^xLkW{@qYgKwF`EoLwAkOci@_XgNaJuP~NcNCiObY_o@bJol@eTk|@qZwI`I_q@oFqb@eN{RsJg`@h@wb@kAil@j\\au@`|@xOx`@j\\rf@rMzOvNvIjb@t~@F|gAgb@`EkXaHwg@zAmc@lN_Wn[sAbcAhT`RqUhUIvp@oNrg@{r@hWmM`kBjLtPrGbl@cAlWpJp]aIfV{Txc@}FbZiy@iCuYfKq`@dXy`@`P{Hn_AdRb|@ePzUzClUnPng@dBro@}Xpd@_o@b_@}CpOkGxIwNmH}Oah@_NuAyMdFoIfTgBnq@n]dg@fAzTwe@xd@aRtn@aJpo@y^~Z_IdWiYle@OpkAlm@da@sGxYqXvl@~GtQ}BtV_]Xe^`Rc_@|eA}Yne@`N|Q|n@je@}CbOtDbNbOSh}@zG|OvQvAjg@sM~WvLxDdReKbp@rKpS~[yFbSgVtWu`@zPmr@hI_HvSoAzU`Fzk@rk@fx@dXh}@jC~UjV~IrSf^bNzSfQ_Fxm@lGbX`b@bc@yEpi@uKlrAjBzl@aD|Mlc@`aBIr_@cc@bc@sjAbNup@|U_PpOuGzVjEzRndAeBte@fg@tU|y@~UbWvMl_@fA``BiIvNs]L_s@yP{j@nTcYh~@oe@zz@]xPl`@|\\}Fnq@nu@r@xCpI@|A_b@lw@BpNfPhNkAza@nJfIfVnu@|HfIrbAdWnSh_@`Frg@_AboAeHbSsCfGeAfMzDnX}Bha@cDn_@eGp[yStCan@hQmr@pi@yCnt@bJfWd\\jP~xBvC~BrKgIxR}HdLyA|b@pBbi@zLtf@l@tYcA~J]pD_FlK"
                        ]
                    ]
                ]
            }
        },
        {
            "entidad": "18",
            "municipio": "11",
            "nombre": "RUIZ",
            "location": {
                "type": "MultiPolygon",
                "coordinates": [
                    [
                        [
                            "m}`eCjgw`Sou@s@|Foq@m`@}\\\\yPne@{z@bYi~@zj@oT~r@xPr]MhIwNgAa`BwMm_@_VcWuU}y@ue@gg@odAdBkE{RtG{V~OqOtp@}UrjAcNbc@cc@Hs_@mc@aaB`D}MkB{l@tKmrAxEqi@ab@cc@mGcX~Eym@{SgQg^cN_JsS_VkVi}@kCgx@eX{k@sk@{UaFwSnAiI~G{Plr@uWt`@cSfV_\\xFsKqSdKcp@yDeR_XwLkg@rMwQwA{G}ORi}@cNcOcOuDke@|C}Q}n@oe@aN}eA|YaRb_@Yd^uV~\\uQ|Bwl@_HyYpXea@rGqkAmm@me@NzVy|AfHgJ`^oPdn@iF~o@cr@~c@i|@ta@wUmGcU`B{Jtj@ihA|u@keB~tA_`@nN_NzAkf@`PgPgBmZjJiGpDoWlPye@dS{HfX_`@jWmGtc@eZje@{Fzq@|J`NcBbL`XhHpB`If`@~VjYvi@p`@dk@`H`f@r`@lzA|KnJlNfIsT|{@fc@hCh`@eHn]lInKeFzMfDhIm_@dh@MhOkMbY{Ann@oBhRbN`R_ArKrJ~]aBbPhEvJzIC`^_OhZ}b@fp@qE|Oq`@jIyEc@cJn[_I`Nh@rq@zu@rHzi@jRxc@_BpNxQfWEv{@uT|HnVjV`LhWxS`IhNhe@d]jP|c@nu@jMdQyYf\\qTxe@}g@dLnEtd@kKtQeThpAgHlb@jJhbA}JbBMzG{VKcDhRmMpLf@x^zHzA{JhGjQz]~LnBbAjFqb@pa@nJdOIz^dfApJvC`JjIPvAvSo@lCoJwDiLzV~b@b_@rNtDj^zb@~HjQjb@rIPpKt\\rOrMdFzGlN~ZcCoAlIfNj\\_Grk@{GiFsRbKr@zJkNjXbKv[oPfSbAzGoM`H|ExX_E~[lIvGpHv[wHtQmExj@ed@nVcGhXyb@u@yI~JgPpw@ciBxj@gIxHabApz@yJnLevCx}ByV~gAsO}@rCgGdHcS~@coAaFsg@oSi_@sbAeW}HgIgVou@oJgIjA{a@gPiNCqN~a@mw@A}AyCqI"
                        ]
                    ]
                ]
            }
        },
        {
            "entidad": "18",
            "municipio": "12",
            "nombre": "SAN BLAS",
            "location": {
                "type": "MultiPolygon",
                "coordinates": [
                    [
                        [
                            "kzbaCryugS~S_Nx\\hQiHNkBlHwLwImKzD}JkG"
                        ]
                    ],
                    [
                        [
                            "e`~`CpcrgS`H?g@dHyFeH"
                        ]
                    ],
                    [
                        [
                            "ei~`C~ksgSjCNXh@g@?cAMy@k@"
                        ]
                    ],
                    [
                        [
                            "}p~`CdusgS`Hx@rAdHuJ_J"
                        ]
                    ],
                    [
                        [
                            "os~`Cp|sgSb@g@`@DJ`@?x@[FYQ[S?["
                        ]
                    ],
                    [
                        [
                            "}kbaCxdsgSgM{Vy\\{Vum@q{@rJaJk@u|AvFwMi@eSeQeSjIgSfVqZdZxK|KeSvF?wFdS|BnDzdAA~TkFx\\nOpcAwBh@zKgl@l\\dDfSpd@rXfDbv@_Hl\\iVjQ}Tt{@ec@b`@kh@|VmEzKqNkQ}X_J"
                        ]
                    ],
                    [
                        [
                            "slyaCvshhSfZrMr`@v@lRdHlRqDlEnDhDxy@_HrZsJzK}Gdk@jInO_UvMj@zKyOpD_UbUe@l\\cQ`UyKtp@tAl\\~KjQsJdHy\\rDaMdv@yXn\\?zKoNlQcIdaApA`JjIx@dDdHu\\|K`H~Igl@tO{a@j^mE`J|BzV_L_UyOoDoRk\\m_@iQqEwXgg@k}@}r@av@zGyqA_Ymr@xB{KxX{XfI_m@dMgSk@or@hd@}|AiDeaAhEcyAhIgSdMgHti@cJncAot@lRqDbo@hmBfMhQv_ArM"
                        ]
                    ],
                    [
                        [
                            "ge|cCxgbjSbM_WhkAkJnNyMpcAoH|f@{e@`H?zm@rfAdZfFg@|KhMjQun@pi@mpA~Z}n@{IqWrDoEiFxB_WcHiFulA}ReQ_Ji@kF"
                        ]
                    ],
                    [
                        [
                            "ojecCfvfiSzXwB|{@pXdy@oFbp@o^`QyXld@g`@`Zmi@tSmF`p@oi@nAcU|e@vc@nh@|T~j@t@xzAeWtAf^bHpOfc@pBbb@|w@dg@rXvr@{MjIjF_UpDyB|VbHl\\iIjFy\\mDy\\_Uay@lv@zFf^iVxMmSzqAc_A`nDal@beAkNfk@wXd`@zBdHal@r_A{XxBuJeH_k@D}j@vO{j@bb@kfBvi@aQ~Vih@|XiRjSaHy@}Og^kIoD{gBk@yXhHmm@`o@cZdJ}Og^vOuOuE{y@xKk^|CkaAxKsZgG_kCnWg`@fWwkBh_AyxBhNs}@rdAipA"
                        ]
                    ],
                    [
                        [
                            "wbmaCh}gaSod@yWqy@fKxH}[aAeXwm@eTum@`@wS|MqOoH{Ui@oLcUqOyG}Vsa@qNiIcQgF_ZzBqN_Mg]OuGmv@ou@gh@_qAkD_\\rCwtBnsAkVuJ_MeRmYlAy{AbqA}mBlpByVvv@vDvg@dRpBb]jQd`@oAzIzDqA|GfFbDgU`p@hUzi@_N`Bb@d^wf@nv@{k@z|@af@vD{Rxs@mYlUgGzg@g~AhdD_@hO{cBb_EieBh~E_k@l~@mYrFoMaJsO`Hyc@{Cq@jIxFjFlbA_Gyq@tUxGpKbO{Bn\\k^|Jq@p@bD{x@plBcn@fy@cDzMen@na@aOyAsAcJeQuJcl@{@q[m\\iUlA}KrQoMbBbEcj@mImT_[Oc^`Tid@jMagAhF_MnFwTr]_MSyGyGa@kInMuQzWqL~k@so@zh@qiAl\\mlAvUuTcCyPmIiC_MXoi@zW{WoH{GoNwDeUpBmz@~l@uwAuB{[_LqKeDeAeRt@wSvN{I|JglAvJ_u@cTwRy[cBuYrC}Ghd@cQtDgXwCqe@seAmlAel@_I_ZcUcj@_}@cNiz@pAu\\bPkAdl@`}@rtAxVpOwKtD}[iFyg@kVsSabBqNyjAc_@vUueAba@ukBvTmRvn@aChU~F~LwHpl@c_Azr@c@kIyG{_A{NqZ}z@nKgJ|K_\\nx@oaA_GqPvAmiArPmOiFeo@vFe{@dC}JwRqaBe^sM_[_oAfF{S~LbGzIue@dDTrOki@{G_S`[cBrC}d@iGsEvS{j@q@qT~L_s@aAqQ_M}Uvn@im@pAk`@tm@LbPxG~LaV`j@sc@by@qDlYC~g@u]~LTrPa\\nZyEdn@~k@hc@vUpMmnA|f@gVlKA`MwEjJse@jWxAnK_\\xGAtRsQfS`DvSjWbP_HzHpHlg@lHrl@{KrpBcAfSvJhUxAjIyPp\\vDfFcM~g@tGtRbi@ry@lg@j`AaFtRfObBhIiHfX~MjFPnQlbAv]bQiAfScS`]jb@zH_EhHwVnYiG|JdAp]b`@pMgDrPxXxThF`O}a@ba@~EBtS|ItPzWf@k@j]`MbUdBhIzf@vFuG|MbBpHtUoOsJwcA`g@uz@g@y^zt@zEKdUza@ld@zc@zT`Hjh@`OCfIgJbQPhYiJpLbOrRiGhs@dBzGjQnNaEhK{PjHfIfSvDk@tYdPhQhVzInIv[jLwEzSxL|KRr]vg@nS_ExWnClExHw]hNy_@xn@pLnMrYfJxLrU{@df@gMnUMtY{Vp\\pDdSmCfFlp@|zAcaAvm@mEvU_k@cGuTnh@mN}CkInMrHddAiM|rAdEdBvHdp@yHh\\"
                        ]
                    ]
                ]
            }
        },
        {
            "entidad": "18",
            "municipio": "13",
            "nombre": "SAN PEDRO LAGUNILLAS",
            "location": {
                "type": "MultiPolygon",
                "coordinates": [
                    [
                        [
                            "oyg_Cdqd~RzFfZtOjGlDtPdChVtSdMnKfv@iKjg@cXfSwAdP`M`z@Pnx@ci@bEaLvHu@nIoKvBiNd_@|K|Dn`@~d@xDzk@}g@{G}NcSal@iUmI~GmWp@wBfJgQnI{Zld@{j@x]aInO{IVaKnL}KeGeNvKeQhAgAdVqInOiHWiPvQiClR_@uEyFfAsXvN_Rnd@mM}J_JvH]mIkTvHS~GxIdJiRnLXtZm_@fYgR`EaBwHib@sBeCfGyF}Aw\\xQiEdJe`@kFw^zEqeAmpAwL`]qIfSu]jAgClIlEzh@kQfV_NuBuF{SiJeGoJnCwIeVaR{MR}MmKmFa\\mCkTpLiAd\\kHn@{CnRsxAs\\_K~D}N|h@kHxE}I_BaPmIwScAaIch@k[cYuI}Ygl@maA]gJu`@kFCvH_YpC{kAwDgHeGiR`HcOeA{z@_q@siAoQes@we@cm@kLcb@a_@gUuEaDuQwVmUmKm@}m@rRkKeGsMnCeR}DqS{Yo[eDmIXmGfMeQ~DoOmOtBeJgLm^x[iVjMgk@oAmIuTuNfBwQiJmIkCma@mJgAaG}Yfe@wf@fH|Jx`@yEfQiDm@_KrJwWf^aExPgPhNg_@|kAa{@fNiStg@qOjSwN|b@aHUek@xJee@wF_Hh@e\\~JoFaC_Hun@{JkH~AkI{}@eTeJe`@qdAaPeGeHuT{J}Guk@p@gG_EmB}VzN_Z~cF_n@xCqHvPiDpu@YfRiDvOmMnZbElc@yEhGVFl[pOlILnFbPdDUvNhWzMpEvQhVlFld@YpXaHhItE|WwBdb@gb@za@aK~H_K~ToRfi@_QBoInKgA|]_]lu@}n@dMmH|d@xC~Um@vUmDr`@oj@|TyKl^eCd`@zM`FpYzIPpJpUbMkE{CmCzFiC~JvVxCkGvJ|JtK[fBvFxK_EtKpMfSwQzAwNzN_TbKvApYdGzEte@j^Z|NvG|^fz@`c@xZO`]vJvZ}L`MY`RzQla@jF|d@tYxQbh@xbAxObArWhPzEvf@l]vEvRrMrNaUlZX|FlXzPbLqH~`@~Mt@dOfg@jQpAtOth@vTVpFgCIaJ~R}Afe@pT"
                        ]
                    ]
                ]
            }
        },
        {
            "entidad": "18",
            "municipio": "14",
            "nombre": "SANTA MARIA DEL ORO",
            "location": {
                "type": "MultiPolygon",
                "coordinates": [
                    [
                        [
                            "c}d`C|ja}RnKqBrHa]jKhDpJta@jSr_@hDmK~LQjCxX~LgCH`U`]nk@dNjn@f@rp@|Qjk@fo@j[~JdXp\\l_@s|@|{@{kBjReSbJ_x@f^i@fR{HfZ{IxDfDtYmu@|n@}]~\\oKfACnIgi@~P_UnR_I~J{a@`Keb@fb@}WvBiIuEqX`Hmd@XiVmFqEwQiW{MTwNcPeDMoFqOmIGm[iGWmc@xEoZcEwOlMgRhDqu@XwPhDyCpH_dF~m@{N~YlB|VfG~Dtk@q@zJ|GdHtT`PdGd`@pdAdTdJjIz}@jH_Btn@zJ`C~G_KnFi@d\\vF~GyJde@Tdk@}b@`HkSvNug@pOgNhS}kA`{@iNf_@yPfPg^`EsJvWl@~JgQhDy`@xEgH}Jge@vf@`G|YlJfAjCla@hJlIgBvQtTtNnAlIkMfk@y[hVfLl^uBdJnOlOyVnHch@nm@i_@hJ}]uGgPxI_NoAq]ma@iVx@sEwElEkNkCgRtOokAbKaLi@iLqGcPeSqAsZcT{FuY{a@ev@~Aw[{i@sEsGgJgGCeOhg@yFxADyJwHiDjB{RiR}u@rCu^qEuHqNd@sq@Rwf@hy@wR~fAcUnUqEgUzBuMqc@ul@uVej@sSqDgc@y`@ouAwa@{j@sj@{\\iiAcFwHqSwF{_AwZ}YnAwx@_Q{a@yt@l@iZgQmUpJcLcWuLwDe[oIzIgDbc@cOrD{]aO}eAy`CuGyEyf@kCm|@~Swa@za@uPpD{z@tq@wj@to@wPrDmQ`TgQxFge@{DaEuHm^}IgLaKDaJuGqF|CcOqNL_WiVbDo\\|Uof@uDaa@um@gXxWc~@{EqTeH_H{Z}Fu_@mYkz@sLtDw[uGoIbGaRqS_k@nPyWxRoG|ZaYrHaRaR_FsL}Skb@dGzJs[rKiKfhBmf@pIkj@|n@sM~`@ss@dNqGn]x`@~r@qMll@dJtzAuAnfBgu@zF}FFiLmI_\\~[_{@_Jmt@jAcRbPcb@td@_SvTqAbShEjjAxhAjp@xVl\\~Cf\\ePzf@n@jSuItYwm@b@mb@uL_QlFmg@qSye@}]sJeV}b@ya@qVbG_t@uEu{@zm@yn@dj@oHf}Ac@n`@nHrn@uXzVmDbYnPzJt@|E}IcDc^jCcOhULjCuM_k@s~@zIyy@dT{Y|m@aOwKki@bGoSv\\}JliBbLb~@v`@xh@|G`dAwg@rZiGb@{_AzWo]vH}WxQ_FdIwMzYtP~BhL|LpC~BxMnMDtHbMj[tFfTFjToJ`Rcb@v]kMxGhAxMsX~T{QrPDhE_G|e@kGrTxKpY_ItYvQhn@gGfDwG`S|MhWvCbMqMtOpb@UdO`Yf^j\\bx@hJpChSba@l\\lGhJdJ`J|XpEn{@vNdXlIyAlQtN{DrPrPbl@mDjQlPlOrQrC~CfO~NzB|c@kJLzGkPrU_R~YiIq@iRhKuCpl@pOlAh\\vQvEzLvAjVkSns@`C|DhQ`a@~QfMuA`G`Ni@pTrQyBnKfHdGZnNyC~Iv]~^dOhc@eOhKkJjg@pHrYeJjYk@d]pJx^`^nDnx@ik@pGmV~UmPmBkT|j@ca@jKfGvE`i@bO_DtKwRbYyQ~^~Ez^bY"
                        ]
                    ]
                ]
            }
        },
        {
            "entidad": "18",
            "municipio": "15",
            "nombre": "SANTIAGO IXCUINTLA",
            "location": {
                "type": "MultiPolygon",
                "coordinates": [
                    [
                        [
                            "wwrcC|x{_SsC`VfFdUrPr_@bCxg@mI|^{Wp]a[ni@cl@`h@tR|U~Y|OdEza@_[bs@u_@pLaNxs@cQ`BrObOn\\fRbAjIiGdd@yUp]~ZtMzI`a@kIxp@yGnFrAbd@dRnHjIl@je@oUjbDa{DfRqFhVqC~LjCtDvPvEdAby@uIqAj`@wn@hm@~L|U`ApQ_M~r@p@pTwSzj@hGrEsC|d@a[bBzG~RsOji@eDU{Ite@_McGgFzS~Z~nAd^rMvRpaBeC|JwFd{@hFdo@sPlOwAliA~FpPox@naA}K~[oKfJpZ|z@z_AzNjIxG{r@b@ql@b_A_MvHiU_Gwn@`CwTlRca@tkBwUteAxjAb_@`bBpNjVrShFxg@uD|[qOvKstAyVel@a}@cPjAqAt\\bNhz@bj@~|@~YbUdl@~HreAllAvCpe@uDfXid@bQsC|GbBtYvRx[~t@bTflAwJzI}JvSwNdRu@dDdA~KpKtBz[_m@twAqBlz@vDdUzGnNzWnHni@{W~LYlIhCbCxPwUtTm\\llA{h@piA_l@ro@{WpLoMtQ`@jIxGxG~LRvTs]~LoF`gAiFhd@kMb^aT~ZNlIlTcEbj@nMcB|KsQhUmAp[l\\bl@z@dQtJrAbJ_~CpEmZxIee@rS_PxQupA|`@wHvKmLt@}hCrgA_~Cf~AioCpt@{hA`c@ctBzhAacB|~@qd@f`@uQvCm`Azk@cVhYyV`FegAnm@ev@|g@uGfMovFddDsdAnj@exEzcCugEprB_jBfk@ayBvg@k~BxYo|B~JewAZo`Kuc@cjCcCs`FjHyxEbNyyJfy@SkIhHkAjA{ViGoBsEyd@sA}u@vGs@b[tC`fCu`@d]bEflByU`TmSp_@eL~BmRlhCsnBy@_V~eJijDpN}TjfD_{@~Wul@lGwe@vK}VlfAyfAwBazBpVqd@tAm_@~c@as@vRrAlbAyz@`kAwXjo@}g@tZqa@rjAsPfj@ag@eFin@iJ`HyCgLjj@_VbK_h@pd@wa@pGa\\`UyZte@a^x`@jGffBn{@d|DprAyOiiCiGxBcIua@}UgH{EmNfJ_QrQeEL}GpNGpDsQgXch@wSz@y^_QpQeNqDme@n@}GbRmGdG_Kz~@I`Igd@tVeQ{Ay^pTo[aJsPdE_HrPw@vO`LxgCoT~E~]yEtv@zQtU_DjOhE|LyBrh@vQxFlt@iDdUxn@tFePi@c^lUyk@sLkKxLeVdEyB~J~ImM|AtUxF`R?xWiLv_@m@{c@gA}[pK``@mToOqKsI~VwOn@sCkFqFm`@l^_XkRkVgRkB}[em@`S{TbMdItTwFeZaWs@aJfKeSsTck@yImv@t|@cE`MtDfn@o@y@s{Aat@eLmH_JqmBkEyaA{k@gVqo@AsEnLuCuTqo@f@yd@lU_q@fp@uHbIo`@rDuK_b@{YpCuKbO~@~FijDnQwWjIpBfB`J~YfBvDjFvb@wDzYeTn@eGy@{XwQgNcPOqIyUlKnBzIgJ`DoIgCoKuNqPgThBcI}c@w\\_TzAu_@kUwIsK{Ocj@gGao@el@`bAqz@fIyHbiByj@fPqw@xI_Kxb@t@bGiXdd@oVlEyj@vHuQqHw[mIwG~D_\\}EyXnMaHcA{GnPgScKw[jNkXs@{JrRcKzGhF~Fsk@gNk\\nAmI_[bC{GmNsMeFu\\sOQqKkb@sI_IkQk^{b@sNuD_c@c_@hL{VnJvDn@mCwAwSkIQwCaJefAqJH{^oJeOpb@qa@cAkF_MoBkQ{]zJiG{H{Ag@y^lMqLbDiRzVJL{G|JcBkJibAfHmb@dTipAjKuQoEud@|g@eLpTye@xYg\\kMeQ}c@ou@e]kPiNie@ySaIaLiWoVkVtT}HDw{@yQgW~AqNkRyc@sH{i@pOqLlSoz@|M_QxUoAr\\tIbRqOpt@bM|ItMlmAhK`f@hPhTvLfP~Th_@lM~i@eLxIoLnv@m@lq@jL`MvG_@pKoAlFyTnDiKzVaFza@hE`GxgBZtEeMdy@pKdNaHpd@hTh_AtDhG|UjJrE`eAmMtQxGpx@~@nh@je@vUnh@{H|x@~\\nsAdEfo@cAxSu_@fMuDjOjJhc@jr@bLp]lN`@nTwEbMfHjz@"
                        ]
                    ]
                ]
            }
        },
        {
            "entidad": "18",
            "municipio": "16",
            "nombre": "TECUALA",
            "location": {
                "type": "MultiPolygon",
                "coordinates": [
                    [
                        [
                            "}byfCt}oaSr^zBf@tYsEnIt\\rOx`@vhAzAr_@iNdb@bJ~]lQp{Az@ffBao@nZaXnj@{^|c@xEpBfA`SeIzYgj@za@n^xk@|w@jk@zZzh@d^zbAhRxIlL}E`j@?bJpY~U~NkHpz@}Yx`AzDnKkMjPxPtUzXyIdh@hUbSgHrNNzQroAgBzg@qQtOfCxJsF|MfDxG|VfH`t@lbAuItTkVa@_JmHowAe[qStOoCzPaNMjGlKbZdKbE|i@rMbLcF~Ji`@rp@iX`IwWfTaRoCuVaP{MjPwd@nN|\\ze@dAxJ~z@l\\sNfs@zE~I}s@g@k]~ZkAjRbJ`XqCtNre@xS_BlLl^rqAz^vTr^yAvP`I|Kft@cQ`t@z@jc@paAz_ApNw@t[pObn@oIx@~UmhCrnB_ClRq_@dLaTlSglBxUe]cEafCt`@c[uCwGr@rA|u@rExd@hGnBkAzViHjARjIw|BmHsiDfa@y~GlnAcvIteCgaFdbByzAdl@ykBz`AikB~k@_sBzuAkh@|Oir@xEik@oEcJqZzCof@~e@cb@bIlCbIqCrd@mRzO}PzqCem@dxBgaA`iAexAnQsaBaDi`@uNwWwn@oZwa@yCyl@bGmd@hH}mCzaAcoAzQw|@dZ_f@l\\wk@e@wOwMy]oT}i@adA||Bk~@n_BwEd\\aHp~A_mAvAa_@aHgq@aFuJsOeB}AoK~DkGtf@wArh@yo@rBmReKq[zv@_w@bGoXtUgU_Igk@{KeQpDmUgB}XtNk_@fTwPfZ__ArI_FfPwt@hHsPz\\cBrGuF_RyKz`@uIxh@sg@p_@yQc^qVz@}GrZwH~C{Yqo@kRyBsYtI_Fx@g[tFoAd@cMqE}LpDkDbHbLfKsXvKiE{EaXvPe`@nQ{UdB}d@|NmByHwRhHsRwUkRqDeOnXu_@h_@kG`NoPzOin@_NsRuBcU`Psg@zGlBtr@{g@tb@fTvG_@ta@ee@}jCuqBtP_lAvc@d@pDbOtVlOtG`OlByYbIwF`u@hIpK{i@znB|Rxg@}@jPwo@jr@rc@cF{j@_]}}@lBokBlZsQxF~@SjOjSgIhXhR{D{cAlTit@lu@uKcQ_T_A_SwPmXa@a~@sXm`@r~@}e@p`Ba_AruAgt@|sBgmAvLa]nAaaAbL_L@yPzU_MlsE}|@xHxlA|bCtL"
                        ]
                    ]
                ]
            }
        },
        {
            "entidad": "18",
            "municipio": "17",
            "nombre": "TEPIC",
            "location": {
                "type": "MultiPolygon",
                "coordinates": [
                    [
                        [
                            "wwtaC|nl~RrRjMnW`c@}Onq@sMvoBpFtu@_KvfBaT`p@mA`d@sXhr@qPnLoMSgg@o_@{WzIeLjBnBrvAs`Crl@rEt]og@j{@mIhOaIxNgK`Z_B~jChBzo@wJt_@hC~a@jEj\\pe@haAce@v]mDzr@}n@fhAsArx@wI~_C~Hx[sInn@fAff@dl@f\\|PfbAdPhTlGbX`NtJi@pe@tMrd@@`MwIdPjIvGzEjWlMlmAlI|OaCjLca@_FaO|a@yTiFsPyXqMfDq]c`@}JeAoYhGiHvV{H~Da]kb@gSbScQhAmbAw]QoQ_NkFhHgXcBiIuRgOk`A`Fsy@mg@uRci@_h@uGgFbMq\\wDkIxPiUyAgSwJspBbAsl@zKmg@mH{HqHcP~GwSkWgSaDuRrQyG@oK~[kWyAkJre@aMvEmK@}f@fVqMlnAic@wUen@_l@oZxEsP`\\_MU_h@t]mYBcy@pDaj@rc@_M`VcPyGum@Mcy@tIwEeAuDwP_MkCiVpCgRpFkbD`{Dke@nUkIm@eRoHsAcd@xGoFjIyp@{Iaa@_[uMxUq]hGed@cAkIo\\gRsOcObQaB`Nys@t_@qL~Zcs@eE{a@_Z}OuR}Ubl@ah@`[oi@zWq]lI}^cCyg@sPs_@gFeUrCaVgHkz@vEcMa@oTq]mNkr@cLkJic@tDkOt_@gMbAySeEgo@_]osAzH}x@wUoh@oh@ke@qx@_AuQyGaeAlMkJsEiG}Ui_AuDqd@iTqHsKjH__@dRyY|e@eVhUcYvCiReEs|@|TonBwS{Aua@y^z@{g@i^}i@uDk]iGmFmK@u_@j[ga@xEo[}RaOk]sCoZwb@uMsm@}f@}Keu@u`As{AsHgzBuWmbCsCsKke@oNmMgRa@cM~N}e@te@oe@fEsQsSgiAtOw\\xa@q]r@iRlYiDlY~LfSgAha@{\\lh@fLxTYjHkOfCcg@vQiUbBaYr\\eJnv@nBtOqWva@gGrNmLbQAjE_s@rx@oOzVAlYbDlJeMmOwaAv`@gMjc@qZlXjClZlZ~\\fLlW_H`~@ajBje@gJzEyj@zG}GzX`GvVnh@bPjInL_BpLki@dPsNr_@jZpOdAtO{MgJ{{@vD_SjHoFlqAEhb@aExc@rBhm@sn@t\\sh@~ZjC`[cPxl@gx@r\\{MjWj@hd@jZfj@f@jb@eGrL|S`R~EsH`R}Z`YyRnGoPxWpS~j@cG`RtGnIuDv[jz@rLt_@lYzZ|FdH~GzEpTyWb~@tm@fXtD`a@}Unf@cDn\\~VhVpNM}CbOtGpFE`JfL`Kl^|I`EtHfe@zDfQyFlQaTvPsDvj@uo@zz@uq@tPqDva@{a@l|@_Txf@jCtGxE|eAx`Cz]`ObOsDfDcc@nI{IvDd[bWtLqJbLfQlUm@hZza@xt@vx@~P|YoAz_AvZpSvFbFvHz\\hiAzj@rj@nuAva@fc@x`@rSpDtVdj@pc@tl@{BtMpEfU"
                        ]
                    ]
                ]
            }
        },
        {
            "entidad": "18",
            "municipio": "18",
            "nombre": "TUXPAN",
            "location": {
                "type": "MultiPolygon",
                "coordinates": [
                    [
                        [
                            "{pwdCxa~`SxJoL`o@dl@bj@fGrKzOjUvI{At_@v\\~SbI|c@fTiBtNpPfCnKaDnI{IfJmKoBpIxUbPNvQfNx@zXo@dG{YdTwb@vDwDkF_ZgBgBaJkIqBoQvW_GhjDcO_AqCtK~a@zYsDtKcIn`@gp@tHmU~p@g@xd@tTpo@oLtC@rEfVpo@xaAzk@pmBjElH~I`t@dLx@r{Agn@n@aMuDu|@bExIlv@rTbk@gKdSr@`JdZ`WuTvFcMeIaSzT|[dm@fRjBjRjVm^~WpFl`@rCjFvOo@rI_WnOpKa`@lT|[qKzc@fAw_@l@yWhLaR?uUyFlM}A_K_JeExByLdVrLjKmUxk@h@b^uFdPeUyn@mt@hDwQyFxBsh@iE}L~CkO{QuUxEuv@_F_^ygCnTwOaLsPv@eE~G`JrPqTn[zAx^uVdQaIfd@{~@HeG~JcRlGo@|GpDle@qQdNx^~PvS{@fXbh@qDrQqNFM|GsQdEgJ~PzElN|UfHbIta@hGyBxOhiCe|DqrAgfBo{@}@yd@zh@eUvHaK}EsSgb@`AgBaJeAoQ~Ugb@u@_SqKkUen@|AkEaW`H{y@{Aq]uJym@XuVmHikAxMc\\hVyCn_@yUr]F`qA}vBpVoa@fgB{gA`EyNFSvS_c@~HoK~E{I~EmK\\qDbA_Km@uY{Luf@qBci@xA}b@|HeLfIyR_CsK_yBwCe\\kPcJgWxCot@lr@qi@`n@iQxSuCdGq[bDo_@|Bia@{DoXdAgMrO|@xV_hAdvCy}B"
                        ]
                    ]
                ]
            }
        },
        {
            "entidad": "18",
            "municipio": "19",
            "nombre": "XALISCO",
            "location": {
                "type": "MultiPolygon",
                "coordinates": [
                    [
                        [
                            "qkjaCdht~RhVy@p]la@~MnAd{@|WnX|ZfCjWqCz^kYbHvCfL`PxAsIpy@vDrHqF~f@oMr@cUre@jFbXqBxPhFhIqBzJdPnVr^rJ~KhTdQxDrAtSxVcEb@|UzIRpP}MdOl_@bPdLkM`VnNxAxImIjGxGhDp\\dDrEaChOqSdd@eJfi@vR|Idd@sL|JnHuIl`@dOpg@cHj`@hQlp@iJjL{HmNkIhAbJjTqCbJmJfDgFqEsFlZdPrPpJlb@_LiCmNnFaBtHb`@pGuAbJ{LtNoNSyHnFsTf^}@tYqPBh@t{@mLSwBuSsQoBvAle@uIjc@ki@fKab@vW]xMzGvJoC`a@`Lv[oWvy@dBjWoR`\\`e@no@ud@jM}C|o@eEnC{FuPoj@gEsAaJeQwDgEqH{I`Bae@`e@aDhRsc@pXuGnT~Hv^vRjNfBzXlI~Im@hOnKjQlFp\\tR|FlWtXr^rDqFpe@sVrWmSpq@gGXaBlI`LzOwMzS}KS{SyLkLvEoIw[iV{IePiQj@uYgSwDkHgIiKzPoN`E{GkQis@eBsRhGqLcOiYhJcQQgIfJaOBaHkh@{c@{T{a@md@JeU{t@{Ef@x^ag@tz@rJvcAuUnOcBqHtG}M{f@wFeBiIaMcUj@k]{Wg@}IuPCuS`CkLmI}OmMmmA{EkWkIwGvIePAaMuMsd@h@qe@aNuJmGcXePiT}PgbAel@g\\gAgf@rIon@_Iy[vI_`CrAsx@|n@ghAlD{r@be@w]qe@iaAkEk\\iC_b@vJu_@iB{o@~A_kCfKaZ`IyNlIiOng@k{@sEu]r`Csl@oBsvAdLkBzW{Ifg@n_@nMRpPoLrXir@lAad@`Tap@~JwfBqFuu@rMwoB|Ooq@oWac@sRkMbUoUvR_gAvf@iy@rq@SpNe@pEtHsCt^hR|u@kBzRvHhDExJxFyAdOig@fGBrGfJzi@rE_Bv[za@dv@zFtYrZbTdSpApGbPh@hLcK`LuOnkAjCfRmEjNrEvE"
                        ]
                    ]
                ]
            }
        }
    ],
    "parametros": {
        "e": "18",
        "dl": "0",
        "df": "0",
        "m": "0",
        "s": "0",
        "l": "0",
        "mz": "0",
        "layer": "m",
        "db": "proceso",
        "schema": "suavecito,public",
        "geom": null,
        "padron": null
    }
}