{
    "status": {
        "key": "ok",
        "msg": "",
        "kex": ""
    },
    "municipio": [
        {
            "entidad": "28",
            "municipio": "1",
            "nombre": "ABASOLO",
            "location": {
                "type": "MultiPolygon",
                "coordinates": [
                    [
                        [
                            "swqqCxmqvQtgBa^lz@fAlRnYn[sDbHrOdt@rEfNiXfGhFnLcLfv@hQtEtDUbJgXvVcBjVoxAdFuy@dyAm\\l{@hJtIdh@vPpXp_@|[bC|J{Af^e[zc@yObKk[wMe`@rOiIrR|EpVo`@td@NbWxUd]}RbGrOgDdDxJjMvYxInYmHbe@fhArlNbb^jqAraDtbAtdCb_JhaPkbJ{|@egOeaKie@eeAml@e@iDtQ_Y~RmdApUcn@hEi_@li@bOdu@{GtNkUpQuRxDyv@i@ajGeg@tWykEw~@vYgI_SqIgqBye@g_Aok@{Yg~@sVoNLcViQ|Aal@}wC{TkOldEm[IcVwRcn@vFnDbZo|AoPi]xq@_jAl@Vqd@{q@sf@mPuOCsy@kaBep@oX`Vu]uq@kFon@_M}dCa}@dNmDcl@fB{Tps@qn@c]gs@ut@yGqCsIxQowADg|AqkCyaAqoGu`CcnDkw@dCayA{v@@kApgA{jI_jBwqAiYqmAljAp@ul@}lEec@iHvfCw`Ghu@pCo`BuoMgAxv@mdIt}AJLufAbsByXmzAmwD_i@~xAbElMio@r\\qEoVoq@|m@ia@nTiJ_LfLkq@hv@g_At{@uwArByg@pPko@ob@i`AbYksC|Pjh@tn@|lB~VzEaSbwAbyF_@gAuuFz\\}oExbBm@sAu{DxpB_WbwCpD`Gke@fSgb@|]SnNwKjFgs@xGoIvkAvN|r@`lAtyCcaBdKoIomAkzEbsHpElOmg@tgDi`AeAldDrPzj@~jC}d@rh@jsDbmBY~n@p_AbOoHvVHt]kNtqAy`ClrDqxGvAlnE|}AvCmBv}AjyL~Bhr@h~FiyGjt@d_@rhGpkAoE[r|JzbAdl@tL|Z`Pv@tGjJfCzi@bWhWv@hb@z}Ada@lKyA"
                        ]
                    ]
                ]
            }
        },
        {
            "entidad": "28",
            "municipio": "2",
            "nombre": "ALDAMA",
            "location": {
                "type": "MultiPolygon",
                "coordinates": [
                    [
                        [
                            "a|yjCzzusQlzAFltCxSvcApV|bCpQdiAxT~uAdNhmD~t@nsDtfAxpCfkAlm@`M~`Af_@fjBr^vv@pe@~fAf]jWfS~j@`AnWdOri@nLn_JlcAzrI|SeH`QqR|GcFlLufBbc@c`@tCjs@f^jU}GuJtZvP`p@ul@|SsJ|L_Ajl@it@lu@eNx@oi@qNgQjCaUjU}hBoT}VfG}\\|\\aw@~Bso@yNm\\rCoz@jf@uDxO`HrLpa@nS~`@`H`JhWqHdLcm@q_@ku@oBoD`Hj@`S`Qxf@|t@d`@tBv]iIxx@oGjAge@_YmX{Du^tSj@dQjOfQ|s@hWbBpKowAuMaRxCkMrRvFfIxO|@pu@iOfXlJdWf_@yBpPcQ?e^cb@yNeCiTfGqXd]yA`\\hKhTro@d\\{Hrc@|DhLrMbFt[E~BkUzQIvb@z]lhAfg@pC`GgGpLwQiRsH]aTlS_B|Pp]fj@ag@th@sClLjt@l_@gCjEay@lFyOpNpi@|k@h@tOeh@fGuNlk@{Ll`@ah@xY`Bjs@rIeLdCj]kFdFmXgF_GrMqIpBvFrf@cClLeKk[mWqRuf@eDoUdZgRjEcjGy}@qBiq@ih@fA{KfYcjBb_@ccAcx@ceD{_AeWxgDde@a@{k@djE|dEaD|pB~}FaPtyCoApUbaOtqA~@~cG{n@dd@yt@nz@mnFu]sNzsBuyDoAg`BjMi@nhCa_Bj\\kOt~AoEW}{Hs`Ai]vvB}`ABaRpcE}~AewG}j@ke@kaD`h@ZqiAmRiPyGvFgb@qDwmAzWeWbUc]tAiV_Myb@sCmf@kW}l@pKcg@tUc_@{Jo]xDaVaFid@b@{PlpBmjDnlA_zBa@aE{cAerBrNx@hu@cfCgCokFonCTvb@gjAy]uAvdCqkD`qDzA_tJohC}j@mtCqlBcjCyoAg`Bij@sOlPpIre@sX~uFu`Gir@i[kbAo_A_k@`]g}Ama@uGuJky@zc@_vA}MuNqa@yOoZglAed@w\\_XmCiIuHkc@fGs[uEwb@bRaIo@aKxXuSaL_RdPkYyVme@sNkR}ZmL?eXpPgFmF?eGxRmU[mUoHeGu\\iEmd@y\\zmC{bBfJerHkl@}]iiAkR{JiKgUe|@tg@ce@t`@e_AxA_HcJo\\lF}MnOqJf_@|MpJcFpIqJ`CeSjSmO`U{u@sKaI|DcSsAc_@~j@ye@fWkBlGme@buAvI~N}GlCwcAlCcbAmsDypAxF}}@?}l@gE{MbCuNpYVz\\cx@~h@tHb]wk@n`@iHoA_o@uiEwxDxFecDllEvDvF}TvXqCtD}MuEeJlE}JaI{SqPuN{Raz@qqBcyI`oF|_AaBqgEozEsJtD{PsTuZqAkh@s[sf@W}GlNyIySiQvg@mr@Ng]v{PyD`aHqOthDm@vrBcK|sA|Cj_LoTvh@Zb`@`KvCsGx`@mC`nIyDbcCdInqAq@fzBvRrjEpC"
                        ]
                    ]
                ]
            }
        },
        {
            "entidad": "28",
            "municipio": "3",
            "nombre": "ALTAMIRA",
            "location": {
                "type": "MultiPolygon",
                "coordinates": [
                    [
                        [
                            "gufgCnchtQ@n@Ph`@wOrFjArXx@xZRlJ`Bte@MvDuAdTaLrpAaAx_@~Gn`BxI|wD}Rnd@Qtm@uWfDaLzLsC|c@kd@v^_R~o@in@vRiJjNjOje@n@fUaFh]sRzd@bB|h@mInYyGrBcOtXtMhiAeA|\\Y|l@zQhZvc@lSeGbb@fHhk@}B|T}UzPcbAnRaw@dk@cCvs@|UdU`Kfa@mXzRgh@jSkTxBq]cE{n@lD_]hd@yIlh@eYrq@}TjYw\\tkA{AdWtNpn@}Av_@go@zl@ua@biAkKlNwRvHevA?oOnRoPxi@}O\\a}Aom@cVjHgFpPh`@zl@jChUuHzQg]`ZmG|RRvSp~@~r@~CzIoCtIso@~g@qOxb@lBhUxEhKtW`OrvAxSf[~q@pHx|@yAxLkYxX_{@rMwWbOaJh]io@jLulAB_HtO_GeDggAxIqEc^sSlIyOaCo@~EqkAyKmLjzB}cAaJqJf~AevCeVcGvlAqxCeTc~Jgk@~HqsA}fH_c@wBd^wyAeNh@sOuu@qDrUiVeb@Uu[pa@{v@_O}jBgCymBeUh@ohCf`BkMtyDnArN{sBlnFt]xt@oz@zn@ed@_A_dGcaOuqAnAqU`PuyC}pB_~F}dE`Dzk@ejEee@`@dWygDbeDz_AbcAbx@bjBc_@zKgYhh@gApBhq@bjGx}@fRkEnUeZtf@dDlWpRdKj[bCmLwFsf@pIqB~FsMlXfFjFeFeCk]sIdLaBks@`h@yYzLm`@tNmk@dh@gGi@uOqi@}k@xOqN`y@mFfCkEkt@m_@rCmL`g@uh@q]gj@~A}P`TmSrH\\vQhRfGqLqCaGmhAgg@wb@{]{QH_CjUu[DsMcF}DiLzHsc@so@e\\iKiTxAa\\pXe]hTgGxNdCd^bb@bQ?xBqPeWg_@gXmJqu@hOyO}@wFgIjMsR`RyCnwAtMcBqK}s@iWkOgQk@eQt^uSlXzDfe@~XnGkAhIyx@uBw]}t@e`@aQyf@k@aSnDaHju@nBbm@p_@pHeLaJiW_a@aHqa@oSaHsLtDyOnz@kf@l\\sCro@xN`w@_C|\\}\\|VgG|hBnT`UkUfQkCni@pNdNy@ht@mu@~@kl@rJ}Ltl@}SwPap@tJuZkU|Gks@g^b`@uCtfBcc@bFmLpR}GdHaQhsB}Bj~BhF~{EeUd`AaLdtGem@jcBkZzeHerAvnAq]ncBu]uA``BuB|w@pM|c@bOx]f@nU"
                        ]
                    ]
                ]
            }
        },
        {
            "entidad": "28",
            "municipio": "4",
            "nombre": "ANTIGUO MORELOS",
            "location": {
                "type": "MultiPolygon",
                "coordinates": [
                    [
                        [
                            "qbtgCtczzQq_@~wCqxBj{Rbv@`nIigCo`@miAi@i~Bnk@kc@nIuk@rWqlCtLumAtw@jw@ttCqcBjmAknAkhDa`Al[cpAvqAuNvFmdCllAofA~Vw}An[_WdSqcBfr@iTnc@cXiFyy@lXyl@aGmoB`@e}@~VjAav@k|A{L}Atk@ofCoVxHepAku@oK~HaeBebDcZ|fAewEamEoQ_[|v@}}A}LkM~`Bub@gEeJtt@yv@euHkq@z]nDwn@fNC\\_Hne@x@[oJ~NPlAnJlOyKfMh@pUvg@v`@_aBfi@tOxLwg@|wC|u@r`AolC~aAr`BnwAmm@mCayAz{CqkBf{Bm^jP\\b[XlYNj{Af@`SwMdcC{tAWnpAp_@n@|F{gCpQqT|IpHn{AqeBtO_TeIgIlbAmiA`kEoxEng@D|sD`@z}Ap@`@`pD|{Cub@fy@gL`YogEfjBm@bFap@`lBtFnvExS"
                        ]
                    ]
                ]
            }
        },
        {
            "entidad": "28",
            "municipio": "5",
            "nombre": "BURGOS",
            "location": {
                "type": "MultiPolygon",
                "coordinates": [
                    [
                        [
                            "uwswCjnyxQlkAupH~~BtX`LpeHvzA`Qxq@}~IdmFrf@gIuYnAmo@eF{Bc`@nKmR}UsIkZuq@tPeFuF|F}W~L}GtZke@r}@utAhBwXqEqSO{}@sm@i_@kRy_@`Cun@dZ}i@lS{u@znDeyCdAmKzMrK`YbCdWp]{G~Jt@fIl[tq@iP`WK|IdVbFrJdcBr`@nf@~`@rOhMdQtSDoS__@nJm\\po@dSTdiAal@dIxAnu@xHdHkInI`I~pDdrBt_CbcBxnBvGhAtGhZkHrLtDxHgE`HfLni@nNtFjTd[zSlZ|ZtfCznD~pEbdDt{Eh~@~n@h~@~n@mk@dsBkk@dsB`z@bMmHhf@oj@`aA{QheA?h|@xS|{@nMxjBkJp_Cws@rJc^lTsL}Skn@fAuLjzAyH`~Eon@dFp@pwEl{@i@kq@dcEmyMe@weDz{GjnEkJbWnnB`CpQk|@hSaMhb@g_@hhHjx@FsB~p@j_ApqDa}JlwGsv@x\\i|@uNabBh^c|LjgBgPaA{U}JkRnOeK_y@wVvCiVac@hKmQaPeEpFc\\uM_LiVtOeK`Was@p@oAzRiLcI_KmNWiKmi@`@aKi_@dEeo@pOqNaJeStLeFxVtJrGwUsRhBiIkEcA_q@oXwOxA_NsJoXrH}e@iFgRsO{Od@iUqLu@b@qUgMwCvA}P}E_Q}R`@eJfZcPgFgFeZ}L|AoC~NqOe]cQr@cBoOlW`EzFoDe@qXhJaNsDcQwUmHZtRcXfXiC{SpMaVgU{]ac@~I{F{TqTgDoNhX{I@}@{RoG}GiLM{EzEuGeBDqLkIu@iGeJm^gDaOma@aRcGsDqUiTeMt@o[v`@tJnIqDt@cHie@yl@tTuFmB{O{JsBkDqJzCwF`c@p@nRcGdVa\\hMnBGxW`MYjW_P~Yv@uAo\\jGwAhQlHzBuU`a@e\\lAuUrRjCjN{EfO~ShXl@lMdTlM_GvCmKEeRdP_j@R}_@sCmJiYqQyDwMdF}i@xNIwEaQoDsF}L`@{M{G]oMxSoGkD{RdPeGyCg[kHaHcHbJoDmBx@aYlNzAmJqg@oR}I}@kLpHeD{FsUhK}]{IsE}BgMp\\iWsEcT|BsGaFaLg\\zGsKuCpBgTnTfJMeG}MqWgTyJ{Jy@L{Hcj@iz@|GagBfMhAm@s_@wpBbCoiCavD|nCJfF_~FvjEt@qGm]dAuOm_@{LttAs@|D}j@{Boi@kSkg@gr@ir@uiA_NvQcaBta@mtDxnD~Qkk@ppAzwElq@~FyW|y@utDaDwRgHA`Jqb@uYuPoXmj@xGaHk@}QfFqI{a@aVcp@|LsFyRpPDGue@g_@c_@kK[_@{HzHwEaCcHyJoGm^y@kPcUd@_U|JqOngA_yNlo@fC~@`gAhwAeD"
                        ]
                    ]
                ]
            }
        },
        {
            "entidad": "28",
            "municipio": "6",
            "nombre": "BUSTAMANTE",
            "location": {
                "type": "MultiPolygon",
                "coordinates": [
                    [
                        [
                            "onjlC~epaRtvCpsOunAk[gQbu@o{GrFxKmiA{fDyT_^yh@eZcI}zKayCvVd`C_k@ImvAmc@emAnxE}cB~eBcV`c@q_A{fA`NmPePaFk_GkhLtp@ubG}Aos@qJmYoYa\\nm@}kF{F_dAvQon@`UkVjM{^KuKe^_Ws`AiGosDxBcbDfLuuAbTyiB`|@o~AtbApu@kwD_sFkeBmfCyhFpvLfzA_kA}fG{wGseC|gIspD_Qy_AeHe`@qbCwp@jNmv@im@oyA_`BkmAad@kfCbhIy{I~Ijg@`{K_hAncDa\\kM{nBh`FzyB__BrMr@baFb{C_Cpv@m@`vHu}HfoAd_B}U|yGxdA`m@xfCxEUrc@hkLfJte@peBqaExByEbzBppDoDXfnC{@boDkZh@sq@`RctA_GkoAc[gtBjO~uAfuGwiFrxArsDjeGtOmo@~zHg]voBqfHsHwq@no@nGzh@|iB}aB|nAzfBxlEs|H`~@{lDt|G{uAxmCl_E|Q`BzbInoGkD"
                        ]
                    ]
                ]
            }
        },
        {
            "entidad": "28",
            "municipio": "7",
            "nombre": "CAMARGO",
            "location": {
                "type": "MultiPolygon",
                "coordinates": [
                    [
                        [
                            "km}}C~i`{QyObNw_JxkI{OnNyn@~SoUiL|Gie@uI}LoUcMmOtBmMdNdBp|@kMvEoi@yNcSq`AcYmE~g@`wAlCtWroAyB~CbVuB`LscCvd@wImDsIwW_XgSqR}eAwHA}JtLuHiHsXcCbNod@_BmNuI}Gwc@sa@kN_C}\\z[eClQ_QbA{ScZyw@yOqE}OuEvBCvIeXlFq@tFyJ|AQlGnS{AbFpGa@hKbm@hCdJdVvMlKqAlGtIzIvHeAbZbM`FfOsBrFip@dFgt@cUeIsJqU{CqB`BxO|SyYdQpXfIlIsSvJUjNdIdNj\\eC~KgZjMy]nBkI`O`WrDvWyKd[yAhMnK~AhKgFlJtFnD\\hK{Fz\\iH|HiM_CkWij@{JtBcMds@xQ|S~@pJuj@nHhLzFdKnXgBbYpHn[jQ`MqOvYte@vv@tJ~Od[tDzOrQdOva@`Mzq@cBlGbo@xUnRk@rEnGwGnJpCtFlQnApCdOwZf@sBdHpn@~TaGbDuz@~CeGiHmAaVg[~J}f@yQpMu`@{L_C]}OaY}Po[}d@sV_@m@kKiJjGcQu|@uRdXsTxKsN~l@Wrk@qNlWkNj@wJiHwX{iA@gR__@bb@uf@nYtBoJ{LdArOk^_UiL|OmCqDoGtV{KzFac@fX}Ni^~@yQs[~QeDpOuVzPfLzL}AjAor@sH{SdCgKeGuCqB{LwiBglAtUgQ|OuBxFeKf[eGhj@_e@R{LeI}LxYqVdCoJeq@uOed@vl@y_@uDwl@dFqBsChGeRj{@sr@oVyJio@zC_AuFwn@`CsRpSkNnCuZuDdE_BaDaIfWeX|]sRzMeAxHgNh_@lBpRwEtDeH_CeOd\\~FlNuBpYlOtWuHbPwYk@g\\id@eT|Ewj@gKkHb_@oj@}u@bF_LjT_Hgc@kc@_D_AcLoT}FdBoJxIyE~x@gEkAkUiKaFyInC}V_TfCoTeIuJ_LxYqh@iCE~\\kKxEcA|HcXGqZyQRyVeHmAgFzEbHhRuExBmFbf@mb@d@{Zl]iJRsXoHsVlFwM}SjGmTte@_b@o@eE}f@sH{Sw[{@ySsi@z@r@}OuIoDM_SbPi[eK{IvC_SfXcNvDsPrTeGnMiQ{QeP_NzH{_@fCySrj@iC{g@u`@wXm[~^_QEy|@fc@qh@`@mScMcXa@Wx]w]]ssAuAuA`LqWkLsB|Eut@qZf@{`@gQk`@qWeFuj@xJmi@aU{U_[lJaY`{@n@j]sOhVa_@rMmh@gAcj@zHmJtXaKt[|JnRi@vWoUol@{yCg[{cA`Gis@zGqPvU_RlF_`@qJaa@_z@yeA_GmUvDsPn[w_@qNmm@xTy_@~]gWbj@qAlr@cSnm@}d@~g@dDl_@skA|@{t@{BmXmc@k_Ar@wI|IgNf]c@bu@oXvOmk@zIsIvYgCxOtGtIhOg@zYs\\hk@|AfRtJrG`UHn^_XfOeb@y@ua@w\\{y@jRir@rPeNdh@cPdCgK_Mak@jBw]~`@cTdZpE~DlNwI`w@|Eh\\fNjOpRuEbNkW~Yk`BFk{AjGoMtRgTz\\mLpn@nM_^zTpGvW_IfX~D~Of\\|@|KyHh]mBx_@lD~ZzOEn[fPvTnC`eAzIqFly@nGxDqW}G}`@vp@}y@~Z_]r[dM}@|m@zFta@sO`Uc@dOrNn_@nl@fQrRxr@vc@pVza@d@nPwHt_@we@fGcHjcCxC`xE}{@|LzlD|b@sAxCoWdVuHkAwS_Ry@_DeO|lC_b@c@lGn_AfR~g@}`@nl@`A`n@vO~L|j@dLhOb^|TbAcEvGZkf@vpMcFbtAjlAniAlyKfcKmbFxjEqRHF~NmxErbE"
                        ]
                    ]
                ]
            }
        },
        {
            "entidad": "28",
            "municipio": "8",
            "nombre": "CASAS",
            "location": {
                "type": "MultiPolygon",
                "coordinates": [
                    [
                        [
                            "}cmlCri}vQnhC|j@{A~sJqz@dv@khEneDj^x}BuoDm_@amCzkIgwGac@saLb|NijD|_@t|@jmH|gHsBrLnw@fWdBhQlm@hc@sApEilAbQeErf@|nBu~@lSysAjgChfJyMvKdzBdtA|v@xRfZfbF|UbT|iBjWtc@`CrVn_@`WlZld@tn@|G}PlvDcrFpIqyJzOpAizMscFi@hBf~WgdACkhD|i@k@seH{CaQgyF}@bNvgGdE`jBsFhUs`AraDkg@yFqdBoMuIdvByZwA_qAl_TcpFkUrWyrEoCmrDaQyoDaW{~A{gFfyAho@lyCctI~pE`gChhEagB~rAhOdo@|j@xO|G~UzNzGXbOnKdHPnOrP~KvN_AwNht@aSnLtAnj@mNbK~_BhkB_Adx@glA`p@g}Aw{Bli@aJ{k@_l@}dAba@whAnfAimBkaDu~@zs@{OmXyK|FuYqb@nJkNy`@o\\s@oOqNeSjr@uNo}@we@oF{iAzH_Oki@eoAiLio@sZqIkDcLgmB}z@ecBaJlI{cAfHgIiKgSba@{_@~HoQhJ}l@kCyh@rI{f@uMqClB_l@}RmM_Egf@_WmRm]oKYwVlEqHuIsVkJqPoZiM~OaRtCmg@_JuEf@eXe^oHhBiWcKsP{WkNcWIgB{QhWga@kD}Bo[dGcE_D|BqMjPuK}D}Zw~@u}A{QqEeF|HoFyAyQw^ah@uVpL{i@ka@i`@sTrCu_@ms@sDqQvNs_@kFcSdHeQs[im@vHuj@nKhDrYoFzc@eq@fR~G{FiZ_gCcl@sd@kl@|X_CeW{BsG`Dcy@wZ{@iG`TkEkXnA{WkVoYnGdFkI}A}FsUhTiRkBsSjKeLBgAhH_W`LhAlK_EfBiBuIaV~UeMcC{An]xIfGkJtGwVW{Cwe@_FKmKvSlDnF_u@bTeKrRwEoCzHud@gWoFwj@vScDsGtDiJyPsAF`HwMkBhIz`@kR~DgE_EHkYsQfLyAwSoN|IqHeRdLz@|C}FeDoL_O{CV}C|i@mHrJnCrI}InV_B|CcQfNrA|Jof@dTeCkBcCpVwPsJkK|BiMkIlH{AyBeE~RaIyKzBmNuDcFe]cFqFhPaPb@{C_Ekg@z]cY`_@kRkEnNoQy_@tDiAaTwUzZqHyNca@_EtCs[hGgGt[aE{BmErI{C|CsXod@jYuK{LZq`@g\\~UcBfOyOfG`Vip@kD}OmCtMs`@hMqGxNwFkHyHpL_^_B_FpI}LeFwGgg@{IW}Jz`@GjVcJkBeShJwFKiJaNsX|@wOeFeDsGbJ{TeUc@oG}Rwz@xBgAqRaWdO{HJcDmKcKxEkJkE}CjEcR|@_NeIyHxKmb@`EwUo@xGmQeUmEwLp]}Do@H}OmD}@{PhGh@tJ_OqOaHdLqA{WrQq`@tZdFjBiJpP}FwGaNrAoWeRnQcCmBiCak@iXwWsWizBeJgqB{P}c@oPmMicAbEig@c@_P{EkLmMqHcf@`L{Vhc@mNzjAtQvs@_CzuBufA`LmUmCy`@eFaH{j@uD{KcHaF{]dLch@hSiXb[oW~h@kThN}q@oAgM{^sYkf@bIcSuCgd@tDewA}c@uGiMBaQpJ{VzVyMlrAe\\xv@h@tRyDjUqQzGuNcOeu@h_@mi@bn@iEldAqU~X_ShDuQll@d@he@deAdgOdaKjbJz|@c_JiaPubAudCveB_}@_Vkl@bzCmcC}j@y|ArpHssEplC`eFho@ka@ddDntEwkAlJvzBd{GznQgqLjYhHvAxfIpoAn@jg@i_@~@rT`NfHrL_c@~p@cOdu@}qCvt@yrA|MdAHzVfQwFfIuJxHod@|u@wc@hIxJ~Fbg@mCdQuVzHrIhIfYwTdFjAbJpW`Kkp@uHcm@tp@`n@bNhEqG|OnFvJdu@tMda@cy@nb@k_@rOyCbO`FK`RwHhGrMhEhCp\\~PpPhLs`@j[cLle@r\\rEpOoQtHr\\h_@wInU|RwCvVyWfO@t{IbyBs@ibDlsC_qC|tL|nApzNubPjm@r^tvEsuF"
                        ]
                    ]
                ]
            }
        },
        {
            "entidad": "28",
            "municipio": "9",
            "nombre": "CIUDAD MADERO",
            "location": {
                "type": "MultiPolygon",
                "coordinates": [
                    [
                        [
                            "yjufCnpdtQ[pAcE~OmNuDoBrJiB~IyBk@mK}DkDdIgDzH{AjDcG`NoAtCcGnNkFdM}VpBkJZoX}CsOuCiCu@eL}CwAxKsIy@wMRaChKcHqAwGcB_LeDmZaJwLoD{CdBoJfHmCeCnBqNvD^l@kZeGnY}bA}Da@]iJaBsm@mKqB_@oCi@ePqDqN`AiFnA{KhCcH`BuG|Ai[|KeC~AyMjIcOy]qM}c@tB}w@tAa`B|jBci@lzAkn@ppBunAzoAyx@b]~cBnu@~bBbKhOxItOdFvMvBfF|EhM`D~D~C`Eh[hVd]hSvAp@uE|P{BvI"
                        ]
                    ]
                ]
            }
        },
        {
            "entidad": "28",
            "municipio": "10",
            "nombre": "CRUILLAS",
            "location": {
                "type": "MultiPolygon",
                "coordinates": [
                    [
                        [
                            "ammuCvk`wQheBjcAhv@u~Avx@`[l`@ykAzcDjg@pO}}@tfAzMiNezGgyE~gAa\\aiE~eHqBva@qiBsEopBuNglGxkJ{cF|`DbjInb@h`AqPjo@sBxg@u{@twAiv@f_AgLjq@hJ~Kha@oTnq@}m@pEnVho@s\\cEmM~h@_yAlzAlwDcsBxXMtfAu}AKyv@ldItoMfAqCn`BgcAv^ulAJcD`Z_fB}DsNbzBra@nIxj@vkAfK~IbzDnhBmGvQmlAgWEnb@ey@h`@lAc_AywA|x@~Snl@_`@hiAuHp`AhV~Be}Av{Rf`BfHoEzeAqvD}^zY~tBdbBpkH|BfgBrH`hGgmFlx@xEooLozCvcAgGnxBm[w@eOiaB_`Ch[mSf~@aiAzqMerExJsbE{EucGubEsxIwBl_Afx@c}BfjEi~@_o@cdDu{E{nD_qE}ZufC{SmZkTe[oNuFgLoi@fEaHuDyHjHsLuGiZwGiAccBynBerBu_CaI_qDjIoIyHeHyAou@`l@eIUeiAqo@eSoJl\\nS~^uSEiMeQ_a@sOs`@of@sJecBeVcFJ}IhPaWm[uq@u@gIzG_KeWq]aYcC{MsKeAlKoSaT`ImQqUqk@b`BwaAlcAan@ic@s~BxvBc`Aqh@e~Ab~C`]bYu`BlwC|C`JbXhiCiCtl@qsDbqGmlDbA}}FtNnE~kCvy@hZ~nDloDk\\jmDpsB"
                        ]
                    ]
                ]
            }
        },
        {
            "entidad": "28",
            "municipio": "21",
            "nombre": "EL MANTE",
            "location": {
                "type": "MultiPolygon",
                "coordinates": [
                    [
                        [
                            "qbtgCtczzQovEySalBuFcF`p@gjBl@aYngEgy@fL}{Ctb@a@apD{}Aq@}sDa@og@EakEnxEmbAliAdIfIuO~So{ApeB}IqHqQpT}FzgCq_@o@VopAecCztAaSvMk{Ag@mYOc[YkP]g{Bl^{{CpkBlC`yAowAlm@_bAs`Bs`AnlC}wC}u@yLvg@gi@uOw`@~`BqUwg@gMi@mOxKmAoJ_OQZnJoe@y@]~GgNBoDvn@qqD|kAlFww@y_Bd}@cb@{v@_G_\\nU{Zp@gWoIwUnJyPrx@al@fc@}p@ph@_a@lD}YeV}l@@wUnE_t@yCst@mE}ToTmHgDgKb]yFdAyLaOoHwNEcEeThYw^zTkD|EuH|Kic@fTgVjQ{mAg_@gZyCcMr[qg@|g@qlAcFiLlEka@cJie@nUkZtg@aObn@eDnA{XuKin@Rq^xLgVbUwJ`I}Ws@yK}[_a@{Dqz@tEyBnr@tO|K_AfhAunA|KsZ\\go@{Esf@gRmg@gIcI_NgAwf@t^sU{XjBqVnViEtT_OjAeVcF}b@dZwUxdAdEpdAzWf{@kLjz@oI`p@mGi^knAhXoDno@`sBjfBbPhgAgqCh|AzMwP~_D`aGx^vx@`FrAsZe^qCvLuaCjeBhL`Egv@fXhAlGicAmo@sFnCyb@_zDu`@`Fyt@h{BjTbHgs@l~@lJhUefClOvNxJ`XdMUqEqo@nUyYuN{Ora@qKhMco@``@mJ`HmLwF{mArKoGv^w@rk@`Dpb@rSfOgEoGwN|HaYcO_j@nFaI~XhGdKgQ}]s}ArGid@gRy^Jka@{f@kXwhDkG}hBaNeo@uLuBqMzFcV}VaH~]qZl\\mkA|Z}uAtKwiBoc@iHeO|t@iUdk@sr@xCjO{VfVoGiE{e@eSwj@u`@aWsFeYdL}Gna@fCj_@m]tPi_BiOkp@~CaRhOsEfIvHlC~f@pQ~JbScGBs]|DeGjz@aKvCsZsJ}o@eHwQma@aZo@aLjJiEdm@CbKoJtA}PwTyg@wCmXDg~AxVsXx~@y^n^uF`R|FdFxZgGrv@hk@td@tLTnOgKbr@}q@lW}J~MdAbC`F}GjhAfIn^vLnNj`@xN`h@jC~WeMwAi`@qMwPh]pOjTiHeHiY{[w@gHe_@tOs[ta@_\\`h@g@zv@lUbLeGdSmg@nV|A~Ab^cWjc@oClWdQp\\dXpRxc@aLlcAnE~{@}g@v`AkNrc@o{@pI}DhFnN?rs@~LxJjSuAlVkOpq@cjB`QyInJqQeQgYyd@iWoL}UiFa_AzYkt@bK_B|{A|v@zYn@r`@uGmBpY~FzGVfQoNdQfHpDuElIzRpGvNjY~MgKhQ|DWfN``@nSQpTaHjInNqGdExSpHUtMnWG|TfHhReCbw@fVfQtK`VcAvcAbDlSoEre@bb@~[tAxGcFvHrKfOoRx[|N|a@eWtd@b@vL_MzEoAnd@yf@xWaB~UcHtFjJvUtXxQvJfo@k`@fM}]bg@wR~IzNxOfOlv@nHvEkAlZvIzIf@h_@hOvXyP|p@pBbr@jUzl@u@d]oF_E\\~SdKrBeBvYtL|C`B~QzT~WfAh[hb@t]_DhRhHvEn@lVvGvBv@zMjIwCpPxOdLImEpaAlMhNuCtE~WdVhn@xK~@rQxHzIb@hbA~Sxu@}J|QoB`p@j[z_@XlnBtAbHzj@~c@}DtB`BxIiFlS{OdQwLh_@fBtUwMtRaEj\\eLnJc@zPcPd[rUdp@QbVuPbd@vGrd@rLhKjXvEtOni@rJzFkGxc@g\\lWrJtH{Uj\\nUUlV|z@pWSnCzUdMpP~CxUarC|b@kuBzk@"
                        ]
                    ]
                ]
            }
        },
        {
            "entidad": "28",
            "municipio": "11",
            "nombre": "GOMEZ FARIAS",
            "location": {
                "type": "MultiPolygon",
                "coordinates": [
                    [
                        [
                            "wdujCxii{QbLtDvMaDbj@gHnz@fPxj@``@zj@a@h{@lR~r@oU}EtH{TjDiYv^bEdTvND`OnHeAxLc]xFfDfKnTlHlE|TxCrt@oE~s@AvUdV|l@mD|Yqh@~`@gc@|p@sx@`l@oJxPnIvUq@fWoUzZ~F~[bb@zv@x_Be}@mFvw@g\\xsCu_A}FyBc]imAi}@gmCph@y[``CaVpzBsa@BsbBpXg_P~iI}dAzf@ujAln@ax@jF`@l\\omB|N}Y`fSsxFsWukG_i@rFacOm{@kE|XgtB~RgkEz[eiD~kAuFcHy}@k]ceDpLmGvIqQjFtGMlR~MyAnIqNfLlQtq@cd@xYpDb`@kHjf@_e@|JdRhKjDd]uWfAeo@rQ[hLvJzQsCjLvGpF{Gs@cUbT}Ojb@aCxL~L`FcDtHqN}AgPtI}H_Ii{@lTsChTjLz_@mI~YfKzGyJjOaGzK|[fKyG`Jyo@lRcHpRuSlFmSy@y[fWpA~HmSjN{HrJ{ZfZcRpPC{CoXvSiJwE_W~X_QjByVnXwp@qLgLBgGrSRuIif@bFoPnDq`@lNpE|Tsd@wAeg@aI}]Xsh@zNkP~SmH|b@_e@zF}NkFsQfD_Fd]lCvNoDr[^`NmGjb@jVvt@}E`^bS|MVv_A_^xg@{CjKzBh`@~|@hLfJfk@xLpx@mDl{@lXjdAdE"
                        ]
                    ]
                ]
            }
        },
        {
            "entidad": "28",
            "municipio": "12",
            "nombre": "GONZALEZ",
            "location": {
                "type": "MultiPolygon",
                "coordinates": [
                    [
                        [
                            "avdiC~p_yQhEze@gVnGkOzVrr@yChUek@dO}t@nc@hHuKviB}Z|uAm\\lkA_^pZ|V`H{FbVtBpMdo@tL|hB`NvhDjGzf@jXKja@fRx^sGhd@|]r}AeKfQ_YiGoF`IbO~i@}H`YnGvNgOfEqb@sSsk@aDw^v@sKnGvFzmAaHlLa`@lJiMbo@sa@pKtNzOoUxYpEpo@eMTyJaXmOwNiUdfCm~@mJcHfs@i{BkTaFxt@~yDt`@oCxb@lo@rFmGhcAgXiAaEfv@keBiLwLtaCd^pCsArZwx@aFaaGy^vP_`Di|A{MigAfqCkfBcPoo@asBiXnDh^jnAap@lGkz@nIg{@jLqdA{WydAeEeZvUbF|b@kAdVuT~NoVhEkBpVrUzXvf@u^~MfAfIbIfRlg@zErf@]fo@}KrZypDiZsSjrAiB~`B_cCdCm{BckL}r@arDy`BuvHesE_ZkQvpBwfBcIo@iUu\\rBoMc^sXwDgi@~JsTiPtIgPuDwCbVcNiG}AdAsNjJwAkGqKuz@eGkpDeWs{DeWonBiM{EtiBvM|ByIb{@nk@vFkFxgBckAeJeHsjBag@eDtEm{@pGj@WacB{y@`LtAci@vGieCmv@zH|HorFdwEvb@tQwxCha@gnG{u@uI}_AwGgMweQgjPg{BZyhFv@kwKecE[s@{eFpz@ev@pkDaqDtAwdCfjAx]Uwb@nkFnnCbfCfCy@iu@drBsN`EzcA~yB`@ljDolAzPmpBhd@c@`V`Fn]yDb_@zJbg@uU|l@qKlf@jWxb@rChV~Lb]uAdWcUvmA{Wfb@pDxGwFlRhP[piAjaDah@|j@je@|~AdwG`RqcE|`ACh]wvB|{Hr`AnEVjOu~A`_Bk\\xmBdU|jBfCzv@~Nt[qa@db@TsUhVtu@pDi@rOvyAdNvBe^|fH~b@_IpsAb~Jfk@pxCdTbGwlAdvCdVpJg~A|cA`JlLkzBpkAxKn@_FxO`CrSmIpEb^fgAyI~FdD~GuOtlACho@kLfc@ps@iAzQei@nh@}Atc@pNrOx|@{a@l}@uHzRnGpShn@xjApc@|ViO`Wk{@dVcJfWe@ly@~V`x@e@pLbNkAlPcg@|\\aB`TdP|i@hd@rl@jKng@oB~N}LrSmX~GsT}E{AmSgIoF{^~EgIxJp@hRdKtQr|AbvAlKrk@}Lvs@_d@`H_l@gg@sf@NmZuIo^LySxPiBbJrGdUlLrHp|@`Xz{@~u@fEfRaMbTi}@jf@cLtVkNzb@~WvQqDdJkb@dCmo@aKqXbCqKfN|B~\\dObU|q@rShd@|c@hXj|@{EfUkLtEwdAgMiHjBuFtLzBdnAtL~RbA|UkEpQeIdEs`@tG{Yo@}{A}v@cK~A{Yjt@hF`_AnL|Uxd@hWdQfYoJpQaQxIqq@bjBmVjOkStA_MyJ?ss@iFoNqI|Dsc@n{@w`AjN_|@|g@mcAoEyc@`LeXqReQq\\nCmWbWkc@_Bc^oV}AeSlg@cLdG{v@mUah@f@ua@~[uOr[fHd_@z[v@dHhYkThHi]qOpMvPvAh`@_XdMah@kCk`@yNwLoNgIo^|GkhAcCaF_NeAmW|Jcr@|q@oOfKuLUik@ud@fGsv@eFyZaR}Fo^tFy~@x^yVrXEf~AvClXvTxg@uA|PcKnJem@BkJhEn@`Lla@`ZdHvQrJ|o@wCrZkz@`K}DdGCr]cSbGqQ_KmC_g@gIwHiOrE_D`RhOjp@uPh_Bk_@l]oa@gCeL|GrFdYt`@`WdSvj@"
                        ]
                    ]
                ]
            }
        },
        {
            "entidad": "28",
            "municipio": "13",
            "nombre": "G\u00dcEMEZ",
            "location": {
                "type": "MultiPolygon",
                "coordinates": [
                    [
                        [
                            "uovpC~ia~QyBom@avDzr@o~Bt}@nIhS}Fnb@aMrCa[wCqUhEaRbNkYgFkDyWecAdUkT~NldAgqDpk@euIaNgJe}B}|AewC}wBy\\uH_N}Qg@eOyNEyB_fBuDqC_a@vBoFaHuDerAmEyN`O{eAiIiOdNys@UyNmTy^Ry`@zFyXyQmd@eKkD{UvG}MgWh@{XiIoOaF_{A_FqBgAaMnW}gAmQw_@cHk`@|C_ZtB}q@~CkMbOaMhSyJjJaR|G_bAiCihBevAUsR_UyCwb@gHyJ}vAeGsgByHeEht@e}AsG{q@jx@wFj@mBum@qViT_HaSlImLlg@eOb\\a[zBsRlL{EaTqv@`Lc~@iVkDuCoHzB_XdJ|FpEyD^_a@mHuR|Gaq@gD_OcKmWzGcWzVc_@bLcNtZpArQoH}Jg^hCk\\npGnNnh@wnA_sFiG~WigAr}FbMln@{{AmsDwArJyp@_UeDbC_d@ey@yUuDmTncB|CdoCmuAke@{_DTshCnl@uLbBlpAzoDheBvOwgAznBnQfg@{cGdiAcAbCef@ls@q_AnOyb@|RmPtDah@bLcQdCw]}Joe@rXo|@xw@pm@rBbTxNrPtTe@p_@po@fd@r\\dEz@^cFeMiaAho@lcApH_EuEq`@eSiHyAuJgTmThO?p@_SdEo@~d@nRpIrDdDqCmMgMcRcCiGuM_WLcCeRzKmK_HyQo\\~RgGwEa_@zK_Ocf@tEqOjJe@p@mNe\\bHye@aClCqCiO}XsKcF~GyNxGjHxHuJPyHaPIgE}IhPkMqIwBmTbE|DuJcJsDhI}@XqOxO}FaAaEkRlEYqLjRaQiXhDgFiJoNbQ{QwEcD}IfOz@nMkP`PfAGmQaPkElDeFgFeIeElE}Rm@h@sO|LqOyPye@xOsA`P~d@rRiGlK}]xXdu@|SyEbK|Lz_@pAAhPbJaHlLzCvU}FfVfP?f^nUxKjBeFkJkHbBye@gd@qXcb@aFao@}^NiPvMe@lDoFeEuGu[zHwEiMyIKpPyKG}CqPeAbJec@kPfRsSxH_ExKwFKsB_HbJuG{CaHuKlB_HmKyOcCbBuM|\\rDlCsXrQmYeEsJzRmYkb@mFf@hMsR{CkBuMpOYrIiS{I}Fmj@rFqAgDgVVpAcIeNqObCaEdLxKvGiGrQnCdLqF`@sRdEb@sBvYfWhJtR_JqAeR~U}Fq@iMhe@g`@iXoc@bRsa@~V`W`@xQaHpOzKjSfM`Cz`@eL|EtM}SpR~UjYjb@eCfMcKkJpZeKtM{In@dD`Q_VfFfHtp@nNq@o@uSbKgOhOvBjLn`@qI`KpYfJyIzNxcCrt@kAz`@xG`TlDz@zCyQzP`@pX_SNdRfMyEjSlNx@zIve@`Cp@`E_NpL{KsDiVhGgGbZ`o@l]xOaErSnL{WrzA|KxT|XbVl{@slCXy]~FzCbRyBpf@uvB~[qk@}KkHpFak@_GuMN}OpWg[mFqLmSkKbByQ~TcW~N}CtKzIbChPjJ_}@rI{NjPwBbGrCJ`H_Gze@hFkCnJvUmB}XnOwe@}DsL~NkJwIyD`JaJ}CcK|H}E`Du`@gJu{@nBuTdg@uz@Ayr@}PsDVoL~SoCpSxEfFjJpDsElV`B~E`JxAsJlJzJcH}Wr@w]k`@aUrt@lRpm@tm@pFpc@dYr~@pPpJwHtj@r[hm@eHdQjFbSwNr_@rDpQt_@ls@rTsCja@h`@qLzi@`h@tVxQv^nFxAdF}HzQpEv~@t}A|D|ZkPtK}BpMbE~Cn[eGjD|BiWfa@fBzQbWHzWjNbKrPiBhWd^nHg@dX~ItEuClg@_P`RnZhMjJpPtIrVmEpHXvVl]nK~VlR~Dff@|RlMmB~k@tMpCsIzf@jCxh@iJ|l@_InQca@z_@hKfSgHfImIzcAmVbBkcH~tG_lAwpCyWpb@sh@ofAgh@~`@zv@jkBuxBpvB_UrTbJnUkkAbhApr@xaAdcAc~@fCnEgfIp~Hjp@zb@i_Alr@of@d^o|AzgA_eB~KqAtb@qRwBobBvjA{jBfqAxHvWeVnJsGxi@q^xNsR}e@yOzh@dApQyh@jXrChZ}~@zTlEnM__Afc@mJyTrFaD_IcRacA|o@aaCddB`H`Xmo@fJtNht@e]ns@kDxW`@tJbb@tt@rP`p@~a@lSnQb_@~U|HxYp^j@bTePva@hQ~w@rd@bBl_@`Qh\\ra@hiAdj@|Uh]lH|[pNbLxPpw@vVjLjHoPxzA|jAjb@nyFd}LcbTxiDrFjF|gAmQjy@ve@xMjCpt@ooExbCpLbuHi`B`JjP~eDtaBsClNzyDmTnl@dBfsDaqBiConBj~CqXy[q@eLiXvLgk@uFqCeb@uj@`O"
                        ]
                    ]
                ]
            }
        },
        {
            "entidad": "28",
            "municipio": "14",
            "nombre": "GUERRERO",
            "location": {
                "type": "MultiPolygon",
                "coordinates": [
                    [
                        [
                            "uxbaDnip|Qfc@yFZfe@xPyMdYdAxAbOh^rCzf@xPxx@lq@yt@bIE~KvQxNk\\xYa@tz@oJbGiAtLn`@vw@eLpl@fLr_Aw}@yBzd@bvDm{CtnArXr{BfbA~HfIjpFqJpqBetA_EiUhj@q~Emi@qlHxjUopAzxCdE~bLm{BztCnPdgDsJrs@_OLwO}MwFtBe^eNsb@sZk]cb@d@uIaXwl@gJaCiBuP_]wYu_@_OiQ}n@eTq\\{XzF{_@iDoMrEa|@mP{}@fBcPhFob@v`@{Jh@wLwGwYsc@mMIuk@yg@oYhOcSrAgXg^eV`@kDaSyk@_@uPit@uMjPuGoAiCcVrImPmEwP_MjFY{LuR~CyPmLiHjCiE}V{LcC}CsJkWfI_TyDoi@jMoSiFci@f[oB~X{FnF_Pd@gO}MuStDqfAd_Chc@tq@iIp`@_XzPur@wQ{H|DbKvJcNnLuZgGgEtBmHrL[fUl[fPPdg@yd@~BeLjHeMvl@uXde@|d@|]lAnj@gGls@bEd_@uWuFmb@lL{TrLoElOvFtPrh@xFvOlIgg@t[iBxa@zEtUfJvAzRkMpP@{A~nAgLrPmX`CqEgMkImAsKdZyyMsyAnC_|@sk@}JxG{vAi|IicArZarDc~Ged@gRlpBqv@b|@wdAkQmuEdrAyo@mHwiAhmC{uAb}@qyLx{D{OvhBepFzT|JcjAsu@mAd_@uuKqmC{GdK}zAkF}WjIkrBxh@oBxKcqHx}CxzAhg@ihUf{@y^pPga@Z{VgSas@q]mo@v@em@~Xij@vq@kn@~f@mTzl@wAxzArVn`@aB~KkFzVkj@bXiVtw@_@jrCsc@~t@zDr_AjNvRlSzPlg@zO~C``@{B`k@oq@xlAi@ni@`Mtk@|d@fc@pQ|JcDts@ieAvQuKnP|@dOhPbu@jZfU|XlY~o@fk@ba@bmAsVhn@qYjz@cFvoA|CzScM|f@on@~Hai@wCgYoi@_k@hDsIlr@eu@lsAo\\hgBmhClI{D~P|@tNnOjTnj@z_@jb@htAiSn_@g_@pPeCjo@gx@pYwn@fCu~@rUutBnr@{vA`ZeL|n@_Dh\\~Abr@~ThsAjFbPgFvd@_c@`Ru[nSkgD|`@mu@bfAcy@|d@kTztBeVt}@}RfoCkrBhrFiHhTqKjZ_]|Uml@`hAyjBvdDdFdt@aFxhE}q@xb@mMxbAqm@hqCsrA~fDy^vfE_[kZbqBpShoBaJ`j@"
                        ]
                    ]
                ]
            }
        },
        {
            "entidad": "28",
            "municipio": "15",
            "nombre": "GUSTAVO DIAZ ORDAZ",
            "location": {
                "type": "MultiPolygon",
                "coordinates": [
                    [
                        [
                            "ad|}CnoryQmQbd@wG[cAbEc^}TeLiO_M}j@an@wOol@aA_h@|`@o_AgRb@mG}lC~a@~CdO~Qx@jAvSeVtHyCnW}b@rA}L{lDaxE|{@kcCyCgGbHu_@ve@oPvH{a@e@wc@qVsRyr@ol@gQsNo_@b@eOrOaU{Fua@|@}m@s[eM_[~\\wp@|y@|G|`@yDpWmy@oG{IpFoCaeAgPwTDo[_[{Oy_@mDi]lB}KxHg\\}@_E_P~HgXqGwW~]{T`^q@|`@gZxUox@Fwj@mCqYi`@ww@gD}|@eLaGsl@{CuT_Zk[aQvK}\\l`AiQaCkJg[oLaDw]m[_v@qBy`@zC}~@~SaZtZg@xNhVbN~Cjs@{TjIaNz@uDgn@ci@d@{XvZkIh`AYfGcGjAqPgKaL_MC{RcMiSku@_OoJwSdNcFja@yQ``@gM}JZcPlRq|@xoBkq@n@iWct@uk@kAqNxRVpd@v\\d_@i[tUtOp@vb@fl@fj@b{BtRdmAjKq@lRfv@bD~@yNztDx[dKkdA|Vx@eByPb^wF|Hdm@t[pG~Y|z@bLbGdUtm@`Bpl@rEvKpn@g@bGkILmXvn@w@jsFaIluAYNznC|cBWuGhcCnHzA|Ab`BupAbzRbGnn@"
                        ]
                    ]
                ]
            }
        },
        {
            "entidad": "28",
            "municipio": "16",
            "nombre": "HIDALGO",
            "location": {
                "type": "MultiPolygon",
                "coordinates": [
                    [
                        [
                            "yogqCtor}Qd}B||A`NfJqk@duImdAfqDaaEtlEr^~BlBfhBo|Fqj@}|@as@kDjfJadD~pDahI~{IsiBab@s]y[cr@rSqc@yI_zBqc@iC~b@gsFmj@elEozBabAzl@abA`E{~@kQk{@yXagA{v@oZnCaY{]}xGy{DmkAfr@Yyq@qOaXtP_O\\sP{EgIa]uJwBuJjHuEqy@uv@nNwXszA}l@jOw{B`IuBfGuq@oSuKkCa\\`Eyf@xQk[jC{r@{GqK`Mwl@v^c@kDa_@nOkA`Fm`@uNsnBgH{Bz@cFuO{Ag@yEn@sPlIqJqDkMdCiy@qEsLP}u@ve@{a@vBib@kgEon@|UslDlE{o@bCol@q[mEx[s~Dw^ixG_SsfGxE_d@lJ{O}O{VM}OtKsU`DoZpRuEoIwMrXcR{BkJhPcAtB{QrTzB|CuJbL~ClMwE_@iM`NgPhMqf@zs@}Nx_@oX~FtD|\\wFp[vAzJwHfS_ZhEs[|U}AdDsJn]{RP_HeEMxEwYjQsShEwYr[cG`Ckj@jIcLrCdC`Y}JrPi\\j`@cCnYgOfOtAzj@{Y|HeXo@oQbOmZpJjGdR}[dLo}@`IaCzGmT~TcQ~f@{TtFij@l^iCpGgGXqFdMiE~CuPdScUyCaQ`FmKx[bG~l@n[|pD}yDbmAfwAqBflElqBbl@hYmxDzcDbVamAb|EzzCrWxAgXrIHxAkSlbAvJqAtU`lAnKg@xVbp@`GOt[r|BjWdq@dFbXrB}BpYbDbAyMbl@jAvm@mFh[nd@fBmg@dOmIlL~G`SpVhTlBtm@vFk@zq@kx@d}ArGdEit@rgBxH|vAdGfHxJxCvb@rR~TdvAThChhB}G~aAkJ`RiSxJcO`M_DjMuB|q@}C~YbHj`@lQv_@oW|gAfA`M~EpB`F~zAhInOi@zX|MfWzUwGdKjDxQld@{FxXSx`@lTx^TxNeNxs@hIhOaOzeAlExNtDdrAnF`H~`@wBtDpCxB~eBxNDf@dO~M|Qx\\tHdwC|wB"
                        ]
                    ]
                ]
            }
        },
        {
            "entidad": "28",
            "municipio": "17",
            "nombre": "JAUMAVE",
            "location": {
                "type": "MultiPolygon",
                "coordinates": [
                    [
                        [
                            "ibwkCbdm}QMrjCKfoCapFdeB}@~xCroBrJlFb{CuvBnPgsBjiBatSx}@clCjLJ|zDirBaA}A{cEiqDyHwgHmLkhGlb@}\\kDuEoItB_Q{fAiHcn@fX{JA_^sFub@axCiGzqMfHjf@n[dxBq{[pdLkfK~vDokHno@iZsa@cGin@ta@}Sm~CmaCavHbnC{xA}p@{D{yH}_@mt@`I{mA}tBqyCgyFa{Hwr@xJm_GihC|CouA`NeSmP{jAtj@aOpCdb@fk@tFhXwLp@dLpXx[nnBk~C`qBhCeBgsDlTol@mN{yDuaBrCkP_fDh`BaJqLcuHnoEybC~\\h\\vAre@pOdGh[be@dd@lqCbYzGdk@oQlN`F|z@gu@}A{X`YhN~}Egy@n`EtNh@uc@bBawAhjAwXa@dk@jeHsGCfzB|eLYtmDIm\\m|DnmFzVidAaiDrg@uBt[hDjdAeQnbAlNj_Fah@wMsJ_I{YdQgy@}OehA~Q_q@tXig@?qGm]}Vz]iw@dJqc@u[q@g@uQ|JePxOgHx]nLxPyFru@afAbfAzs@{FhuBzqCeIvWbKt_G{a@rjBmOrF{cAvqHqnB{]~uCnxBrCpp@hKdzBkO`c@`kBx`LjcH}XftBl{@jEsF`cOtkG~h@rxFrW"
                        ]
                    ]
                ]
            }
        },
        {
            "entidad": "28",
            "municipio": "18",
            "nombre": "JIMENEZ",
            "location": {
                "type": "MultiPolygon",
                "coordinates": [
                    [
                        [
                            "}orrCtznyQmStAqsDp[Fjh@{wBqMnMu`BcsUjfCm|@aSeCfJq}@i@ea@cU{NtJwbDga@o[`Mm]iN|MupDv]_zEucCsp@gcFdt@?cm@sHahG}BggBebBqkH{Y_uBpvD|^nE{eAg`BgHd}Aw{RiV_CtHq`A~_@iiA_Tol@xwA}x@mAb_Ady@i`@Dob@llAfWlGwQczDohBgK_Jyj@wkAsa@oIrNczB~eB|DbDaZtlAKfcAw^v`Giu@hHwfC|lEdc@q@tl@pmAmjAvqAhYzjI~iBjAqgAzv@AeC`yAbnDjw@poGt`CpkCxaAEf|AyQnwApCrItt@xGb]fs@qs@pn@gBzTlDbl@`}@eN~L|dCjFnn@t]tq@nXaVjaBdp@Bry@lPtOzq@rf@Wpd@~iAm@h]yq@n|AnPoDcZbn@wFbVvRl[HjOmdE|wCzT}A`l@bVhQnNMf~@rVnk@zYxe@f_ApIfqBfI~Rv~@wYuWxkE`jGdg@mrAd\\{VxMqJzVC`QtGhMdwA|c@fd@uDbStCjf@cIz^rYnAfMiN|q@_i@jTc[nWiShXeLbh@`Fz]zKbHzj@tDdF`HlCx`@aLlU{uBtfAws@~B{jAuQic@lNaLzVpHbf@jLlM~OzEhg@b@hcAcEnPlMzP|c@dJfqBrWhzBhApj@yE~MzJhALhPcNzSq\\~RsJ|h@iUhIgJkSiHApCxQa_@w@_LjIaReBnCxZvIzHjA`o@gDfGgGq@uGcNsNrQqSfBy~CmiHsuBgaCwd@sDto@qpDu`GjyEec@sPa|@y|A{_@__@mD}X__BilAvyAvtIy}JdqEiRr{BmiCxP"
                        ]
                    ]
                ]
            }
        },
        {
            "entidad": "28",
            "municipio": "19",
            "nombre": "LLERA",
            "location": {
                "type": "MultiPolygon",
                "coordinates": [
                    [
                        [
                            "m`wlCd_uyQbrFqI|PmvDun@}GmZmd@o_@aWaCsVkWuc@cT}iBgbF}UyRgZetA}v@wKezBifJxMxsAkgCt~@mSsf@}nBcQdEqEhlAic@rAiQmm@gWeBsLow@}gHrBu|@kmHhjD}_@raLc|NfwG`c@`mC{kItoDl_@k^y}BjhEoeDr@zeFdcEZw@jwK[xhFfjPf{BfMveQ|_AvGzu@tIia@fnGuQvxCewEwb@}HnrFlv@{HwGheCozHSaA~xCgq@aFoRhJUhy@fz@lNwp@|iHimAvjM}n@p^mlAzq@wRfLbd@`iEdg@ebAnWxt@~Ft`B~TuAyfArvCx[rx@|~@|fDe@zb@vAbmGT~g@aHx}JwIpQqLlGj]beDbHx}@_lAtF{[diD_SfkEy`LkcHac@akBezBjOqp@iKoxBsCz]_vCwqHpnBsFzcAsjBlOu_Gza@wWcK{qCdIzFiuBcfA{s@hjAq|@kEwUda@kyBubFwaBwrCbJhv@flBs|AkFw`@qxCcE}sButHEuFmoBsdA~F}A_pCq{AqjB_`BikBlNcKuAoj@`SoLvNit@wN~@sP_LQoOoKeHYcO{N{G}G_V}j@yOiOeo@`gB_sAagCihEbtI_qEio@myCzgFgyA`Wz~A`QxoDnClrDsWxrEbpFjU~pAm_TxZvAtIevBpdBnMjg@xFr`AsaDrFiUeEajBcNwgGfyF|@zC`Qj@reHjhD}i@fdABiBg~WrcFh@qAhzMpyJ{O"
                        ]
                    ]
                ]
            }
        },
        {
            "entidad": "28",
            "municipio": "20",
            "nombre": "MAINERO",
            "location": {
                "type": "MultiPolygon",
                "coordinates": [
                    [
                        [
                            "i|rtCbs}~QzjEx[phDbe@lw@MkAzvAwcDhw@ibEbmCfPxjAtlDssBvgAnuAarD~pCgk@~m@}OtlBweKwAwiAum@xGmRyeCmkGtpAki@}nA}kDgHMq[nc@mOcNma@{S_HrGqIsAix@goBcIkf@xDiXqFgi@jNiPVcW{VgYnLyHqFwFmCqi@tRoS|B{U~J}EpXo}@xK_JvJxEtCiOxWrCb@kWe[|K}QwE_C{k@_RjDsNaK}HXkXtOwKgOaCa`@tBiErSEFqF{ViUkMw[kNsGkKcf@qCyw@wPySkJ_d@oM{Twh@uIwU{MeUbNyVg@sm@tO_`BqEqi@ob@{z@cNqI_UaSwEkXm]iI{BsIoRqKkFqNoc@y^uYem@svAyDWRaHeLo@}IqSj^eb@bGw\\kFgOhEgTeJaXfCeFlc@?t|@fqDpYvs@|wJm{@jz@~Jvn@?r~@uZb~@nVncDhnAaJdoA{m@cDwLntB|{ApIbVuxGb}Fj@h[|]`ArX~IlG|CtXiMrKnBvJqK|SoTzEwQnm@cH`Lil@hTiDrPig@pa@x_@hiAsLlRrWp`BbVd^pZrGnCjJk@xKsc@xt@zBtUqKtq@fFb\\tGrF{P~e@mJdGjIhU~U{_@`s@w[lQ|aAch@hk@m@vSrFnEnMsBvj@xGhc@v^`t@~\\oDni@"
                        ]
                    ]
                ]
            }
        },
        {
            "entidad": "28",
            "municipio": "22",
            "nombre": "MATAMOROS",
            "location": {
                "type": "MultiPolygon",
                "coordinates": [
                    [
                        [
                            "opwyC~`gqQrzJhrE|eDdqApkApv@xN|@btAfj@zb@jFrIsDeCfLrLdNxjBtx@dmCl}@t}ExsBtdEnpAjl@j\\~u@bOd{E`fBl{Ctu@df@b[qn@^moN`zKu{AvjAcAjPidBhmAwHhQccKbmIyPfd@_TrTooFpwFnNfIvu@jAyvH~`IsrEdhFu\\c^a`Cv~GiTzOoWm[mdAnmAt_@dRs`Bt}Aj{BlcC}YbBCp}BAjyBa|GQsd@HGu_Ajd@Fg@gpAt\\GMol@Sqv@sqAWkBq{B_v@BJm{BsaI_@jD_nOmC{Tc_Co|Ew_ISaw@AgwGMgpBEglDG_}LWwjCEqhIQc{BvZ}g@prBef@tSoaAp~@}bCvoBybBhtAq{@c@d[zp@l_@`y@r@lNmxCdfF}fA~_G{tIqAs{A]`J{VwzAM__@HaL}Kg[nLdStYl^pQqA~QkfAvAsHm^okBvVacAjFwUsf@tE{~@eGgLgZqHqCiO~Jit@l\\cWdLaSiQyQmk@aQqIwMbV}KvXnM`f@]pKoFhF_x@{GqeAzIuU~WoEtGgHsIoS{h@aV{F}u@hEmLhKiEze@vHlOkH\\uIgH_Maj@tEmRuCgNeTkIsi@|g@wPUcb@zYyTbHzCzFh_@tW`Ln`@qJtVc]cDqh@d[mi@{UoJ_Qmc@qJpGcMb^}^dE}Lqi@~GiU`U_Rjb@aAfq@|J|OmKz@sPgb@gv@|HcLxSyE{Sqg@zFue@iMsBcFaPhCokA|NmFxZjLdCyQqMos@kw@o@sH}FoAiLta@aQfB{_@~e@s@p^uSfBoJuNyNmb@rUc\\lBvDmQbYmRnD}vAgMi@oKbL}QkFImWlU}FfBoJyWiSmZkD}B}F`UuLtYtFr]r`@x[hInHoDeG}c@fTiaAos@wFoIkMkDkO|Te^fTyMrZkBbUlL~Cvy@zHpAdPkM~j@{`At@mJsFiLs[{M|@aOxJcD~YvI`J_CpDmL}F}QqY}MnKiMpj@rGjHpIkApPeVf^tJhZb`@dCnA{_@wC{]`HcT`q@aKbKuUpEqg@r_@b@|`@lJlz@kv@aBqN_VeWqBom@Bad@bm@fGrfAaV{BcXcOcIqn@zAWcUxWo[da@lE`YthAdY`\\zSyC\\iIyNe\\|Bkf@pEwQbm@sd@oJuJeTT}_@mJuD}[|Pqf@fPyFlk@v@dFwIoj@kZuBgI|GaLpl@xc@hNbAaDs~@`EmLnGuCbJ`Cn\\nZrXU`DuZ~^sKnTeStS}Bb[fChQsC`IcLm@iL_Fqk@mL{U_w@_x@[uE|I_F`TOxd@zEjQL|NW|JJz@{M_b@cl@|FsH`_@jGSkYya@it@wV_W}AeKdOaIzPxAvRte@vP~BhFqErDcQ{H}Oy_@uYVi{@xnAlThTlCfMuCtOwi@p_@rTxHCxBsFaNub@t@uNfI{AvRdGpKoHuCqw@dv@ay@R{kAcFyGur@xIicAaJsF{HdAsNzRiE~VIz\\lLfN\\hKwFBkOm`@}HqDaMxFuS~YhK~^n@`FhI]xXvJd@~CmIwHud@pKkQpA}]iL}Ly\\mGtUsd@iAmw@or@iEaJmSb@aRwGiAeNzNmBnRvEb[eHvN_KeIwEud@{aAsp@uAgIlNqGqDoKm`@rQgc@_GcE~HrG`Hm@tcAeMhCcWcd@eFmr@gRgMuEp@tCdc@aGvVu^bH_j@uGqU`p@mMdBoLke@}U|DsG_EkE}s@iZup@uPeLmh@oHpEyi@kAsf@ju@|LlHoLaEoKoVj@eJyH~AwGhj@iHbDeViLgEc^H_VaSsHaL{D_^l[mb@eDkTmr@yHiFsHAeSxQyYkNa^lD_rAeO{A{d@d\\iQcQyLlf@w^`]kMeBcNq\\~BaMxVkLbSc\\tEkbB`Om^hAiW}E{Wc]kTkGsMsYyrAdG{k@ie@ejAj`@uLk@aj@f[__AcGiHoRoA{Tkr@gSmH}@mGp]s~@sJuh@nN_CpbAnIRe[q[}p@[wLb{GwKb_CbFljK`k@vlBfTvn@Sh{@~NtrCdPbeC|\\nqC|[rtA~[t^nAtoDzz@dkAdd@vwEftAv@uJ|F~Pja@dZhbDduA||A|x@zeCd~@hS|QxgBp_AnmAxh@leBljAtXdHvQtRb_A~]lm@hb@jdDj|Apg@x^`iApd@~|EvjCfdAl^d{E||B"
                        ]
                    ]
                ]
            }
        },
        {
            "entidad": "28",
            "municipio": "23",
            "nombre": "MENDEZ",
            "location": {
                "type": "MultiPolygon",
                "coordinates": [
                    [
                        [
                            "i}txC~rfwQzeKpiAkYfjD`rP|tCpFhQtj@dSv@r\\cOfM_i@fhEgi@zo@iVhIsWcLiGdDwBtRhoK`}@rHmzLjc@e\\rfH~sJ|v@jq@mSzu@eZ|i@aCtn@jRx_@rm@h_@Nz}@pEpSiBvXs}@ttAuZje@_M|G}F|WdFtFtq@uPrIjZlR|Ub`@oKdFzBoAlo@fItYemFsf@yq@|~IwzAaQaLqeH__CuXmkAtpHiwAdD_AagAmo@gCogA~xN}JpOe@~TjPbUl^x@xJnG`CbH{HvE^zHjKZf_@b_@Fte@qPErFxRbp@}Lza@`VgFpIj@|QyG`HnXlj@tYtPaJpb@fH@`DvR}y@ttD_GxW{wEmq@jk@qpAynD_Rua@ltDwQbaBtiA~Mfr@hr@jSjg@zBni@}D|j@utAr@l_@zLeAtOpGl]wjEu@gF~}F}nCKklDihFgyNe~Tkx[oyf@tSuzDvSszDijIkp@aoCm}C}{AxGc`AfQud@uAc[xiAmm@mFn^}iF`M}gBhxC}NsL{iLg`@XmLeiM|zCmMu@gg@fwAeHv@wmEx@giErDicRAmK|lIKzmLBvuBxsHvJ`Lt@cKl{EbnAbw@jGwFtjClMlAkKp}D~{Cv^uS|xCzhBoJpCtkB|aCnDJnuBtg@~@s@n|@iy@o@yC~aF`iBpRkf@toI"
                        ]
                    ]
                ]
            }
        },
        {
            "entidad": "28",
            "municipio": "24",
            "nombre": "MIER",
            "location": {
                "type": "MultiPolygon",
                "coordinates": [
                    [
                        [
                            "udj`Dlw|{Q|JdDbe@aDvq@m}@|xFbD|_@p_@pqS`_BrTlhGnZtcJmBlvHidGh~I}uCrtEcMbClU`YeH~Pk_@~@{@pjAfUfQ|@nJxRqVfl@jiAar@te@glBdvAf@fdAcTxEmf@IaAwOarHhQiQb@{Crp@_Rf@_Lyo@i`BnFnApc@s_BzDm\\gGhNg^gMob@re@ch@oLiZvJ{MlBwQpTgHzJ{TmfA~Sye@{FnDsLyoAlR{lJ}Yc~CwRpJqqBgIkpFgbA_IsXs{Bl{CunA{d@cvDv}@xBgLs_AdLql@o`@ww@hAuLnJcG`@uz@j\\yYwQyND_Lxt@cIyx@mq@{f@yPi^sCyAcOeYeAyPxM[ge@gc@xF`Jaj@qSioBjZcqBdRm@zt@jQvWkBx`@ePtM{Vvv@qaF|q@uy@~pBe{Ar}ByiAl^}CrPbDhW`Glo@vc@hy@jAbMvKfr@rMdOpOxMz^"
                        ]
                    ]
                ]
            }
        },
        {
            "entidad": "28",
            "municipio": "25",
            "nombre": "MIGUEL ALEMAN",
            "location": {
                "type": "MultiPolygon",
                "coordinates": [
                    [
                        [
                            "ala~C|gd|QzAt_A{b@rBkv@nj@kcGbt@k`GjcAqnJp{AuxBvy@kzAx^oq@rc@oZucJsTmhGqqSa_B}_@q_@}xFcD`QwW~c@aY`]uh@rl@kSdIcUa@i\\wE{fAsu@k{A}Xcf@_Gu\\nBao@fSye@fG_V|R}O|]}Vl[sShNeT|C{jBwLub@gj@gn@lOsvAhP}p@|NyHx]aDtbArMdU_RhUwf@tt@pZrB}EpWjLtAaLrsAtAv]\\Vy]bX`@lSbMph@a@x|@gc@~PDl[__@t`@vXhCzg@xSsj@z_@gC~M{HzQdPoMhQsTdGwDrPgXbNwC~RdKzIcPh[L~RtInDs@|Ori@{@z@xSzSv[|f@rHn@dEue@~a@kGlTvM|SrVmFrXnHhJSzZm]lb@e@lFcf@tEyBcHiRfF{EdHlASxVpZxQbXFbA}HjKyED_]ph@hC~KyYdItJgCnT|V~SxIoChK`FjAjU_y@fEyIxEeBnJnT|F~@bLjc@~C~Gfc@~KkT|u@cFc_@nj@fKjH}Evj@hd@dTj@f\\cPvYuWtHqYmOmNtBe\\_G~BdOuDdHqRvEi_@mByHfN{MdA}]rRgWdX`D`IeE~AtZtDjNoCrRqSvn@aC~@tFho@{CnVxJk{@rr@iGdRpBrCvl@eFx_@tDdd@wl@dq@tOeCnJyYpVdI|LSzLij@~d@g[dGyFdK}OtBuUfQviBflApBzLdGtCeCfKrHzSkAnr@{L|A{PgLqOtV_RdDxQr[h^_AgX|N{F`c@uVzKpDnG}OlC~ThLsOj^zLeAuBnJtf@oY~^cb@AfRvXziAvJhHjNk@pNmWVsk@rN_m@rTyKtReXbQt|@hJkGl@jKrV^n[|d@`Y|P\\|OzL~BqMt`@|f@xQf[_KlA`VdGhHtz@_D`GcDqn@_UrBeHvZg@qCeOmQoAqCuFvGoJsEoGoRj@co@yUbBmGaM{q@eOwa@{OsQe[uDuJ_Pue@wv@pOwYkQaMqHo[fBcYeKoXiL{Ftj@oH_AqJyQ}SbMes@zJuBjWhj@hM~BhH}HzF{\\]iKuFoDfFmJ_BiKiMoKe[xAwWxKaWsDjIaOx]oBfZkMdC_LeNk\\kNeIwJTmIrSqXgIxYeQyO}SpBaBpUzCdIrJft@bUhp@eFrBsFaFgOcZcMwHdAuI{IpAmGwMmKeJeVcm@iC`@iKcFqGoSzAPmGxJ}Ap@uFdXmFBwItEwBpE|Oxw@xOzSbZ~PcAdCmQ|\\{[jN~Bvc@ra@tI|G~AlNcNnd@rXbCtHhH|JuLvH@pR|eA~WfSrIvWvIlDrcCwd@tBaL_DcVsoAxBmCuW_h@awAbYlEbSp`Ani@xNjMwEeBq|@lMeNlOuBnUbMtI|L}Ghe@nUhLxn@_TzOoNvm@bTgGvG~DbV{B`m@_Qlo@t\\hi@dS~aAf_Ao@lE`mAdMnMfYl@zMxcArAlXkKha@_NtAmUeNkK~@_I`KjSrkAhFr[~YzOjY|]aMxp@vIdLb_@sAdn@iq@rK|MvHdcBcM`Nob@_C{Nf`@"
                        ]
                    ]
                ]
            }
        },
        {
            "entidad": "28",
            "municipio": "26",
            "nombre": "MIQUIHUANA",
            "location": {
                "type": "MultiPolygon",
                "coordinates": [
                    [
                        [
                            "oseoCnoj_RjfK_wDp{[qdLsp@fcFvfE~kBjMznBocD`\\a{K~gA_Jkg@chIx{I`d@jfC~_BjmAhm@nyAkNlv@pbCvp@dHd`@~Px_A}gIrpDzwGreC~jA|fGqvLgzAlfCxhF~rFjeBqu@jwDqT~_@kfEfYsuAbHedAsg@rY_nA}tDhPanHk~C}lFgjB{_DqmC_uKilCynA}Nea@kpCpKahBoYen@mRumAoLoUyDwc@nD_u@_bAqvAtEaKzJgAzLik@pRyNeSmIOoFlNqFp@oLhIwEuQ_ZbTqX~A_c@jKqCmXe_@lL_K`BoRpOlFfHgDa@oUp`@cQNoRhJgSoUo`Bn@wQfg@qRAg\\vEyBjf@dSvHoILoj@q^hDq^mL`RaNu@sHwXqRtWac@eTmCwDoObo@kDfGnF~H_OzxA|p@`vHcnCl~ClaCua@|SbGhn@hZra@nkHoo@"
                        ]
                    ]
                ]
            }
        },
        {
            "entidad": "28",
            "municipio": "27",
            "nombre": "NUEVO LAREDO",
            "location": {
                "type": "MultiPolygon",
                "coordinates": [
                    [
                        [
                            "{vifDbmf~Qx]kKvtAlMn[vRllAeBhjB~fAdoAhX|LbAv{@aVhIdAhy@dbArXlu@`Fll@bi@zh@pg@yUd]wi@dMca@{Q_wBjB{]nk@gv@ru@}Khd@|MtkAdm@ig@hhUy}CyzAyKbqHyh@nBkIjrBjF|WeK|zApmCzGe_@tuKofJrZwu@{pBwc@lT{m@tl@~uBfjG{sAdnAmwBmoGlGwD{kAw~E_|FnfHinG`n[{oEvbAo\\bgAwqEt|Dog@~`@_z@}lLjcAm{@efDmwFei@tb@i}OqrXnt@sc@|\\Ktr@sv@vQgh@~EkYiB{Sqm@gLqg@_i@bh@aOhNwQnG_e@sEwr@~Fg]pk@qh@`QcCpQrB~c@rj@vU~@hj@iaAkAgj@bTicAwTuiAcO}Kym@rPsQmCwDeH~CoUzb@k^gAaSuYqu@P_y@|pAmL|g@{m@jU_p@bs@\\rZxf@tTqA`DmKyAm_@k`@{mBwU}DcP}K|o@cvArXuRrfAaPbf@uOdl@c\\lYox@ha@uj@jMgBnl@xJpu@nm@dc@rHdZuD|l@nBxbAvQjUqAbc@g@rkA~RpHk@jFsK`@oVqJ_e@aEwu@{C_c@tMyi@xS}l@`n@gk@vo@gIp[~Vvs@fFtdAhu@~w@vQlk@~FtkCgo@"
                        ]
                    ]
                ]
            }
        },
        {
            "entidad": "28",
            "municipio": "28",
            "nombre": "NUEVO MORELOS",
            "location": {
                "type": "MultiPolygon",
                "coordinates": [
                    [
                        [
                            "qaqhClrc|Q``Am[jnAjhDpcBkmAkw@utCtmAuw@plCuLtk@sWjc@oIh~Bok@liAh@hgCn`@Upe@zUzqBab@rwAoVjmNmzBfk@mwAhsAaiNxyC}hAp]{~Bld@oaBzdA_wBzi@uq@grDcmC_{Jak@}tBbXhFhToc@pcBgr@~VeSv}Ao[nfA_WldCmlAtNwFbpAwqA"
                        ]
                    ]
                ]
            }
        },
        {
            "entidad": "28",
            "municipio": "29",
            "nombre": "OCAMPO",
            "location": {
                "type": "MultiPolygon",
                "coordinates": [
                    [
                        [
                            "otnjCpbc|Qt_A|Ff\\ysCpqD}kAjq@{]xv@duHdJut@tb@fEjM_aB|}A|L~Z}v@`mEnQ}fAdwEdbDbZ_I`eBju@nKyHdpAnfCnV|Auk@j|AzLkA`v@d}@_WloBa@xl@`Gxy@mX`k@|tBbmC~zJtq@frD_k@`ZqfAf\\bEvhAgb@xHeJ}j@{kBje@rAnxAvXjeEqtB`j@u{CrUns@vuErAfw@fDjdBol@ld@wAr}@ysLvwFsL_Y{XvTjYdiHpt@AyhArnBm|AwJgdCmFuqJwpCwr@bAbRol@s|C{Tys@ev@ol@_j@oAccAufF|yAcBuk@izH`bDws@mtA{|Bn}@mfAp`@{KuiDc~BymBycFsa@fL_sA_l@j@mFc{CsoBsJ|@_yC`pFeeBJgoCLsjC|YafSnmB}Na@m\\`x@kFtjAmn@|dA{f@f_P_jIrbBqXra@C`VqzBx[a`CfmCqh@hmAh}@xBb]"
                        ]
                    ]
                ]
            }
        },
        {
            "entidad": "28",
            "municipio": "30",
            "nombre": "PADILLA",
            "location": {
                "type": "MultiPolygon",
                "coordinates": [
                    [
                        [
                            "}_~qC|wa|QaLb~@`Tpv@mLzE{BrRc\\`[od@gBlFi[kAwm@xMcl@cDcA|BqYcXsBeq@eFs|BkWNu[cp@aGf@yValAoKpAuUmbAwJyAjSsIIyAfX{zCsW`mAc|Ejg@ekBknBmTpb@m~AdmBfSrmBckHd{BmoI_}Ggl@s@bF{JlCI|OqGbIt@tPeKpJq`@mlAyT_yBoIshAot@e|IvpB_|SmcCp_@lh@}dDoG{vAliCyPhRs{Bx}JeqEwyAwtI~~AhlAlD|Xz_@~^`|@x|Adc@rPt`GkyEuo@ppDvd@rDruBfaCx~CliHpSgBrNsQtGbNfGp@fDgGkAao@wI{HoCyZ`RdB~KkI`_@v@qCyQhH@fJjShUiIrJ}h@p\\_SbN{SMiP{JiAxE_NiAqj@hXvWhC`k@bClBdRoQsAnWvG`NqP|FkBhJuZeFsQp`@pAzW`HeL~NpOi@uJzPiGlD|@I|O|Dn@vLq]dUlEyGlQvUn@lb@aExHyK~MdIbR}@|CkEjJjEbKyEbDlKzHK`WeOfApRvz@yBnG|RdUb@cJzTdDrGvOdFrX}@hJ`NvFJdSiJbJjBFkV|J{`@zIVvGfg@|LdF~EqI~]~AxHqLvFjHpGyNr`@iMlCuMjD|OaVhp@xOgGbBgOf\\_V[p`@tKzLnd@kY}CrXsIzCzBlEu[`EiGfGuCr[ba@~DpHxNvU{ZhA`Tx_@uDoNnQjRjEbYa_@jg@{]zC~D`Pc@pFiPd]bFtDbF{BlN`IxKdE_SzAxBjImH}BhMrJjKqVvPjBbCeTdC}Jnf@gNsA}CbQoV~AsI|IsJoC}i@lHW|C~NzCdDnL}C|FeL{@pHdRnN}IxAvSrQgLIjYfE~DjR_EiI{`@vMjBGaHxPrAuDhJbDrGvj@wSfWnF{Htd@vEnCdKsR~t@cTmDoFlKwS~EJzCve@vVVjJuGyIgGzAo]dMbC`V_VhBtI~DgBiAmK~VaLfAiHdLCrSkKhRjBrUiT|A|FeFjInYoGzWjVjXoAaTjEz@hGby@vZrGaDdWzB}X~Brd@jl@~fCbl@zFhZgR_H{c@dq@sYnFoKiDqPqJeYs~@qFqc@qm@um@st@mRj`@`Us@v]bH|WmJ{JyArJ_FaJmVaBqDrEgFkJqSyE_TnCWnL|PrD@xr@eg@tz@oBtTfJt{@aDt`@}H|E|CbKaJ`JvIxD_OjJ|DrLoOve@lB|XoJwUiFjC~F{e@KaHcGsCkPvBsIzNkJ~|@cCiPuK{I_O|C_UbWcBxQlSjKlFpLqWf[O|O~FtMqF`k@|KjH_\\pk@qf@tvBcRxB_G{CYx]m{@rlC}XcV}KyTzWszAsSoLyO`Eao@m]fGcZhViGzKrD~MqLq@aEwe@aCy@{IkSmNgMxEOeRqX~R{Pa@{CxQmD{@yGaTjA{`@ycCst@xI{NqYgJpIaKkLo`@iOwBcKfOn@tSoNp@gHup@~UgFeDaQzIo@dKuMjJqZgMbKkb@dC_VkY|SqR}EuM{`@dLgMaC{KkS`HqOa@yQ_WaWcRra@hXnc@ie@f`@p@hM_V|FpAdRuR~IgWiJrBwYeEc@a@rReLpFsQoCwGhGeLyKcC`EdNpOqAbIfVWpAfDlj@sFzI|FsIhSqOXjBtMrRzCg@iMjb@lF{RlYdErJsQlYmCrX}\\sDcBtMxObC~GlKtKmBzC`HcJtGrB~GvFJ~DyKrSyHjPgRcJdc@pPdAF|CqPxKxIJvEhMt[{HdEtGmDnFwMd@OhP`o@|^bb@`Ffd@pXcBxe@jJjHkBdFoUyK?g^gVgPwU|FmL{CcJ`H@iP{_@qAcK}L}SxEyXeu@mK|]sRhGaP_e@yOrAxPxe@}LpOi@rO|Rl@dEmEfFdImDdF`PjEFlQaPgAoMjPgO{@bD|IzQvEnNcQfFhJhXiDkR`QXpLjRmE`A`EyO|FYpOiI|@bJrD}DtJlTcEpIvBiPjMfE|I`PHQxHyHtJyGkH_HxNrKbFhO|XmCpCxe@`Cd\\cHq@lNkJd@uEpO~Nbf@`_@{KfGvEn\\_S~GxQ{KlKbCdR~VMhGtMbRbClMfMeDpCqIsD_e@oReEn@q@~RiO?fTlTxAtJdShHtEp`@qH~Dio@mcAdMhaA_@bFeE{@gd@s\\q_@qo@uTd@yNsPsBcTyw@qm@sXn|@|Jne@eCv]cLbQuD`h@}RlPoOxb@ms@p_AcCdf@eiAbAgg@zcG{nBoQwOvgA{oDieBcBmpAol@tLUrhCje@z_DeoCluAocB}CtDlTdy@xUcC~c@~TdDsJxp@lsDvAmn@z{As}FcM_XhgA~rFhGoh@vnAopGoNiCj\\|Jf^sQnHuZqAcLbN{Vb_@{GbWbKlWfD~N}G`q@lHtR_@~`@qExDeJ}F{B~WtCnHhVjD"
                        ]
                    ]
                ]
            }
        },
        {
            "entidad": "28",
            "municipio": "31",
            "nombre": "PALMILLAS",
            "location": {
                "type": "MultiPolygon",
                "coordinates": [
                    [
                        [
                            "a_wlCrbi~Q`tSy}@fsBkiBtvBoP_`FbnLdB`t@ii@jJogAfmCqmEdPtK`{BcSjAqTdaCcMftAmmFh}@iSf~B{uDuQyA~aHyfCyEydAam@|U}yGgoAe_BavHt}Hqv@l@c{C~Bs@caF~~AsMi`F{yBwfE_lBrp@gcFo[exBgHkf@hG{qMtb@`xC~]rFzJ@bn@gXzfAhHuB~PtEnI|\\jDjhGmb@vgHlLhqDxH|AzcEhrB`AK}zDblCkL"
                        ]
                    ]
                ]
            }
        },
        {
            "entidad": "28",
            "municipio": "32",
            "nombre": "REYNOSA",
            "location": {
                "type": "MultiPolygon",
                "coordinates": [
                    [
                        [
                            "gyfzCdxhvQw@vmEgwAdHt@fg@}zClMlLdiMf`@YrLziLixC|NaM|gBo^|iFlm@lFcAr|[k~i@_K}aEzP_lYtDkrMp@ynMnJ}cBVO{nCmuAXksF`Iwn@v@MlXcGjIqn@f@sEwKaBql@eUum@cLcG_Z}z@u[qG}Hem@c^vFdBxP}Vy@eKjdA{tDy[_AxNgv@cDp@mRemAkKc{BuRgl@gj@q@wb@uUuOuW}TkNwWLoUtU}g@v@uTxKcBbk@f]d\\tEvAu^uV}aA[s[|H{RdQgHha@dGvIoE{CsViJuDo_@|D}g@x[cYsLeAe{@}b@{v@cB{MhVmTn_@yF^gF}d@e\\s@ab@rNsPlr@oN|PjEhV~Tt\\rGlRcWdm@_eB|i@wm@tLisAvU_IjXjEzOkFdFeKrG}]pbAkr@tIwi@qHymAuYoKwUnL}Q{@sNiO{Ba]nVgMvg@`FvUoBbZgPxLwQgR_Ueh@PaVmHyJaUbI{q@`SoKvU[~\\v]bOfDjZsXrQqr@xIdFdE|h@pMfD~kAcs@lf@gZzNoR`Eoi@xJsOlaAcV`Gob@gDwLsLkCsIx[qSbIur@}V{K_OoCq_@j_@ycBgEiXcXcSF{NzHoChNrChGbYhLvIrb@cJpGdDmGvlAzH|]|N}GlQoUrHoe@`Ug_@tQ}ZdY}JnOiDtg@soAp[yBvJeGpHkLoDkS{Reu@uEkz@zOiy@hb@g`@fIw_@pWsXzm@gT}HsTkf@{KmB_v@hWuf@sNgA_j@xLa`@gOW_Gl[a_@xk@cWcEop@nJmJdq@l[jEoM}GmMz|HdGb_ACle@k\\^sFfS|Yhg@oM@~Uji@VlV_t@bQlPj@rb@`xAI~zLOd{FGjxGIrZlNdT_jAdkAl}@xfF{BlcHeDjqHWto@A~tL_@rpK]nAw_I`iKe}GsDhcRy@fiE"
                        ]
                    ]
                ]
            }
        },
        {
            "entidad": "28",
            "municipio": "33",
            "nombre": "RIO BRAVO",
            "location": {
                "type": "MultiPolygon",
                "coordinates": [
                    [
                        [
                            "}phzCnghtQKl{B~u@CjBp{BrqAVRpv@Lnl@u\\Ff@fpAkd@GFt_Ard@ITxvFypBVDd`@d@xsGr{@EDn_AFnuB@lKaiKd}GoAv_IspK\\_uL^uo@@kqHVmcHdDyfFzBekAm}@eT~iAsZmNkxGHe{FF_{LNaxAHk@sb@cQmPmV~s@ki@WA_Vig@nMgS}Y_@rFme@j\\c_AB{|HeGiTeXs@cM`LaLz\\cA~D{[y~@ch@gu@qDcYqM_EaL~FkU`q@bLvJ{LdCsYaSk{@aJo}@vMeU~_@iXjEy`@{^w{@kMsDcRjWmGs@{BqUnGaSdPgKjj@aHxa@_Vv_@wCd^nQzK~g@`]cPTu]{m@og@uI{\\dHm^Lkt@`Vyp@wj@gP_LsJ}]\\o~@sX{GeZtj@w_@oAkLy@}Hwd@_ZJwG|KiCnm@~E{b@w_@gLe\\nBe^fN{JxO}Mt@kJ_EsHmc@yJoI{i@lHqG~g@mEvEkUf`@uc@|DySyCwIou@}n@{F{\\zIgd@pn@{z@}DuP}Q_Gy]b\\cNy@_E_NjK{Ojm@eTfAaM{Nmh@hHeg@_CgX`cAkFnkBwVrHl^jfAwApA_Rm^qQeSuYf[oL`L|K~^IvzALaJzVr{A\\ztIpAhyCb@~pBZthDf@Ixh@vmIbAlAvvCvsErBvnAj@tL}B~b@i_@tVr@xmAnc@tZnDlHzGyHpkAzo@bApO`tAvXGviDg@PfkBzTX@szDxw@P~dA^zf@N|FxuAn]SvDq~C~cCfAp@a{@xvAiA^hz@n~E`@p@sz@dmBq@^tyBpoB`@f@u{@tkGv@w@cyCdZ|@`@yaDiq@[UkqAjq@y@`A_bBraI^"
                        ]
                    ]
                ]
            }
        },
        {
            "entidad": "28",
            "municipio": "34",
            "nombre": "SAN CARLOS",
            "location": {
                "type": "MultiPolygon",
                "coordinates": [
                    [
                        [
                            "uhqrCbruzQnIrhAxT~xBp`@llAdKqJu@uPpGcIH}OzJmCr@cF~|Gfl@e{BloIsmBbkHemBgSqb@l~AjnBlTkg@dkB{cDcViYlxDmqBcl@pBglEcmAgwA}pD|yD_m@o[y[cGaFlKxC`QeSbU_DtPeMhEYpFqGfGm^hCuFhj@_g@zT_UbQ{GlTaI`CeLn}@eR|[qJkGcOlZn@nQ}HdX{j@zYgOuAoYfOk`@bCsPh\\aY|JsCeCkIbLaCjj@s[bGiEvYkQrSyEvYdELQ~Go]zReDrJ}U|AiEr[gS~Y{JvHq[wA}\\vF_GuDy_@nX{s@|NiMpf@aNfP^hMmMvEcL_D}CtJsT{BuBzQiPbAzBjJsXbRnIvMqRtEaDnZuKrUL|O|OzVmJzOyE~c@{{F{dEcfAuYan@yZcAov@_qDbD_pE{Dox@xEep@kdBm]~FuTqr@ueAj^on@{e@wTdF{f@|\\tYh[yeCf|@k@jYw}@sPgwAa@}@mHgTuJzHwT{LcDw@lKgiBeC_uP_d@|d@d|Ac{Fp}AqdAerDg`MddCkq@fN~dAcsBzg@gjCEgmAj^ecGk_AqqDrB_q@kx@Gf_@ihH`Mib@j|@iSaCqQcWonBknEjJveD{{GlyMd@jq@ecEv^ofCrjHpbAxtHgmFxYbcAbeE}|C|y@oe@za@qb@dCy_@fvAis@vwE{wDxf@atCtj@o`@xb@qtEGw^lhEqdAv~@uxBbrCsOvjAs_D`^ahCfcFet@tcCrp@w]~yE}MtpDl]hNn[aMvbDfa@zNuJda@bUp}@h@dCgJl|@`SbsUkfCoMt`BzwBpMGkh@psDq[lSuAnGzvAmh@|dDlcCq_@wpB~{Snt@d|I"
                        ]
                    ]
                ]
            }
        },
        {
            "entidad": "28",
            "municipio": "35",
            "nombre": "SAN FERNANDO",
            "location": {
                "type": "MultiPolygon",
                "coordinates": [
                    [
                        [
                            "avbuCbb`sQldJdtAn`@fIvJnK`PwBhIhD~V{Cxb@vDnmAbYtvCv[|`Hhz^dLhUx[rQ_MdM~XfHj@lk@fQpKnBlNzJIQpLxHpC_EjEvGhD`CfOhuUphb@uyCbaB}r@alAwkAwNyGnIkFfs@oNvK}]RgSfb@aGje@cwCqDypB~VrAt{DybBl@{\\|oEfAtuFcyF^`ScwA_W{Eun@}lB}Pkh@cYjsC}`DcjIykJzcFtNflGrEnpBwa@piB_fHpB`\\`iEfyE_hAhNdzGufA{MqO|}@{cDkg@m`@xkAwx@a[iv@t~AieBkcAkmDqsBmoDj\\iZ_oD_lCwy@uNoEcA|}FcqGllDul@psDiiChCaJcXmwC}CcYt`Bc~Ca]ph@d~AyvBb`Ahc@r~BmcA`n@c`BvaApUpk@aIlQnS`T{nDdyC}v@kq@sfH_tJkc@d\\sHlzLioKa}@vBuRhGeDrWbLhViIfi@{o@~h@ghEbOgMw@s\\uj@eSqFiQarP}tCjYgjD{eKqiAjf@uoIaiBqRxC_bFhy@n@r@o|@ug@_AKouB}aCoDqCukB{hBnJtS}xC_|Cw^jKq}DmMmAvFujCcw@kGm{EcnAu@bKwJaLwuBysH{mLC}lIJGouBEo_As{@De@ysGEe`@xpBWUyvF`|GP@kyBBq}B|YcBk{BmcCr`Bu}Au_@eRldAomAnWl[hT{O``Cw~Gt\\b^rrEehFxvH_aIwu@kAoNgInoFqwF~SsTxPgd@bcKcmIvHiQhdBimAbAkPt{AwjAloNazKpn@_@hYkDvkAx]tJnN`Ye@|gBbi@`PvH`@bHnVkDxfAzU`uAhb@rQrRja@gC~sJh_CrdHl{Ab~F~eAryGl{A|}Ez}@bE~FaH`NnA`HzNgUvWtAzqS|qD|}Aj]hkA~K"
                        ]
                    ]
                ]
            }
        },
        {
            "entidad": "28",
            "municipio": "36",
            "nombre": "SAN NICOLAS",
            "location": {
                "type": "MultiPolygon",
                "coordinates": [
                    [
                        [
                            "sz~uCzbryQlk@esBi~@_o@b}BgjEm_Agx@rxIvBtcGtbErbEzEdrEyJ`iA{qMlSg~@~_Ci[dOhaBl[v@fGoxBnzCwcAyEnoLfmFmx@?bm@a^`hCwjAr_DcrCrOw~@txBmhEpdAFv^yb@ptEuj@n`@yf@`tCwwEzwDgvAhs@eCx_@{a@pb@}y@ne@ceE||CyYccAytHfmFsjHqbAw^nfCm{@h@q@qwEnn@eFxHa~EtLkzAjn@gArL|Sb^mTvs@sJjJq_CoMyjByS}{@?i|@zQieAnj@aaAlHif@az@cMjk@esB"
                        ]
                    ]
                ]
            }
        },
        {
            "entidad": "28",
            "municipio": "37",
            "nombre": "SOTO LA MARINA",
            "location": {
                "type": "MultiPolygon",
                "coordinates": [
                    [
                        [
                            "odvlCfkwvQbjCxoAltCplBuvEruFkm@s^qzNtbP}tL}nAmsC~pCr@hbDu{IcyBgOAwVxW}RvCvIoUs\\i_@nQuHsEqOme@s\\k[bLiLr`@_QqPiCq\\sMiEvHiGJaRcOaFsOxCob@j_@ea@by@eu@uMoFwJpG}OcNiEup@an@tHbm@aKjp@cJqWeFkAgYvTsIiItV{HlCeQ_Gcg@iIyJ}u@vc@yHnd@gItJgQvFI{V}MeAwt@xrAeu@|qC_q@bOsL~b@aNgH_AsTkg@h_@qoAo@wAyfIkYiH{nQfqLwzBe{GvkAmJedDotEio@ja@qlCaeFspHrsE|j@x|AczClcC~Ujl@weB~|@kqAsaDslNcb^ce@ghAoYlHwYyIyJkMfDeDcGsOe]|RcWyUud@OqVn`@sR}EsOhIvMd`@cKj[{c@xOg^d[}JzA}[cCqXq_@eh@wPiJuIl\\m{@ty@eyAnxAeFbBkVfXwVTcJuEuDgv@iQoLbLgGiFgNhXet@sEcHsOo[rDmRoYmz@gAugB`^mKxA{}Aea@w@ib@cWiWgC{i@uGkJaPw@uL}Z{bAel@Zs|JqkAnEe_@shGhyGkt@ir@i~FkyL_ClBw}A}}AwCwAmnEmrDpxGuqAx`Cu]jNwVIcOnH_o@q_AcmBXsh@ksD_kC|d@sP{j@dAmdDugDh`AmOlg@csHqEnmAjzEeKnIiuUqhb@aCgOwGiD~DkEyHqCPqL{JHoBmNgQqKk@mk@_YgH~LeMy[sQeLiU}`Hiz^~hCh[hfRnzAhoCp[|}Gz_@lgH`SveIvb@nwVl_ArpDbHti@jGnd@_BlvIba@x`AmAxwDvIb`_@ia@uClKnXpJ`fAfHxeGzGzhD`N`}CxFnNmCrtKpk@b[iBxQnF~oDtQ~pGxTvjAfOv_@@dsO~q@l~@oA`qDnJt]nFz[wClVbFte@yF|NjEr~Au@Of]wg@lr@xShQmNxIV|Gr[rf@pAjh@rTtZuDzPnzErJ`BpgEaoF}_ApqBbyIzR`z@pPtN`IzSmE|JtEdJuD|MwXpCwF|TmlEwDyFdcDtiEvxDnA~n@o`@hHc]vk@_i@uH{\\bx@qYWcCtNfEzM?|l@yF|}@lsDxpAmCbbAmCvcA_O|GcuAwImGle@gWjB_k@xe@rAb_@}DbSrK`IaUzu@kSlOaCdSqIpJqJbFg_@}MoOpJmF|MbJn\\yA~Gu`@d_Aug@be@fUd|@zJhKhiAjRjl@|]gJdrH{mCzbBld@x\\t\\hEnHdGZlUyRlU?dGfFlFdXqPlL?jR|Zle@rNjYxV~QePtS`L`KyX`In@vb@cRr[tEjc@gGhItH~WlCdd@v\\nZflApa@xO|MtN{c@~uAtJjy@la@tGa]f}An_A~j@h[jbAt`Ghr@rX_vFqIse@rOmPf`Bhj@"
                        ]
                    ]
                ]
            }
        },
        {
            "entidad": "28",
            "municipio": "38",
            "nombre": "TAMPICO",
            "location": {
                "type": "MultiPolygon",
                "coordinates": [
                    [
                        [
                            "s_tfCh}ctQ~p@dCfGaA``@T`GjDrKfRdEt]iH|q@}FvTkNrk@qXpbAgd@rtBmKbHuP~Ag@H}O|C{QsDeVzLgJ~NgCv_@cN~U`GjZeMnCqn@wWgfAiM{d@`dAe|@bK_JfIg`@hfAm|@fhAeT{AcWgO{b@|]ah@jNsWfDo\\gNyI}wD_Ho`B`Ay_@`LspAtAeTLwDaBue@SmJy@yZkAsXvOsFQi`@Ao@g@oUxMkIdC_Bh[}KtG}AbHaBzKiChFoApNaAdPpDnCh@pB^rm@lKhJ`B`@\\|bA|DdGoYm@jZwD_@oBpNlCdCnJgHzCeBvLnDlZ`J~KdDvGbBbHpA`CiKvMSrIx@vAyKdL|ChCt@rOtCnX|CjJ[|VqBjFeMbGoNnAuCbGaNzAkDfD{HjDeIlK|DxBj@hB_JnBsJlNtDbE_PZqAzBwItE}PrSjEfGfAvBZ"
                        ]
                    ]
                ]
            }
        },
        {
            "entidad": "28",
            "municipio": "39",
            "nombre": "TULA",
            "location": {
                "type": "MultiPolygon",
                "coordinates": [
                    [
                        [
                            "qw`jC`tt~QfdClFl|AvJxhAsnBjxRexDnKrEbL~UpZj@xWwQrTk[fS{B|FrfBe@j`@eoAxgBysBvcB}[jHeo@|NobDnnCqdBpy@kz@nrAfgAb`Fb~BjxEdkA{v@qDj}AgO~f@tJ~g@zI`mBiMf}AlCli@pu@~h@g_@ny@bEtKuBnWq[f`@kPhtAt[|y@~c@jj@cYxlArDdPgTlK_Kbd@kg@hKq]pVkDd{@mbJmHot@jmCdVnOfXjAj\\`Nlr@tf@bVtZ_d@xoAs@bMvWzRcn@`f@miAlG{f@pSs@n]gFzGa@pkD}M``AdClq@gGfbAgmB`kEchAa@sxArrCkfCEyNfF}JI_P_KuzAz@c`D~Fk}ClPu_DfCeHfjMg_DlKevDeAvWyxBojFzp@a[aO`Qsx@tl@{g@nQuF`VcZlCuTqXiW{JjDa\\qGqR|E{P{^guBpZcu@kd@_Pil@qZiNoHyPuQeIu]w|BqOyA}HwMk@y_@vOyc@oh@mMg_ExiJo[e@}bCyAkg@|aIcx@_SuvCqsOooGjDaB{bIm_E}QzuAymCzlDu|Gr|Ha~@{fBylE|aB}nA{h@}iBoo@oGrHvq@woBpfH_{Hf]uOlo@ssDkeGviFsxA_vAguGftBkOjoAb[btA~Frq@aRjZi@z@coDYgnCqpDnDxEczBpaEyBue@qeBikLgJTsc@xA_bHzuDtQhSg~BlmFi}@bMgtApTeaCbSkAuKa{BpmEePngAgmChi@kJeBat@~_FcnL~k@k@gL~rAxcFra@b~BxmBzKtiDlfAq`@z|Bo}@vs@ltAhzHabDbBtk@tfF}yAnAbcAnl@~i@xs@dv@r|CzTcRnl@vr@cAtqJvpC"
                        ]
                    ]
                ]
            }
        },
        {
            "entidad": "28",
            "municipio": "40",
            "nombre": "VALLE HERMOSO",
            "location": {
                "type": "MultiPolygon",
                "coordinates": [
                    [
                        [
                            "qkb{ClcpsQ`w@@v_IRb_Cn|ElCzTkD~mOaA~aBkq@x@TjqAhq@Za@xaDeZ}@v@byCukGw@g@t{@qoBa@_@uyBemBp@q@rz@o~Ea@_@iz@yvAhAq@`{@_dCgAwDp~Co]R}FyuA{f@O_eA_@yw@QArzD{TYQgkBwiDf@wXFqOatA{o@cAxHqkAmH{GuZoDymAoc@uVs@_c@h_@uL|BwnAk@wsEsBmAwvCwmIcAHyh@uhDg@_qB[iyCc@|fA_`GlxCefFs@mNm_@ay@e[{p@p{@b@xbBitA|bCwoBnaAq~@df@uS|g@qrBb{BwZphIPvjCD~|LVflDFfpBDfwGL"
                        ]
                    ]
                ]
            }
        },
        {
            "entidad": "28",
            "municipio": "41",
            "nombre": "VICTORIA",
            "location": {
                "type": "MultiPolygon",
                "coordinates": [
                    [
                        [
                            "_wxmCzve|QijAp|@su@`fAyPxFy]oLyOfH}JdPf@tQt[p@eJpc@{]hw@l]|V?pGuXhg@_R~p@|OdhAeQfy@~HzYvMrJk_F`h@obAmNkdAdQu[iDsg@tBhdA`iDomF{Vl\\l|DumDH}eLXBgzBkeHrG`@ek@ijAvXcB`wAi@tc@o`EuN_~Efy@aYiN|AzX}z@fu@mNaFek@nQcY{Ged@mqCi[ce@qOeGwAse@_]i\\kCqt@we@yMlQky@kF}gAyiDsFe}LbbTkb@oyFyzA}jAkHnPwVkLyPqw@qNcLmH}[}Ui]iiAej@i\\sa@m_@aQsd@cBiQ_x@dPwa@k@cTyYq^_V}HoQc_@_b@mSsPap@cb@ut@a@uJjDyWd]os@uNit@lo@gJaHaX`aCedB`cA}o@~HbRsF`DlJxT~~@gc@mEoM|~@{TsCiZxh@kXeAqQxO{h@rR|e@p^yNrGyi@dVoJyHwWzjBgqAnbBwjApRvBpAub@~dB_Ln|A{gAnf@e^h_Amr@kp@{b@ffIq~HgCoEecAb~@qr@yaAjkAchAcJoU~TsTtxBqvB{v@kkBfh@_a@rh@nfAxWqb@~kAvpCjcH_uGlVcBdcB`JfmB|z@jDbLrZpIhLho@ji@doA{H~NnFziAn}@ve@kr@tNpNdSr@nOx`@n\\oJjNtYpb@xK}FzOlXt~@{s@hmBjaDvhAofA|dAca@zk@~k@mi@`Jf}Av{BflAap@~@ex@p{ApjB|A~oCrdA_GtFloBttHDbE|sBv`@pxCr|AjFiv@glBvrCcJtbFvaBea@jyBjEvU"
                        ]
                    ]
                ]
            }
        },
        {
            "entidad": "28",
            "municipio": "42",
            "nombre": "VILLAGRAN",
            "location": {
                "type": "MultiPolygon",
                "coordinates": [
                    [
                        [
                            "av|sC~to}QmEzo@}UrlDjgEnn@wBhb@we@za@Q|u@pErLeChy@pDjMmIpJo@rPf@xEtOzA{@bFfHzBtNrnBaFl`@oOjAjD`_@w^b@aMvl@zGpKkCzr@yQj[aExf@jC`\\nStKgGtq@aItBkOv{BrzA|l@oNvXpy@tv@kHtEvBtJ`]tJzEfI]rPuP~NpO`XXxq@uxG|oAeiFhbAmw@LqhDce@{jEy[nDoi@at@_]ic@w^wj@yGoMrBsFoEl@wSbh@ik@mQ}aAas@v[_Vz_@kIiUlJeGzP_f@uGsFgFc\\pKuq@{BuUrc@yt@j@yKoCkJqZsGcVe^sWq`BrLmRy_@iiAhg@qa@hDsPhl@iTbHaLvQom@nT{EpK}SoBwJhMsK}CuX_JmGaAsXi[}]c}Fk@cVtxG}{AqIvLotBzm@bD`JeoAocDinAc~@oVs~@tZwn@?kz@_K}wJl{@qYws@u|@gqDmc@?mMqI_g@gJcDaYxH{WoFkYpIaK{EoToHwLPaLaOoQ@{g@{JiVqVcPeJeTe[nGyN_LwZoZyR{H}Von@ma@qPgM{cDoYqr@aTeUgEtB{BuJcPkCaVeg@oSfAgPwO_Rl@yVmf@_OaHsRgCgLiSgs@uYnP}^lXzBjIoFbHfQnNuNlJbAxeEu`Ob{Fq}A}d@e|A~tP~c@fiBdCv@mKzLbD{HvTfTtJ|@lHfwA`@v}@rPj@kYxeCg|@uYi[zf@}\\vTeFnn@ze@teAk^tTpr@l]_Gdp@jdBnx@yE~oEzD~pDcDbAnv@`n@xZbfAtYz{FzdE~RrfGv^hxGy[r~Dp[lEcCnl@"
                        ]
                    ]
                ]
            }
        },
        {
            "entidad": "28",
            "municipio": "43",
            "nombre": "XICOTENCATL",
            "location": {
                "type": "MultiPolygon",
                "coordinates": [
                    [
                        [
                            "o|njC`}izQl{BbkL~bCeChB_aBrSkrAxpDhZghAtnA}K~@or@uOuExBzDpz@|[~`@r@xKaI|WcUvJyLfVSp^tKhn@oAzXcn@dDug@`OoUjZbJhe@mEja@bFhL}g@plAs[pg@xCbMf_@fZkQzmAgTfV}Khc@_s@nUi{@mR{j@`@yj@a`@oz@gPcj@fHwM`DcLuDkdAeEm{@mXqx@lDgk@yLiLgJi`@_}@kK{Byg@zCw_A~]}MWa^cSwt@|Ekb@kVaNlGs[_@wNnDe]mCgD~EjFrQ{F|N}b@~d@_TlH{NjPYrh@`I|]vAdg@}Trd@mNqEoDp`@cFnPtIhf@sSSCfGpLfLoXvp@kBxV_Y~PvE~VwShJzCnXqPBgZbRsJzZkNzH_IlSgWqAx@x[mFlSqRtSmRbHaJxo@gKxG{K}[kO`G{GxJ_ZgK{_@lIiTkLmTrC~Hh{@uI|H|AfPuHpNaFbDyL_Mkb@`CcT|Or@bUqFzGkLwG{QrCiLwJsQZgAdo@e]tWiKkD}JeRkf@~d@c`@jHyYqDuq@bd@gLmQoIpN_NxALmRkFuG`Hy}JU_h@wAcmGd@{b@}~@}fDy[sx@xfAsvC_UtA_Gu`BoWyt@eg@dbAcd@aiEvRgLllA{q@|n@q^hmAwjMvp@}iHgz@mNTiy@nRiJfq@`F`A_yCnzHRuAbi@zy@aLV`cBqGk@uEl{@`g@dDdHrjBbkAdJjFygBok@wFxIc{@wM}BzEuiBnnBhMr{DdWjpDdWtz@dGjGpKkJvAeArNhG|AcVbNtDvCuIfPrThPfi@_KrXvDnMb^t\\sBn@hUvfBbIjQwpBdsE~Yx`BtvH|r@`rD"
                        ]
                    ]
                ]
            }
        }
    ],
    "parametros": {
        "e": "28",
        "dl": "0",
        "df": "0",
        "m": "0",
        "s": "0",
        "l": "0",
        "mz": "0",
        "layer": "m",
        "db": "proceso",
        "schema": "suavecito,public",
        "geom": null,
        "padron": null
    }
}