{
    "status": {
        "key": "ok",
        "msg": "",
        "kex": ""
    },
    "municipio": [
        {
            "entidad": "3",
            "municipio": "1",
            "nombre": "COMONDU",
            "location": {
                "type": "MultiPolygon",
                "coordinates": [
                    [
                        [
                            "ocysCfquhTaAkLxGH|]xq@v_@hO_FpD{XcKqd@on@"
                        ]
                    ],
                    [
                        [
                            "qobtCr``iTd`@mY|q@zCfVmi@fm@{H~Ro_@|lAo}@fY_k@vm@{c@bQu@vb@yXdBcKcUkHqDmHpwAbYCvHqVlElYrLhSwUaHwFdi@ka@jd@`@fn@~Odk@|\\jb@bChW~Wl@jIx\\lFdw@sEnPhIkC~EsOm@ab@v^iYzAeX~^_]~Mqi@js@{i@d\\ur@pw@mgBleD_{DfkGsnFxfH}fAtwBcEhNlBxGaSp\\EtTeXbPcM|b@gEJsFjNd@dPi\\fk@cQ^m^b]eGlN~MtKu[fn@mp@r_@}n@`y@uc@f_CcaA|{BsIlx@wXh`@sFp_@c^uEgEwEpCuUyFsUel@oXcAkMrE_^|b@mkApFmu@oFucAzAalAwDqLfKkl@{Dym@fP{qBEuw@yPcy@lAqh@cJyuA~@sRhJ}Qbq@gm@}RgnArRuO`MjV_@`H_MzBdBzWdBpIfHqCdOeb@tZkX`v@id@vi@oFj_@m_@rB}f@jJkLn]dJ`^cNzNa_B|Lm[yB_k@zG}_Ap_@kw@jCoSruA{sBfPeHt^j@zTsV"
                        ]
                    ],
                    [
                        [
                            "ut~uCxuojTNqFbC?@hGcB`Bq@yB"
                        ]
                    ],
                    [
                        [
                            "ir_vC~_ojTp@yBvEo@pA~AsCpCgEgA"
                        ]
                    ],
                    [
                        [
                            "mrbvCdu_kTmOpS_M`Bn@eQtFiG~]yLwHtO"
                        ]
                    ],
                    [
                        [
                            "k`cvCf}pjTgByEzHs@sElG"
                        ]
                    ],
                    [
                        [
                            "eujvCx~ljTxImMji@gHmMlMwe@fH"
                        ]
                    ],
                    [
                        [
                            "{zgvC`wzjTtFeK@jJwFX"
                        ]
                    ],
                    [
                        [
                            "_hjvCjwzjTdFyBbMlY}LzEkFo\\"
                        ]
                    ],
                    [
                        [
                            "uwjvCdcnjTbCaE@hJeCgD"
                        ]
                    ],
                    [
                        [
                            "opjvCdpmjTfGaHtQl@sShZiEuR"
                        ]
                    ],
                    [
                        [
                            "gxpvChk~kTlKdAqA`E{HgG"
                        ]
                    ],
                    [
                        [
                            "utqvCdl~kTbDo@hFhMeG|HgCwU"
                        ]
                    ],
                    [
                        [
                            "snsvCfy{kTrDsLdCpIyH`B"
                        ]
                    ],
                    [
                        [
                            "watvCff|kTxH{EcE|KuBaE"
                        ]
                    ],
                    [
                        [
                            "ecuvCxm}kTz]ga@vB|QoO|KcQjA"
                        ]
                    ],
                    [
                        [
                            "kzwvCvplkThJuOtTgKtStBP`Egu@dR"
                        ]
                    ],
                    [
                        [
                            "mtwvC|ltkTbCqFxWbAmNdKoLwE"
                        ]
                    ],
                    [
                        [
                            "mnmvCp{ojT}LbEhIeNdEfAqAxE"
                        ]
                    ],
                    [
                        [
                            "gtnvClyojTeDiGtF}Np\\dDiJ~QkIhDkIgD"
                        ]
                    ],
                    [
                        [
                            "{_ovCr{zkTfHkGPjJyH_B"
                        ]
                    ],
                    [
                        [
                            "enovChb|kT`AgAvEfD?hDeE_BsAiD"
                        ]
                    ],
                    [
                        [
                            "owovCle|kTn@aEdChGuDgA"
                        ]
                    ],
                    [
                        [
                            "{wqvCr|dkThXaRdDxEsTfQ{G_E"
                        ]
                    ],
                    [
                        [
                            "o~}vC`jmkTgFo@zJyBbBfDwF@"
                        ]
                    ],
                    [
                        [
                            "cd`wCxhrkTdD{E~KjPeQoI"
                        ]
                    ],
                    [
                        [
                            "_~xvClhmkTzJ}KfGAqBbHqOzB"
                        ]
                    ],
                    [
                        [
                            "kqzvClplkThIkJlK|AbBpF{XZ"
                        ]
                    ],
                    [
                        [
                            "k|zvCpfukTvHoShVjC}L~KcRbB"
                        ]
                    ],
                    [
                        [
                            "g}|vChgwkTvI_RPzHiJbH"
                        ]
                    ],
                    [
                        [
                            "gc~xChggkTcByEfFiAjJxEMxEaNoC"
                        ]
                    ],
                    [
                        [
                            "{zfxCbcpkTfGcB|IhGyG`BkIgG"
                        ]
                    ],
                    [
                        [
                            "sakxCxmokT`Ol@`NxK{WcDgEcH"
                        ]
                    ],
                    [
                        [
                            "o{gxCn_pkThI{ExGxHcR}A"
                        ]
                    ],
                    [
                        [
                            "exhxCf~nkT`AcHtQhJwFpC_LwE"
                        ]
                    ],
                    [
                        [
                            "{gkxCvdokTjJAsDrCwDqC"
                        ]
                    ],
                    [
                        [
                            "q|zxChqhkTlKn@o@xE}IiG"
                        ]
                    ],
                    [
                        [
                            "gfbwCravkTNaEjZmGlIxNsEfQhGfDo@pFwSmFwP}W"
                        ]
                    ],
                    [
                        [
                            "u|cwCbwrkTbUw_@zVfGtC`HdEcExFpFpBsFhGvB_QpVo]xLeDyKgTzBs@qI"
                        ]
                    ],
                    [
                        [
                            "kzdwC`mtkTrEuLdCrLyI@"
                        ]
                    ],
                    [
                        [
                            "wvgwCvmskT`@iD|KYbCxEcQU"
                        ]
                    ],
                    [
                        [
                            "k}bwC~rjkTc^_NLeNpBcKnn@oZlFn_@a_@xIsChDjHvE`QuItDnChsAqNzq@tQtNhf@|WfMwJb[oL`B_j@sKuE|NvSCgWrV}p@wp@u^oRoM@eCcNiTwH"
                        ]
                    ],
                    [
                        [
                            "gqiwChwikTA}NdTgK~MhGzWEwInPuRtCsCjGnKhMcAsIdSkDdGuL@pIxGfAj[iQlXfMi[~a@yZrScj@aZc[m_@"
                        ]
                    ],
                    [
                        [
                            "wcjwCdqjkTmd@mb@tFkGfD`HvS|DvBx["
                        ]
                    ],
                    [
                        [
                            "m_lwCrcpkTrCyBxFhG@jJoK{N"
                        ]
                    ],
                    [
                        [
                            "eomwCrvhkTScK~LtBM`E}KjA"
                        ]
                    ],
                    [
                        [
                            "un}wC`vokTcMy^r_@}BhGjMdD{EvFfDi\\v\\mIwE"
                        ]
                    ],
                    [
                        [
                            "cq|wChylkTjZsS}NrVeExBgDyE"
                        ]
                    ],
                    [
                        [
                            "ao{wCncokTuAcKxGcEzHpF~NmGlJhMtRtB|ZwIxFvEtSsCb@~T~[rBPxHmZvCyZrVcE~QkJjAe^{Ze_@iPcMg]"
                        ]
                    ],
                    [
                        [
                            "mr{wC~umkTrOdAyHjDyGo@~@aE"
                        ]
                    ],
                    [
                        [
                            "as{wCd|lkTjJcEM|KgFpCuBkJ"
                        ]
                    ],
                    [
                        [
                            "{he{CjvakTcBsItFiKtb@yWpNu@rAzKyIpJyd@tKyHhK"
                        ]
                    ],
                    [
                        [
                            "cke{Cvn`kTs@oPlJbAdBvO_Lk@"
                        ]
                    ],
                    [
                        [
                            "qwszC~g_kTcAkJhGfGMfKwDcH"
                        ]
                    ],
                    [
                        [
                            "wzdzCx`akTNeHxFdAiG~E"
                        ]
                    ],
                    [
                        [
                            "ygfzCvlakTuCyEdQjCpPcIkLbOuPqB"
                        ]
                    ],
                    [
                        [
                            "ybvzCvobkTAmJdDvBcDtF"
                        ]
                    ],
                    [
                        [
                            "{nwzC~}~jT`BsChFfAcBhAgF@"
                        ]
                    ],
                    [
                        [
                            "mbxzC`b`kT~NsJq@sFhWmKsFnZkIfHwSaD"
                        ]
                    ],
                    [
                        [
                            "gxvzCnnakT{tA~l@eQsBaMoLr@jJiGeAmd@kRye@rHaMuEsAiGnNaVl[oH`C_\\|c@~YnNsJrNnLtHwYrRcVbMr_@qBfNtQw@rDoJ`MlCbQqD|HfWsCnJ"
                        ]
                    ],
                    [
                        [
                            "iv|zCbv_kTzFxHeExOoYkLcAcHxGeEbQ`A"
                        ]
                    ],
                    [
                        [
                            "_}`{Cbs`kTkIt@vVeYqBpPyH|E"
                        ]
                    ],
                    [
                        [
                            "cse{CxhbkTuBaEfF}ElJlC|LsJ`]sAzJqGdChGxGsCbFgUt]bJzG|QfGeE`Nh@dS}LfU{CpMlCcHhk@_ZbCgp@aFgp@vHgkA_K"
                        ]
                    ],
                    [
                        [
                            "i_g{ChyakTyGiGpCwLzf@cWxExUwVpQp@|KgScG"
                        ]
                    ],
                    [
                        [
                            "oag{Cnu`kTAqCrBAqBrC"
                        ]
                    ],
                    [
                        [
                            "kjg{C|j`kTsAsFdEsCrAjGeEzB"
                        ]
                    ],
                    [
                        [
                            "gxf{C~l`kT{GmPpOmNrAzHiI~U"
                        ]
                    ],
                    [
                        [
                            "cyj{C`_dkTth@mN|IlCxIgHtR_@zq@|Bho@dO~NiHthAnFhd@aDbcBpN~[wG`rAnLtk@lN`k@g@b`@{Jrz@UhHyInLtE|HdQwIj^wf@pe@iVzC{wA_a@igBySwbCeNgkAt@}bAwEk`E~GaoBrCo`B_GgeCnGqMaA{Sq_@bm@mFzb@~VhU~@~MoAlMgRrPiEvzAcCrN~J{s@dDp@pCdwAhC~dA_IdMuH"
                        ]
                    ],
                    [
                        [
                            "mog{ClfakTQaEhHu@wGvF"
                        ]
                    ],
                    [
                        [
                            "{yg{Cb{`kTfGsPvE`H_NpG"
                        ]
                    ],
                    [
                        [
                            "q`i{Cdv~jTyGeDrCmDxGdAbAzEwEp@"
                        ]
                    ],
                    [
                        [
                            "mai{Cnu_kTeAoPrNxNmLt@"
                        ]
                    ],
                    [
                        [
                            "kvh{Cv}`kTcA_OhGbKeEzB"
                        ]
                    ],
                    [
                        [
                            "{di{CpeakTN{E`B{ErA`EeEtF"
                        ]
                    ],
                    [
                        [
                            "}bi{Czj`kTrBgKjIj@_MzI"
                        ]
                    ],
                    [
                        [
                            "}qi{Ctq`kTa@wAZw@bCqANNhAbAa@bC[}@Ql@Pf@{@j@T}Ba@]qA`B"
                        ]
                    ],
                    [
                        [
                            "ori{Cj``kTeB{HfGm@dBrEgGtC"
                        ]
                    ],
                    [
                        [
                            "ik{{CjgdkT}Fu\\nBw\\bD_IrOh@~Tzq@sQ|LuShB"
                        ]
                    ],
                    [
                        [
                            "ukm{CnlakTzZme@vThCiNln@ia@iL"
                        ]
                    ],
                    [
                        [
                            "{yo{CpcbkTtJeo@jI}BxQp_@bk@|Ilc@~YkIfHuQ{DiWjB_KkMeEnG{p@gR"
                        ]
                    ],
                    [
                        [
                            "s{p{Cr~akTrFyi@vSpBvDlMcEhNgTnKwE_B"
                        ]
                    ],
                    [
                        [
                            "{wk{Cz{`kTAiDtDeE`@`BuElG"
                        ]
                    ],
                    [
                        [
                            "owj{Clw`kTrWmG~I~WdRfJzf@gPrYpe@kJtCaj@qDmcAxBs\\eFcBmJnPcYxErL~H}S"
                        ]
                    ],
                    [
                        [
                            "mhu{C~tckTlLeO~BoWbQwPnLhJpJpYzItBdRNt~@_\\hUrHxEtLlf@fLh~@zEmv@vEijAeQ{bAjAiWbSiVpA_g@uJ"
                        ]
                    ],
                    [
                        [
                            "sos{Cj}akTrp@{^~XrKm@lWsn@~WqYe]"
                        ]
                    ],
                    [
                        [
                            "qmtyCnpckTcA_B?aBPKNKbBAN`BNV?Vo@p@q@V"
                        ]
                    ],
                    [
                        [
                            "untyC~~bkT`BsFdC~AgFrC"
                        ]
                    ],
                    [
                        [
                            "s~tyC`yckT{F}QfGwLhGnFjE|a@aNwH"
                        ]
                    ],
                    [
                        [
                            "{~tyCpabkTtBbKeEjDeCqFtE}H"
                        ]
                    ],
                    [
                        [
                            "{~tyCpabkTUKSKi@Wa@yBq@aE^aBdCn@p@hD?fA?hAo@`B"
                        ]
                    ],
                    [
                        [
                            "cxsyCnudkTkG_HvR`DOrF{IuB"
                        ]
                    ],
                    [
                        [
                            "}ftyCvrbkTyFZyDaXdPrEqBpP"
                        ]
                    ],
                    [
                        [
                            "wowyCzffkTqAoCxLc@[`FkIm@"
                        ]
                    ],
                    [
                        [
                            "squyCtdekT`BsCzHfG}KsB"
                        ]
                    ],
                    [
                        [
                            "ieyyCxcekTyFaHpMPbEmG}Ha^tToQzd@lHjXmHhl@`i@pNE|IvKwFnGcByE_LSuo@lCbBjJo\\bCoYwDfDhGof@uJ"
                        ]
                    ],
                    [
                        [
                            "mlyyC|`bkTvGs@rAxEeErCeDyH"
                        ]
                    ],
                    [
                        [
                            "{szyCzxekTfFmGdEnCqB|HgFXsAyE"
                        ]
                    ],
                    [
                        [
                            "}|yyCjcckTnN_VnZbMwVzVT|^sO{DpBqP{EoV"
                        ]
                    ],
                    [
                        [
                            "_zyyCjpakTb@t_@iItCkF}QfFYhHsP"
                        ]
                    ],
                    [
                        [
                            "_x{yCxzfkTdHy\\vF{BrNfJeGlWqLuEyItC"
                        ]
                    ],
                    [
                        [
                            "_|byChagkTeCcHdF_O{G_E`B}KwQow@`FyGn[fJxH{EjWRfErIxGTbBdKaErY~Fru@eItYrArImYmCeP_XcPgG"
                        ]
                    ],
                    [
                        [
                            "c|byCl{akThIeBtBxH_MsE"
                        ]
                    ],
                    [
                        [
                            "c~byChxbkTcBgDvEuCdD`EyGzB"
                        ]
                    ],
                    [
                        [
                            "qpdyCpoekTpi@OoAfa@wFlDwxAkLa[cPlLcLpMvHhHeBtBrI~LzDxVkEtEgK"
                        ]
                    ],
                    [
                        [
                            "mocyC~bekT`@gAbBA`AxB?V_@VsA@q@o@a@q@"
                        ]
                    ],
                    [
                        [
                            "wadyCprckT`QqGoAnMqN}D"
                        ]
                    ],
                    [
                        [
                            "{tcyCtackTpAiAbBW`@fAcBxBqA@a@??aB"
                        ]
                    ],
                    [
                        [
                            "qbdyCpeekTpAkDdDvBwFr@"
                        ]
                    ],
                    [
                        [
                            "ojdyCnidkT|J[nKnLmWsK"
                        ]
                    ],
                    [
                        [
                            "medyCteckTzIuCNbEkJm@"
                        ]
                    ],
                    [
                        [
                            "ordyCtvbkTdDeH?zHeDU"
                        ]
                    ],
                    [
                        [
                            "oudyCpsckTeBoVzItB}@zXwDaE"
                        ]
                    ],
                    [
                        [
                            "_jeyClaekTdGwLdBbKkJdE?qC"
                        ]
                    ],
                    [
                        [
                            "wqdyCpfdkTQiArBaBPfAsBbB"
                        ]
                    ],
                    [
                        [
                            "{beyCxidkT`@YrCq@rBY`@W?xBcBXaA?eDU"
                        ]
                    ],
                    [
                        [
                            "yoauCjqvhTlKVsB`HbP`H|JVtEuRhV`KbQiDvT`QvEgAdC`HoNn\\xE~`@jJV@rO~NY`_@ya@dV_}@sa@~]oKcTnm@g|@vFvBlItX|LqCjq@pz@cD~]lKvBxVcN{G{NxGWvDtXnAsn@fF~Ab@rn@qVhgB`@bQjJiGwGlYuSdQmKWrCaEwEiJfFqItRiAoLiJwU`EtFwa@tDiA_@zKfFn@|L{NeBg`@iGwBcSjM}K?}Hgc@fWyd@kIiG}Kp@eSzHiI|ToAne@xE|T~MpLqPvXr@hM}YzHo|@fp@sDdQuS`HgF~WlJ~A`BeTlLqCMlVnOsIvTq@gFcQbSsIcCjJlKYo@rIhHiArDuRvb@TjIqC`BkPfF?nJdy@xUpOrNt[`AhMwU|NvDpLrO`H`@jSgKv}@kGyKoBdZ_KyNaO_BqQ~WjGlYgFjMzHxKdToVgFqFpByH~LfAfDd]sEv^fEzNo^fZwFtU__@hZcCzNwUbKsQ@qMgJmWyj@pB}ZeE?yG`B`@bQq{@lAyv@th@mM|T_MeAkH{KuItq@lJpLtTyBlLkMnAoYhIkP`o@}a@rn@kDMbNzJnCr[tg@jW`KtSaB|x@kZlKfAvGeQhGhJp`@y^rP~AbEw^fWya@tb@eHdE{KqNaT~@{NnNaBnNmSz]khAxIcp@xIiAzEpk@{Lrh@nLbZtB~]eWzm@}BvfAiHXJ{m@yHp@sCbQtCzKeV`d@|[}N`AxHxGvBjK}TxFq@wHp_@iHhDPrUhUnIjh@uIfEhJibA~Ha]}GeyBhBzKo\\sAiJih@zg@tBrLrn@tHxGqF~dBsGnNnCRtUc_@bHa|@DmhDo]ovA\\isA|XoeDplA_eClg@soAtr@a_BtnAkjDvlDyfBxtAarApuAknAleBqOlJw`@cZNaE`Nl@sAgDfV}EiHwB`Q_Uro@gKpb@_e@|MoYgEcN{Lh]gWpViGo@~]c[wDwEgaA~EyHbH`OYmM|NyHhDeCyHoO~QxFpIao@|[cT`^bAjMm~AphBae@`dAon@zX}]l]jHzNmi@fHiG{Kc_@kC}Y|H{M`^vBxa@cEtOiTkYcOoC{J`Bsc@v_@a]uBwt@zLa@hGkbAmRm]d[{HiJoM_BqwA{@_NbEyKfTeRXaClM~NsFhGnCxJoSvUwI|XfDxIkD|h@h@xb@~MbSoSpy@zJxg@yLnL~AzGtXjXCrQ{EvFsIwAgZvVqS`OiDpKva@xHnCpp@ye@~NiWcAiGjJsFp]~JfDbNzi@cXfHmMt_AmQfg@{[p\\bAlL{Exe@tEdE{K{GsL_[eGrCcKvTeEpKv^nNiA|I`Kvc@tEuInr@iBlnAcDxBwRaNyYxUeCiGeDrFhEbQoMbErNhMiJtRmLrC{Tu^qPjJsPwH{JdK?pFpOTr@xEaOzEdAf]zH~AxElY~LiDkHyEyEsRuEViCw[rOTn@aKrRmJbOrXlJ~ApQ}HjK}NJ{g@fHaEtOrXqBtLlIpLfIiZfGnCqF~m@UntA~QbrA{N|d@mXm@qNyNeAuUhFrLhHTrDuOcM_a@kjAfn@qSr\\q\\sBpBmPoNjDkLnV[bd@uk@kb@cq@tV_`@jZzIvEoArIoLbBsj@oh@yA}s@tFsFo@rLzFzKxH|AtBjMxGn@~Lq@fGcH~AoVkK~QiI`BySqOcA{NoLqFcThQsOwBtDiG}KW_OnPTx^qk@i@yf@vIjInC`_@}E{ZxOyI~T{h@`LkKjJyLtb@mJyKuYy`ALsL~]oMdFeN}GgZhIkJ|GdWn[~JvGuLbRkDrBkJyEkPbSuFuD_EiG_Bmj@rP@hJhGnCgGjDePsUm[lJu_@eGcUpSxXeHiKxXaPbEk\\l]tCvEzJkJrRsCfXwe@dBfZwGhDvEvBaDb^dM`j@eFtLeDo@iFaKpA{HmJ@uFdQzIq@|IrL|Kl@lVl\\|JfDba@oD`AqCqOUjMyXjh@wIrt@gt@fr@qDdDxEk_@xn@bCpCgVjDeDrFwFgAn@kJgVtFfF?_AbKfHcEzGrOgV~KoA|QyHhAdD`H~L{BtEkJeByHhx@}e@fIi]jLeKaC|QlVt[bRmJnh@tKzhA{\\to@_Cjy@eR~NeN}IuRjJyBjLx_Bxv@rbBjc@ra@vlA`SrA`E{KrCax@{Jo[gPg_@k_@aeAmXcAcT~Ms@nAmSaPlGeHp\\kJoC{Zt_@sD`HhDlVuElMizAz_A_]l@u[tOuKhZoKdD}StYob@zrAtb@bMbF}JaGqF`HyJvMjBlBuMnCmBlC{k@`AqK~]mk@lGiCnAdNpG}CfGaCgNpNvA|P~TaTmD}LxJjC_@}Cb@kQ^f\\iIhn@tDjJuJpKyT|[qYxPqD`N~Otf@mBhE}Xqg@kb@tFo]iQiAvNuFpByDwWfHkTl@q[dA`EbCsXjGcCs@dOxPcWcImBtCaM{BsLxQgJ|AkWdRi@pRaPrj@w`AkM{GsQnT_Ea@kHcXgIe@}ApFxVnd@{EfD_@xWqe@hR}Nx^{z@dJcQuByKxXjGhMo~Agq@id@kF}\\tYeFbHjI|AyXbXqi@wWk\\jWxDdTuChD{FuUgFo@gHlJtAbQyGp@cDzHsOmFcElPhHkD`N|ArE{HhGhDdD{EyEuRpByHdOrXfHyBrBsIyEsL`QmJo@zKvEvBn\\RlH|WqR~NwH`UmMtL_}@nTwb@\\gXzRgUjD_[uKiScT~@mM`N`K`j@bJ^yE}IuBiFkMwUzBeQeGsSdH}p@uj@qOwEi_@wd@NyHhUfJuAcKs]wNtF_UcN}TrIaq@r[dZt@dW|Rim@yW|BkVcTwTSs@cKgc@lAsDrFjUt^pPoPwH`XtMhc@zHfGqCpYrL~`@gFzByn@_p@y`AqKdCrLtDq@kNz[dUwLfDlVjHfDiY|Xmy@bIsRxO}ZeDwOu[lOc[RbNjk@_\\pSmZwEiJcTxR_K{NpVew@i_@wd@QeT{JzEqA|NlVl\\{KlJ_U~z@cSfN}KXyGiGrEeQhXoJ|A}d@wFoCqAjG{H?gSqOfTTnPiQpCgWsl@sEo_@jTaClMnM|AhFrIsD~TlXpOgMnl@aUpf@nNkDbBhG`RyOfDzHiJnShTpLbAjMi_AcS_Np@yc@oOsZqh@jLmMbQ{BAkGyl@wm@kKzBPrLtBnCtFsIr[bZuDlJ}^rVa|@lK_OfNaPZme@cZcn@qBoLoF|Dnn@mFlAj@|[hHhGhHuIpCcKwCgWdETrBaHh`@lb@|ZRpk@|MtAhGcc@dX{TqOaD|KdEq@bB`HkJjA{GsLm@fTrPdA{[d[tC`EdSeEL{Hn^sSr@bKtEYhKiZb@bKhU~JhIcHlKnIf\\ds@npAde@|VtX`N|DtSsCtVaRzc@lOfLoi@hHT~JdT|YdDgDeNuEUl@eQzJq@hI}KpLxN_AtRvH}KvDzHnMmDlr@rd@`Zt^tUqSqDvR`RoJdQ~GfDbKj^qc@fe@aIhGTt@`^zHxEvc@yFtCpFzKkGhEzN`RaR|Cpx@pRkZkF{NnMuIfG~Aq@kJ}X}GnAsI~\\yLzWvKjX}Ep^zDlh@gBrj@nXqAzHaNgGaCbHlJxNnMdAbc@{Udq@{FjU`QrSgNlIjP~i@Nsc@fa@ieAxMqP|Ked@xIaSrYiUmFdHgTyF{KeFbHeOaTca@nGkTeZgBo\\eFrF}@`^wHbHga@{D~PyXoMm@eVnPeEzEzHvBqArIfa@bG@bNvEn@rEsIfb@oAtPbQoMbHhEjMwHnSyIbEp@`EjIq@rWgd@~Wb]qD~Tx~@zYvF{H~MfD~`@yb@lJl@tCxE_NzBcDbHbDiAvChGsDrLvCfWpDiZjIl@dIy[fT[bAjMwi@to@yi@~Ukw@tMwSeGq^|EcDrF~[bAmNnSyWnGsQoFo\\fBcN{TOpFkKrCkHyE}FeZzf@gBrRwIAyH{WB_KkSmWqRiEeTfHeQ_h@_QmLrCfHuLhIiAmIcT{HgDeGlPyW~KjWj@_PrVrQuCjEv[dPjPcBhDq[iP_j@{JaLkSLsLmMnMb@`HkJzEy`@s^qO@qQfKwSoIJuOeEoC}KtIvBtOqMiGeCqIgS_Hs`@QyItIyo@_WsDbH{t@jBiJdKnL~JwGdHnKfJwH|HgTBuAeTgFV}B~g@oOvOP`HzY_IfAhZuErLyYpMqNZmIyKgCoYySiMdEcEvTl@fGcH`AkGqL{QrEuLm\\`LaBzHuEXuBkG~S_e@hFfD`CqFnLTrFoSmJcN_A|NuU`OkI@_S~d@~Qf|@`O`K|F~]ql@yGmLdHqOU}V{W}^w`AjQms@lBue@_JyNvGoPeB}N_ZoOa_@`L{Nnc@kJWobCa`BiyAgk@sBkJ_MrCaNyN_[uEwH|N_NUc@iGi_A}VaOm@g]ns@aLyNaPwBiTiPwAy[kKjD{TyN}MrF~KhJcCjDkI_Em[|EuPaKaRpPKxUlIfZaEnShDnY_O`O_A|QfG{EzEfT~M|AjTjSlI~W}MzEs|@rAqNgD}[hHqNwEu@oS_OUl@{KgFaEsDnMlHbQ_MzBwRsRbA~QdOxNe`@uHguAmw@`BiDxc@lI`o@qW~AmJgGtFyFsIqBjGm[`Ln@wRgSiMcJse@aDjJtAz[xErLxHAeu@d_@lByh@aRjQwE_BeErFlKtBvFkGrAxEgGfYqCtDAeQqM_EeEpCnK`HaCjJ~LbNodAuWso@bFyTgJpAuLmLzEhL{XxT`KzJcBlB_e@iGoF`RiQtE_LuCm@iZ|[xBz[{GyElGvXa[yQwHdH_BxUuCWrC}HoM}AuFxRcdA_p@odAmXeCkMeTrC{d@sEs^uH}JkM}GeTpVau@uBiD}Qv_@JeQbDuLzZ{LxK_b@gi@kbAq_@cvAgQy[~Cof@yMn`@~Uhs@zDth@b~@ndBcFnPyY~PmKg~@nCl^sFno@cHxZdBdNwe@hAaLaIegAyn@uoAjLiU}AoZqOwDeNzJVfRbTfTs@bImp@wDyH~Cga@xKu\\kIoC}JeArAhGe[ps@{ZdUnMT`MtUbPnCtBbKkJp@kc@s[gGhA_@bKdCdN`NhJsz@{J~R{k@cOwXxAiz@yGgDyD_UaM}QvGmJpPAhFxH`N|AuAaHpPiQ{UqIyHjDfE`EiI@{S_[uS|EqJgH_r@bCsCnMnGlc@yb@eFlAsYkc@eVizAiI}KfEoNvSiIbB{T{J{LdUoZlEtF{RuNcg@u~@`UoaAc[q]xMuCoCdEwIwFB_NrP~@oPoLoI}JlAmM|RgUjEuR|OeByXgGtFah@aVs_@jOwFfKBvRn]oK|HnFeThUzGlSec@vWin@wVhZuj@_LsOwEZgDaHiIzBm\\z`@uDo@`CqSyFgGoKBePqRsPi@h_@``@t@|[`K`a@aBrF}WMsC|Eva@`@lHdQuDfKoMfEez@iQe|@{EbFcRiHSmMzOaCjTmJcAeQqObEoJkb@sd@Je^ol@t[qA~KxEjMxUaC`AxEig@pUwk@sW{`A_BrB}HtSsGjLoT|JCdSwP`]lB|KqJ|@{XmJwEe`@lBkHcQaO~BeCiGrDoJgFUkg@~PoLmC{WjEyc@y@{P|bA|Il@bE{R|JfG~MaFwJr`@wDgDfD|NhS~M}LxIgjAeD}Yz@kJnGqNeDyDaKxJge@uI{aAwDyEsGz_@_Lt@@fQuD}AgLwhAvG{BoMmCwC{KuAiTrKusAcJk`AtGw\\iRaa@\\{UuDnJeEUcg@qq@cw@gXP`Eph@jUsy@oJv`@zPzc@|F~L`Kdg@~_AsC|EqYob@}JSjUrXxPza@oGrsAkI}AdN|w@{DlgAtZ`j@tLdg@_AbU_NvCfEpIqPpTa[{McDjDhH~D@jJaO^ek@cYrAjJhT|J{e@{Co[vJgk@oa@wQ{WoTat@vV{S|InF`@bHnL_CvExH}LdOxCjZ{I~ErNtHlKmAeOmYrDqMfDlMfGoGvEnCxd@_Q{HuE|Omk@kFyKsQ{AsPhEaBpPmL~BSuYyScGaQlNdCdKyHlD_LaKsPv@kJxIsCtIdT}LxGdAuGfXhDz^eSjEoLk@kGaKtD{OePqOlAw_@y`@mUcQt@yI~UyUwAeCqFyIdU}VgSg`@yJqn@n\\uPiPcOkCyI`I~Trx@gGrP[n]yHfEaMoFvGeUs@aRwPwN_ZyDxKwf@}JwEoLi@aOhHeVn[@lMkJdBe[e`@bD_L_LkMib@{PkHk@eUlXqdAmMoLgGsl@yCgc@lLb@n]pMdG_]bPuSbFoGmm@aMiLnInb@kVrKeToCgBga@_LuEo]`MqPnQsDzOwShB}HkMiQkDfFm`@oPhIsDz[iTeJ_MlAgFfHhDl]uFhKq^|PeQ}GoLlAeHfUmJdBcDxLq_@zMe`@vD{LbYmYzCwRcDkHqIaG{hA`C}ExQ~ZjW~@bC}EiFaHwS_AgC{U`Z~PlKwCpR}YeQiP{`ApR`EdKcNzNpBdHyGfAwYgBaBkDrOaNqBsCiVhMeZsJyT|QsDiAvC_OdRiMwg@`Geg@qD{VjS|AfNzIuBhm@lHxF{HzPjNvUgGxZvC@vo@k]w@{YlFmXdTkj@lLim@gI}KjJbTeDhLpM|^{A``@uHzt@q[|b@jHkZ~J~UtPnk@}MxKjDfD{Hla@bFg@xUyyJvHq~Dlk@kv@bZiKkAqk@bZwC~NgT`Ka[u]cHqpAcG_IYha@vJdeAjTh[}LxEiRhZgV~Gm_@Gc_BrZojBfe@_zArj@cl@p_@olAtWe~@`g@erBz_@sQfG{MkAwq@kb@sG_LMgNzi@ueAt@qPwH_IpCdHkt@zaB~CbRjOhNrj@tWusCvb@mj@~M{bBzs@o}Ad\\ir@za@wN|[aKhFeSxVyQjDwfA``Amv@`a@qrAfpA_Sjt@qbApoAim@p}BmNkAqk@a`@_R_FeUdAck@iR_OvBbEtFoLpFyz@bGoQeEm\\fG}e@mX{]_FrWpJvLdRnPfH`v@`CdgAoEpgAhIvXnG|Vt`@oEeXxHkGvd@lx@pUrMsI~k@}u@~g@iUrYuQbKafBzCucDdo@coCpt@wnDzsA{|CrkBmnAxuAyt@xe@iWgNpAap@cEwIy\\_F|QrMbEvLg@pZM_I_UiXrd@zjAavAtlA}gBfhCo`B|nGlBnlAxShg@pXfRbN~@`SgJpk@b@za@l^l]nrAyClW}K|Koc@hhAel@vcAoj@|h@{c@br@{Xdx@{a@pu@qs@zvBmWs]kZe}AiUkTsRjAsC`LnO_F~Wfe@|XtrBtUkKcFlQkn@pe@ij@|eBco@buAwHdEgCsPqNwB{z@~IfD|Hpq@}I|IdKen@x{@kf@piAuQbnA[zOz`@do@e@fcAxNrj@mObVmo@rQgaAf~@}p@f`@{uA~lAsHxV{^p[{mAzjBiQ|m@{}@bcBc_@r_AeY`Z}_@vMeI~RkIwBxc@yx@nNcB~u@}pBbn@qcA\\aL{LnGk`AlyBg]~c@TzOaRlKw]vd@oxGonx@cfCcf\\{{C{_a@ieDkme@ccDmkd@vlf@i}Dpx|@azHffKc`AdcUycB|~b@qjDtoCyT|bOwwX`eGabLhPuZhfU{{`@u{Ci`KwrFwsQdqDmeHb{OoiEhbGo|BhaN_iF}DstCfHpL|KlChf@uQ~y@}Grn@qUlg@{s@eE_XjIxH|w@g]jv@yQzW}b@xVoQbQjCfHtUzZhIp|@iMxW`DxqAcU~aBiwApYgqAlLj@rQkKdDgNnj@gFlh@g\\jw@oLlYkKfFuItT~@xd@_MdSpH~SaB`rFbxKfgFdeKhpMhoXvcNjkXb_Ufkd@zgGfdMnnSn`b@"
                        ]
                    ],
                    [
                        [
                            "mxlvCp|wkTjNa[_Ch]dAhMhHhGhGYtW{Xs@cNwGzHePsUlq@y{@{Mp\\vRxQtIse@nKfJ{J|KhCv[tScB{IwByDsRxI_OwPkV~D{d@dEqCnFzj@nNmGzhAisA|P|MqBjJnJzT|KnCjYoDz`AwkAbxAiwA|r@{dAr`@qMrn@oAxg@kQdEn@aCxEyVlGuEbKd`AkHkHaKfTeB|o@{n@sa@xOjJ}Kxi@mW~x@qG|tBd_B`j@tQhF~DsHre@lZdG}\\fKrBhGhIeHzXkAbCqF}IaH}YkChK_Xrw@fb@rr@wV`m@iEvWgTvb@yfBvn@}yAzMwRdb@_OptAanArb@qPxYq\\u@ic@v`AfCtf@_k@~nAop@ze@]~Z~Ml]yUeKjl@dBzTmMfTvDxHuWbd@tBnFoPpY@rRsy@ttAwGhAuPgJ_z@hBq|@lNy{@dt@mjAtf@_Sx^ww@|k@qRx[iAds@eGvXiWdEiJrLgeAla@oAzKwS}AmMbH}VfiAoPvRiW|BaMiPav@}\\}Yr@kJoF}FeZ|NiZeBkPfZk`@y_@me@mpAa_@_dBqGg}BxQyg@bOsqAjq@{fDnlDizAd_Dug@feCmG|fA`EraAtMzZR|NjTz]_ApFmt@wJfDfDqClPaSzUct@z_@tDvBnP_OzXgH~c@{h@b^zG~\\gHvq@nE|j@}Lfc@xAxIsF|g@xDoc@pi@uGvUydBt^g[n`@iMr_@gh@h[oFdm@}a@jj@gp@_JsNgJwU\\kCi`@yFiJ_JmY{TgPqnBgm@whAkg@_tFwcB{f@iI{aFsdBkq@g\\smC{j@{`G_eBqsK_mCyc@D{~D{_Ao{MijCeqGw{@oaHgJeNa[`A{ElInVbCaEiE_RcXwq@zKaOdS{B|M_LrPRfHuItSeEzzCrLb|AgSze@dJheBv|@dlDnu@doBtbAjoAd_@bwAnQ`l@~@xc@vNht@{C`LtRrm@nBhGpFxeAcPvF{Hpl@f@vVeEeGtLtN~ZfGTpA{KgEcHvFo@hKyRzI|A~kBft@k@pYrCo@b@tRvEvBnOqPpCoSp_@yIbf@kg@|JtBzMqSd~@IPhGbb@iKrP~GvLa@r\\eW~\\yLtCpIcHlc@|Kl@rSoJvSnFrUae@zYeEjLgN|Tl\\eIdd@jAl|@fg@~eAzVnLvMbg@fGsCkG{N~@}NvF`Etq@}LvS|DbCiAgE_E|[_F|HjPdGaUhGnChXuChlAq`Adi@iq@xp@dSlHrLlLkAnMfGFlf@pc@q`@|W`Qb@`Kw\\p|@sDxBgDaKcc@f[_NgDcCbHsQbBuDgDkKtIcKqb@xGfDjK}HjMqYwDqFmNvOuRgJ|B}d@oOhQeQoIeTjAyKpVfDtRoB|Qb^nOuH`UiWfHzd@lOfcAkUf~AsEzK{EpT}^pE}a@pOkDzIxH|JcBdUwLuCqFvFq@|XnLm@lPeD?vQ|WjEdW~YfMcp@jNx@hs@~L|DxIeKvTsC`J|]hV~J|HrOxErOoAzNdCpCrCkDtBxEiHtI_LiJoMZnKvHsUjTtVyLhEzKtFmJpKjSrSuFlFlYyW~HdBbK`BcHxFvEtGkJo@xEnLvHtDqCpNnFzKoPxFnFiJnS}A~W{LfNvDtR`MlFeHb[tBnFhKuLpBmSiSaNL{NvFsC]|NfFAv@_t@lKTAkJcLu[kKp@eF~Q{IeAoKcQ|Cgm@tDnC_BvU|HxHbDyBcIox@pMvKpOkAtEiDaNmCAuOj[aR|fAgCbArIiLpYtBxH}NzXwHrIiVk@bNlY}ZcAxB`a@tb@aInPiQyRqRzIqCxLqSr`@iKpAqFaMaNlNuIuPyKp@aErQ~DdTwIiGqIuDrFNcHxq@aqA"
                        ]
                    ],
                    [
                        [
                            "oxhyCl}dkTpAsIrCl@qCpPsAkG"
                        ]
                    ],
                    [
                        [
                            "}ujyCzagkTxH{RGsl@vn@vFd@bXiHlGmYrAcEtY}KdBuBiG"
                        ]
                    ],
                    [
                        [
                            "uojyCdkckTbDeEo@dKsB_E"
                        ]
                    ],
                    [
                        [
                            "grjyCpsckTuChAs@}NhErL"
                        ]
                    ],
                    [
                        [
                            "c|jyCb~fkTcAqFgFZ|MuPoLkCn@wLlJj@xElPyJtV"
                        ]
                    ],
                    [
                        [
                            "cdkyChnekTyC_UbN~GdChJoMt@"
                        ]
                    ],
                    [
                        [
                            "ijmyCdidkTnBo]lXfCqA~NwVnNsAgD"
                        ]
                    ],
                    [
                        [
                            "cglyCp|ckTlLmTrQNjG`Hua@bPwDgD"
                        ]
                    ],
                    [
                        [
                            "yykyCdifkTrDkWbAnSwFzB"
                        ]
                    ],
                    [
                        [
                            "snmyC~|fkTx@tAU\\}@s@X_A"
                        ]
                    ],
                    [
                        [
                            "elmyCbyfkTc@Va@FmA}@xAu@p@GZ|@S\\"
                        ]
                    ],
                    [
                        [
                            "cykyCtmgkTkWjEmJuHyHvIsAuOff@e`@nUrn@}JlAq@sF"
                        ]
                    ],
                    [
                        [
                            "}kmyCv|fkTbCWFd@Mf@aBN[eA"
                        ]
                    ],
                    [
                        [
                            "kueyC`pekTrBcEvEdAkI|B"
                        ]
                    ],
                    [
                        [
                            "{afyChfekTvIkd@lJnIuEtIbAtLsPnA"
                        ]
                    ],
                    [
                        [
                            "mxgyCbpdkT`OsMM~NaOnDL{E"
                        ]
                    ],
                    [
                        [
                            "c|gyCbygkTNsFvDfDgEjA"
                        ]
                    ],
                    [
                        [
                            "iwfyCtvckT`RiUvDfAcDtLuRjE"
                        ]
                    ],
                    [
                        [
                            "infyC~jekT`@o@NyBp@yBn@q@`@n@PxBqAbEq@VcAo@"
                        ]
                    ],
                    [
                        [
                            "stfyCxudkTxGCMjGkGgG"
                        ]
                    ],
                    [
                        [
                            "kwfyCldckTs@uLfG{BxE`KgFlGeE}A"
                        ]
                    ],
                    [
                        [
                            "exfyCncekTbCyBtBpFyFwB"
                        ]
                    ],
                    [
                        [
                            "{{fyCnmdkTzImDjIdDcQ`FcByE"
                        ]
                    ],
                    [
                        [
                            "yjfyC|ddkTuQyAtEuF~JnI"
                        ]
                    ],
                    [
                        [
                            "ybgyC~_ckTtFyLo@vLeE@"
                        ]
                    ],
                    [
                        [
                            "algyCbvckTtEwLxHkAcDfNkJZ"
                        ]
                    ],
                    [
                        [
                            "_hnyCphgkT?gAOW^Yp@Wp@n@`@fAaAXsA?"
                        ]
                    ],
                    [
                        [
                            "gfoyCj~ekTpN`Ape@~_@oAzUkIm@yDwXqMsB{ScZ"
                        ]
                    ],
                    [
                        [
                            "umnyC`dgkT_AvLmIqLlKE"
                        ]
                    ],
                    [
                        [
                            "mnoyCxvfkT_KgJjHCxRpUePeJ"
                        ]
                    ],
                    [
                        [
                            "}cpyCf}dkTr^JtSuM|b@~\\vFC|\\y`@rMjSeGlW{h@j\\kG}DlNaYcQnDmKmIsk@NkUoR"
                        ]
                    ],
                    [
                        [
                            "y~nyCrjckTtTiUsDrVyGzBgFeD"
                        ]
                    ],
                    [
                        [
                            "ippyCpiekThIeB|HhJ_Lt@gFyH"
                        ]
                    ],
                    [
                        [
                            "}zoyCbtbkTrO|GqCvLaKuU"
                        ]
                    ],
                    [
                        [
                            "wbpyCrobkTrBq@`AWp@?p@vBsB@_@`Ba@WcByB"
                        ]
                    ],
                    [
                        [
                            "aqpyC|{ckTdFoJr@`EyGlD"
                        ]
                    ],
                    [
                        [
                            "ospyCvcakTbDuFvC`HeCrCuD_E"
                        ]
                    ],
                    [
                        [
                            "cnpyCfnbkTrBaBfEhG{HgD"
                        ]
                    ],
                    [
                        [
                            "kipyCfackTdEdAqBrFmKk@^kGxGA"
                        ]
                    ],
                    [
                        [
                            "czazCbafkTxDpOhIeE}HqYns@r`@t{@gArAjJzGtBvFeEvwAvT|J[rEuVzJgHtRkHxFtBnNyIvSbJ|FpYbRaFtCnC|LsJx~@hAjKoThGl@@|KdEvBlYgLeF`R|[kR~Lj@|p@vVt]``@fgAj`@dhBwNxFTrLt[gDkMpN|DgEyEbCeK~X~Vi]paAca@jRum@aIgy@m]{q@kNmvEgl@yuE}`@s{DsRexEya@igFw@s\\aJbR}O|~AdF|KcLxGAcCxB|L_Fjc@fLze@e@rsAzJnMmAxXcSvb@_DfSbG|KgE~J`KlKbAoBjTn^gV~KlFqOhEo@rFbQw@eEfHhHaB"
                        ]
                    ],
                    [
                        [
                            "czpyCj{akTzJ}E`@zK}K}D"
                        ]
                    ],
                    [
                        [
                            "usqyCludkTzKgXfq@DfDnFo^vW{c@eF"
                        ]
                    ],
                    [
                        [
                            "yaqyChrbkTdEmGdD`HkJS"
                        ]
                    ],
                    [
                        [
                            "ebqyCfrckTxIgHoAvOiGoF"
                        ]
                    ],
                    [
                        [
                            "mcqyCzcbkT`ByBtBfDwEm@"
                        ]
                    ],
                    [
                        [
                            "gjqyCfsakTdD[cBjDaAoC"
                        ]
                    ],
                    [
                        [
                            "ydtyCl`ckT|Oqg@tTqTtOv[eGzRzXeIlVvTqq@tx@{l@wv@"
                        ]
                    ]
                ]
            }
        },
        {
            "entidad": "3",
            "municipio": "3",
            "nombre": "LA PAZ",
            "location": {
                "type": "MultiPolygon",
                "coordinates": [
                    [
                        [
                            "yexsCrp|gTxYogAp@yZza@qzAznBomFfLyn@vKcDdKzEqLhbAeaA``Ca`AvyDk[hy@v@rl@{J`\\eQn}At@tzCtIj}@_Cjk@tHnV`Erq@fUnt@|QzrBgIbtAc_@yMae@o_@_a@mo@gAkR~Xgd@Omg@sD}Xg_@ox@oHu^pFw~BqCes@jLafAiKi`A|CeTlTsGfJwPvRmt@"
                        ]
                    ],
                    [
                        [
                            "c_itCndw`TaAqFlKgGnMzEuB`HeTC"
                        ]
                    ],
                    [
                        [
                            "ixctCbui`TfnA{U~PfNtHva@nQh]hZ`X`kALaWtv@f_@doAiGvN_]]eBpL_OcBgHsLgUmDcHg`@_MdDrFva@kE|]sPbDwx@yk@qPCeRtN}@`~A`PZdGdWsNhVca@wFyUbG{i@wC}L}Kt@}`@_VsjAmMkGsMr^~Cxp@wDhJsx@agArIjr@gClb@cOfPaP{EuJsk@cToYsOdJ`Sji@~WdrAyc@jLeRvNeSCwY{^iFbT}h@nE}\\~w@yH_BwCrb@yT|^}Kl@dCg[cSwYkFvm@sQl@sVifBeSsWqb@ioAhFki@bPwSvE_\\|Ws\\zGoW~ZuYjpAud@fj@{hARe]{Qy`Agj@ak@uFcNlI_Khg@^`b@bXn[iCnOtIzY{AxSmO|Tum@|cBcKnPlJpExg@zOpe@dVxUrb@xOdb@~B"
                        ]
                    ],
                    [
                        [
                            "u{itCtxw`TMkMlKeAdGlMeSbA"
                        ]
                    ],
                    [
                        [
                            "cxmtCdgz`TyIkGvEaQp`@xLa@hMhK|TcAxKaQq@qS{a@"
                        ]
                    ],
                    [
                        [
                            "_owtC~l{`TuFaVeRgDyHuKwH}d@iXeg@oL?pBrh@iHrKNbMn]`YeCpQrCbPtSfa@pBxSgFjL}YgGuRfUyHkLo@_\\ca@kr@wFgAcAd^mKjLwTjCeDtH~\\x\\eChU{HdAco@}V}k@_bAaOwB_N|DwT_E{Kof@tRqHtDkLqBkRvEmFz_BqP`k@}XpMyg@bRsHzf@p@dCoWnLkLze@aG`_@tQlj@~j@pBfU{Gzg@dSbVpBnWa@vYuRrHaOoCxHtb@iGdGkYkReD{P"
                        ]
                    ],
                    [
                        [
                            "_tuvChzdbTrA}DvG|AkJ~A"
                        ]
                    ],
                    [
                        [
                            "wgwvC~y_bTq@mItCm@g@rCLlAPbB{At@"
                        ]
                    ],
                    [
                        [
                            "uv{vC|wdbTkIAcCuHt`@kFsBbJqN~D"
                        ]
                    ],
                    [
                        [
                            "qdywC~tebTjImx@pPqf@f|Aq`AblA__@b_@}s@`z@{Mfr@eAtp@j^hUuHbQvBxe@kIzt@w_@~i@we@hIfGxGoC`]nC`]gd@pl@kCny@aSzHkOnNWd}@ue@rPy_@tRcGjYq]~wA`iCiVbv@hHrz@bp@vq@wEnlAcQWbBk[iI{PuRwBaOq`@a_@sZwTtHouAtqAuQxY?~j@yGbPmZfa@s_@|JeRfd@kJxeAnLrWxHds@ok@gAoLkR_j@{VwFzPyd@fa@wT~DyHh^yHlIkW|A{dAp`@iaAdGicAlu@co@xVwTj^_NlFun@n@yt@jRaPzS`AzYyH|v@aO`b@aO|MoNpi@oNtNu}@tH{f@}Jye@Wal@uNql@lLu~@~DiWeJwb@gD{g@tQwSeSpAsTpOeVv`Aww@xaAsTpyA_t@zXcY`{@atAvFkUcCePzIey@mJ_n@`l@kyBzH_w@"
                        ]
                    ],
                    [
                        [
                            "irtvCpd`bTuDqc@o\\_e@jImIfT}AvGdJf_AhAjg@eg@xUtHrCh[wFtHgTtB_NdJtE|m@kXv\\qAzSqNtEmw@es@"
                        ]
                    ],
                    [
                        [
                            "iyfsCntm`T_AiMvEgAfHjG_MdG"
                        ]
                    ],
                    [
                        [
                            "mvbmCzta~S|{FlApkO`D`aB\\bgD`o`@aOo@__AnOo{@|]yIsEi}BtXggBzc@}jBn`@yl@n@cr@xJ{zBlp@wg@qHwrBrEsp@t\\kOkGyeChNgyBrYkq@nWiX`Dym@jb@wJdNpDzIcOdGiJhPu_@jOw`@pC{y@z^u`Abj@}Vpb@eYpJoGvJsc@dPeDkJuJhMhAxMiFxIuNpDgZeSiNrGuPnHcApRkRnKyNl]yKeLyGbA`Fv_@gFzEmEuDd@hGeJ}IcEfJsJ_CaGhJkC_FO`LgHvFeFkTaY_@cwCxjAc`A|n@_}C|zAeiAlnAycBfn@m}CjiBg~AbpAy{An`B{jDvyEmiAr}BinFzpOkkA~|Eqy@vsC{kBt|E_i@xy@_o@`wAixAz_CqyBxsCiD~MmjGvpHwxKbvJwhMboLklAn{A}}BjdComAzlBgKxi@eNbMgiAbc@wBvKorAfsAyZlm@}o@tb@kyEr{Fct@zcAqJ|Xc]f[{kBdwCmb@heAqOlOoq@kFeSbNgJ|X{g@nh@cwAzvBgo@zwAyk@rcAqRxQk~BnrE{~@tdBauDdlJwl@fv@_hDnbH{w@~jAubBntEmD_GrO}h@af@ob@sRoZaDvCdOrl@zTbRdA`P_Lq@ib@g^l@gdCiS_zAyPeDtGxIxD|^pAxrBrIzr@_CjPzV`^dj@pa@mlA`eDsXlc@oTbr@eqFrcMguClnJyKzP}GiBdG{^bg@azAr`@mcBliAsqC~VabA|]mm@hIsk@tUqPSmOjPaTzDgWkHa@NlLwEKo^|k@}S|r@NdMg^|VmHrt@oRjn@oUv^q@pR_XlW^lLiMja@c_@fw@hC|^mi@`k@fAp`@cI|RhBbDyYv_@xAzD`JqHoFhToG|F_HaCyZx_@q[`cAz@dGa`@`l@y]}DwX}WwJxDwa@|f@kF`XeeAd_Agx@hFaGiHuIvD`HpSnQpH{Ndn@ePjJ_C|Q}KbMe]fV{f@lNmv@trAeHl]dF{@\\dJmVte@zB~RdR~LatA]aOxK~Nq@kBtFcr@hQsiBjAuo@oKoC|BgYc|A_QqH}BdEzLxWdQndA|b@dRrjCtD~eAqKtIqQjN_E|z@lIoBb]jEtPaJhI|BvSmOpCsBtLrQnZiClb@eXuF}OrCko@a_@^|JcIfFuXmGLfe@ySfK}E{CnEyRoLYoQqWwG|@wAbHnSnT_KpKkGaOwDe@h@lFvErYtOzAdBhOqGaFuSHeFr\\zGnA}FlHfB`PeO}AkZj[uDeLeuBl}Amv@PmW~IkC_D}S`F}Vy@_L|JyT}AukBlf@mx@x^}y@ds@eb@tOec@hc@_\\hD`AiGji@wXvV}v@jI{HNyNoK}Ta]gG_NkMkJbH}\\tz@iGhDmLiGwFbNhHxB?pFesAp_CeX~~Au`A`z@qBtOjKkGaBrL{JrI_@dZmKWonSo`b@{gGgdMc_Ugkd@wcNkkXipMioXggFeeKarFcxKjV}x@nMlKjK}PtTksApQkRtRmO`OiAlh@dMlfBogA|Lqi@{I{P|Lwq@eDuKs^eG`As`@zKcS`{@ip@fdAsxBOrN`O?lKdJxUfDhX{b@fUfAtSwn@xd@}M`m@lIjX}JrQrNlZ{MnLTp|@ol@vc@oo@|Kn@dq@y\\nLcVjKwB`OcVrm@}DpPmLhWi^{Iwh@tb@wh@nMuExFlC_M|MpAdJzHtBcB|Mda@dGlKsQ{IWbCeG~Z|GpjAooAn\\mIlLqZrn@rTjt@i[v`AVpxA{y@tb@}Gjt@@dp@ml@|eAiUrCsT~MmIjWfAxbArZnj@eJdmA|Pt`@tHjrAniAfUtBhU`\\dgCzv@bm@|Dvc@sNb}@~a@tQ|jAhs@`s@jIjRv~@te@rkA~^dgCbJ|cApTd_An]r{@lCrkAmLzcA|GdsD}j@dTlIlJzM~y@l@dRcJ|pBkO|[kRhd@mFxt@u\\`PsQpRceBfmAsv@x}A}vAjf@iYhW}Gvr@fKvT}A`OiPdSeAvRdFpc@~_@nOjDnj@}GrRbExd@mL``@fQda@m@hbAyu@hV}Gr`@ZxHpInNp@py@uZpn@lAjYlJ`_@mIzgC{tBt`@qd@n\\}GjWiYnXmw@bQmFzp@dBj|@{Yt~@wd@zU}U`z@ee@rOyWzXk@|v@}\\p\\_`@pKocAjp@kiAvb@uWdp@cMbj@skAlKxE~ZuQxUib@lb@}|A`cCghOl[}pCje@ovH}@suC}XowDnN_b@zr@`IdJpb@`PjNpRpc@jg@dsAvNzpAvF~JdAlj@wjAvn@_d@peA{^bvAsKtv@{Dd{@hLlVcBvH_N{EeCz]pOeDfSwWta@iIvCiPxHmC|MzQ@qRrP}Dll@rV|h@yA|f@sWdy@saASxNzZf]hIxE`PsBzw@kf@xV_u@JyCfKuqA_AkYev@uvByCsVfCgJpMgYeJoh@iJcWcP`HaKkAaHi`@iLf_@aVm@zOyE\\iT{FM{EnO_JcCiZzEkH_I}TpASABTNSsO`[}JLsEeA}F{f@sP{e@qVyPIS^EeFkX_BeGM_LqJ}FmEiJsDlBmAwZk@@eCaDqIaGsGcBuFlAqMyLeB_GaIiRkNkKiDeFuDkByG_J}\\sQ{Bc@o@d@SIJg@mFgDyBy@}@TEn@M\\]DWQCg@g@SHeAmBe@]`G[bAa@`@u@Tm@EHsG}\\h@oAuGwd@pA{_AyOiGvEom@{IuSzAmWlUaGd{@uDnCgWmJwTj@qb@s_@gGYs]jUiRhb@cIl`A}_@kc@@qIcTmPkZ_IiEbWtId`@{y@}OgD`QeSj@w_@t]A~Jbn@eFn@hJfGxBvb@iCpOeJhH`BxHzKuBhMaNtHaiB}AwYiZyWeKeBxW}\\_Okd@t]{Mw[cPj@kUpa@wt@mKgDhMaO|G}LsFjH_NsFw^}McEoj@pHyFnLwh@ed@eSiyBmp@qr@_MlCeVwL_B}]lEuj@kKcKfOkk@Tu^rOoX|Byv@dPe_@CcWu^gSbZwRlQuu@bKyMfe@wEnWbSrx@|Ijh@}GtVsYjI{dAbWcUtb@iGtWcX}Eio@hO_SfG_`@`z@wn@dp@wGfg@p@nf@oR~TcRp\\}H`U{UnI{gClTcOhM{w@zScL~\\mD`v@{oAhDeJaGyj@pU{R|_@gx@pSuvAjJwApHsNrL{h@t}@qn@lE_i@tw@ww@|cAsjBvPoi@hSkKjJs]x@{l@jQaRno@wn@zYsId{B_Uz\\a^ta@qFdo@|Nnn@ca@baEqIb`AoYxd@xH|x@qFxf@sLpb@}p@~WmgBgAefAxZw^~Aaa@~Psh@pNfAheAmYjg@bHgEcHok@sI}fAtUeWweCma@s`B_FayA{gCunHuCkMtFkMb}@X|x@aNnn@sn@rT}s@lKWfe@mVpl@|KjVp_@nLrFlK`BvUiGzHbK`PgA`@zKhVzHp[rk@_OxHrAdN|Xn\\b^dQfUpC`AqLvc@hGjIrLhVoC|LqLvSpIjg@jDjX|Nb~@qL`l@p@po@{WtRgA`QsLjIxBtSeTvFp@~^_a@~p@wbBvWm\\p^oCfw@gkAbu@weBxu@ap@vVe`@`_@cT|MkVbk@mK`Zq`@|Goa@rSaZld@mAn`AygA`Vq@xqAgoA`c@ay@f\\mA|v@le@`}@vUjwAdIdzAk@rg@dLfh@p@hg@wF`MaQ~WmIxdAoh@jp@{IzQnExKeOn}@qR~x@r@hq@rOR`a@lzArbDzuCteGrr@`|BldEvlMjxD`t@xzJfuB|sCft@~aNv_ClzGlaAzzBfg@rmFnlA|mAO"
                        ]
                    ],
                    [
                        [
                            "stcsCbyo}Sde@wZ|MgXlv@gK`s@kW|NwYxP{Lt_@yHpj@kd@bgAymAli@}_@t_Ayc@thAsW`jAoKl|@eZfW_[|IoBzbA|Kbn@jQo^jnBdHd|@kWp_@mOfs@~AbzAiB`f@mJ`_@mGzJok@vD}j@h^m[jDwoB~~AgpAxh@ec@tB}o@lW{[cAqjArf@imAxVww@hZie@|DoUhQou@hQs|Ain@eX{Dc`Alb@ylBzmAqs@dXccAdAqyCek@_|@zE_SwGSsUjm@iXdTm]zg@qEh|@_Ujs@wh@~QuVnlAcb@vy@cs@dkAwl@xnA}R|d@yf@lo@oWhWeBl]e]"
                        ]
                    ],
                    [
                        [
                            "s}qrCxyf`TcAl@uAHWPUMiJc@[PMQgDSWRYYuBGYFMOJU`@FxU`AtBEtA["
                        ]
                    ],
                    [
                        [
                            "aanrCxvi`TPHp@RMh@qBm@Li@l@N"
                        ]
                    ]
                ]
            }
        },
        {
            "entidad": "3",
            "municipio": "5",
            "nombre": "LORETO",
            "location": {
                "type": "MultiPolygon",
                "coordinates": [
                    [
                        [
                            "_~iyCla_cTkcAsu@cl@i_AiGojAoi@{w@hH}Pda@lLv_Aro@xr@lX`yAdMpNlR|u@t`@|Kpx@eTdVu{Arl@wUvBs_@uN"
                        ]
                    ],
                    [
                        [
                            "_dg{C~hkcT{KxOktFtcBmhAgP}gA{Zig@k@kg@kPkKyE_MsYw`Auk@yG{XjfAiEfw@_c@zbCdI|k@sJhx@i[frA{CjZpI~\\eUdcAkE`PmJ|i@hPpAlJMvb@eTv\\gXn}@"
                        ]
                    ],
                    [
                        [
                            "ora|C~|zdTqAaEdFsCrP|AaAdKeSmC"
                        ]
                    ],
                    [
                        [
                            "w}a|Cjr{dT`Qs@zHjJuElGkI_B{IeN"
                        ]
                    ],
                    [
                        [
                            "a{d{CzmleTzPqp@vDfArL|t@}KzBiWoI"
                        ]
                    ],
                    [
                        [
                            "kwd{CnlheTxJwLxHdAoAtIcRZ"
                        ]
                    ],
                    [
                        [
                            "ujw{Cpi{dTyiA~s@es@oB{HaEC_r@mHe^sQ{NaNsYzKqP~NuFra@xAnNmG~@kWbd@m[tG}[jZ]ff@_SljAwDr_@jCxr@vq@fUpLhVtBlK|NiIfNmk@dLoPhNm@be@{K~KepBjMm^~U"
                        ]
                    ],
                    [
                        [
                            "axf~CpgkfTuCiDdEcElLnFbA|HaP_E"
                        ]
                    ],
                    [
                        [
                            "kjk~C|ogfTc^kSi]abAzA_s@jNu]|i@pExZaStRj@zWbQxExOde@qKjIxEgJl^t@~[xRti@|Evi@dPt_@fCtVcDpM{Jr@wQyb@}s@at@cRSyIlQcUvPkXaK"
                        ]
                    ],
                    [
                        [
                            "}c{}ClzteTcC{HzJpFwFhA"
                        ]
                    ],
                    [
                        [
                            "ma|}C`iteT^{ExHYPrFkJ@"
                        ]
                    ],
                    [
                        [
                            "{nc|Cpc{eTrDuFfE`E{Jr@"
                        ]
                    ],
                    [
                        [
                            "y`f|C~gdfTdFiAlIrLsPiJ"
                        ]
                    ],
                    [
                        [
                            "_wg|ClhefTrAaBvFANfAcCbBwEgA"
                        ]
                    ],
                    [
                        [
                            "w{`|CdrzeT~M{BqBtImJyE"
                        ]
                    ],
                    [
                        [
                            "mpszCpyrdT`DzQhGnCjZoKlKbA~wAsj@jLjf@xHfD`|@iG|LdD|MtXpPvK~[lBrC}H`n@kFtQ{Y`PqG`{A}\\|f@ko@bC{RdaAp@nk@gPro@Dn\\_MpOjClZw]ba@uDbPwf@|LtEvEoMp^eFlYcVnyAcF~MoGzaAsrA|Jsc@eFeQtDgNzYtQpO]|v@_aA`m@}PbDdQbp@v@nL{Lo@oSbPq]PkZtEA~Ozg@|YeFl[qT`^nEhI`KeDzEuDoCwq@n_@bCzKdDgNrC~AqAdNdEfD|Xqj@fXj\\bRzDjYkBzYbJ|K[x_Bup@|DrtCiaN~hFibGn|Bc{OniEeqDleHvrFvsQt{Ch`KifUz{`@iPtZaeG`bL}bOvwXuoCxT}~b@pjDecUxcBgfKb`Aqx|@`zHwlf@h}DxAip@fQlAnPi_@C}jAln@ob@zLqWaAaL_k@sp@wDok@sQod@aQcRjI_}JdrEmwg@fGdUaAl^xh@pPxInJll@cBzLnRpdAX`n@d^fDh_@`PmCrYrN~N{AvdArZjVgMn}@_FbuAcDrjAxIff@mExz@{c@h]k`@pNoFx^rKzb@xu@b_@dZdT~c@jLlwBof@~aAb[j}@yK~^uZj]}Gl_BiN|[dFnk@{Gfr@ylA~sAmXnz@|U_X|CwVzPm]hx@_q@hMg^lAi[lKgD_Qmo@|N{e@dEmoA|GeNzTcNjK_i@uZks@dAwL|d@m}@mJyrBoHsWsQs^kh@s_@qNk_@uL}Li]aJbSae@cAsd@`JgQxTgJhKlA|BeX|VsOwY{C}AwId[mVrJvP~b@qb@dIjKiEjk@dM`S|^z@hUmIoDsMf{@m^vPuOrOao@yCmbAhXwAlKwi@~JyH`uAwb@|TeTfm@vHhdA_O`LuOlaAlD|{@uFdHlDwGld@hWl_@dRkCjP|Idb@qHd_@zTlN\\nNcArt@cf@vp@{S`fBe`@`CbBoJhJhJfBzI_EhDcHoBwIdNmPjyAaGlr@fGxw@wIvv@{f@rFq`@zc@cPfyFws@lS}WdwAeg@xQ{QrVa^Ggf@hIoGrGwVnNaIb_AlH`a@eIz^a]fUqDr`@bDtm@tk@`OnFhcAlKxg@f`@vo@bx@`b@|PnT}Bl]sPz_@oT_CgEdEcCe@zGfA{EzGZvs@mClBrQjCgS`HuBha@lEdt@rBrWnH|TxPrp@f~@iCvOlLmCht@hWzJk@rf@wB|f@kRbSFdb@gLpj@zTrTwAr[oR|Pg]wAeUfMrJrUpAhFwEsFeEqSy@nnA_n@pUrD`OsBxLxF~[kLjk@]`ZrQrJnQln@aF|{@mj@vQY|IvEj]ySll@uDnMvE`PoDpOpIvVyCnSwc@_Ju_@bEkQyHdEuD{HqOcA~@oJbh@ut@xYuMhLcO~^mKx\\qd@lMoGr@jJvR`XdBdNsD~Ks^_NTdh@uGpMmLzBiUsR{JlDoNwEiY~OkMbOpKfd@rDoJ`PwFjJjJba@vAtg@ud@S_O`kAlNxt@`@deBmZl_@m[d]cfAlM}Bl`@w]~Q{\\pOkAzLcOfJeUbKghAbTqJ`Vum@tgAgm@~MpF`R_VvIuS}Fig@gXrJ{HeAhI{O{GmPdHwY~_@cYj[wCtd@iRlMRxHcEeS_Hvf@aPt~@``@z{@m_@fe@yCzLoGdF}HsAeNzKgHvRzN|MCtd@mKl^{YhX_ClKxEl[iE~LpI~^gBrc@iUuCiDfGeEp_@yF`PlCfG_Lji@zGpq@a`@~Rs]l]eO|R}x@hFdNfVoDnPcRn^aCrc@sZpPmDne@_fAoLmPbEoPzZoTfe@hCbSoGxY{LxJyOdc@uM~Sqp@xjA}s@lP_l@Eqy@_Z{Q`Q}XlFyxAwFqFwBs\\tEeH_\\oLiHsLrCeHfUlChGrLlLl@qA|HpOnFfWoGfXa\\gE{[bEkWgUfE}LwE}JeQzMuf@rSqM_LcNhKqc@q^kCgEcKl[uPbDmJ}J_EnQab@gGyEfIw\\eDsItEmJfe@_CxIeH|LYuE|KhFlM~LxKlMA"
                        ]
                    ],
                    [
                        [
                            "wah|CnuefTrDmGrB`EgHjA"
                        ]
                    ],
                    [
                        [
                            "oxo|Chz`fT{KrPnLdAaAzEyVcAqQpGa@eHpQuCfF_IgC_RbDsCtSyItTlClLmDrT}LQeNvG}E~ZhPzOma@vUmArNtRvUtEbDkGtBhGtUgEzLeUfVwCbSRpMrLsCvLi{@ta@uGzOcd@|Ysn@qH{LxIkJoCgGrC~@yOom@tDuBsIaQpJyFsI_AbEyGoC"
                        ]
                    ],
                    [
                        [
                            "g`y}CxgbeTlzAQrb@gOpQgRyCcr@l[RhW~GlL{B`RcYrS}Ezh@}Ftb@vHtDzHkk@`]@`Rw`B`|BwVtPcEvVt[~aAnMpIfcAMx_Bpq@n~B~xAzv@bZle@zd@phA`m@z}AnnAliAqBnL~QxUfJdU}B`n@jI~{@aGdStBvc@lYhDd[cDxR|XvHvb@rb@ro@lBzj@oKrnAhE`q@q[~Ns@lK`H@xRkOpZ_`@l[{c@~iAqc@pa@yh@hO_lA|G_McNogA_]qNkMyDo`@aMuOmj@_Aoq@p[mXqOqQjAsOaKalA{IiGyReRgGub@yA}{@tKgU}A{cAug@snAaCg|@aw@}w@_W}r@_~@gUuOq}@pEm}@bZa@iQqMsLsQ_EyW~B}g@mYkKjAsDrSgj@j_@mk@pN}KoF{Uoc@sn@crCqNiTwb@mV_^sBs@sSvL}o@bh@e}@dFgX}p@}qAiF{UnBmd@oKsVmw@mi@mWwb@jK_VtSvR|w@pU`n@pE|f@pi@pxBjQ"
                        ]
                    ]
                ]
            }
        },
        {
            "entidad": "3",
            "municipio": "4",
            "nombre": "LOS CABOS",
            "location": {
                "type": "MultiPolygon",
                "coordinates": [
                    [
                        [
                            "k`rjCru|}SiJnlEjJtb@kJpTmg@raBexAdfCk{AllBeqE~~D{c@jy@yPfAaBwEko@nSmxBpjAou@to@iNjB{AdGo[a@__AjPcn@jTad@`h@gr@nIaCdGaKgD}UzAy}@hTyZdPmx@}Ew{@|L{ErGqg@{DsyA|[gVoCk^zDob@fV}p@~Lug@tScgDao`@aaB]qkOaD}{FmA}mANsmFolA{zBgg@mzGmaA_bNw_C}sCgt@yzJguBkxDat@mdEwlMsr@a|B{uCueGmzAsbDSaa@te@{An\\gPvUm_@rQoIvGcZzJwBhImYjP_Hlp@imCdLiP|Jcr@fOkVjV_JhVk}@nOg|Axi@{qBbb@in@nb@k_@bLaW|QqiA~ZceAnf@kvDnZ}j@|Y`Afo@aXb[}aAba@erD`[oc@|TcAnl@b_@pbAz`@xx@`Gj\\mCf{BceA|D_Px\\sU|n@qM|Yy^~f@}cAxg@kDra@oPtR_XvP}m@`PkJd`Am]xJzT~}@rBxjAh_@`p@bAzY{HtSmPbOcd@d@_g@fw@zGnl@yXbRfAhJjSiFl\\nAlY~Q|]rShMr~Aga@dt@bGts@eEhf@oShw@tEn`@|J|k@dAdbAqPjk@vTjZl@fYhSddA|S`b@`W`pAw@~\\sLtc@tEn^mJpp@|Gno@~\\bg@di@tTvK~p@lRjYqCvv@dYfX`T|r@vbAdv@hh@jKq@tg@|o@pq@dVj[`ZzL~GxG_BnOnRz_@xbA|oBtaAnNxQrFb]vw@~_@pQhStVlq@`RfSbYjvAdWtp@tT|Jps@`r@zKnr@yCzgAzJ|rAlY`|@tUdZr~@`qFrX`r@`f@to@~Uhj@`bApxBlo@|l@rR~F`IkBdHdHda@C`_@zItFsHzKs@rMyRzGtAfVpq@|TvRzIoA`B|OzIdBfEbOlS~FxL~c@rJbeBvJpc@`_@zZbFyAnQjo@~Cl`@pVlm@t_@l{@bx@rl@rLnF`IgC}A~K|NjThb@pGzYeInBvHvOsFhWdIc@nNvR|A{E~GfNdA{DxObR_A~CrNlFnAj@xQjK|E~]~h@hIzAfGbZbYde@vZ|SpTcEvAlKbDGlAtu@lI`DxEdRcBtl@vMpPiL|]bNlpBnh@bmAzSnPpVYR|N{OvHcAsDuIpCxCjKvRkGzKbGxI}GeC}TgF}BdNgp@tMuHcCcF`DFj@kNfFnHqCbNj@hLdE`AdBxzAzEr@jExSK~l@"
                        ]
                    ]
                ]
            }
        },
        {
            "entidad": "3",
            "municipio": "2",
            "nombre": "MULEGE",
            "location": {
                "type": "MultiPolygon",
                "coordinates": [
                    [
                        [
                            "ilg`DxbmoThI}Eu@sM`_@wC~RoN_CnTeGbBv@j[{IdBo@lGgHzBmIcR{@d\\yGwBoF_`@"
                        ]
                    ],
                    [
                        [
                            "wkh`DtvooTwCoJtUuMvErFgLdYuEb@wCwG"
                        ]
                    ],
                    [
                        [
                            "_|qaDlvfgTjz@aIhJhDrB~H_PzLwu@UqAmQ"
                        ]
                    ],
                    [
                        [
                            "cu_bDfz|qT~LtB|FzOz@sMhGfA~@_Fw^wU`UaMuc@e@xPs[mS|SmYcDsEpG_X_RdImgA~Jic@x`@a^la@qRBvIeX|PmCnQ~KtImDdYpItSpLnM|Mu@g]w\\lEy]eMeUpBeE~O{Fhg@{o@j]mOvQqb@dW_JtTxAtJaSjY_@dW_JraAut@zQqX`Fxc@cOxk@y`ApvAovB~sF{NxtBa]|lC_JvvAr@x{@_D`LiJjEcf@`JoJqIsIw]{Gyz@k]wc@_jAq_AeHac@LqJ`UcMiAmTvSqi@Tec@dg@m{@oEsa@sKgQfHoDxC`L`OdDhFnJwGru@xHq@bOdKyOi[tDcB|HvL}DcYbLfXrDwF|Ls@kPe_@|WjM"
                        ]
                    ],
                    [
                        [
                            "ewraDdleqTaErJpN~DmLdBmWqP^sFvGcBrQnF"
                        ]
                    ],
                    [
                        [
                            "cxraD|wcqTtC|Han@oExGuu@ze@`N~FrZxIwCqE~OoZiJ|HrF"
                        ]
                    ],
                    [
                        [
                            "u_taD~ghqT~DcVvFWmCjUiHn@"
                        ]
                    ],
                    [
                        [
                            "kataDxkgqTy@xV_Gk[xHpC"
                        ]
                    ],
                    [
                        [
                            "aytaDjefqTMlG_OnASqJ`PR"
                        ]
                    ],
                    [
                        [
                            "idvaDrohqTxHAfFl@NJPJq@hAsCr@?hAdDn@fEl@`@p@qArCyGgAcBqCs@yBOiAsBs@eC}A"
                        ]
                    ],
                    [
                        [
                            "{duaD`chqTpVuQ}ChU{KhEwD}H"
                        ]
                    ],
                    [
                        [
                            "ucuaDl`gqThEtIaEtMuCqClCyS"
                        ]
                    ],
                    [
                        [
                            "}dvaD`dhqTcFzIwEW_Gu]jMqGdEAfO~XoBnGmJiD"
                        ]
                    ],
                    [
                        [
                            "u`waDh|fqTph@}a@mA|OlGlTaCfHyF{H_^pAuCkD"
                        ]
                    ],
                    [
                        [
                            "wp|`Dp~npTsA_IrRtB_AvF_Nm@"
                        ]
                    ],
                    [
                        [
                            "mw~`D`mmpT|Dke@zJnC~H`OaWj\\wBqJ"
                        ]
                    ],
                    [
                        [
                            "aq_aDdcrpTwGbBwE{EnP}B_AtF"
                        ]
                    ],
                    [
                        [
                            "qd`aDftrpTgD}HdQ`H}KZ"
                        ]
                    ],
                    [
                        [
                            "wbaaDn_tpTyIqFyIlD{GcHl@}OpCwFhh@}CdDjDoCzLoPrT"
                        ]
                    ],
                    [
                        [
                            "ekpaDtqeqTjIl@o@lD{G{E"
                        ]
                    ],
                    [
                        [
                            "mfpaDncdqTmAhKgUeDbF_IpPzA"
                        ]
                    ],
                    [
                        [
                            "exoaD~eeqTdn@oj@vUj@lZcn@tf@uKxExL_EvPaWbZeh@~P{WgGam@ti@u@eH"
                        ]
                    ],
                    [
                        [
                            "uenaD`lbqTbDnBeHzB`CkF"
                        ]
                    ],
                    [
                        [
                            "ernaD~mbqTpAaB^M`@Kp@hA_@`BcBp@aAaB"
                        ]
                    ],
                    [
                        [
                            "ivnaD`nbqT`A`B`@n@?zB_@`BcCWNaBQsC?iA`AW"
                        ]
                    ],
                    [
                        [
                            "quoaDpkcqTJiKxI}B}AxLgGlA"
                        ]
                    ],
                    [
                        [
                            "m`oaDxicqT`AaB^A`@XPn@q@XqAVQW"
                        ]
                    ],
                    [
                        [
                            "sgoaDzicqTpGcVtAvIgJjK"
                        ]
                    ],
                    [
                        [
                            "{foaDbxgqTci@lrAoRf}BeHzIud@nEc\\gTac@ik@hHY`YfTnNnCwBqMnI{g@gS~j@g^gTak@aQa@qClNwCbA{t@jTdXbCuCiB}RuGvF_H{RCmN`UqN~^cCbI{Sh`@y^`GcV|IpFrp@lBzLoDr\\of@hGzEHwStGaItLh[{p@rnA"
                        ]
                    ],
                    [
                        [
                            "u~`aDtyyhTyf@e|@mhBcpBcaAqm@cs@rQcTlNgYjy@yi@jRcS~Osd@zt@gkAl}@ik@faA}aBtaB_d@|aAqA|\\yIpJ_Q~Occ@`Psc@hEcUra@ka@d_Bk^vn@k[zSwg@rGgX`Pat@re@aRb`@oPdLcTtCo|@}TqwBxX{TsDcvBbMghAx[ef@i@ssBnPii@sLwP~Aw}@xd@cX~^efA~Mgy@jj@k\\tJ{{@kFcTpQgH~Yq`@mMc[}oBkYqPcQaYo]iQyE}\\tf@}n@`SwCfGgHn@sMmLsZxIn@vF}EbDgRvGgEl\\u@la@uh@|Nyg@|MsJrCsWl`@cd@dFwSfy@kt@j]wk@`Uqo@j{@w^joA{fAxzA{h@pv@qhBfh@gj@rgAoeB|AexAdTxBbd@kHl]gc@rs@gVxI_Spr@}g@`S}w@vXc`@}Le_@dEoG`Pq@xYpPvW_{@cA{YdEsMfF_Ijl@uJ`RkjAhY_Fq@ug@hIkDwEkXvVwFtEkNsBam@zJeEzJlGdUcLnOwq@bd@iHff@jTbs@lCpp@tVtu@_CraBnIlm@mKrSn@j[}Lbs@iHxLj@dD`PnJiR~Oq@~nAn`@du@rI`PoGbStItE}E`q@tB|lBu[n_A{kAtUm|@j\\ep@l]mkC|[es@|MebCeEgmAk[aEoPww@p@cRjk@jTtUe\\fVmDdFwIbByp@nMqWjKsCerElwg@kI~|J"
                        ]
                    ],
                    [
                        [
                            "mibbDf`xiTaCoGfEwIhK|Ic@fHkL]"
                        ]
                    ],
                    [
                        [
                            "cacbDfe|iT`\\sYpGnX{GlJgYGoAaI"
                        ]
                    ],
                    [
                        [
                            "gofbDtqyiTvFiDvGvCoOP"
                        ]
                    ],
                    [
                        [
                            "wlgbDtg|iThHoC~A`IgHlCaB_I"
                        ]
                    ],
                    [
                        [
                            "eehbDxzxiTbAkDrDtCcArCsD}B"
                        ]
                    ],
                    [
                        [
                            "k`ibDpy{iTlFqDpChH_KwB"
                        ]
                    ],
                    [
                        [
                            "cflbDr{arTn@eHdDVbBtSyHgK"
                        ]
                    ],
                    [
                        [
                            "a`ebDp`}qTqFqa@pMxEbAlGv@dRqBtCiFqC"
                        ]
                    ],
                    [
                        [
                            "gkibDr}`rT?vLcs@pk@?~KiZzYzNooAve@gl@pSgcAvg@gb@|\\mu@jZoTlMVdSxOoNjDwGhXhIV|Xrt@eU|R{IyBcAgUgG|EPhNdEnJn]kAwFj[o}@|Bee@jh@yXlD"
                        ]
                    ],
                    [
                        [
                            "c~xdDrf_kTaAiA@iAp@iA`AW`B?^hA?bBa@p@aAAqAV"
                        ]
                    ],
                    [
                        [
                            "gi}dDbx|jTv~@|UyRxg@rJj`@lRbWga@xc@yDrTgHxBcUoH_NvIo`@rEoq@}@eBbLsS~Dgi@c@{wAts@{p@baAyI}Bb@sJkNyMse@a@aFu[iu@ug@kAo_@haAe}@pLeYpPgKzH}Oxe@{U`L}`@rQ_LdNwd@lY_Vbl@~[~JmXdUQfEsMrSt@bHxMbg@~Mha@n]nQxC"
                        ]
                    ],
                    [
                        [
                            "}hxgDpbd|Te@s@_@cHtBQtAjAD`FkCz@"
                        ]
                    ],
                    [
                        [
                            "i{xgDlwc|T?iALq@Nq@PWNYn@iA^Y`@W^Ap@Wf@Jh@H?XPVNp@@n@a@X_@X_@p@q@V_@XOVOXaAXQWqA?"
                        ]
                    ],
                    [
                        [
                            "ic}fDtic{T?W?YNW^?PV`@VNVNX_@?OVaAXQW?q@"
                        ]
                    ],
                    [
                        [
                            "ki}fDptc{TOWAW?Y?WNW`@Y^Vp@VPVOp@a@@qAV"
                        ]
                    ],
                    [
                        [
                            "wbygDnnhwTkMur@bCmDvZbm@oP~I"
                        ]
                    ],
                    [
                        [
                            "sdgiDxtg~TlF}MfGP{C~IyIjB"
                        ]
                    ],
                    [
                        [
                            "_q_iDhk~}TaRhXmUeImPzDoSx]uYnGuMxKiKlZgVnXgX|bB_Yte@kLtAyJmEqP_g@jAyFp\\oj@WyIv[y^`Iod@`x@i|@|Aea@z\\ykA`KyN~TuIxiAjo@`BjUtM~JnBrT{CvJgQqHoOvA"
                        ]
                    ],
                    [
                        [
                            "mnqhDzdvxTrG_MfC~H{K~B"
                        ]
                    ],
                    [
                        [
                            "}gchDjgzwT|Dsb@~X{l@|AkRdLaWlLwCoO~cA_l@t{@"
                        ]
                    ],
                    [
                        [
                            "wsdhDpstwTuDuF|AiOtEgEfE|EfG}BaFfVkJ~B"
                        ]
                    ],
                    [
                        [
                            "_nehDx}twTtDq@bA|EyFkD"
                        ]
                    ],
                    [
                        [
                            "u~mhDxxdxTlnAugAdV_Gf`@sc@zHl@|O_J`EqNvp@ug@s@cL`Wa[x_@sYoGx^w^de@y@xW{KdIeNr_@qF|ShDrTeWdF~BwMqTlOmCfVa\\|l@rAdEf[uUpRaCkFxh@hAv^_Xxb@jE`SoCxPoa@vK{WsIwIfLgFqCPay@lAkKfG[uPcRlMgBtHkHQiHgCmG_ExPwFUiFqCe@yPmLk@mBtTca@cDs@yIhIl@pB}EqNeH@dEiGs@\\_L"
                        ]
                    ],
                    [
                        [
                            "oaghDrrwwT{OxM]fOwGZyMnRsg@v\\qClDdCdEeXlOuGfL|J~AqY|e@iDwPkI{EfDlNcDtConApCmKoCyDqQxKsGaL_Sff@o|@pQmHjk@uAls@g_@PdEtS]oAzIaRvJxG`BlxAe|@ze@ih@xFTcGlRum@nk@"
                        ]
                    ],
                    [
                        [
                            "k|zhDb_exTjIvBsElLhRjWpN|A|TwXmArJoRpRuc@kFse@}f@eMua@dPlQt`@rL"
                        ]
                    ],
                    [
                        [
                            "ageiD`sfxTsItX_PnAzVum@j@}ShDrM}AxW"
                        ]
                    ],
                    [
                        [
                            "}ffiDbbgxTaE~L{EwP|KvB"
                        ]
                    ],
                    [
                        [
                            "gcgiD|sexTjEjNwHlHsJgYbGuQ]zIvFn@@vF"
                        ]
                    ],
                    [
                        [
                            "}~giDx}vwTsDpG|@mKtBzB"
                        ]
                    ],
                    [
                        [
                            "ikhiDlqdxTuGtJeC_IbGwJvC`I"
                        ]
                    ],
                    [
                        [
                            "ytfiDdbzwTaNiK_]{Dnp@qI`LtPaCpGmLnA"
                        ]
                    ],
                    [
                        [
                            "ekfiDxwdxTnL|HhDvPqRnHaK}VoLcHpD}IvSxE"
                        ]
                    ],
                    [
                        [
                            "mphiDta{wTkZtD~Ts\\jM{FbREt|@r\\sGtQepAiO"
                        ]
                    ],
                    [
                        [
                            "{mjiDtc_xTGm\\bF}IrRoArlAsl@fUdDk}BhrA"
                        ]
                    ],
                    [
                        [
                            "idiiD`izwTmh@~p@|n@_pAdl@m^fBpQ}]tD_Wde@"
                        ]
                    ],
                    [
                        [
                            "agmiDjx}wTyHfEbAlDxTdKpByFfHYwAoUhd@jMhBnUcD~Ecq@sAqNeHaTim@t@ek@hd@dNsDhHuDcE}MbF`NbHiKbMzJu@IrQ"
                        ]
                    ],
                    [
                        [
                            "sx{iDnp`xTUetIbL{Cjg@_q@ztAot@tIyMrRkEn`@sA~ZfGxGjDqEbPvCtM`]lMfd@xA|YjJB|LiKnKdIbk@sR`CcExFeEaBpGpi@o\\ds@lV|Rn^v|@|^kIbl@ke@dDjDjDnX_FzWpK|O~IhpAjxA[jDbZuTj|@xBnU}Fnc@bHdg@lQjf@jj@tx@dm@n]btAjaByAv^kNjLsc@rHk`@dQyW^_i@yNii@LaeCu\\a{Ai`Cqr@{p@scAik@ia@m^m^cq@y`BiaB"
                        ]
                    ],
                    [
                        [
                            "qa{iDxznwThHAuDtCsBsC"
                        ]
                    ],
                    [
                        [
                            "etziDdrnwTiFyIxJkHdBbLuF`F"
                        ]
                    ],
                    [
                        [
                            "su{iDdhswT~GnXuHxMTig@"
                        ]
                    ],
                    [
                        [
                            "s|ziDz~mwTmIcL{Be]vEn@jDlUhHtFcFtJ"
                        ]
                    ],
                    [
                        [
                            "cl{iD~ykwTNcB^Y^?p@?rAV^V`@X`@VNp@OVa@XaA?_@?a@?_@Wq@WaAW"
                        ]
                    ],
                    [
                        [
                            "_ztbDfbssTsFqDy@}LdDsVpVyg@lCrJgLl~@oIzG"
                        ]
                    ],
                    [
                        [
                            "q{ubDl`msTpUxEvAlNiII{AqG{L_Dv@kG"
                        ]
                    ],
                    [
                        [
                            "optbDfacsTsGrOmOsB|DaKbR]"
                        ]
                    ],
                    [
                        [
                            "ayvbDptksT`w@cf@dPdQx@pJmQmFnD`FwDdDvJvDFbc@oK~CyVuSaHrLuJyGiJmY"
                        ]
                    ],
                    [
                        [
                            "wlvbD`ijsTxGqBxLhFuOlE}DeI"
                        ]
                    ],
                    [
                        [
                            "{}vbD~{hsTvAyEi@fKm@mD"
                        ]
                    ],
                    [
                        [
                            "ajwbDhxksTSg@B[XPLd@WJ"
                        ]
                    ],
                    [
                        [
                            "wswbDlelsTfGFHtFqG}F"
                        ]
                    ],
                    [
                        [
                            "ajwbDhxksTN^_@CN["
                        ]
                    ],
                    [
                        [
                            "mpwbDb|ksTtAcD~@jAs@fAaAV_@G"
                        ]
                    ],
                    [
                        [
                            "wibcDxjojTHf@HZH\\b@TXNRDVFXE`@AZCV?b@C\\Lb@\\PRf@ZLVJPDRHv@HTB\\B^HZITHt@@f@CZIr@Aj@BVHp@C^K^?Z@RA\\C^Ib@ERIRYj@Yb@OLONY`@O\\S^_@`@YZMXQXS^[ZOf@CTIXMd@[r@G^If@Gf@Ib@I\\O`@Kb@E`@Eb@EXARAXA\\Ap@@RB\\xGeWhKwEmCeX}LkJeMuY_@a@IsAU]U_@c@m@U[_@W_@]eAq@S[S[[e@SU[]MSm@s@c@c@WI]Io@Ou@_@YW_@Ui@Ww@[k@Wc@[g@a@e@[a@Q]YUYWQg@_@k@e@a@k@YkAi@w@Sa@KUOYUa@Qk@Kc@Us@O]Um@OaASm@Us@eAiBWY{BeCeBoG_CyIOuAQwAm@uFoA}L}@_PqDmN_AiHb@iK@aIhF{E~JoKLOjKShJm@lImQbN_VnKwV|J}H|IwLlJsPhFiKlI}RfC}OjDkXtBeO_DoNxHuIxFeH|KcHnO{AxHUpPuBjMvC~PxCjJaEjIsFxGgK|FwSo@gHfFkG|I_LhGoJxHqCtQ_OhHwBjH}Hb@eOvD}HjJsFjHiNtBwIt@cL|JaOvDgKlIwLrOyOrSmC~N\\lQjEhIZbOoM|LsIvEyBbPqP~LwElMoCxIeA|M`FdGlAjIiDnOcAzKwBfEwBlNBjL~BlNcAzIwBvHtCbFrJfLdS`EnNrFnNvJpG|M}AzJlArFxFzLjH|NnAhJ|BfIdBhIBdDaBlLqFdEZnAbLaP`HoN~DsQ`HgD`LLpJrFjKnD~O~@jKhH_BqCsJzKcArErJ~@~HzOnK|BnAfAl@xKlAvE_Bb@{L]qJtC{EhK|BtExFtGpGrF`IrE~EwE|Hs@|Ep@jDrEfErB@qAeE`@kDbBVbEdBjJ@fGeArD@tF~EfH~EdF|BrEfE`CxInAvFvG@jK}AxFiDaBiHhG_BdFm@c@~HAhKtGfEdFbBxHt@xIgAzI_EjIaElK}HtC{Ep@uFuG_F_AaIoAgHb@uFhG}Hr@sMr@oJvGtCbCWvCyL@aL]oGbAuFxJ~BzKS|LgDhFsFfH_BzIwBvDwItAqMtBgHbBiDuEoDuSjJ}M|AvCiKvTkMhIsFzE{OvEgKtBmGfDqMbQyHpPgD~MmCfG_BxGuIjIqFhGqCxHaEzIyElKqFvGwBlL}AjKm@lOfBhIS|JcHfEiDtEgAjKm@tEr@vGUtE|BfGUvFXfIBfGZhHwBdDkDtCaEdDkDfGm@jHqFtCuFhBsWdGqJ^kArBcHhHvBdEaB`BiKQoJeEuFwFo@uDrCO|EwGrCuEwB^iKfHeEtEeEfFeEbCyBbDfA_@bE?rC`AxBvE?dF{BQcOrCeEp@_Iq@mGpAeHfIsMhI{LzJeEhJkAfGyItE}O`BeHaA_IAyLjJmDzLuFdD}E~O_Fbd@P~MuC|M_IrFwDxEaDtEyIvHyIrReEpQ[hH_AzKuArR_F`BoG|ByGfA_DjL_F`RcBtI[|GWnNuCxH{BzKmDbSqGdVwPjLqJrBuF`BmQrCaBtEiAdDkAAaBeEaE`@{BbDq@tEq@PqCq@}EpBiAfF_IzJAbD_IrByBdEfAp@pCa@jD?dE|B_JyAhp@bcDlkd@heDjme@z{Cz_a@bfCbf\\nxGnnx@iN~YvGuCjFzOkk@fIrBjGgHbBgEkG}MlDqFyp@ad@_s@qm@}sAdAdR|IzHrVtw@b[tc@rKt`@fCxL{HmJ@vIpId_@mCra@rJnd@aOqF{KjAiN`]pIpZaQfHmd@bd@PlGj_@k\\z\\_Mzg@q`A|a@aZjVoy@zd@yn@|IdHyiDx{FyyA~}AogDvdEg`Bb_CwuA`fC{rCj}Hi\\xM_HwVGy`@lF}c@iCgUtJy]mM~EcHei@bCsCrL~XbK_]kJ_BN}E~b@uQ|Su^eA}H|[kEpD{LkGmJ`E}O|KmAdLeYuBmG{NrJkPh\\}D~\\uScAwc@jw@wW|IgCkNxJeEbNsr@nNl@xK}LyGUjAw]xIwFzIjG~@yI_L}KpQeB}JiDj@qThIkArMbRn_@aCaNmJyJ|BiRkTfXaFvCzEtV{FtDxBvJiRtEq@PzEfGuFpHwZfCat@tSeBrJc`@jg@xKuHtPhFbEn\\s|@kIgAcF|OsUrG{VuLyCcOnN_Fbr@_fAhh@ikAtW}I`F}YrZua@~NaFnu@{jBld@qb@QoJ{eBfcAaB|E`QmA_BbOs^tr@ue@~IkS|j@sr@`iAi_@t^qe@zWc\\bg@eP`q@}PbS{Wl`Aun@bk@uc@n}@kGzt@qf@raBfDbEyCjl@}Xtr@_Jjl@jBn^oDjX{OzSKtPiEuIaEpJr@nJvFcBbBjDr@`LtSgBaE}f@zJcB|HdKqDwj@hLmNxGAxb@joAoT`Zkq@z^gDwL{IgAm{@rEo@dEn]y@ko@dWwMb]pWf[dAxLy]hVkX`x@}PpQcN|j@|_@gSpXs[iDyLbG}O|NoNdCbEsDpJfJ}LbIcVrAcw@zG|Hfr@cr@h\\{MdHcL|LkA_bApkA_{@~qBal@~n@epA~rBak@fd@}Tva@oiA`pAmOtFyj@eHsf@bOkrAbsAuX|P{IgAa@uFz_@ePrhBicBfj@kXmrA|Yez@hi@eG~RzLhK_r@Vy[{m@lOsk@hK{LeWq^qQdYcy@z`@wG`Vad@rk@e\\|Tki@hRubAzv@gGpMuc@xLuDeHgF|HgeAfb@jJlJkiAr~@aQ`YmLbi@ih@z\\iIhAbDwI}[vIgHnJnOzEgFtFihBnbAuc@vc@_@lGvFjDtUn@eEvIq_@iDoNiNgFgy@ig@fb@__@fHeUnWyV_BOac@gFaOkJcEiGWyXfUcs@pWmKyYfX{p@aAkh@iHqZoN`BsQfUqBnJl[rSaA`L{JyBmKj[_PpMcCrPr`@t`@fe@nJbDrFcc@jr@eEt]vDfKbRfUl[~KdUiX|{@TiInJtDbRnMkDdDdHxh@sPba@fe@wV`LdDhNl[wIbSnWkLlGeSqCuDlGdDlTeGjr@iIzOjJjQrAvV{j@r~@aRhKsRj[P`f@eElGmL~H_NcEoPdi@}]hXyH_BN_I~OiXsAoJsR}HQmTgWkGkH}RxHyYkJyY`BeEfg@eR?k[}K}UcAev@yGaLcRp@qA`YmM~HnMjh@o{@cv@uBie@sR{f@s`@gXif@wLyGst@eSsPkZuF{IcRyWcRuDqWit@c`Aky@el@upA_Vsp@jA{ZqMitBcRgUp@ue@l[}j@xLgcBlDq_AwBcCnJ_lAx`@caCbj@kZd\\sqAjv@wGtg@~\\hXnN_ItEe\\pQ_IzYn@p^|\\iI`c@r`@lh@thGxpA~{AxHzx@}Ydd@aBnkAjJxf@xY|[dHfdBhGdd@yI`PfKt`@~l@r}@hmBgGnJ|Jna@gHdR_OdRee@`VeErPnM`Yn\\h[fU~Kds@lMro@x\\tc@zEl[A~]_I|\\tIzZ_Fp^fAjKaBdUe\\hg@nWxdApIeErPdEpMxYap@`p@eB|ZhNzGxf@oQ|`A{\\bs@sdA~jA{l@j|@qwA|vCcqA|eFyPl`BMju@yUt}CbSlxDk\\dYkKcESqd@`C}HrRuC{IyOrCaL{DecAnBei@yD_YfEhDrP}sDeDXaCvV]bs@kNl^yKvt@zG`\\`H`aBOhK{KjNaKc`AtGsq@qLod@Cqn@oMgXoNo@jL_IQuIoPlGaAzOdRvVfDpZbA~KwEhA}KwL_@fHtC~KjKzEk@tj@wFbEsOkTmMiDoKoWdEgHoN{Hl@{YfEn@s@yOdG_SbfAwrA_MkGtEiKcCkGkIwI}LgAmy@|h@iH~TvMfa@uZtg@sKl`@w@n^Dtg@lEfLfEmCp@io@jDxd@pKfPeW`S}Hl]vRjhCnHhLd\\bLzI_AeCkUmR_HwEwTvTyZte@vXnO`X}Xpu@si@tNrClUjh@vl@pPf@rLea@[i_@|G{DdMvb@zFuExAw`@sNcQnB{ReQ}Q`FeN|S`HbTf[n_@dqCrL|Mvb@|yAzY~Utx@r^~mA|U~YcExd@dPxGaAbQxUta@h{A|c@|{@lPrExU}Bn^wYhW[bWj^lHn`A~U`}@zWnLhHeDrOpDxCrg@}Tt_AeT|bBasAhmD_c@vi@a|BttA{wCj{C_b@ln@uX`hAkPtNcGcFq@eYbs@mjAfSax@rXyj@dxAwm@nOsUrUsiAftAyBda@q]~OogA`i@_e@hY}p@zDg|@n}@yvCmKaTmHiAqOxIg\\di@oDhh@kQbg@ag@ze@qFlP|MlkAwt@fs@Wbf@mXb`@qgBre@eNp}@_g@dJ}nAbhAoGfJeAbz@wQ`a@qi@nxAz_@zkAwAhl@oNpJcm@oAuEda@hFpf@sGfQek@fPg~AzK_mAl\\ccBfu@ytAp^}ZzBiiBrs@om@`^oi@zG{nBviAoqCn}CotCfpEi|AdzE_wAnqFaXzzDtBzmB~[toAfc@lUhv@sD`r@p`@sNv|Bq}Az|Aod@zRsfBxuA}QzTcLtf@cWhVg`AdO{\\_BsqBv}@qaBb|AixAr}@mr@fu@ehAbsBye@lh@yh@d}@oVfn@yMhu@uyApvDsRbaA{[p`D{VlhA}TxuDnD`n@xInaA|e@n|Ab`@bb@zeAnC|QtH?dXgLxQk[eCaTvKir@vp@qt@j}Akx@zmAiWlmBouBjfEsDt]~C~L~a@nCnCxk@zk@deAi[rb@dAfYoIbK_DhXqKbNeRnBqw@co@iU`G_a@Zek@tSkSxQwX|a@yJla@iXfd@eEjb@xAjz@xSn{@wj@l[qUx[qNzDk`@cHeqA`LcHeIawA}I}vA`Rcx@sKotCcA_rArOq`EbHccFraAusBhv@md@tYgOlYys@`c@aOzh@ad@b}@oO`o@sTvGaOxh@eHzFjEdRoBrJsV`JsEvy@aHbSi`@vRqYz[_DfOsYzQqQ`Cc[nVgW|o@}OfInDf\\aHnUiKjHlCbViGm@eL~SuN`jAiQ|Wk@dOyJpDuM`T{Fjc@mUtU}I~g@i]tt@qAdq@sTjzAco@`lAgEfg@yTt_@nDn[cMh]`I|RsDrl@gMtQeTiCu[~TjB`SmMv@m@xIgGlA_JmJij@xj@_IrXiO~PqQbC{c@lWq\\kIae@jJybAlYep@z`@uUdCggApj@evAvvAe_AtmBmTfy@uEfg@lBlaAjOd_@dRzDj]eGjHnCxBvPqL`^qTvDsFjHjCnQyK~ImD`P}b@lM_I}KwIbFyd@pcA}N`CuR{D_IoMzc@{{@lM]lSqOFsTcIaVgk@cZca@qAi]tHov@wSii@|Acg@rIoj@b`@ur@|fAo^vlAjS`RsOdg@VtTt}@nUrJyEfPMnD|G~Mh@~DlXbY`X~LtBja@yOhWnB}Mlg@@dEhGRqH|PoNhBsHfIoFnw@oR|l@kWn]gh@`E}DlRkVqLoq@vFo~@tf@gq@l~@wr@thCnDrWmVrVuEtb@wFr@|Xbi@zb@xTrDaFhHdA}Ih]dItZsjA|Nok@t^kUjW_Chj@gPsLuWpByZdGgAjRaQx@cFzFkIuBk@zIor@xFySoIwo@nUuU|@yc@nTqH|P{IcA}ChOyHD{BzPsy@|Mmn@zByaAnSmIvXkLzCmBrJq\\vVePxX}JcA{BjOyZbf@uf@zd@oEiUoXoLg_@_p@qDi\\wE_B|CmKsLqo@nL}^fLqHqBs^p`@ua@fe@afAvrAg{@`S{i@lBsp@lGcWfAyy@lH}WHgwAcS}pCc_@qyBcDmhAdKys@yBar@lSgv@rIuw@}As}@yIif@tM{T~Dmq@jPeMbO|D`{@c`A~K}^Es|Aue@alFfSkjArb@me@rE_eCuSgi@tImx@vNcTfB_^rs@gAjb@c{@C{LrK{TdHo}AqB_qAeHua@b^}_@fZwt@zDg]yIqe@h@gV|RgPpJa[}AwsBbL_kA_Y_kBq_@o{AzFe}BqQcq@uEmi@Vu[rj@scAfEek@h]g}@zC_^kd@cqBamAg~C{`B}oDewB{|DgpEeqGyp@ulAwTs`AuEuo@bBkq@xPeuA~BqNjn@}Nlj@lB`ArCoUhSaHlYnEd]|JjG`XcrA`_@`DrcAiDjIhDb@fHwt@bq@kDj`@jM}FZiRtIiLfS~D{EwPdJuQxIwCp`@nBtQbHxDzLhsChHzq@z[zXh@xTjJaHrXzF|OdObO`CgEbOtI`CeBkFoQyVcDpVgWxZoErQ~DrTeFzN{M~`@uK~e@a\\pSeFrm@_j@z~@ymAfd@ygB`{@uk@xe@}s@n{@{q@ra@gv@bRwz@eJ{g@|B{ZfL}PvJcjAfZgPx_@m~AWeVt\\yb@~BaP|PsN~DaWbSiEjd@yf@bfAazAhEnQrEiOgCqJb\\wi@|Kl@mExh@vHgL`RwCb@~HlLTmGeOcRcApRoHyHwBCaIpEyWlLpCyDcVbL}a@|H|O}BzShH`BuE~EfDbExIgE~LrFrI}ZjK~AvPrPvG[`CiH|Ll@QwFcRQ^wF_NoCLoGnQwJAwF__@y{@rEsQtVmHjHbOoCrQfXmEzEhRdI_T`KpTb@~OnNiEnBoNyTgNh_Am^^mDkZ`C}ZuE{R_]tEaIxIRu_@uVaLkQsNaLQgHjn@a\\``@fD~TsUwDmGeZrUkWgNoQbPoN}AjQeZwYdPoElUiIvCiGkDs|@auAuwBqsBw`@sSkj@_AaTjOyTwLiE{Lj_@y[{GgH@`IgFqCnDkYeCgHcTtG~LzEKlUkKr@dC~HgMv[hGbEnHz]oQtJzFlNvHaFtArJfFTVjc@fe@f@bAbEoOlH}\\i@iYtG{GcOhCbVo`@bJ}FyShBz]qStGnLfK~Fb]fGfAvZeWjJpCr@xIyQzh@{OtQoLoCkCqb@_x@_`B{DaSfA}n@fLqUnN_CvBzSiJbIhHTzCvWbE{IBpQbS]kIeHdJmRmN~B`BgEiGyBA_IpDkH|JhDbCeEnJpTrDsJiFyI~AoGyH_BeAkKlFgn@pP|AzMyMkZQqTzMIue@jb@}e@b]}o@xHs@fClNkOtQtCrCtGqGxDzLyJpNvDxBfJkH|@qX`NtP\\mNzJl@zK}IvCpJiKxMt@~O`FgVxKkHcN_SwXtG}IsFn@_FhHs@gAc]bOws@pVq\\E_a@x]s`ByNmp@xT_}@Gu^so@}GkbAee@tJ{W}f@_YoXcYyEeOtWoRiZzFgIlKn_AhgAc`@}KeiA_p@mJ_I_Hq[k}@cz@an@iJ{[jEwEdBdBhK{_@d^qEjRg[lVcJ`h@~J`SiJpG]dLw`AaXaTlRaTqv@wGr@tLxk@pKbOzI|ElPyT~[|KfEtFYd]{]~WwJlRdR`E_O|Bod@de@d@|LlJpJr^vOsDvMoOxCeQoQa]_Oqi@|l@hCd]t`@fNyWDoSfShHzEzY]t@|L~OyCoBtTbOxLxDpQtDjeA~KnJ`Hbn@|HdOqFjYhG|E\\}LvFeBMtMgaA`q@eg@dTm}AhH_eApa@_SpRhGhDcB|BoQzFcEzIo@dEpQmAr@dEqRlHmj@aDwv@`lAxVtBvA~VtDTzNkOxyDk}Afi@aN^mD}JaEdEaFxXoA|eA{j@pOoAlQcPlLRyLhLvG[|P}PzIs@bBjDfJgL~M~AfDxIo@dEsPoCsDvFlKTaEhO`QgBuJj`@nHrT`QRjq@s]~NmA|HzL{LjHaE`PfJ_MbAdEkNvT{\\`Jl]{CiQda@cQ_E~KbOkLZwGzIlLAvB~OuZx[~\\dDzOrh@nMhDnW~\\`BuCjIrFt@jR_McEvQtP}@nNzXdDzE`SqHrb@x@d]uEhHrLzVkK~B`MhNsM~k@aVvQus@lgA}MhEuLlYsv@fXiI@_LoJ`DqGi\\nOih@d@sj@r`@ym@dXaq@dGiNjOcTnHwa@dl@uj@nZm}@rI_]mFas@|Ncs@ky@mK_B]pGySwSdOvZfa@fQrMnQuWbMiWaHgCqJ_O\\gSyL_I_SfHaFw|@cGqPwK{^ec@eYkk@sLbAcr@wp@y^_RmHoOa^gAoN_RgTqFyEiKfThG~]GiBqXiFmGVhYa_@iCgb@eNfCxIeSk@oAvFuBeEyJdIxUfD_@dEee@tAfQvSaBtCiT_LcIvToIxl@nFv^sCzBmH}Oz@gVxRqhBgHjHeZpuCue@faA}@tMya@lh@yM`rAuE@yR{VcCeu@{@`PwFvCnFxZsCXsHcd@cDfEeBgHuRgDnGid@sDvCgEsCInU{N|P}GgRz@{PyTwLwWQy]xUeTS{H{EyKkm@tIgSpa@{Gh@yWzL_J|YvEr@xIgLzTt[v]pm@zGnCuJ}Byh@dE[hG|EeHjHlIrMsEbIhZiIm@vMlOqKsGxTjIvBbAdLzKeIaLaLhKwJ_AhHjGvIzLsGjFrMxQce@cKq[|@}LeEp@cJfZgEgAe@sQiJlAc@sJeOuP|d@eb@Hrb@dDVrFgLuB}EtXoOdBnGwGxFxX_GmAlRiI|B{@`WlOgIbJs_@}Es[zI~A`N}o@f@gd@}\\aAwCwIeDp@t[z`@uMnc@aPuBAaI{HgAyPob@hC`ZbMnQ}PdP}GgRlBmRsA}EuDp@d@`PuD@pGpb@uYvU}MvCNmDfKgLq@wFeQoJeAkKd`@_t@uByBsZp`@sJz^vQ~R{J~y@bZvd@wIdIwFo@u@gOkJ_BwGpG}IyLmL_ByGr@sFfL|Cza@kh@wHyReRAeEnNgBqHg`@sRhBwEeEyJzFgBcLbJq\\sKu^_PxC`GgSeCgHum@sVo_@`@wDyBy@_^|{@_cAxIsGfWqA`CsJj^yNpCaIm|@{w@oi@qSgDqJsa@sBek@s]cEbBtBvMia@{Y|@eSpRuGaPSmRhSuBeEsCfEuRiGvR`OaBnD}L_BdBxIlLhDvAxPgb@sLsZzb@wGB{VqM{DiYjJzE^_FuPyL{@~S_OvCaD~LkLz@L}bCdEoHaAnbAtDYh@cZzRia@nMmAzHnJwLrUdBdLnPgIuAeEuGhEfLoRcAqGbPnJvVaCeAwMuVhIoJsT{WqF{KpDmJ_IlMcF\\}EqL{SaPbBm@srIeFekbAhEypj@bDeuOgCe}rBlY_VvgAkE`r@gSh{@wJhXbEj{Apl@pp@hKdU`BxYmKtgBmLz[hArb@zLtVcP|[}BrTnGtCnNtUzLjk@pCnm@jUfhAu@tUuJdVg]df@iVndAksBhi@cP~OoUj]us@qAsJsSmNn@cIrdAoKjZgVrc@}Ird@|L`q@_C~NdEtf@yWnN}ZrSiHz[`Bfg@jDrtAkg@vWq_@dgAey@hY}d@hYiH|m@i`@vXi`@lLed@j\\gVvGqi@aRkm@zJyPvXsQbSzS~MlDzJuCkk@u^l^{Ihy@ck@vFiHpA}VfG_FzIhHdUAvXqQ`P{ZtUefAtDuFjJ~HbDeEgHmNpB_FzYcS~OzI~^`Bde@w^fWmw@tDen@pOcd@qQoaAdTe]vEe_ArSya@vDqdA`a@gx@tR{~Ap^mf@a@kK~L}]_@yZnm@wjAvGwFnNlDj[kDji@_r@|Jwh@aC_r@nl@koA{@aoBdr@oz@vDcn@tDgOvdAkaApj@ulBzZ{VzHoX~j@ur@hY_IpaAvC~\\i\\zJyZ`|@scAfDyZvFkDtFbBljBsZzl@wBlmApKl\\{Lfv@mJxg@_SbUnNvv@xF~]yLl\\q^jLnQxh@eA`PiKjIgYhWq^|hByt@`c@h`@rSrJbTWve@yV~y@mv@fVeHjLzBhHmG|Yyg@vX{fA_BkTnZ{Ij^`DjWsFfI}E`Mg^pS{JuTpPdCvOtNcIrHeEmD_HpJpHrQuKx[{w@fCyd@hTsVpa@eDuWsDdTwSttBmf@dh@uErQoJ|v@ez@pPeHveAm]nQS~hAaz@`Zms@~p@uHdkA|Kd\\vXlq@rHnt@rO`C~EeWaCyi@nPkKs@mnAogA}`AsBcd@tEuBxIrGba@yD|V|Xoe@vUiG|fApa@dItTdk@lSuS~RnBjRpOyS|KoChaAbNtFpGr@qJp^wVhCsl@rg@alAzh@eXzc@oy@r_@ib@zKa[`b@gQb@cNjGhChZke@tPih@hNy~Alo@kbBzJUjJwIdQm[|MlA`PgKfDsM`QqFyL{Fr[wq@lQaiAoUkhBxXqIjJiKrWy{@nUlY|Ylx@eRm{@s[uf@w@ak@tToxAvEkyAhPwn@zmBa}AvRsZoIgrBhHiK|D}`@cC_jAndAhDd_@c_@fAgYtJvT|]qBvEiK`_@|v@`FzZ}LfD_OjkAta@vp@`o@hv@n}@vq@xfAbj@~TdWne@vNcCrCgI}B\\zLcl@|l@gN~m@kr@bv@`P_Ehd@od@nTwx@tp@md@~AlKeMhi@fRsZzE{VrCaBdGzIvCyLkLmHgG|E_CiOntDdn@~r@jCxy@iInmBib@vm@uw@oCsT~Ia`@rl@og@bNm[jQep@rb@mFp\\y\\~_@sEnZsVhSc\\`@yIuGcIfD{EzMhErd@e@fTmTrCjApAlDqMrP|WrfAdIld@fw@zr@DXHZTv@@ZA`@Fh@@f@CZNz@Hf@NVH\\JTNf@LRVLLLLNTNPLV\\ZR\\TVJ`@NJNHRN`@HZ@Z?V"
                        ]
                    ],
                    [
                        [
                            "yhobDjlrqT`BcBpAiA`An@_@rCcDjAq@aB"
                        ]
                    ],
                    [
                        [
                            "}cqbDvrqqTzMoDxLje@u[{_@"
                        ]
                    ],
                    [
                        [
                            "miecDpuijTvCk@~Epf@wJee@"
                        ]
                    ],
                    [
                        [
                            "{jcdDraejTmEw^ub@cs@B{LjKaEnc@tKrQoFtFnDzElf@n[pt@e@fO{JvBaWqRm^I"
                        ]
                    ],
                    [
                        [
                            "{njcDz~uqTeS_`@dEcEp^hApa@aIyHpJsStFyInT{IbE"
                        ]
                    ],
                    [
                        [
                            "_egcDf|tqT{YaY`AaLlk@iAsAsP|LqJ|xAcBdEj[et@eHwVtZrB`\\uD|Bao@cE"
                        ]
                    ]
                ]
            }
        }
    ],
    "parametros": {
        "e": "3",
        "dl": "0",
        "df": "0",
        "m": "0",
        "s": "0",
        "l": "0",
        "mz": "0",
        "layer": "m",
        "db": "proceso",
        "schema": "suavecito,public",
        "geom": null,
        "padron": null
    }
}